%!PS-Adobe-3.0 EPSF-3.0
%%Creator: (MATLAB, The Mathworks, Inc. Version 9.6.0.1174912 \(R2019a\) Update 5. Operating System: Windows 10)
%%Title: C:/Users/jimmy/OneDrive/Documenten/Doc_latex/Afbeeldingen/VNA_resultaat_BT840BH.eps
%%CreationDate: 2020-10-06T14:11:00
%%Pages: (atend)
%%BoundingBox: 0 0 420 315
%%LanguageLevel: 3
%%EndComments
%%BeginProlog
%%BeginResource: procset (Apache XML Graphics Std ProcSet) 1.2 0
%%Version: 1.2 0
%%Copyright: (Copyright 2001-2003,2010 The Apache Software Foundation. License terms: http://www.apache.org/licenses/LICENSE-2.0)
/bd{bind def}bind def
/ld{load def}bd
/GR/grestore ld
/GS/gsave ld
/RM/rmoveto ld
/C/curveto ld
/t/show ld
/L/lineto ld
/ML/setmiterlimit ld
/CT/concat ld
/f/fill ld
/N/newpath ld
/S/stroke ld
/CC/setcmykcolor ld
/A/ashow ld
/cp/closepath ld
/RC/setrgbcolor ld
/LJ/setlinejoin ld
/GC/setgray ld
/LW/setlinewidth ld
/M/moveto ld
/re {4 2 roll M
1 index 0 rlineto
0 exch rlineto
neg 0 rlineto
cp } bd
/_ctm matrix def
/_tm matrix def
/BT { _ctm currentmatrix pop matrix _tm copy pop 0 0 moveto } bd
/ET { _ctm setmatrix } bd
/iTm { _ctm setmatrix _tm concat } bd
/Tm { _tm astore pop iTm 0 0 moveto } bd
/ux 0.0 def
/uy 0.0 def
/F {
  /Tp exch def
  /Tf exch def
  Tf findfont Tp scalefont setfont
  /cf Tf def  /cs Tp def
} bd
/ULS {currentpoint /uy exch def /ux exch def} bd
/ULE {
  /Tcx currentpoint pop def
  gsave
  newpath
  cf findfont cs scalefont dup
  /FontMatrix get 0 get /Ts exch def /FontInfo get dup
  /UnderlinePosition get Ts mul /To exch def
  /UnderlineThickness get Ts mul /Tt exch def
  ux uy To add moveto  Tcx uy To add lineto
  Tt setlinewidth stroke
  grestore
} bd
/OLE {
  /Tcx currentpoint pop def
  gsave
  newpath
  cf findfont cs scalefont dup
  /FontMatrix get 0 get /Ts exch def /FontInfo get dup
  /UnderlinePosition get Ts mul /To exch def
  /UnderlineThickness get Ts mul /Tt exch def
  ux uy To add cs add moveto Tcx uy To add cs add lineto
  Tt setlinewidth stroke
  grestore
} bd
/SOE {
  /Tcx currentpoint pop def
  gsave
  newpath
  cf findfont cs scalefont dup
  /FontMatrix get 0 get /Ts exch def /FontInfo get dup
  /UnderlinePosition get Ts mul /To exch def
  /UnderlineThickness get Ts mul /Tt exch def
  ux uy To add cs 10 mul 26 idiv add moveto Tcx uy To add cs 10 mul 26 idiv add lineto
  Tt setlinewidth stroke
  grestore
} bd
/QT {
/Y22 exch store
/X22 exch store
/Y21 exch store
/X21 exch store
currentpoint
/Y21 load 2 mul add 3 div exch
/X21 load 2 mul add 3 div exch
/X21 load 2 mul /X22 load add 3 div
/Y21 load 2 mul /Y22 load add 3 div
/X22 load /Y22 load curveto
} bd
/SSPD {
dup length /d exch dict def
{
/v exch def
/k exch def
currentpagedevice k known {
/cpdv currentpagedevice k get def
v cpdv ne {
/upd false def
/nullv v type /nulltype eq def
/nullcpdv cpdv type /nulltype eq def
nullv nullcpdv or
{
/upd true def
} {
/sametype v type cpdv type eq def
sametype {
v type /arraytype eq {
/vlen v length def
/cpdvlen cpdv length def
vlen cpdvlen eq {
0 1 vlen 1 sub {
/i exch def
/obj v i get def
/cpdobj cpdv i get def
obj cpdobj ne {
/upd true def
exit
} if
} for
} {
/upd true def
} ifelse
} {
v type /dicttype eq {
v {
/dv exch def
/dk exch def
/cpddv cpdv dk get def
dv cpddv ne {
/upd true def
exit
} if
} forall
} {
/upd true def
} ifelse
} ifelse
} if
} ifelse
upd true eq {
d k v put
} if
} if
} if
} forall
d length 0 gt {
d setpagedevice
} if
} bd
/RE { % /NewFontName [NewEncodingArray] /FontName RE -
  findfont dup length dict begin
  {
    1 index /FID ne
    {def} {pop pop} ifelse
  } forall
  /Encoding exch def
  /FontName 1 index def
  currentdict definefont pop
  end
} bind def
%%EndResource
%%BeginResource: procset (Apache XML Graphics EPS ProcSet) 1.0 0
%%Version: 1.0 0
%%Copyright: (Copyright 2002-2003 The Apache Software Foundation. License terms: http://www.apache.org/licenses/LICENSE-2.0)
/BeginEPSF { %def
/b4_Inc_state save def         % Save state for cleanup
/dict_count countdictstack def % Count objects on dict stack
/op_count count 1 sub def      % Count objects on operand stack
userdict begin                 % Push userdict on dict stack
/showpage { } def              % Redefine showpage, { } = null proc
0 setgray 0 setlinecap         % Prepare graphics state
1 setlinewidth 0 setlinejoin
10 setmiterlimit [ ] 0 setdash newpath
/languagelevel where           % If level not equal to 1 then
{pop languagelevel             % set strokeadjust and
1 ne                           % overprint to their defaults.
{false setstrokeadjust false setoverprint
} if
} if
} bd
/EndEPSF { %def
count op_count sub {pop} repeat            % Clean up stacks
countdictstack dict_count sub {end} repeat
b4_Inc_state restore
} bd
%%EndResource
%FOPBeginFontDict
%%IncludeResource: font Courier-Oblique
%%IncludeResource: font Courier-BoldOblique
%%IncludeResource: font Courier-Bold
%%IncludeResource: font ZapfDingbats
%%IncludeResource: font Symbol
%%IncludeResource: font Helvetica
%%IncludeResource: font Helvetica-Oblique
%%IncludeResource: font Helvetica-Bold
%%IncludeResource: font Helvetica-BoldOblique
%%IncludeResource: font Times-Roman
%%IncludeResource: font Times-Italic
%%IncludeResource: font Times-Bold
%%IncludeResource: font Times-BoldItalic
%%IncludeResource: font Courier
%FOPEndFontDict
%%BeginResource: encoding WinAnsiEncoding
/WinAnsiEncoding [
/.notdef /.notdef /.notdef /.notdef /.notdef
/.notdef /.notdef /.notdef /.notdef /.notdef
/.notdef /.notdef /.notdef /.notdef /.notdef
/.notdef /.notdef /.notdef /.notdef /.notdef
/.notdef /.notdef /.notdef /.notdef /.notdef
/.notdef /.notdef /.notdef /.notdef /.notdef
/.notdef /.notdef /space /exclam /quotedbl
/numbersign /dollar /percent /ampersand /quotesingle
/parenleft /parenright /asterisk /plus /comma
/hyphen /period /slash /zero /one
/two /three /four /five /six
/seven /eight /nine /colon /semicolon
/less /equal /greater /question /at
/A /B /C /D /E
/F /G /H /I /J
/K /L /M /N /O
/P /Q /R /S /T
/U /V /W /X /Y
/Z /bracketleft /backslash /bracketright /asciicircum
/underscore /quoteleft /a /b /c
/d /e /f /g /h
/i /j /k /l /m
/n /o /p /q /r
/s /t /u /v /w
/x /y /z /braceleft /bar
/braceright /asciitilde /bullet /Euro /bullet
/quotesinglbase /florin /quotedblbase /ellipsis /dagger
/daggerdbl /circumflex /perthousand /Scaron /guilsinglleft
/OE /bullet /Zcaron /bullet /bullet
/quoteleft /quoteright /quotedblleft /quotedblright /bullet
/endash /emdash /asciitilde /trademark /scaron
/guilsinglright /oe /bullet /zcaron /Ydieresis
/space /exclamdown /cent /sterling /currency
/yen /brokenbar /section /dieresis /copyright
/ordfeminine /guillemotleft /logicalnot /sfthyphen /registered
/macron /degree /plusminus /twosuperior /threesuperior
/acute /mu /paragraph /middot /cedilla
/onesuperior /ordmasculine /guillemotright /onequarter /onehalf
/threequarters /questiondown /Agrave /Aacute /Acircumflex
/Atilde /Adieresis /Aring /AE /Ccedilla
/Egrave /Eacute /Ecircumflex /Edieresis /Igrave
/Iacute /Icircumflex /Idieresis /Eth /Ntilde
/Ograve /Oacute /Ocircumflex /Otilde /Odieresis
/multiply /Oslash /Ugrave /Uacute /Ucircumflex
/Udieresis /Yacute /Thorn /germandbls /agrave
/aacute /acircumflex /atilde /adieresis /aring
/ae /ccedilla /egrave /eacute /ecircumflex
/edieresis /igrave /iacute /icircumflex /idieresis
/eth /ntilde /ograve /oacute /ocircumflex
/otilde /odieresis /divide /oslash /ugrave
/uacute /ucircumflex /udieresis /yacute /thorn
/ydieresis
] def
%%EndResource
%FOPBeginFontReencode
/Courier-Oblique findfont
dup length dict begin
  {1 index /FID ne {def} {pop pop} ifelse} forall
  /Encoding WinAnsiEncoding def
  currentdict
end
/Courier-Oblique exch definefont pop
/Courier-BoldOblique findfont
dup length dict begin
  {1 index /FID ne {def} {pop pop} ifelse} forall
  /Encoding WinAnsiEncoding def
  currentdict
end
/Courier-BoldOblique exch definefont pop
/Courier-Bold findfont
dup length dict begin
  {1 index /FID ne {def} {pop pop} ifelse} forall
  /Encoding WinAnsiEncoding def
  currentdict
end
/Courier-Bold exch definefont pop
/Helvetica findfont
dup length dict begin
  {1 index /FID ne {def} {pop pop} ifelse} forall
  /Encoding WinAnsiEncoding def
  currentdict
end
/Helvetica exch definefont pop
/Helvetica-Oblique findfont
dup length dict begin
  {1 index /FID ne {def} {pop pop} ifelse} forall
  /Encoding WinAnsiEncoding def
  currentdict
end
/Helvetica-Oblique exch definefont pop
/Helvetica-Bold findfont
dup length dict begin
  {1 index /FID ne {def} {pop pop} ifelse} forall
  /Encoding WinAnsiEncoding def
  currentdict
end
/Helvetica-Bold exch definefont pop
/Helvetica-BoldOblique findfont
dup length dict begin
  {1 index /FID ne {def} {pop pop} ifelse} forall
  /Encoding WinAnsiEncoding def
  currentdict
end
/Helvetica-BoldOblique exch definefont pop
/Times-Roman findfont
dup length dict begin
  {1 index /FID ne {def} {pop pop} ifelse} forall
  /Encoding WinAnsiEncoding def
  currentdict
end
/Times-Roman exch definefont pop
/Times-Italic findfont
dup length dict begin
  {1 index /FID ne {def} {pop pop} ifelse} forall
  /Encoding WinAnsiEncoding def
  currentdict
end
/Times-Italic exch definefont pop
/Times-Bold findfont
dup length dict begin
  {1 index /FID ne {def} {pop pop} ifelse} forall
  /Encoding WinAnsiEncoding def
  currentdict
end
/Times-Bold exch definefont pop
/Times-BoldItalic findfont
dup length dict begin
  {1 index /FID ne {def} {pop pop} ifelse} forall
  /Encoding WinAnsiEncoding def
  currentdict
end
/Times-BoldItalic exch definefont pop
/Courier findfont
dup length dict begin
  {1 index /FID ne {def} {pop pop} ifelse} forall
  /Encoding WinAnsiEncoding def
  currentdict
end
/Courier exch definefont pop
%FOPEndFontReencode
%%EndProlog
%%Page: 1 1
%%PageBoundingBox: 0 0 420 315
%%BeginPageSetup
[1 0 0 -1 0 315] CT
%%EndPageSetup
GS
[0.6 0 0 0.6 0 0] CT
1 GC
N
0 0 700 525 re
f
GR
GS
[0.6 0 0 0.6 0 0] CT
1 GC
N
0 0 700 525 re
f
GR
GS
[0.6 0 0 0.6 0 0] CT
1 GC
N
91 467 M
634 467 L
634 39 L
91 39 L
cp
f
GR
GS
[0.6 0 0 0.6 0 0] CT
0.873 GC
1 LJ
0.833 LW
N
91 467 M
91 39 L
S
GR
GS
[0.6 0 0 0.6 0 0] CT
0.873 GC
1 LJ
0.833 LW
N
272 467 M
272 39 L
S
GR
GS
[0.6 0 0 0.6 0 0] CT
0.873 GC
1 LJ
0.833 LW
N
453 467 M
453 39 L
S
GR
GS
[0.6 0 0 0.6 0 0] CT
0.873 GC
1 LJ
0.833 LW
N
634 467 M
634 39 L
S
GR
GS
[0.6 0 0 0.6 0 0] CT
0.873 GC
1 LJ
0.833 LW
N
634 467 M
91 467 L
S
GR
GS
[0.6 0 0 0.6 0 0] CT
0.873 GC
1 LJ
0.833 LW
N
634 405.857 M
91 405.857 L
S
GR
GS
[0.6 0 0 0.6 0 0] CT
0.873 GC
1 LJ
0.833 LW
N
634 344.714 M
91 344.714 L
S
GR
GS
[0.6 0 0 0.6 0 0] CT
0.873 GC
1 LJ
0.833 LW
N
634 283.571 M
91 283.571 L
S
GR
GS
[0.6 0 0 0.6 0 0] CT
0.873 GC
1 LJ
0.833 LW
N
634 222.429 M
91 222.429 L
S
GR
GS
[0.6 0 0 0.6 0 0] CT
0.873 GC
1 LJ
0.833 LW
N
634 161.286 M
91 161.286 L
S
GR
GS
[0.6 0 0 0.6 0 0] CT
0.873 GC
1 LJ
0.833 LW
N
634 100.143 M
91 100.143 L
S
GR
GS
[0.6 0 0 0.6 0 0] CT
0.873 GC
1 LJ
0.833 LW
N
634 39 M
91 39 L
S
GR
GS
[0.6 0 0 0.6 0 0] CT
0.149 GC
2 setlinecap
1 LJ
0.833 LW
N
91 467 M
634 467 L
S
GR
GS
[0.6 0 0 0.6 0 0] CT
0.149 GC
2 setlinecap
1 LJ
0.833 LW
N
91 39 M
634 39 L
S
GR
GS
[0.6 0 0 0.6 0 0] CT
0.149 GC
2 setlinecap
1 LJ
0.833 LW
N
91 467 M
91 461.57 L
S
GR
GS
[0.6 0 0 0.6 0 0] CT
0.149 GC
2 setlinecap
1 LJ
0.833 LW
N
272 467 M
272 461.57 L
S
GR
GS
[0.6 0 0 0.6 0 0] CT
0.149 GC
2 setlinecap
1 LJ
0.833 LW
N
453 467 M
453 461.57 L
S
GR
GS
[0.6 0 0 0.6 0 0] CT
0.149 GC
2 setlinecap
1 LJ
0.833 LW
N
634 467 M
634 461.57 L
S
GR
GS
[0.6 0 0 0.6 0 0] CT
0.149 GC
2 setlinecap
1 LJ
0.833 LW
N
91 39 M
91 44.43 L
S
GR
GS
[0.6 0 0 0.6 0 0] CT
0.149 GC
2 setlinecap
1 LJ
0.833 LW
N
272 39 M
272 44.43 L
S
GR
GS
[0.6 0 0 0.6 0 0] CT
0.149 GC
2 setlinecap
1 LJ
0.833 LW
N
453 39 M
453 44.43 L
S
GR
GS
[0.6 0 0 0.6 0 0] CT
0.149 GC
2 setlinecap
1 LJ
0.833 LW
N
634 39 M
634 44.43 L
S
GR
GS
[0.6 0 0 0.6 54.6 284.19999] CT
0.149 GC
/Helvetica 16.667 F
GS
[1 0 0 1 0 0] CT
-12 17 moveto 
1 -1 scale
(1.5) t 
GR
GR
GS
[0.6 0 0 0.6 163.2 284.19999] CT
0.149 GC
/Helvetica 16.667 F
GS
[1 0 0 1 0 0] CT
-5 17 moveto 
1 -1 scale
(2) t 
GR
GR
GS
[0.6 0 0 0.6 271.8 284.19999] CT
0.149 GC
/Helvetica 16.667 F
GS
[1 0 0 1 0 0] CT
-12 17 moveto 
1 -1 scale
(2.5) t 
GR
GR
GS
[0.6 0 0 0.6 380.4 284.19999] CT
0.149 GC
/Helvetica 16.667 F
GS
[1 0 0 1 0 0] CT
-5 17 moveto 
1 -1 scale
(3) t 
GR
GR
GS
[0.6 0 0 0.6 217.50015 297.79999] CT
0.149 GC
/Helvetica 18.333 F
GS
[1 0 0 1 0 0] CT
-70.5 19 moveto 
1 -1 scale
(Frequency \(GHz\)) t 
GR
GR
GS
[0.6 0 0 0.6 0 0] CT
0.149 GC
2 setlinecap
1 LJ
0.833 LW
N
91 467 M
91 39 L
S
GR
GS
[0.6 0 0 0.6 0 0] CT
0.149 GC
2 setlinecap
1 LJ
0.833 LW
N
634 467 M
634 39 L
S
GR
GS
[0.6 0 0 0.6 0 0] CT
0.149 GC
2 setlinecap
1 LJ
0.833 LW
N
91 467 M
96.43 467 L
S
GR
GS
[0.6 0 0 0.6 0 0] CT
0.149 GC
2 setlinecap
1 LJ
0.833 LW
N
91 405.857 M
96.43 405.857 L
S
GR
GS
[0.6 0 0 0.6 0 0] CT
0.149 GC
2 setlinecap
1 LJ
0.833 LW
N
91 344.714 M
96.43 344.714 L
S
GR
GS
[0.6 0 0 0.6 0 0] CT
0.149 GC
2 setlinecap
1 LJ
0.833 LW
N
91 283.571 M
96.43 283.571 L
S
GR
GS
[0.6 0 0 0.6 0 0] CT
0.149 GC
2 setlinecap
1 LJ
0.833 LW
N
91 222.429 M
96.43 222.429 L
S
GR
GS
[0.6 0 0 0.6 0 0] CT
0.149 GC
2 setlinecap
1 LJ
0.833 LW
N
91 161.286 M
96.43 161.286 L
S
GR
GS
[0.6 0 0 0.6 0 0] CT
0.149 GC
2 setlinecap
1 LJ
0.833 LW
N
91 100.143 M
96.43 100.143 L
S
GR
GS
[0.6 0 0 0.6 0 0] CT
0.149 GC
2 setlinecap
1 LJ
0.833 LW
N
91 39 M
96.43 39 L
S
GR
GS
[0.6 0 0 0.6 0 0] CT
0.149 GC
2 setlinecap
1 LJ
0.833 LW
N
634 467 M
628.57 467 L
S
GR
GS
[0.6 0 0 0.6 0 0] CT
0.149 GC
2 setlinecap
1 LJ
0.833 LW
N
634 405.857 M
628.57 405.857 L
S
GR
GS
[0.6 0 0 0.6 0 0] CT
0.149 GC
2 setlinecap
1 LJ
0.833 LW
N
634 344.714 M
628.57 344.714 L
S
GR
GS
[0.6 0 0 0.6 0 0] CT
0.149 GC
2 setlinecap
1 LJ
0.833 LW
N
634 283.571 M
628.57 283.571 L
S
GR
GS
[0.6 0 0 0.6 0 0] CT
0.149 GC
2 setlinecap
1 LJ
0.833 LW
N
634 222.429 M
628.57 222.429 L
S
GR
GS
[0.6 0 0 0.6 0 0] CT
0.149 GC
2 setlinecap
1 LJ
0.833 LW
N
634 161.286 M
628.57 161.286 L
S
GR
GS
[0.6 0 0 0.6 0 0] CT
0.149 GC
2 setlinecap
1 LJ
0.833 LW
N
634 100.143 M
628.57 100.143 L
S
GR
GS
[0.6 0 0 0.6 0 0] CT
0.149 GC
2 setlinecap
1 LJ
0.833 LW
N
634 39 M
628.57 39 L
S
GR
GS
[0.6 0 0 0.6 50.60001 280.2] CT
0.149 GC
/Helvetica 16.667 F
GS
[1 0 0 1 0 0] CT
-29 6.5 moveto 
1 -1 scale
(-3.5) t 
GR
GR
GS
[0.6 0 0 0.6 50.60001 243.51429] CT
0.149 GC
/Helvetica 16.667 F
GS
[1 0 0 1 0 0] CT
-15 6.5 moveto 
1 -1 scale
(-3) t 
GR
GR
GS
[0.6 0 0 0.6 50.60001 206.82858] CT
0.149 GC
/Helvetica 16.667 F
GS
[1 0 0 1 0 0] CT
-29 6.5 moveto 
1 -1 scale
(-2.5) t 
GR
GR
GS
[0.6 0 0 0.6 50.60001 170.14286] CT
0.149 GC
/Helvetica 16.667 F
GS
[1 0 0 1 0 0] CT
-15 6.5 moveto 
1 -1 scale
(-2) t 
GR
GR
GS
[0.6 0 0 0.6 50.60001 133.45714] CT
0.149 GC
/Helvetica 16.667 F
GS
[1 0 0 1 0 0] CT
-29 6.5 moveto 
1 -1 scale
(-1.5) t 
GR
GR
GS
[0.6 0 0 0.6 50.60001 96.77143] CT
0.149 GC
/Helvetica 16.667 F
GS
[1 0 0 1 0 0] CT
-15 6.5 moveto 
1 -1 scale
(-1) t 
GR
GR
GS
[0.6 0 0 0.6 50.60001 60.08572] CT
0.149 GC
/Helvetica 16.667 F
GS
[1 0 0 1 0 0] CT
-29 6.5 moveto 
1 -1 scale
(-0.5) t 
GR
GR
GS
[0.6 0 0 0.6 50.60001 23.4] CT
0.149 GC
/Helvetica 16.667 F
GS
[1 0 0 1 0 0] CT
-10 6.5 moveto 
1 -1 scale
(0) t 
GR
GR
GS
[0 -0.6 0.6 0 30.19999 151.79988] CT
0.149 GC
/Helvetica 18.333 F
GS
[1 0 0 1 0 0] CT
-63 -5 moveto 
1 -1 scale
(Magnitude \(dB\)) t 
GR
GR
GS
[0.6 0 0 0.6 0 0] CT
0 0.447 0.741 RC
1 LJ
0.833 LW
N
91 233.993 M
91.347 255.1 L
91.693 252.155 L
92.04 251.271 L
92.386 229.835 L
92.733 242.118 L
93.079 244.543 L
93.426 252.359 L
93.772 246.437 L
94.119 254.008 L
94.465 244.74 L
94.812 253.412 L
95.158 250.516 L
95.505 248.927 L
95.851 250.213 L
96.198 218.932 L
96.544 249.855 L
96.891 238.552 L
97.237 241.808 L
97.584 253.25 L
97.93 268.315 L
98.277 268.987 L
98.623 268.381 L
98.97 246.273 L
99.317 250.819 L
99.663 39 L
100.01 39 L
100.356 80.982 L
100.703 181.332 L
101.049 177.006 L
101.396 185.404 L
101.742 182.76 L
102.089 191.066 L
102.435 189.353 L
102.782 188.8 L
103.128 184.804 L
103.475 186.851 L
103.821 178.812 L
104.168 181.59 L
104.514 171.03 L
104.861 187.159 L
105.207 183.005 L
105.554 196.213 L
105.9 194 L
106.247 191.573 L
106.593 190.194 L
106.94 187.068 L
107.287 192.003 L
107.633 192.82 L
107.98 195.989 L
108.326 201.062 L
108.673 192.079 L
109.019 202.166 L
109.366 189.906 L
109.712 183.054 L
110.059 185.447 L
110.405 194.985 L
110.752 188.392 L
111.098 205.899 L
111.445 202.223 L
111.791 207.865 L
112.138 206.205 L
112.484 195.933 L
112.831 201.226 L
113.177 199.53 L
113.524 202.162 L
113.87 201.194 L
114.217 190.364 L
114.563 196.501 L
114.91 203.152 L
115.257 195.591 L
115.603 205.569 L
115.95 199.369 L
116.296 198.53 L
116.643 201.223 L
116.989 207.217 L
117.336 205.123 L
117.682 199.922 L
118.029 207.136 L
118.375 197.455 L
118.722 195.693 L
119.068 195.574 L
119.415 198.793 L
119.761 203.257 L
120.108 199.744 L
120.454 194.839 L
120.801 207.573 L
121.147 196.305 L
121.494 201.642 L
121.84 199.048 L
122.187 201.86 L
122.533 205.747 L
122.88 202.753 L
123.226 211.522 L
123.573 198.596 L
123.92 210.738 L
124.266 210.739 L
124.613 200.049 L
124.959 202.086 L
125.306 197.282 L
125.652 189.943 L
125.999 194.996 L
126.345 182.316 L
126.692 177.374 L
127.038 190.331 L
127.385 200.095 L
127.731 200.352 L
128.078 200.546 L
128.424 195.19 L
128.771 193.662 L
129.117 183.368 L
129.464 176.597 L
129.81 184.967 L
130.157 188.566 L
130.503 189.416 L
130.85 188.727 L
131.197 188.873 L
131.543 174.475 L
131.89 179.484 L
132.236 174.257 L
132.583 182.712 L
132.929 184.267 L
133.276 186.798 L
133.622 183.702 L
133.969 188.819 L
134.315 191.546 L
134.662 174.708 L
135.008 188.381 L
135.355 173.458 L
135.701 186.583 L
136.048 189.8 L
136.394 185.102 L
136.741 187.443 L
137.087 185.504 L
137.434 183.922 L
137.78 179.005 L
138.127 184.313 L
138.473 181.359 L
138.82 180.555 L
139.167 186.284 L
139.513 185.125 L
139.86 180.794 L
140.206 186.207 L
140.553 185.517 L
140.899 194.258 L
141.246 195.406 L
141.592 191.445 L
141.939 194.31 L
142.285 192.417 L
142.632 189.604 L
142.978 200.733 L
143.325 198.001 L
143.671 192.651 L
144.018 199.941 L
144.364 198.1 L
144.711 200.712 L
145.057 204.538 L
145.404 201.609 L
145.75 218.295 L
146.097 193.635 L
146.443 203.28 L
146.79 204.677 L
147.136 204.235 L
147.483 208.248 L
147.83 207.92 L
148.176 213.283 L
148.523 215.707 L
148.869 228.929 L
149.216 211.64 L
149.562 216.673 L
149.909 218.318 L
150.255 217.906 L
150.602 213.183 L
150.948 225.944 L
151.295 213.488 L
151.641 219.157 L
151.988 216.43 L
152.334 214.711 L
152.681 217.552 L
153.027 217.385 L
153.374 218.141 L
153.72 215.456 L
154.067 222.356 L
154.413 218.685 L
154.76 217.067 L
155.107 212.663 L
155.453 219.103 L
155.8 226.08 L
156.146 227.189 L
156.493 219.231 L
156.839 228.595 L
157.186 228.631 L
157.532 221.306 L
157.879 226.861 L
158.225 230.397 L
158.572 225.127 L
158.918 221.724 L
159.265 224.307 L
159.611 222.278 L
159.958 219.095 L
160.304 225.353 L
160.651 220.209 L
160.997 216.742 L
161.344 223.748 L
161.69 215.515 L
162.037 217.465 L
162.383 220.422 L
162.73 214.677 L
163.076 210.347 L
163.423 212.448 L
163.77 212.849 L
164.116 208.359 L
164.463 212.712 L
164.809 208.837 L
165.156 216.04 L
165.502 214.16 L
165.849 214.083 L
166.195 216.629 L
166.542 216.894 L
166.888 216.069 L
167.235 223.707 L
167.581 226.611 L
167.928 226.703 L
168.274 218.671 L
168.621 210.195 L
168.967 207.453 L
169.314 209.666 L
169.66 200.616 L
170.007 201.604 L
170.353 201.585 L
170.7 196.316 L
171.046 209.345 L
171.393 206.948 L
171.74 209.836 L
172.086 219.341 L
172.433 216.888 L
172.779 216.793 L
173.126 213.965 L
173.472 216.983 L
173.819 216.053 L
174.165 216.857 L
174.512 213.593 L
174.858 208.487 L
175.205 202.14 L
175.551 212.917 L
175.898 205.863 L
176.244 216.878 L
176.591 211.997 L
176.937 214.832 L
177.284 211.815 L
177.63 214.213 L
177.977 220.718 L
178.323 221.428 L
178.67 222.25 L
179.016 230.187 L
179.363 225.056 L
179.71 232.81 L
180.056 240.334 L
180.403 236.151 L
180.749 233.983 L
181.096 230.659 L
181.442 233.728 L
181.789 235.873 L
182.135 233.734 L
182.482 229.839 L
182.828 230.264 L
183.175 228.622 L
183.521 236.843 L
183.868 240.574 L
184.214 238.509 L
184.561 245.353 L
184.907 243.715 L
185.254 245.013 L
185.6 248.74 L
185.947 257.876 L
186.293 267.251 L
186.64 256.573 L
186.986 252.2 L
187.333 248.328 L
187.68 256.935 L
188.026 249.413 L
188.373 254.089 L
188.719 247.257 L
189.066 247.159 L
189.412 243.727 L
189.759 241.522 L
190.105 239.274 L
190.452 235.58 L
190.798 239.921 L
191.145 229.58 L
191.491 228.692 L
191.838 230.928 L
192.184 238.306 L
192.531 246.701 L
192.877 256.144 L
193.224 248.787 L
193.57 241.575 L
193.917 236.93 L
194.263 241.064 L
194.61 247.224 L
194.956 251.691 L
195.303 245.24 L
195.65 245.92 L
195.996 240.915 L
196.343 246.211 L
196.689 243.431 L
197.036 252.992 L
197.382 243.158 L
197.729 253.796 L
198.075 244.843 L
198.422 239.452 L
198.768 241.05 L
199.115 248.42 L
199.461 247.882 L
199.808 246.152 L
200.154 234.075 L
200.501 228.52 L
200.847 239.871 L
201.194 233.15 L
201.54 231.45 L
201.887 227.107 L
202.233 219.289 L
202.58 218.016 L
202.926 206.386 L
203.273 214.07 L
203.62 215.532 L
203.966 217.181 L
204.313 217.887 L
204.659 224.256 L
205.006 222.907 L
205.352 221.893 L
205.699 227.205 L
206.045 219.049 L
206.392 215.809 L
206.738 214.163 L
207.085 215.164 L
207.431 214.051 L
207.778 216.187 L
208.124 221.053 L
208.471 215.875 L
208.817 228.84 L
209.164 229.62 L
209.51 219.004 L
209.857 222.062 L
210.203 210.346 L
210.55 210.819 L
210.896 212.754 L
211.243 201.949 L
211.59 209.258 L
211.936 203.269 L
212.283 211.053 L
212.629 219.315 L
212.976 220.923 L
213.322 212.607 L
213.669 214.924 L
214.015 228.074 L
214.362 227.885 L
214.708 233.778 L
215.055 213.844 L
215.401 227.387 L
215.748 216.839 L
216.094 220.434 L
216.441 227.597 L
216.787 229.396 L
217.134 225.464 L
217.48 224.497 L
217.827 228.426 L
218.173 227.291 L
218.52 219.411 L
218.866 211.673 L
219.213 212.036 L
219.56 227.283 L
219.906 233.364 L
220.253 233.006 L
220.599 226.61 L
220.946 226.632 L
221.292 214.127 L
221.639 238.07 L
221.985 213.452 L
222.332 230.769 L
222.678 217.448 L
223.025 219.018 L
223.371 224.059 L
223.718 239.598 L
224.064 235.158 L
224.411 236.079 L
224.757 237.633 L
225.104 235.055 L
225.45 220.822 L
225.797 227.501 L
226.143 227.819 L
226.49 215.76 L
226.836 218.5 L
227.183 225.748 L
227.53 223.581 L
227.876 231.896 L
228.223 230.592 L
228.569 227.317 L
228.916 230.773 L
229.262 228.716 L
229.609 221.04 L
229.955 236.113 L
230.302 239.785 L
230.648 241.062 L
230.995 229.087 L
231.341 229.259 L
231.688 228.847 L
232.034 232.795 L
232.381 221.179 L
232.727 241.04 L
233.074 209.464 L
233.42 216.275 L
233.767 221.054 L
234.113 239.085 L
234.46 232.29 L
234.806 223.679 L
235.153 227.046 L
235.5 218.274 L
235.846 210.914 L
236.193 215.793 L
236.539 217.1 L
236.886 218.268 L
237.232 205.997 L
237.579 208.109 L
237.925 215.144 L
238.272 206.005 L
238.618 206.589 L
238.965 217.243 L
239.311 221.546 L
239.658 205.202 L
240.004 201.149 L
240.351 207.68 L
240.697 213.013 L
241.044 211.588 L
241.39 193.062 L
241.737 192.249 L
242.083 217.282 L
242.43 202.444 L
242.776 208.009 L
243.123 200.94 L
243.469 198.523 L
243.816 212.604 L
244.163 199.797 L
244.509 201.504 L
244.856 200.059 L
245.202 195.723 L
245.549 213.637 L
245.895 198.023 L
246.242 191.382 L
246.588 201.413 L
246.935 194.641 L
247.281 195.565 L
247.628 203.013 L
247.974 204.748 L
248.321 197.812 L
248.667 194.601 L
249.014 192.968 L
249.36 197.835 L
249.707 184.904 L
250.053 195.341 L
250.4 194.978 L
250.746 185.751 L
251.093 189.871 L
251.44 207.508 L
251.786 204.617 L
252.133 209.228 L
252.479 200.375 L
252.826 197.039 L
253.172 191.257 L
253.519 183.517 L
253.865 176.244 L
254.212 188.303 L
254.558 196.971 L
254.905 201.805 L
255.251 196.686 L
255.598 188.286 L
255.944 199.322 L
256.291 188.79 L
256.637 191.907 L
256.984 180.291 L
257.33 187.813 L
257.677 173.454 L
258.023 188.715 L
258.37 193.75 L
258.716 182.836 L
259.063 198.051 L
259.41 180.806 L
259.756 194.548 L
260.103 185.55 L
260.449 188.195 L
260.796 188.382 L
261.142 182.083 L
261.489 192.362 L
261.835 186.291 L
262.182 187.628 L
262.528 190.36 L
262.875 180.049 L
263.221 190.9 L
263.568 204.154 L
263.914 193.276 L
264.261 190.384 L
264.607 195.593 L
264.954 177.617 L
265.3 198.381 L
265.647 188.79 L
265.993 196.894 L
266.34 185.456 L
266.686 190.038 L
267.033 200.706 L
267.379 192.973 L
267.726 199.176 L
268.073 207.069 L
268.419 190.204 L
268.766 194.622 L
269.112 203.092 L
269.459 184.943 L
269.805 183.327 L
270.152 195.801 L
270.498 191.629 L
270.845 186.426 L
271.191 190.81 L
271.538 203.422 L
271.884 203.849 L
272.231 219.551 L
272.577 209.747 L
272.924 202.639 L
273.27 201.199 L
273.617 206.066 L
273.963 200.529 L
274.31 197.126 L
274.656 195.266 L
275.003 194.77 L
275.35 174.15 L
275.696 181.08 L
276.043 189.503 L
276.389 195.126 L
276.736 201.698 L
277.082 199.881 L
277.429 205.532 L
277.775 193.772 L
278.122 195 L
278.468 188.472 L
278.815 182.785 L
279.161 175.74 L
279.508 189.656 L
279.854 177.33 L
280.201 169.54 L
280.547 175.811 L
280.894 176.172 L
281.24 180.22 L
281.587 179.378 L
281.933 164.789 L
282.28 165.448 L
282.626 152.19 L
282.973 158.687 L
283.319 161.765 L
283.666 157.556 L
284.013 176.394 L
284.359 175.44 L
284.706 168.649 L
285.052 155.653 L
285.399 155.307 L
285.745 161.755 L
286.092 150.146 L
286.438 165.149 L
286.785 162.758 L
287.131 165.096 L
287.478 162.929 L
287.824 176.817 L
288.171 173.193 L
288.517 170.852 L
288.864 163.978 L
289.21 164.362 L
289.557 160.361 L
289.903 161.302 L
290.25 169.981 L
290.596 163.452 L
290.943 151.196 L
291.289 161.018 L
291.636 170.424 L
291.983 160.25 L
292.329 163.044 L
292.676 155.767 L
293.022 161.361 L
293.369 162.63 L
293.715 164.489 L
294.062 161.622 L
294.408 158.279 L
294.755 152.379 L
295.101 149.109 L
295.448 158.257 L
295.794 161.356 L
296.141 180.994 L
296.487 178.744 L
296.834 182.925 L
297.18 183.585 L
297.527 180.703 L
297.873 164.404 L
298.22 163.082 L
298.566 174.408 L
298.913 178.474 L
299.259 182.689 L
299.606 191.892 L
299.953 187.075 L
300.299 199.44 L
300.646 191.23 L
300.992 178.994 L
301.339 180.122 L
301.685 185.12 L
302.032 176.526 L
302.378 180.29 L
302.725 185.201 L
303.071 193.107 L
303.418 199.606 L
303.764 204.874 L
304.111 193.077 L
304.457 199.801 L
304.804 200.461 L
305.15 200.518 L
305.497 217.104 L
305.843 207.285 L
306.19 214.298 L
306.536 224.207 L
306.883 230.603 L
307.23 218.409 L
307.576 221.93 L
307.922 223.67 L
308.269 219.08 L
308.616 218.711 L
308.962 233.228 L
309.309 237.176 L
309.655 233.81 L
310.002 230.124 L
310.348 224.434 L
310.695 228.66 L
311.041 219.525 L
311.388 231.512 L
311.734 235.307 L
312.081 248.779 L
312.427 238.592 L
312.774 250.77 L
313.12 242.343 L
313.467 254.283 L
313.813 263.792 L
314.16 274.29 L
314.506 271.221 L
314.853 272.319 L
315.199 270.58 L
315.546 280.748 L
315.893 278.007 L
316.239 274.939 L
316.586 277.852 L
316.932 265.811 L
317.279 266.552 L
317.625 244.646 L
317.972 240.893 L
318.318 241.706 L
318.665 247.903 L
319.011 260.158 L
319.358 260.799 L
319.704 266.868 L
320.051 281.351 L
320.397 283.136 L
320.744 283.899 L
321.09 283.816 L
321.437 281.628 L
321.783 273.49 L
322.13 249.306 L
322.476 259.469 L
322.823 251.264 L
323.169 263.951 L
323.516 262.434 L
323.863 268.578 L
324.209 271.615 L
324.556 279.19 L
324.902 280.9 L
325.249 297.648 L
325.595 281.798 L
325.942 286.811 L
326.288 291.168 L
326.635 291.449 L
326.981 283.546 L
327.328 266.007 L
327.674 266.538 L
328.021 270.754 L
328.367 264.411 L
328.714 278.925 L
329.06 276.726 L
329.407 284.952 L
329.753 290.808 L
330.1 290.928 L
330.446 291.636 L
330.793 285.79 L
331.139 287.696 L
331.486 284.131 L
331.833 278.291 L
332.179 279.567 L
332.526 272.033 L
332.872 268.303 L
333.219 264.509 L
333.565 269.124 L
333.912 266.776 L
334.258 281.504 L
334.605 285.012 L
334.951 279.876 L
335.298 267.46 L
335.644 275.472 L
335.991 273.582 L
336.337 277.994 L
336.684 283.736 L
337.03 273.831 L
337.377 272.378 L
337.723 272.993 L
338.07 270.244 L
338.416 273.606 L
338.763 275.145 L
339.109 260.502 L
339.456 268.687 L
339.802 255.999 L
340.149 252.859 L
340.496 272.188 L
340.842 267.394 L
341.189 257.45 L
341.535 263.682 L
341.882 265.247 L
342.228 258.555 L
342.575 261.237 L
342.921 262.053 L
343.268 266.34 L
343.614 262.79 L
343.961 256.952 L
344.307 265.836 L
344.654 270.195 L
345 265.639 L
345.347 272.739 L
345.693 273.336 L
346.04 264.88 L
346.386 272.607 L
346.733 264.851 L
347.079 272.546 L
347.426 266.264 L
347.772 272.65 L
348.119 260.932 L
348.466 272.839 L
348.812 267.426 L
349.159 274.356 L
349.505 283.372 L
349.852 279.156 L
350.198 268.825 L
350.545 282.273 L
350.891 272.439 L
351.238 275.07 L
351.584 256.42 L
351.931 261.614 L
352.277 264.927 L
352.624 257.4 L
352.97 262.224 L
353.317 272.064 L
353.663 268.687 L
354.01 266.88 L
354.356 273.045 L
354.703 283.33 L
355.049 268.831 L
355.396 260.944 L
355.742 264.864 L
356.089 256.94 L
356.436 259.997 L
356.782 253.441 L
357.129 261.13 L
357.475 267.948 L
357.822 260.129 L
358.168 269.938 L
358.515 256.885 L
358.861 263.925 L
359.208 259.344 L
359.554 274.906 L
359.901 251.648 L
360.247 264.778 L
360.594 265.621 L
360.94 258.642 L
361.287 250.971 L
361.633 252.712 L
361.98 246.644 L
362.326 257.217 L
362.673 249.187 L
363.019 256.203 L
363.366 258.954 L
363.713 256.652 L
364.059 246.564 L
364.406 233.635 L
364.752 239.441 L
365.099 253.751 L
365.445 247.458 L
365.792 244.352 L
366.138 252.804 L
366.485 244.561 L
366.831 245.678 L
367.178 255.282 L
367.524 244.987 L
367.871 248.001 L
368.217 235.662 L
368.564 233.864 L
368.91 234.295 L
369.257 227.883 L
369.603 228.15 L
369.95 220.175 L
370.296 238.376 L
370.643 237.639 L
370.989 237.114 L
371.336 240.436 L
371.683 229.996 L
372.029 240.124 L
372.376 233.79 L
372.722 222.821 L
373.069 220.024 L
373.415 214.045 L
373.762 231.855 L
374.108 225.342 L
374.455 237.286 L
374.801 240.27 L
375.148 231.58 L
375.494 214.692 L
375.841 233.714 L
376.187 223.457 L
376.534 225.155 L
376.88 220.043 L
377.227 214.635 L
377.573 222.393 L
377.92 212.056 L
378.266 219.534 L
378.613 211.555 L
378.959 213.819 L
379.306 222.888 L
379.652 219.307 L
379.999 207.211 L
380.346 217.424 L
380.692 213.494 L
381.039 225.769 L
381.385 219.526 L
381.732 233.937 L
382.078 221.387 L
382.425 219.045 L
382.771 236.916 L
383.118 238.693 L
383.464 229.795 L
383.811 211.519 L
384.157 216.948 L
384.504 217.539 L
384.85 230.943 L
385.197 217.675 L
385.543 223.595 L
385.89 217.253 L
386.236 206.103 L
386.583 219.155 L
386.929 220.182 L
387.276 243.422 L
387.622 251.409 L
387.969 243.907 L
388.316 241.549 L
388.662 239.506 L
389.009 221.295 L
389.355 234.035 L
389.702 230.209 L
390.048 233.132 L
390.395 248.6 L
390.741 253.997 L
391.088 251.464 L
391.434 254.698 L
391.781 269.11 L
392.127 248.98 L
392.474 250.637 L
392.82 241.938 L
393.167 230.276 L
393.513 262.228 L
393.86 255.911 L
394.206 256.432 L
394.553 246.064 L
394.899 245.788 L
395.246 257.624 L
395.592 256.724 L
395.939 234.091 L
396.286 236.556 L
396.632 244.725 L
396.979 256.932 L
397.325 261.729 L
397.672 240.076 L
398.018 254.92 L
398.365 243.814 L
398.711 269.703 L
399.058 250.296 L
399.404 269.3 L
399.751 246.719 L
400.097 250.017 L
400.444 252.68 L
400.79 264.254 L
401.137 257.733 L
401.483 275.979 L
401.83 280.903 L
402.176 282.023 L
402.523 287.433 L
402.869 286.619 L
403.216 283.548 L
403.562 288.305 L
403.909 287.565 L
404.255 280.298 L
404.602 272.938 L
404.949 293.86 L
405.295 283.868 L
405.642 274.485 L
405.988 259.823 L
406.335 259.748 L
406.681 260.181 L
407.028 242.774 L
407.374 251.84 L
407.721 266.096 L
408.067 246.559 L
408.414 260.093 L
408.76 252.15 L
409.107 245.817 L
409.453 234.218 L
409.8 237.062 L
410.146 241.756 L
410.493 231.369 L
410.839 255.952 L
411.186 246.675 L
411.533 249.437 L
411.879 260.24 L
412.226 246.285 L
412.572 250.02 L
412.919 252.754 L
413.265 239.276 L
413.612 252.718 L
413.958 241.456 L
414.305 251.414 L
414.651 243.57 L
414.998 253.545 L
415.344 250.927 L
415.691 262.276 L
416.037 245.867 L
416.384 244.262 L
416.73 227.54 L
417.077 229.758 L
417.423 232.206 L
417.77 237.098 L
418.116 235.51 L
418.463 219.718 L
418.809 218.596 L
419.156 250.229 L
419.503 214.293 L
419.849 243.456 L
420.196 249.977 L
420.542 236.7 L
420.889 223.425 L
421.235 224.251 L
421.582 225.685 L
421.928 216.245 L
422.275 216.445 L
422.621 216.106 L
422.968 218.553 L
423.314 228.289 L
423.661 230.768 L
424.007 217.264 L
424.354 218.42 L
424.7 226.634 L
425.047 209.071 L
425.393 198.222 L
425.74 208.109 L
426.086 206.984 L
426.433 230.264 L
426.779 213.231 L
427.126 204.544 L
427.472 196.458 L
427.819 205.637 L
428.166 199.042 L
428.512 214.235 L
428.859 219.204 L
429.205 211.423 L
429.552 205.577 L
429.898 203.857 L
430.245 204.096 L
430.591 201.922 L
430.938 210.277 L
431.284 207.188 L
431.631 207.073 L
431.977 213.975 L
432.324 205.361 L
432.67 202.409 L
433.017 204.97 L
433.363 208.388 L
433.71 218.906 L
434.056 205.525 L
434.403 209.38 L
434.749 213.475 L
435.096 216.003 L
435.442 220.904 L
435.789 222.385 L
436.135 210.878 L
436.482 210.863 L
436.829 210.896 L
437.175 200.732 L
437.522 208.447 L
437.868 210.753 L
438.215 213.218 L
438.561 219.583 L
438.908 205.785 L
439.254 220.272 L
439.601 226.587 L
439.947 234.272 L
440.294 222.881 L
440.64 221.17 L
440.987 214.871 L
441.333 228.047 L
441.68 220.188 L
442.026 230.275 L
442.373 235.733 L
442.719 221.712 L
443.066 231.42 L
443.412 226.611 L
443.759 223.289 L
444.105 224.616 L
444.452 229.067 L
444.799 225.092 L
445.145 243.338 L
445.492 221.639 L
445.838 222.711 L
446.185 223.143 L
446.531 231.886 L
446.878 247.114 L
447.224 236.87 L
447.571 245.294 L
447.917 231.873 L
448.264 229.277 L
448.61 235.436 L
448.957 239.69 L
449.303 228.713 L
449.65 227.694 L
449.996 231.302 L
450.343 235.859 L
450.689 239.84 L
451.036 234.216 L
451.383 240.151 L
451.729 244.774 L
452.075 250.286 L
452.422 239.38 L
452.769 247.19 L
453.115 236.515 L
453.462 246.637 L
453.808 249.456 L
454.155 247.081 L
454.501 257.345 L
454.848 252.569 L
455.194 247.666 L
455.541 252.551 L
455.887 245.54 L
456.234 250.567 L
456.58 250.018 L
456.927 265.526 L
457.273 268.032 L
457.62 251.893 L
457.966 255.107 L
458.313 254.883 L
458.659 261.357 L
459.006 272.055 L
459.352 263.975 L
459.699 261.427 L
460.046 265.439 L
460.392 263.901 L
460.739 254.581 L
461.085 280.335 L
461.432 264.383 L
461.778 267.345 L
462.125 272.791 L
462.471 272.505 L
462.818 279.284 L
463.164 273.465 L
463.511 285.108 L
463.857 275.462 L
464.204 273.036 L
464.55 278.547 L
464.897 285.902 L
465.243 280.195 L
465.59 284.355 L
465.936 282.395 L
466.283 284.949 L
466.629 304.534 L
466.976 309.033 L
467.322 300.198 L
467.669 311.134 L
468.016 317.731 L
468.362 302.429 L
468.709 297.756 L
469.055 298.723 L
469.402 287.825 L
469.748 300.493 L
470.095 289.421 L
470.441 289.885 L
470.788 307.419 L
471.134 316.317 L
471.481 327.44 L
471.827 316.334 L
472.174 326.552 L
472.52 337.016 L
472.867 316.349 L
473.213 331.437 L
473.56 337.434 L
473.906 317.343 L
474.253 324.856 L
474.599 311.905 L
474.946 321.369 L
475.292 343.452 L
475.639 361.282 L
475.986 351.896 L
476.332 351.176 L
476.679 353.332 L
477.025 350.61 L
477.372 347.378 L
477.718 354.858 L
478.065 355.797 L
478.411 356.891 L
478.758 355.711 L
479.104 371.525 L
479.451 366.168 L
479.797 381.098 L
480.144 385.033 L
480.49 369.749 L
480.837 366.935 L
481.183 357.207 L
481.53 363.688 L
481.876 358.626 L
482.223 365 L
482.569 369.27 L
482.916 373.963 L
483.262 372.107 L
483.609 376.113 L
483.955 373.363 L
484.302 394.389 L
484.649 382.157 L
484.995 370.968 L
485.342 381.675 L
485.688 357.67 L
486.035 370.718 L
486.381 370.101 L
486.728 378.842 L
487.074 385.269 L
487.421 391.81 L
487.767 400.226 L
488.114 391.078 L
488.46 392.298 L
488.807 384.391 L
489.153 381.209 L
489.5 379.254 L
489.846 381.153 L
490.193 377.173 L
490.539 393.057 L
490.886 378.151 L
491.232 381.183 L
491.579 378.626 L
491.925 365.735 L
492.272 370.9 L
492.619 367.24 L
492.965 367.232 L
493.312 352.937 L
493.658 380.94 L
494.005 371.215 L
494.351 366.734 L
494.698 380.563 L
495.044 355.805 L
495.391 384.83 L
495.737 372.587 L
496.084 369.938 L
496.43 366.202 L
496.777 351.962 L
497.123 351.601 L
497.47 339.19 L
497.816 350.216 L
498.163 355.244 L
498.509 364.938 L
498.856 371.685 L
499.202 362.882 L
499.549 380.645 L
499.895 381.889 L
500.242 385.47 L
500.589 369.685 L
500.935 356.683 L
501.282 373.46 L
501.628 380.993 L
501.975 396.779 L
502.321 353.129 L
502.668 346.938 L
503.014 345.186 L
503.361 355.181 L
503.707 345.06 L
504.054 346.573 L
504.4 338.87 L
504.747 340.087 L
505.093 349.715 L
505.44 351.22 L
505.786 363.056 L
506.133 376.473 L
506.479 353.828 L
506.826 377.394 L
507.172 382.872 L
507.519 370.087 L
507.866 361.692 L
508.212 366.692 L
508.559 350.548 L
508.905 345.562 L
509.252 352.845 L
509.598 366.742 L
509.945 362.661 L
510.291 358.327 L
510.638 370.571 L
510.984 332.749 L
511.331 335.587 L
511.677 342.128 L
512.024 347.714 L
512.37 341.203 L
512.717 346.537 L
513.063 344.085 L
513.41 340.789 L
513.756 325.294 L
514.103 346.526 L
514.449 344.966 L
514.796 358.915 L
515.142 340.829 L
515.489 336.017 L
515.836 340.599 L
516.182 327.72 L
516.529 330.096 L
516.875 309.401 L
517.222 310.211 L
517.568 318.742 L
517.915 345.478 L
518.261 320.51 L
518.608 332.277 L
518.954 309.051 L
519.301 330.674 L
519.647 338.818 L
519.994 367.209 L
520.34 353.253 L
520.687 341.885 L
521.033 340.25 L
521.38 334.133 L
521.726 336.287 L
522.073 334.071 L
522.419 329.13 L
522.766 335.087 L
523.112 318.56 L
523.459 326.717 L
523.805 316.609 L
524.152 328.313 L
524.499 345.026 L
524.845 357.192 L
525.192 339.272 L
525.538 334.887 L
525.885 342.722 L
526.231 329.371 L
526.578 338.758 L
526.924 332.509 L
527.271 335.625 L
527.617 340.383 L
527.964 330.431 L
528.31 334.187 L
528.657 336.16 L
529.003 357.526 L
529.35 348.071 L
529.696 336.938 L
530.043 326.382 L
530.389 332.491 L
530.736 336.887 L
531.082 343.41 L
531.429 333.363 L
531.775 325.085 L
532.122 319.056 L
532.469 330.691 L
532.815 310.591 L
533.162 327.594 L
533.508 315.008 L
533.855 325.691 L
534.201 301.998 L
534.548 288.02 L
534.894 327.487 L
535.241 327.475 L
535.587 300.691 L
535.934 339.564 L
536.28 352.522 L
536.627 318.454 L
536.973 328.339 L
537.32 317.653 L
537.666 313.472 L
538.013 310.109 L
538.359 311.047 L
538.706 301.677 L
539.052 332.281 L
539.399 332.354 L
539.745 328.322 L
540.092 294.933 L
540.438 319.876 L
540.785 320.732 L
541.132 329.468 L
541.478 316.295 L
541.825 302.615 L
542.171 306.764 L
542.518 332.882 L
542.864 310.757 L
543.211 325.734 L
543.557 301.791 L
543.904 315.413 L
544.25 302.174 L
544.597 296.545 L
544.943 304.688 L
545.29 327.17 L
545.636 319.633 L
545.983 313.351 L
546.329 308.493 L
546.676 307.514 L
547.022 302.763 L
547.369 286.585 L
547.715 287.066 L
548.062 288.909 L
548.409 284.539 L
548.755 286.787 L
549.102 296.227 L
549.448 292.043 L
549.795 299.51 L
550.141 294.061 L
550.488 319.526 L
550.834 309.04 L
551.181 326.358 L
551.527 316.655 L
551.874 321.081 L
552.22 302.094 L
552.567 315.138 L
552.913 310.737 L
553.26 318.432 L
553.606 304.119 L
553.953 287.514 L
554.299 298.504 L
554.646 299.402 L
554.992 300.154 L
555.339 287.163 L
555.685 297.136 L
556.032 291.628 L
556.379 296.913 L
556.725 288.147 L
557.072 295.897 L
557.418 302.975 L
557.765 297.462 L
558.111 280.776 L
558.458 283.558 L
558.804 321.196 L
559.151 287.786 L
559.497 286.852 L
559.844 333.446 L
560.19 328.897 L
560.537 318.443 L
560.883 298.048 L
561.23 299.109 L
561.576 309.076 L
561.923 299.431 L
562.269 321.522 L
562.616 303.925 L
562.962 320.352 L
563.309 316.355 L
563.655 309.117 L
564.002 294.917 L
564.349 304.77 L
564.695 309.242 L
565.042 297.348 L
565.388 303.846 L
565.735 290.404 L
566.081 321.012 L
566.428 317.708 L
566.774 304.747 L
567.121 289.92 L
567.467 316.69 L
567.814 319.496 L
568.16 327.148 L
568.507 299.172 L
568.853 309.028 L
569.2 308.034 L
569.546 314.5 L
569.893 307.41 L
570.239 321.735 L
570.586 317.725 L
570.932 308.663 L
571.279 309.658 L
571.625 300.443 L
571.972 312.148 L
572.319 304.855 L
572.665 290.71 L
573.012 303.945 L
573.358 315.769 L
573.705 329.583 L
574.051 293.023 L
574.398 318.057 L
574.744 318.103 L
575.091 306.263 L
575.437 280.461 L
575.784 282.732 L
576.13 286.766 L
576.477 314.788 L
576.823 342.526 L
577.17 319.671 L
577.516 315.329 L
577.863 300.466 L
578.209 285.876 L
578.556 313.499 L
578.902 319.089 L
579.249 302.666 L
579.595 323.048 L
579.942 312.789 L
580.289 291.477 L
580.635 317.42 L
580.982 287.946 L
581.328 283.894 L
581.675 289.13 L
582.021 274.303 L
582.368 297.635 L
582.714 324.629 L
583.061 298.536 L
583.407 313.397 L
583.754 290.958 L
584.1 303.654 L
584.447 300.943 L
584.793 291.863 L
585.14 276.526 L
585.486 303.932 L
585.833 284.806 L
586.179 289.147 L
586.526 283.056 L
586.872 279.698 L
587.219 289.556 L
587.565 306.115 L
587.912 283.79 L
588.258 292.706 L
588.605 295.202 L
588.952 289.422 L
589.298 293.777 L
589.645 283.329 L
589.991 268.63 L
590.338 297.495 L
590.684 272.258 L
591.031 283.394 L
591.377 287.299 L
591.724 320.721 L
592.07 305.458 L
592.417 282.258 L
592.763 274.794 L
593.11 272.876 L
593.456 268.963 L
593.803 287.433 L
594.149 292.068 L
594.496 287.374 L
594.842 280.692 L
595.189 264.622 L
595.536 276.834 L
595.882 270.114 L
596.228 254.975 L
596.575 262.591 L
596.922 268.521 L
597.268 282.417 L
597.615 266.924 L
597.961 271.252 L
598.308 288.649 L
598.654 278.851 L
599.001 281.12 L
599.347 303.239 L
599.694 310.431 L
600.04 299.607 L
600.387 296.065 L
600.733 278.208 L
601.08 265.575 L
601.426 293.853 L
601.773 266.326 L
602.119 303 L
602.466 289.452 L
602.812 293.727 L
603.159 291.478 L
603.505 279.178 L
603.852 277.924 L
604.199 295.922 L
604.545 293.974 L
604.892 293.171 L
605.238 321.211 L
605.585 322.684 L
605.931 333.23 L
606.278 339.374 L
606.624 332.983 L
606.971 331.799 L
607.317 322.99 L
607.664 323.464 L
608.01 343.968 L
608.357 341.744 L
608.703 332.053 L
609.05 342.471 L
609.396 316.471 L
609.743 326.35 L
610.089 347.821 L
610.436 350.977 L
610.782 349.022 L
611.129 333.882 L
611.475 346.961 L
611.822 331.573 L
612.169 328.501 L
612.515 308.22 L
612.862 318.623 L
613.208 345.585 L
613.555 340.466 L
613.901 360.941 L
614.248 352.725 L
614.594 342.655 L
614.941 351.544 L
615.287 366.922 L
615.634 377.603 L
615.98 383.197 L
616.327 360.841 L
616.673 368.619 L
617.02 351.606 L
617.366 347.502 L
617.713 348.473 L
618.059 359.882 L
618.406 364.532 L
618.752 374.375 L
619.099 376.483 L
619.445 383.371 L
619.792 380.512 L
620.138 383.099 L
620.485 373.284 L
620.832 398.368 L
621.178 371.938 L
621.525 393.63 L
621.871 385.356 L
622.218 376.987 L
622.564 380.434 L
622.911 375.32 L
623.257 385.897 L
623.604 387.622 L
623.95 374.512 L
624.297 365.68 L
624.643 382.674 L
624.99 387.368 L
625.336 381.055 L
625.683 366.216 L
626.029 376.08 L
626.376 371.121 L
626.722 373.461 L
627.069 389.716 L
627.415 380.74 L
627.762 410.497 L
628.108 383.305 L
628.455 391.92 L
628.802 399.994 L
629.148 395.869 L
629.495 381.526 L
629.841 385.498 L
630.188 387.515 L
630.534 383.799 L
630.881 381.095 L
631.227 373.767 L
631.574 366.944 L
631.92 389.035 L
632.267 374.989 L
632.613 392.566 L
632.96 407.535 L
633.306 411.23 L
633.653 399.824 L
633.999 390.678 L
S
GR
GS
[0.6 0 0 0.6 0 0] CT
1 GC
N
621 83 M
621 52 L
504 52 L
504 83 L
cp
f
GR
GS
[0.6 0 0 0.6 337.8 42.6] CT
/Helvetica 15 F
GS
[1 0 0 1 0 0] CT
0 0 moveto 
1 -1 scale
(dB\(S) t 
GR
GR
GS
[0.6 0 0 0.6 358.2 46.8] CT
/Helvetica 12 F
GS
[1 0 0 1 0 0] CT
0 0 moveto 
1 -1 scale
(11) t 
GR
GR
GS
[0.6 0 0 0.6 366.6 42.6] CT
/Helvetica 15 F
GS
[1 0 0 1 0 0] CT
0 0 moveto 
1 -1 scale
(\)) t 
GR
GR
GS
[0.6 0 0 0.6 0 0] CT
0 0.447 0.741 RC
1 LJ
0.833 LW
N
509.011 67.5 M
559.118 67.5 L
S
GR
GS
[0.6 0 0 0.6 0 0] CT
0.149 GC
10.0 ML
0.833 LW
N
504 83 M
504 52 L
621 52 L
621 83 L
cp
S
GR
%%Trailer
%%Pages: 1
%%EOF
