M48
;Layer_Color=9474304
;FILE_FORMAT=4:4
METRIC,LZ
;TYPE=PLATED
T1F00S00C0.4000
T2F00S00C2.5000
;TYPE=NON_PLATED
T3F00S00C0.9910
%
T01
X0014975Y0013475
X00159117Y00142852
X00172Y0014175
X00182759Y00141757
X0019325Y0014325
X0020725Y0014025
X0020475Y00128
X002295Y001275
X00244512Y00116256
X0025625Y0012835
X00256Y0015435
X00258519Y0019219
X0025679Y0021025
X00258459Y00227058
X0027275Y0023825
X0025425Y00289
X0024925Y00304
X00238262Y00313265
X00240262Y00324016
X002605Y003135
X0020675
X0019375Y0031225
X0024875Y00356
X002615Y00389
X00277264Y00389019
X00292014
X00306515Y00389269
X002995Y00353
X002895Y0017375
X00329602Y00187648
X0032425Y0013626
X00348Y00047
X00255Y0009
X00137Y00149126
T02
X002117Y0039445
T03
X002534Y0037215
X003296Y00362
Y003823
M30
