%TF.GenerationSoftware,Altium Limited,Altium Designer,20.0.13 (296)*%
G04 Layer_Color=16711935*
%FSLAX26Y26*%
%MOIN*%
%TF.FileFunction,Other,Top_Assembly*%
%TF.Part,Single*%
G01*
G75*
%TA.AperFunction,NonConductor*%
%ADD37C,0.007874*%
G36*
X1182489Y1100157D02*
X1188514D01*
Y1097063D01*
X1182489D01*
Y1086143D01*
X1179650D01*
X1163325Y1097627D01*
Y1100157D01*
X1179650D01*
Y1103560D01*
X1182489D01*
Y1100157D01*
D02*
G37*
G36*
X1176283Y1083795D02*
X1176520D01*
X1176811Y1083777D01*
X1177139Y1083758D01*
X1177503Y1083722D01*
X1177885Y1083686D01*
X1178303Y1083649D01*
X1179159Y1083522D01*
X1180032Y1083358D01*
X1180888Y1083140D01*
X1180906D01*
X1180979Y1083103D01*
X1181106Y1083067D01*
X1181252Y1083012D01*
X1181434Y1082958D01*
X1181652Y1082867D01*
X1181907Y1082776D01*
X1182162Y1082666D01*
X1182744Y1082430D01*
X1183363Y1082120D01*
X1183964Y1081793D01*
X1184546Y1081411D01*
X1184564Y1081392D01*
X1184601Y1081356D01*
X1184691Y1081301D01*
X1184783Y1081229D01*
X1184910Y1081138D01*
X1185055Y1081010D01*
X1185383Y1080737D01*
X1185747Y1080391D01*
X1186129Y1080009D01*
X1186493Y1079572D01*
X1186839Y1079117D01*
Y1079099D01*
X1186876Y1079063D01*
X1186912Y1078990D01*
X1186966Y1078899D01*
X1187039Y1078772D01*
X1187112Y1078626D01*
X1187203Y1078462D01*
X1187294Y1078280D01*
X1187403Y1078062D01*
X1187513Y1077843D01*
X1187603Y1077589D01*
X1187713Y1077334D01*
X1187913Y1076751D01*
X1188095Y1076114D01*
Y1076096D01*
X1188113Y1076042D01*
X1188131Y1075932D01*
X1188168Y1075805D01*
X1188186Y1075641D01*
X1188222Y1075441D01*
X1188259Y1075204D01*
X1188295Y1074950D01*
X1188350Y1074658D01*
X1188386Y1074349D01*
X1188422Y1074021D01*
X1188441Y1073657D01*
X1188477Y1073293D01*
X1188495Y1072893D01*
X1188514Y1072074D01*
Y1062992D01*
X1163325D01*
Y1072147D01*
X1163343Y1072383D01*
Y1072675D01*
X1163361Y1072984D01*
Y1073330D01*
X1163416Y1074058D01*
X1163470Y1074804D01*
X1163525Y1075168D01*
X1163561Y1075514D01*
X1163616Y1075841D01*
X1163689Y1076151D01*
Y1076169D01*
X1163707Y1076242D01*
X1163743Y1076351D01*
X1163780Y1076515D01*
X1163852Y1076697D01*
X1163925Y1076915D01*
X1163998Y1077152D01*
X1164107Y1077425D01*
X1164344Y1077989D01*
X1164671Y1078608D01*
X1165035Y1079227D01*
X1165254Y1079536D01*
X1165491Y1079827D01*
X1165509Y1079845D01*
X1165563Y1079918D01*
X1165672Y1080027D01*
X1165800Y1080155D01*
X1165964Y1080319D01*
X1166164Y1080519D01*
X1166400Y1080719D01*
X1166655Y1080956D01*
X1166965Y1081192D01*
X1167292Y1081429D01*
X1167638Y1081684D01*
X1168020Y1081938D01*
X1168439Y1082175D01*
X1168858Y1082393D01*
X1169331Y1082612D01*
X1169804Y1082812D01*
X1169840Y1082830D01*
X1169931Y1082848D01*
X1170059Y1082903D01*
X1170259Y1082976D01*
X1170514Y1083049D01*
X1170805Y1083121D01*
X1171151Y1083212D01*
X1171533Y1083322D01*
X1171951Y1083413D01*
X1172425Y1083504D01*
X1172916Y1083576D01*
X1173444Y1083649D01*
X1173990Y1083722D01*
X1174572Y1083777D01*
X1175173Y1083795D01*
X1175792Y1083813D01*
X1175828D01*
X1175919D01*
X1176065D01*
X1176283Y1083795D01*
D02*
G37*
G36*
X1102220Y1103633D02*
X1102439Y1103615D01*
X1102730Y1103578D01*
X1103057Y1103524D01*
X1103421Y1103451D01*
X1103822Y1103342D01*
X1104259Y1103214D01*
X1104696Y1103069D01*
X1105169Y1102868D01*
X1105642Y1102632D01*
X1106115Y1102359D01*
X1106588Y1102031D01*
X1107043Y1101649D01*
X1107480Y1101230D01*
X1107498Y1101194D01*
X1107571Y1101121D01*
X1107698Y1100994D01*
X1107844Y1100794D01*
X1108008Y1100557D01*
X1108208Y1100284D01*
X1108408Y1099938D01*
X1108627Y1099574D01*
X1108845Y1099156D01*
X1109045Y1098682D01*
X1109245Y1098191D01*
X1109409Y1097645D01*
X1109555Y1097081D01*
X1109682Y1096462D01*
X1109755Y1095825D01*
X1109773Y1095152D01*
Y1095006D01*
X1109755Y1094824D01*
X1109737Y1094606D01*
X1109719Y1094314D01*
X1109664Y1093987D01*
X1109610Y1093623D01*
X1109518Y1093222D01*
X1109428Y1092804D01*
X1109300Y1092349D01*
X1109136Y1091894D01*
X1108936Y1091421D01*
X1108718Y1090966D01*
X1108463Y1090511D01*
X1108153Y1090056D01*
X1107808Y1089637D01*
X1107790Y1089619D01*
X1107717Y1089546D01*
X1107608Y1089437D01*
X1107444Y1089291D01*
X1107244Y1089127D01*
X1107007Y1088927D01*
X1106734Y1088727D01*
X1106425Y1088509D01*
X1106079Y1088290D01*
X1105678Y1088072D01*
X1105260Y1087872D01*
X1104805Y1087671D01*
X1104313Y1087508D01*
X1103804Y1087344D01*
X1103258Y1087235D01*
X1102675Y1087162D01*
X1102257Y1090256D01*
X1102293D01*
X1102366Y1090274D01*
X1102512Y1090310D01*
X1102694Y1090365D01*
X1102912Y1090420D01*
X1103149Y1090492D01*
X1103421Y1090583D01*
X1103713Y1090674D01*
X1104350Y1090929D01*
X1104968Y1091239D01*
X1105278Y1091421D01*
X1105569Y1091621D01*
X1105824Y1091821D01*
X1106061Y1092058D01*
X1106079Y1092076D01*
X1106115Y1092112D01*
X1106170Y1092185D01*
X1106243Y1092294D01*
X1106333Y1092403D01*
X1106425Y1092567D01*
X1106534Y1092731D01*
X1106625Y1092931D01*
X1106734Y1093150D01*
X1106843Y1093386D01*
X1106934Y1093641D01*
X1107025Y1093914D01*
X1107098Y1094205D01*
X1107152Y1094515D01*
X1107189Y1094824D01*
X1107207Y1095170D01*
Y1095261D01*
X1107189Y1095388D01*
Y1095534D01*
X1107152Y1095734D01*
X1107134Y1095952D01*
X1107080Y1096189D01*
X1107025Y1096462D01*
X1106934Y1096735D01*
X1106843Y1097044D01*
X1106716Y1097354D01*
X1106570Y1097663D01*
X1106388Y1097973D01*
X1106188Y1098282D01*
X1105969Y1098573D01*
X1105697Y1098864D01*
X1105678Y1098883D01*
X1105624Y1098937D01*
X1105551Y1099010D01*
X1105424Y1099101D01*
X1105278Y1099210D01*
X1105096Y1099338D01*
X1104896Y1099483D01*
X1104659Y1099629D01*
X1104404Y1099756D01*
X1104113Y1099902D01*
X1103822Y1100029D01*
X1103476Y1100138D01*
X1103130Y1100229D01*
X1102766Y1100302D01*
X1102366Y1100357D01*
X1101966Y1100375D01*
X1101947D01*
X1101874D01*
X1101765D01*
X1101601Y1100357D01*
X1101438Y1100339D01*
X1101219Y1100302D01*
X1100983Y1100266D01*
X1100728Y1100193D01*
X1100455Y1100120D01*
X1100164Y1100029D01*
X1099872Y1099920D01*
X1099581Y1099793D01*
X1099290Y1099629D01*
X1098999Y1099429D01*
X1098726Y1099228D01*
X1098453Y1098974D01*
X1098435Y1098955D01*
X1098398Y1098919D01*
X1098325Y1098828D01*
X1098235Y1098719D01*
X1098125Y1098591D01*
X1098016Y1098428D01*
X1097889Y1098227D01*
X1097761Y1098009D01*
X1097634Y1097772D01*
X1097506Y1097499D01*
X1097397Y1097208D01*
X1097288Y1096899D01*
X1097197Y1096571D01*
X1097124Y1096207D01*
X1097088Y1095843D01*
X1097070Y1095443D01*
Y1095279D01*
X1097088Y1095097D01*
X1097106Y1094842D01*
X1097142Y1094515D01*
X1097215Y1094151D01*
X1097288Y1093732D01*
X1097397Y1093259D01*
X1094686Y1093605D01*
Y1093659D01*
X1094704Y1093714D01*
Y1093787D01*
X1094722Y1093950D01*
Y1094296D01*
X1094704Y1094424D01*
X1094686Y1094606D01*
X1094667Y1094806D01*
X1094631Y1095024D01*
X1094594Y1095279D01*
X1094540Y1095552D01*
X1094467Y1095825D01*
X1094285Y1096426D01*
X1094176Y1096735D01*
X1094030Y1097044D01*
X1093885Y1097354D01*
X1093703Y1097645D01*
X1093685Y1097663D01*
X1093648Y1097718D01*
X1093593Y1097791D01*
X1093503Y1097900D01*
X1093393Y1098009D01*
X1093266Y1098155D01*
X1093102Y1098282D01*
X1092920Y1098446D01*
X1092702Y1098591D01*
X1092465Y1098737D01*
X1092210Y1098864D01*
X1091919Y1098974D01*
X1091610Y1099083D01*
X1091264Y1099156D01*
X1090900Y1099210D01*
X1090518Y1099228D01*
X1090499D01*
X1090445D01*
X1090354D01*
X1090226Y1099210D01*
X1090099Y1099192D01*
X1089917Y1099174D01*
X1089735Y1099137D01*
X1089535Y1099083D01*
X1089098Y1098937D01*
X1088861Y1098846D01*
X1088625Y1098737D01*
X1088388Y1098610D01*
X1088152Y1098446D01*
X1087933Y1098264D01*
X1087715Y1098064D01*
X1087697Y1098045D01*
X1087660Y1098009D01*
X1087606Y1097954D01*
X1087533Y1097863D01*
X1087460Y1097736D01*
X1087351Y1097609D01*
X1087260Y1097445D01*
X1087151Y1097263D01*
X1087042Y1097063D01*
X1086950Y1096844D01*
X1086841Y1096589D01*
X1086768Y1096335D01*
X1086696Y1096043D01*
X1086641Y1095752D01*
X1086605Y1095425D01*
X1086586Y1095097D01*
Y1094915D01*
X1086605Y1094806D01*
X1086623Y1094642D01*
X1086641Y1094460D01*
X1086678Y1094260D01*
X1086732Y1094041D01*
X1086860Y1093568D01*
X1086950Y1093332D01*
X1087078Y1093077D01*
X1087205Y1092822D01*
X1087351Y1092567D01*
X1087533Y1092331D01*
X1087733Y1092094D01*
X1087751Y1092076D01*
X1087788Y1092039D01*
X1087861Y1091985D01*
X1087951Y1091894D01*
X1088061Y1091803D01*
X1088206Y1091694D01*
X1088388Y1091584D01*
X1088570Y1091457D01*
X1088807Y1091330D01*
X1089062Y1091202D01*
X1089335Y1091057D01*
X1089644Y1090947D01*
X1089972Y1090820D01*
X1090318Y1090729D01*
X1090700Y1090638D01*
X1091118Y1090565D01*
X1090572Y1087471D01*
X1090554D01*
X1090536D01*
X1090427Y1087508D01*
X1090281Y1087544D01*
X1090063Y1087599D01*
X1089790Y1087671D01*
X1089498Y1087762D01*
X1089171Y1087872D01*
X1088807Y1087999D01*
X1088425Y1088163D01*
X1088024Y1088345D01*
X1087624Y1088563D01*
X1087224Y1088800D01*
X1086823Y1089055D01*
X1086441Y1089346D01*
X1086077Y1089673D01*
X1085749Y1090037D01*
X1085731Y1090056D01*
X1085677Y1090128D01*
X1085585Y1090238D01*
X1085476Y1090401D01*
X1085349Y1090602D01*
X1085203Y1090838D01*
X1085058Y1091111D01*
X1084894Y1091421D01*
X1084730Y1091766D01*
X1084584Y1092149D01*
X1084439Y1092549D01*
X1084312Y1092986D01*
X1084202Y1093459D01*
X1084111Y1093969D01*
X1084057Y1094496D01*
X1084039Y1095042D01*
Y1095243D01*
X1084057Y1095388D01*
Y1095570D01*
X1084093Y1095789D01*
X1084111Y1096025D01*
X1084148Y1096280D01*
X1084202Y1096571D01*
X1084257Y1096862D01*
X1084421Y1097499D01*
X1084512Y1097845D01*
X1084639Y1098173D01*
X1084766Y1098500D01*
X1084930Y1098828D01*
X1084948Y1098846D01*
X1084967Y1098901D01*
X1085021Y1098992D01*
X1085094Y1099119D01*
X1085185Y1099265D01*
X1085294Y1099429D01*
X1085422Y1099611D01*
X1085567Y1099811D01*
X1085913Y1100248D01*
X1086332Y1100684D01*
X1086805Y1101103D01*
X1087078Y1101303D01*
X1087351Y1101485D01*
X1087369Y1101503D01*
X1087424Y1101522D01*
X1087496Y1101576D01*
X1087624Y1101631D01*
X1087751Y1101704D01*
X1087933Y1101776D01*
X1088115Y1101867D01*
X1088334Y1101958D01*
X1088570Y1102031D01*
X1088807Y1102122D01*
X1089353Y1102268D01*
X1089954Y1102377D01*
X1090263Y1102395D01*
X1090591Y1102413D01*
X1090609D01*
X1090663D01*
X1090754D01*
X1090863Y1102395D01*
X1091009D01*
X1091173Y1102359D01*
X1091373Y1102341D01*
X1091573Y1102304D01*
X1092046Y1102195D01*
X1092538Y1102031D01*
X1092793Y1101940D01*
X1093066Y1101813D01*
X1093321Y1101685D01*
X1093575Y1101522D01*
X1093593Y1101503D01*
X1093630Y1101485D01*
X1093703Y1101431D01*
X1093794Y1101358D01*
X1093903Y1101267D01*
X1094030Y1101158D01*
X1094176Y1101030D01*
X1094340Y1100866D01*
X1094504Y1100703D01*
X1094667Y1100502D01*
X1094849Y1100302D01*
X1095031Y1100066D01*
X1095195Y1099811D01*
X1095377Y1099538D01*
X1095541Y1099247D01*
X1095687Y1098937D01*
Y1098955D01*
X1095705Y1099028D01*
X1095741Y1099156D01*
X1095796Y1099301D01*
X1095850Y1099501D01*
X1095941Y1099720D01*
X1096032Y1099956D01*
X1096160Y1100211D01*
X1096287Y1100484D01*
X1096451Y1100775D01*
X1096615Y1101067D01*
X1096815Y1101358D01*
X1097033Y1101631D01*
X1097270Y1101904D01*
X1097543Y1102177D01*
X1097834Y1102413D01*
X1097852Y1102432D01*
X1097907Y1102468D01*
X1097998Y1102523D01*
X1098125Y1102614D01*
X1098289Y1102705D01*
X1098471Y1102814D01*
X1098689Y1102923D01*
X1098944Y1103032D01*
X1099236Y1103141D01*
X1099545Y1103269D01*
X1099872Y1103360D01*
X1100236Y1103451D01*
X1100619Y1103542D01*
X1101019Y1103596D01*
X1101438Y1103633D01*
X1101893Y1103651D01*
X1101929D01*
X1102038D01*
X1102220Y1103633D01*
D02*
G37*
G36*
X1097088Y1083795D02*
X1097324D01*
X1097616Y1083777D01*
X1097943Y1083758D01*
X1098307Y1083722D01*
X1098689Y1083686D01*
X1099108Y1083649D01*
X1099964Y1083522D01*
X1100837Y1083358D01*
X1101693Y1083140D01*
X1101711D01*
X1101784Y1083103D01*
X1101911Y1083067D01*
X1102056Y1083012D01*
X1102238Y1082958D01*
X1102457Y1082867D01*
X1102712Y1082776D01*
X1102966Y1082666D01*
X1103549Y1082430D01*
X1104168Y1082120D01*
X1104768Y1081793D01*
X1105351Y1081411D01*
X1105369Y1081392D01*
X1105405Y1081356D01*
X1105496Y1081301D01*
X1105587Y1081229D01*
X1105715Y1081138D01*
X1105860Y1081010D01*
X1106188Y1080737D01*
X1106552Y1080391D01*
X1106934Y1080009D01*
X1107298Y1079572D01*
X1107644Y1079117D01*
Y1079099D01*
X1107680Y1079063D01*
X1107717Y1078990D01*
X1107771Y1078899D01*
X1107844Y1078772D01*
X1107917Y1078626D01*
X1108008Y1078462D01*
X1108099Y1078280D01*
X1108208Y1078062D01*
X1108317Y1077843D01*
X1108408Y1077589D01*
X1108517Y1077334D01*
X1108718Y1076751D01*
X1108900Y1076114D01*
Y1076096D01*
X1108918Y1076042D01*
X1108936Y1075932D01*
X1108973Y1075805D01*
X1108991Y1075641D01*
X1109027Y1075441D01*
X1109063Y1075204D01*
X1109100Y1074950D01*
X1109155Y1074658D01*
X1109191Y1074349D01*
X1109227Y1074021D01*
X1109245Y1073657D01*
X1109282Y1073293D01*
X1109300Y1072893D01*
X1109318Y1072074D01*
Y1062992D01*
X1084130D01*
Y1072147D01*
X1084148Y1072383D01*
Y1072675D01*
X1084166Y1072984D01*
Y1073330D01*
X1084220Y1074058D01*
X1084275Y1074804D01*
X1084330Y1075168D01*
X1084366Y1075514D01*
X1084421Y1075841D01*
X1084494Y1076151D01*
Y1076169D01*
X1084512Y1076242D01*
X1084548Y1076351D01*
X1084584Y1076515D01*
X1084657Y1076697D01*
X1084730Y1076915D01*
X1084803Y1077152D01*
X1084912Y1077425D01*
X1085149Y1077989D01*
X1085476Y1078608D01*
X1085840Y1079227D01*
X1086059Y1079536D01*
X1086295Y1079827D01*
X1086313Y1079845D01*
X1086368Y1079918D01*
X1086477Y1080027D01*
X1086605Y1080155D01*
X1086768Y1080319D01*
X1086969Y1080519D01*
X1087205Y1080719D01*
X1087460Y1080956D01*
X1087770Y1081192D01*
X1088097Y1081429D01*
X1088443Y1081684D01*
X1088825Y1081938D01*
X1089244Y1082175D01*
X1089662Y1082393D01*
X1090136Y1082612D01*
X1090609Y1082812D01*
X1090645Y1082830D01*
X1090736Y1082848D01*
X1090863Y1082903D01*
X1091064Y1082976D01*
X1091319Y1083049D01*
X1091610Y1083121D01*
X1091956Y1083212D01*
X1092338Y1083322D01*
X1092756Y1083413D01*
X1093229Y1083504D01*
X1093721Y1083576D01*
X1094249Y1083649D01*
X1094795Y1083722D01*
X1095377Y1083777D01*
X1095978Y1083795D01*
X1096597Y1083813D01*
X1096633D01*
X1096724D01*
X1096870D01*
X1097088Y1083795D01*
D02*
G37*
%LPC*%
G36*
X1179650Y1097063D02*
X1168293D01*
X1179650Y1089164D01*
Y1097063D01*
D02*
G37*
G36*
X1176265Y1080373D02*
X1175737D01*
X1175719D01*
X1175701D01*
X1175646D01*
X1175555D01*
X1175464D01*
X1175355D01*
X1175082Y1080355D01*
X1174754Y1080337D01*
X1174372Y1080300D01*
X1173954Y1080264D01*
X1173498Y1080209D01*
X1173025Y1080137D01*
X1172516Y1080046D01*
X1172024Y1079955D01*
X1171515Y1079827D01*
X1171023Y1079663D01*
X1170550Y1079500D01*
X1170095Y1079299D01*
X1169677Y1079063D01*
X1169658Y1079045D01*
X1169585Y1079008D01*
X1169476Y1078935D01*
X1169331Y1078826D01*
X1169167Y1078699D01*
X1168967Y1078553D01*
X1168748Y1078389D01*
X1168512Y1078189D01*
X1168275Y1077971D01*
X1168039Y1077734D01*
X1167802Y1077461D01*
X1167565Y1077188D01*
X1167347Y1076897D01*
X1167147Y1076588D01*
X1166965Y1076260D01*
X1166819Y1075914D01*
Y1075896D01*
X1166801Y1075860D01*
X1166764Y1075769D01*
X1166728Y1075659D01*
X1166692Y1075514D01*
X1166655Y1075332D01*
X1166601Y1075113D01*
X1166546Y1074877D01*
X1166510Y1074586D01*
X1166455Y1074276D01*
X1166419Y1073912D01*
X1166364Y1073530D01*
X1166346Y1073093D01*
X1166310Y1072638D01*
X1166291Y1072147D01*
Y1066323D01*
X1185547D01*
Y1072110D01*
X1185529Y1072311D01*
Y1072547D01*
X1185511Y1072820D01*
X1185492Y1073111D01*
X1185438Y1073730D01*
X1185347Y1074385D01*
X1185237Y1075022D01*
X1185165Y1075314D01*
X1185092Y1075587D01*
Y1075605D01*
X1185074Y1075641D01*
X1185037Y1075732D01*
X1185001Y1075823D01*
X1184965Y1075951D01*
X1184892Y1076078D01*
X1184746Y1076406D01*
X1184564Y1076770D01*
X1184346Y1077152D01*
X1184073Y1077516D01*
X1183782Y1077862D01*
X1183763Y1077880D01*
X1183727Y1077916D01*
X1183654Y1077971D01*
X1183563Y1078062D01*
X1183454Y1078153D01*
X1183308Y1078262D01*
X1183126Y1078389D01*
X1182944Y1078535D01*
X1182726Y1078681D01*
X1182489Y1078826D01*
X1182216Y1078990D01*
X1181943Y1079136D01*
X1181634Y1079281D01*
X1181306Y1079427D01*
X1180960Y1079572D01*
X1180597Y1079700D01*
X1180578D01*
X1180505Y1079736D01*
X1180396Y1079754D01*
X1180233Y1079809D01*
X1180051Y1079864D01*
X1179814Y1079918D01*
X1179541Y1079973D01*
X1179232Y1080046D01*
X1178904Y1080100D01*
X1178522Y1080155D01*
X1178121Y1080209D01*
X1177703Y1080264D01*
X1177248Y1080319D01*
X1176774Y1080337D01*
X1176265Y1080373D01*
D02*
G37*
G36*
X1097070D02*
X1096542D01*
X1096524D01*
X1096505D01*
X1096451D01*
X1096360D01*
X1096269D01*
X1096160D01*
X1095887Y1080355D01*
X1095559Y1080337D01*
X1095177Y1080300D01*
X1094758Y1080264D01*
X1094303Y1080209D01*
X1093830Y1080137D01*
X1093321Y1080046D01*
X1092829Y1079955D01*
X1092320Y1079827D01*
X1091828Y1079663D01*
X1091355Y1079500D01*
X1090900Y1079299D01*
X1090481Y1079063D01*
X1090463Y1079045D01*
X1090390Y1079008D01*
X1090281Y1078935D01*
X1090136Y1078826D01*
X1089972Y1078699D01*
X1089772Y1078553D01*
X1089553Y1078389D01*
X1089316Y1078189D01*
X1089080Y1077971D01*
X1088843Y1077734D01*
X1088607Y1077461D01*
X1088370Y1077188D01*
X1088152Y1076897D01*
X1087951Y1076588D01*
X1087770Y1076260D01*
X1087624Y1075914D01*
Y1075896D01*
X1087606Y1075860D01*
X1087569Y1075769D01*
X1087533Y1075659D01*
X1087496Y1075514D01*
X1087460Y1075332D01*
X1087406Y1075113D01*
X1087351Y1074877D01*
X1087314Y1074586D01*
X1087260Y1074276D01*
X1087224Y1073912D01*
X1087169Y1073530D01*
X1087151Y1073093D01*
X1087114Y1072638D01*
X1087096Y1072147D01*
Y1066323D01*
X1106352D01*
Y1072110D01*
X1106333Y1072311D01*
Y1072547D01*
X1106315Y1072820D01*
X1106297Y1073111D01*
X1106243Y1073730D01*
X1106151Y1074385D01*
X1106042Y1075022D01*
X1105969Y1075314D01*
X1105897Y1075587D01*
Y1075605D01*
X1105879Y1075641D01*
X1105842Y1075732D01*
X1105806Y1075823D01*
X1105769Y1075951D01*
X1105697Y1076078D01*
X1105551Y1076406D01*
X1105369Y1076770D01*
X1105150Y1077152D01*
X1104878Y1077516D01*
X1104586Y1077862D01*
X1104568Y1077880D01*
X1104532Y1077916D01*
X1104459Y1077971D01*
X1104368Y1078062D01*
X1104259Y1078153D01*
X1104113Y1078262D01*
X1103931Y1078389D01*
X1103749Y1078535D01*
X1103531Y1078681D01*
X1103294Y1078826D01*
X1103021Y1078990D01*
X1102748Y1079136D01*
X1102439Y1079281D01*
X1102111Y1079427D01*
X1101765Y1079572D01*
X1101401Y1079700D01*
X1101383D01*
X1101310Y1079736D01*
X1101201Y1079754D01*
X1101037Y1079809D01*
X1100855Y1079864D01*
X1100619Y1079918D01*
X1100346Y1079973D01*
X1100036Y1080046D01*
X1099709Y1080100D01*
X1099326Y1080155D01*
X1098926Y1080209D01*
X1098507Y1080264D01*
X1098053Y1080319D01*
X1097579Y1080337D01*
X1097070Y1080373D01*
D02*
G37*
%LPD*%
D37*
X1159449Y1010827D02*
X1202756D01*
Y1115158D01*
X1159449D02*
X1202756D01*
X1159449Y1010827D02*
Y1115158D01*
X1080709Y1010827D02*
X1124016D01*
Y1115158D01*
X1080709D02*
X1124016D01*
X1080709Y1010827D02*
Y1115158D01*
%TF.MD5,f44d21aa295f9eccd6cea49bd9d345ce*%
M02*
