%TF.GenerationSoftware,Altium Limited,Altium Designer,20.0.13 (296)*%
G04 Layer_Color=8388736*
%FSLAX26Y26*%
%MOIN*%
%TF.FileFunction,Soldermask,Top*%
%TF.Part,Single*%
G01*
G75*
%TA.AperFunction,SMDPad,CuDef*%
%ADD23R,0.031496X0.031496*%
%TA.AperFunction,ComponentPad*%
%ADD42C,0.047016*%
%TA.AperFunction,ViaPad*%
%ADD43C,0.106425*%
%TA.AperFunction,TestPad*%
%ADD44C,0.039496*%
%TA.AperFunction,ViaPad*%
%ADD45C,0.039496*%
%TA.AperFunction,SMDPad,CuDef*%
%ADD49R,0.041465X0.037528*%
%TA.AperFunction,BGAPad,CuDef*%
%ADD50C,0.038984*%
%TA.AperFunction,ConnectorPad*%
%ADD51R,0.035559X0.067055*%
%TA.AperFunction,BGAPad,CuDef*%
%ADD52C,0.031622*%
%TA.AperFunction,SMDPad,CuDef*%
%ADD53R,0.031622X0.031622*%
%ADD54R,0.067055X0.067055*%
%TA.AperFunction,ConnectorPad*%
%ADD55R,0.033591X0.049339*%
%ADD56R,0.035559X0.072961*%
%TA.AperFunction,SMDPad,CuDef*%
%ADD57R,0.023748X0.028079*%
%TA.AperFunction,ConnectorPad*%
%ADD58R,0.059181X0.137921*%
%ADD59R,0.027685X0.137921*%
%TA.AperFunction,SMDPad,CuDef*%
%ADD60R,0.035559X0.045402*%
%ADD61R,0.041465X0.035559*%
%ADD62R,0.043433X0.047370*%
%ADD63R,0.037528X0.067055*%
%TA.AperFunction,ConnectorPad*%
%ADD64R,0.041465X0.037528*%
%ADD65R,0.037528X0.067055*%
%TA.AperFunction,SMDPad,CuDef*%
%ADD66R,0.037528X0.041465*%
%ADD67R,0.049339X0.043433*%
D23*
X1181102Y1095472D02*
D03*
Y1030512D02*
D03*
X1102362Y1095472D02*
D03*
Y1030512D02*
D03*
D42*
X997638Y1465158D02*
D03*
X1297638Y1425197D02*
D03*
Y1505118D02*
D03*
D43*
X833465Y1552953D02*
D03*
D44*
X935039Y360236D02*
D03*
X1363031Y233361D02*
D03*
X1074803Y443898D02*
D03*
X1350394Y1261811D02*
D03*
D45*
X1003937Y354331D02*
D03*
X979331Y1401575D02*
D03*
X981299Y1196850D02*
D03*
X1000984Y1137795D02*
D03*
X1025591Y1234252D02*
D03*
X1370079Y185039D02*
D03*
X1017790Y756654D02*
D03*
X1017554Y893930D02*
D03*
X945912Y1275653D02*
D03*
X1139764Y684055D02*
D03*
X1179134Y1389764D02*
D03*
X938038Y1233328D02*
D03*
X813976Y1234252D02*
D03*
X762795Y1229331D02*
D03*
X719523Y558098D02*
D03*
X815945Y552165D02*
D03*
X760827Y563976D02*
D03*
X539370Y587112D02*
D03*
X677165Y558071D02*
D03*
X626444Y562409D02*
D03*
X589567Y530512D02*
D03*
X1206752Y1532555D02*
D03*
X1073819Y937992D02*
D03*
X1007875Y607676D02*
D03*
X962645Y457700D02*
D03*
X1276575Y536459D02*
D03*
X1297646Y738772D02*
D03*
X1091589Y1531571D02*
D03*
X1029528Y1531496D02*
D03*
X1010984Y827756D02*
D03*
X903543Y501969D02*
D03*
X1149662Y1531571D02*
D03*
X806102Y503937D02*
D03*
X1008859Y505314D02*
D03*
D49*
X1131892Y191928D02*
D03*
Y241140D02*
D03*
D50*
X1047638Y1490158D02*
D03*
X1097638D02*
D03*
X1147638D02*
D03*
X1197638D02*
D03*
X1247638D02*
D03*
Y1440158D02*
D03*
X1197638D02*
D03*
X1147638D02*
D03*
X1097638D02*
D03*
X1047638D02*
D03*
D51*
X588583Y631891D02*
D03*
X631891D02*
D03*
X675197D02*
D03*
X718505D02*
D03*
X761811D02*
D03*
X805119D02*
D03*
X848425D02*
D03*
X891733D02*
D03*
Y1183071D02*
D03*
X848425D02*
D03*
X805119D02*
D03*
X761811D02*
D03*
X718505D02*
D03*
X675197D02*
D03*
X631891D02*
D03*
X588583D02*
D03*
D52*
X620079Y818897D02*
D03*
Y877953D02*
D03*
Y937009D02*
D03*
Y996063D02*
D03*
X667323Y818897D02*
D03*
Y877953D02*
D03*
Y937009D02*
D03*
Y996063D02*
D03*
X714567Y818897D02*
D03*
Y877953D02*
D03*
Y937009D02*
D03*
Y996063D02*
D03*
X761811Y818897D02*
D03*
Y877953D02*
D03*
Y937009D02*
D03*
Y996063D02*
D03*
X809055Y818897D02*
D03*
Y877953D02*
D03*
Y937009D02*
D03*
Y996063D02*
D03*
X856299Y818897D02*
D03*
Y877953D02*
D03*
Y937009D02*
D03*
Y996063D02*
D03*
X620079Y759843D02*
D03*
Y1055119D02*
D03*
X903543Y818897D02*
D03*
Y877953D02*
D03*
Y937009D02*
D03*
Y996063D02*
D03*
X667323Y1055119D02*
D03*
X714567D02*
D03*
X761811D02*
D03*
X809055D02*
D03*
X856299D02*
D03*
X903543D02*
D03*
X667323Y759843D02*
D03*
X714567D02*
D03*
X761811D02*
D03*
X809055D02*
D03*
X856299D02*
D03*
X903543D02*
D03*
X809055Y1114173D02*
D03*
X856299D02*
D03*
D53*
X903543D02*
D03*
D54*
X541339Y774607D02*
D03*
Y863189D02*
D03*
Y951771D02*
D03*
Y1040355D02*
D03*
D55*
X567916Y1335630D02*
D03*
Y1499016D02*
D03*
X652560Y1335630D02*
D03*
Y1499016D02*
D03*
D56*
X735432Y196853D02*
D03*
X685432D02*
D03*
X635432D02*
D03*
X585432D02*
D03*
Y480317D02*
D03*
X635432D02*
D03*
X685432D02*
D03*
X735432D02*
D03*
D57*
X846456Y407480D02*
D03*
X826770Y458662D02*
D03*
X866140D02*
D03*
D58*
X899606Y265748D02*
D03*
D59*
X954724D02*
D03*
X844488D02*
D03*
D60*
X1268700Y197836D02*
D03*
Y262796D02*
D03*
D61*
X1181102Y1181102D02*
D03*
Y1226378D02*
D03*
X1102362Y1182087D02*
D03*
Y1227362D02*
D03*
D62*
X1015750Y406498D02*
D03*
X952758D02*
D03*
D63*
X1181104Y446848D02*
D03*
Y320864D02*
D03*
D64*
X1217520Y209645D02*
D03*
Y258859D02*
D03*
X1325788Y210630D02*
D03*
Y259842D02*
D03*
D65*
X1318900Y446850D02*
D03*
Y320866D02*
D03*
D66*
X848425Y1267719D02*
D03*
X897637D02*
D03*
X793802Y1276579D02*
D03*
X744588D02*
D03*
D67*
X1062994Y252952D02*
D03*
Y199802D02*
D03*
%TF.MD5,6cc410e175c1d55fce1d61bc14edc1f7*%
M02*
