EESchema Schematic File Version 2
LIBS:power
LIBS:device
LIBS:switches
LIBS:relays
LIBS:motors
LIBS:transistors
LIBS:conn
LIBS:linear
LIBS:regul
LIBS:74xx
LIBS:cmos4000
LIBS:adc-dac
LIBS:memory
LIBS:xilinx
LIBS:microcontrollers
LIBS:dsp
LIBS:microchip
LIBS:analog_switches
LIBS:motorola
LIBS:texas
LIBS:intel
LIBS:audio
LIBS:interface
LIBS:digital-audio
LIBS:philips
LIBS:display
LIBS:cypress
LIBS:siliconi
LIBS:opto
LIBS:atmel
LIBS:contrib
LIBS:valves
LIBS:Display-cache
EELAYER 25 0
EELAYER END
$Descr A4 11693 8268
encoding utf-8
Sheet 1 1
Title ""
Date ""
Rev ""
Comp ""
Comment1 ""
Comment2 ""
Comment3 ""
Comment4 ""
$EndDescr
$Comp
L MSP430G2553 U2
U 1 1 5CAF7677
P 4350 5450
F 0 "U2" H 4350 5450 60  0000 C CNN
F 1 "MSP430G2553" H 4350 6250 60  0000 C CNN
F 2 "" H 4400 5350 60  0001 C CNN
F 3 "" H 4400 5350 60  0001 C CNN
	1    4350 5450
	1    0    0    -1  
$EndComp
$Comp
L R R2
U 1 1 5CAF7713
P 5500 4550
F 0 "R2" V 5580 4550 50  0000 C CNN
F 1 "47k" V 5500 4550 50  0000 C CNN
F 2 "" V 5430 4550 50  0001 C CNN
F 3 "" H 5500 4550 50  0001 C CNN
	1    5500 4550
	1    0    0    -1  
$EndComp
$Comp
L C C3
U 1 1 5CAF77B4
P 5500 6400
F 0 "C3" H 5525 6500 50  0000 L CNN
F 1 "1n" H 5525 6300 50  0000 L CNN
F 2 "" H 5538 6250 50  0001 C CNN
F 3 "" H 5500 6400 50  0001 C CNN
	1    5500 6400
	1    0    0    -1  
$EndComp
$Comp
L GND #PWR01
U 1 1 5CAF7975
P 5500 6650
F 0 "#PWR01" H 5500 6400 50  0001 C CNN
F 1 "GND" H 5500 6500 50  0000 C CNN
F 2 "" H 5500 6650 50  0001 C CNN
F 3 "" H 5500 6650 50  0001 C CNN
	1    5500 6650
	1    0    0    -1  
$EndComp
$Comp
L C C7
U 1 1 5CAF7CED
P 6600 4750
F 0 "C7" H 6625 4850 50  0000 L CNN
F 1 "12p" H 6625 4650 50  0000 L CNN
F 2 "" H 6638 4600 50  0001 C CNN
F 3 "" H 6600 4750 50  0001 C CNN
	1    6600 4750
	0    1    1    0   
$EndComp
$Comp
L C C8
U 1 1 5CAF7D68
P 6600 5150
F 0 "C8" H 6625 5250 50  0000 L CNN
F 1 "12p" H 6625 5050 50  0000 L CNN
F 2 "" H 6638 5000 50  0001 C CNN
F 3 "" H 6600 5150 50  0001 C CNN
	1    6600 5150
	0    1    1    0   
$EndComp
$Comp
L Crystal Y1
U 1 1 5CAF7C7D
P 6250 4950
F 0 "Y1" H 6250 5100 50  0000 C CNN
F 1 "Crystal" H 6250 4800 50  0000 C CNN
F 2 "" H 6250 4950 50  0001 C CNN
F 3 "" H 6250 4950 50  0001 C CNN
	1    6250 4950
	0    1    1    0   
$EndComp
$Comp
L R R3
U 1 1 5CAF7E98
P 6000 4750
F 0 "R3" V 6080 4750 50  0000 C CNN
F 1 "0" V 6000 4750 50  0000 C CNN
F 2 "" V 5930 4750 50  0001 C CNN
F 3 "" H 6000 4750 50  0001 C CNN
	1    6000 4750
	0    1    1    0   
$EndComp
$Comp
L R R4
U 1 1 5CAF7EDB
P 6000 5150
F 0 "R4" V 6080 5150 50  0000 C CNN
F 1 "0" V 6000 5150 50  0000 C CNN
F 2 "" V 5930 5150 50  0001 C CNN
F 3 "" H 6000 5150 50  0001 C CNN
	1    6000 5150
	0    1    1    0   
$EndComp
$Comp
L GND #PWR02
U 1 1 5CAF8001
P 6850 4950
F 0 "#PWR02" H 6850 4700 50  0001 C CNN
F 1 "GND" H 6850 4800 50  0000 C CNN
F 2 "" H 6850 4950 50  0001 C CNN
F 3 "" H 6850 4950 50  0001 C CNN
	1    6850 4950
	0    -1   -1   0   
$EndComp
$Comp
L GND #PWR03
U 1 1 5CAF8214
P 5300 4800
F 0 "#PWR03" H 5300 4550 50  0001 C CNN
F 1 "GND" H 5300 4650 50  0000 C CNN
F 2 "" H 5300 4800 50  0001 C CNN
F 3 "" H 5300 4800 50  0001 C CNN
	1    5300 4800
	0    -1   -1   0   
$EndComp
$Comp
L GND #PWR04
U 1 1 5CAF8981
P 1300 850
F 0 "#PWR04" H 1300 600 50  0001 C CNN
F 1 "GND" H 1300 700 50  0000 C CNN
F 2 "" H 1300 850 50  0001 C CNN
F 3 "" H 1300 850 50  0001 C CNN
	1    1300 850 
	1    0    0    -1  
$EndComp
$Comp
L VCC #PWR05
U 1 1 5CAF89AD
P 900 850
F 0 "#PWR05" H 900 700 50  0001 C CNN
F 1 "VCC" H 900 1000 50  0000 C CNN
F 2 "" H 900 850 50  0001 C CNN
F 3 "" H 900 850 50  0001 C CNN
	1    900  850 
	-1   0    0    1   
$EndComp
$Comp
L PWR_FLAG #FLG06
U 1 1 5CAF89D3
P 1300 750
F 0 "#FLG06" H 1300 825 50  0001 C CNN
F 1 "PWR_FLAG" H 1300 900 50  0000 C CNN
F 2 "" H 1300 750 50  0001 C CNN
F 3 "" H 1300 750 50  0001 C CNN
	1    1300 750 
	1    0    0    -1  
$EndComp
$Comp
L PWR_FLAG #FLG07
U 1 1 5CAF8A12
P 900 750
F 0 "#FLG07" H 900 825 50  0001 C CNN
F 1 "PWR_FLAG" H 900 900 50  0000 C CNN
F 2 "" H 900 750 50  0001 C CNN
F 3 "" H 900 750 50  0001 C CNN
	1    900  750 
	1    0    0    -1  
$EndComp
$Comp
L SW_Push SW1
U 1 1 5CAF907A
P 5800 6400
F 0 "SW1" H 5850 6500 50  0000 L CNN
F 1 "SW_Push" H 5800 6340 50  0000 C CNN
F 2 "" H 5800 6600 50  0001 C CNN
F 3 "" H 5800 6600 50  0001 C CNN
	1    5800 6400
	0    1    1    0   
$EndComp
$Comp
L GND #PWR08
U 1 1 5CAF9363
P 5800 6650
F 0 "#PWR08" H 5800 6400 50  0001 C CNN
F 1 "GND" H 5800 6500 50  0000 C CNN
F 2 "" H 5800 6650 50  0001 C CNN
F 3 "" H 5800 6650 50  0001 C CNN
	1    5800 6650
	1    0    0    -1  
$EndComp
$Comp
L Conn_01x20_Female J1
U 1 1 5CAF9730
P 2100 5200
F 0 "J1" H 2100 6200 50  0000 C CNN
F 1 "Display" H 2100 4100 50  0000 C CNN
F 2 "" H 2100 5200 50  0001 C CNN
F 3 "" H 2100 5200 50  0001 C CNN
	1    2100 5200
	-1   0    0    -1  
$EndComp
$Comp
L GND #PWR09
U 1 1 5CAFBD41
P 2350 4300
F 0 "#PWR09" H 2350 4050 50  0001 C CNN
F 1 "GND" H 2350 4150 50  0000 C CNN
F 2 "" H 2350 4300 50  0001 C CNN
F 3 "" H 2350 4300 50  0001 C CNN
	1    2350 4300
	0    -1   -1   0   
$EndComp
Text GLabel 2600 4400 2    60   Input ~ 0
5VDC
$Comp
L POT RV1
U 1 1 5CAFC2A6
P 3350 4200
F 0 "RV1" V 3175 4200 50  0000 C CNN
F 1 "10k" V 3250 4200 50  0000 C CNN
F 2 "" H 3350 4200 50  0001 C CNN
F 3 "" H 3350 4200 50  0001 C CNN
	1    3350 4200
	-1   0    0    1   
$EndComp
$Comp
L R R1
U 1 1 5CAFC7C0
P 2500 6100
F 0 "R1" V 2580 6100 50  0000 C CNN
F 1 "47k" V 2500 6100 50  0000 C CNN
F 2 "" V 2430 6100 50  0001 C CNN
F 3 "" H 2500 6100 50  0001 C CNN
	1    2500 6100
	0    1    1    0   
$EndComp
$Comp
L GND #PWR010
U 1 1 5CAFCA35
P 3350 4000
F 0 "#PWR010" H 3350 3750 50  0001 C CNN
F 1 "GND" H 3350 3850 50  0000 C CNN
F 2 "" H 3350 4000 50  0001 C CNN
F 3 "" H 3350 4000 50  0001 C CNN
	1    3350 4000
	-1   0    0    1   
$EndComp
Text GLabel 2700 6100 2    60   Input ~ 0
5VDC
$Comp
L GND #PWR011
U 1 1 5CAFE2C9
P 2350 6250
F 0 "#PWR011" H 2350 6000 50  0001 C CNN
F 1 "GND" H 2350 6100 50  0000 C CNN
F 2 "" H 2350 6250 50  0001 C CNN
F 3 "" H 2350 6250 50  0001 C CNN
	1    2350 6250
	1    0    0    -1  
$EndComp
Text GLabel 4250 4300 1    60   Input Italic 0
3,3VDC
$Comp
L Conn_01x02_Female I2C1
U 1 1 5CAFE930
P 6200 5450
F 0 "I2C1" H 6200 5550 50  0000 C CNN
F 1 "Conn_01x02_Female" H 6600 5400 50  0000 C CNN
F 2 "" H 6200 5450 50  0001 C CNN
F 3 "" H 6200 5450 50  0001 C CNN
	1    6200 5450
	1    0    0    -1  
$EndComp
Text Label 5750 5450 0    60   Italic 0
SDA
Text Label 5750 5550 0    60   Italic 0
SCL
Text Label 3500 5600 0    60   Italic 0
DB0
Text Label 3500 5500 0    60   Italic 0
DB1
Text Label 3500 6000 0    60   Italic 0
DB2
Text Label 3500 6100 0    60   Italic 0
DB3
Text Label 5050 6100 0    60   Italic 0
DB4
Text Label 5050 5700 0    60   Italic 0
DB5
Text Label 5050 5600 0    60   Italic 0
DB6
Text Label 5050 5500 0    60   Italic 0
DB7
Text Label 3500 4900 0    60   Italic 0
DI
Text Label 3500 5000 0    60   Italic 0
R/W
Text Label 3500 5100 0    60   Italic 0
E
Text Label 3500 5400 0    60   Italic 0
RST
Text Label 3500 5200 0    60   Italic 0
CS1
Text Label 3500 5300 0    60   Italic 0
CS2
Text Label 3150 4400 0    60   Italic 0
V0
$Comp
L Conn_01x01_Female J5
U 1 1 5CAFFD45
P 5200 5100
F 0 "J5" H 4950 5100 50  0000 C CNN
F 1 "CF" H 4850 5100 50  0000 C CNN
F 2 "" H 5200 5100 50  0001 C CNN
F 3 "" H 5200 5100 50  0001 C CNN
	1    5200 5100
	1    0    0    -1  
$EndComp
$Comp
L Conn_01x01_Female J6
U 1 1 5CB00558
P 5200 5800
F 0 "J6" H 4950 5700 50  0000 C CNN
F 1 "CF" H 4850 5800 50  0000 C CNN
F 2 "" H 5200 5800 50  0001 C CNN
F 3 "" H 5200 5800 50  0001 C CNN
	1    5200 5800
	1    0    0    -1  
$EndComp
$Comp
L Conn_01x01_Female J7
U 1 1 5CB005AF
P 5200 5900
F 0 "J7" H 4950 6000 50  0000 C CNN
F 1 "CF" H 4850 5900 50  0000 C CNN
F 2 "" H 5200 5900 50  0001 C CNN
F 3 "" H 5200 5900 50  0001 C CNN
	1    5200 5900
	1    0    0    -1  
$EndComp
$Comp
L Conn_01x01_Female J8
U 1 1 5CB005EF
P 5200 6000
F 0 "J8" H 4950 6000 50  0000 C CNN
F 1 "CF" H 4850 6000 50  0000 C CNN
F 2 "" H 5200 6000 50  0001 C CNN
F 3 "" H 5200 6000 50  0001 C CNN
	1    5200 6000
	1    0    0    -1  
$EndComp
$Comp
L Conn_01x01_Female J2
U 1 1 5CB01553
P 3500 5700
F 0 "J2" H 3200 5700 50  0000 C CNN
F 1 "CF" H 3100 5700 50  0000 C CNN
F 2 "" H 3500 5700 50  0001 C CNN
F 3 "" H 3500 5700 50  0001 C CNN
	1    3500 5700
	-1   0    0    1   
$EndComp
$Comp
L Conn_01x01_Female J3
U 1 1 5CB021B5
P 3500 5800
F 0 "J3" H 3200 5800 50  0000 C CNN
F 1 "CF" H 3100 5800 50  0000 C CNN
F 2 "" H 3500 5800 50  0001 C CNN
F 3 "" H 3500 5800 50  0001 C CNN
	1    3500 5800
	-1   0    0    1   
$EndComp
$Comp
L Conn_01x01_Female J4
U 1 1 5CB02202
P 3500 5900
F 0 "J4" H 3200 5900 50  0000 C CNN
F 1 "CF" H 3100 5900 50  0000 C CNN
F 2 "" H 3500 5900 50  0001 C CNN
F 3 "" H 3500 5900 50  0001 C CNN
	1    3500 5900
	-1   0    0    1   
$EndComp
$Comp
L LM5160 U3
U 1 1 5CB02D4D
P 7850 2600
F 0 "U3" H 7850 2600 60  0000 C CNN
F 1 "LM5160" H 7850 3050 60  0000 C CNN
F 2 "" H 7850 2600 60  0001 C CNN
F 3 "" H 7850 2600 60  0001 C CNN
	1    7850 2600
	1    0    0    -1  
$EndComp
$Comp
L R R7
U 1 1 5CB0375C
P 6850 2700
F 0 "R7" V 6930 2700 50  0000 C CNN
F 1 "169k" V 6850 2700 50  0000 C CNN
F 2 "" V 6780 2700 50  0001 C CNN
F 3 "" H 6850 2700 50  0001 C CNN
	1    6850 2700
	0    1    1    0   
$EndComp
$Comp
L R R5
U 1 1 5CB03DFB
P 6400 2400
F 0 "R5" V 6480 2400 50  0000 C CNN
F 1 "127k" V 6400 2400 50  0000 C CNN
F 2 "" V 6330 2400 50  0001 C CNN
F 3 "" H 6400 2400 50  0001 C CNN
	1    6400 2400
	-1   0    0    1   
$EndComp
$Comp
L R R6
U 1 1 5CB03E68
P 6400 2800
F 0 "R6" V 6480 2800 50  0000 C CNN
F 1 "18.2k" V 6400 2800 50  0000 C CNN
F 2 "" V 6330 2800 50  0001 C CNN
F 3 "" H 6400 2800 50  0001 C CNN
	1    6400 2800
	-1   0    0    1   
$EndComp
$Comp
L GND #PWR012
U 1 1 5CB04052
P 6400 3350
F 0 "#PWR012" H 6400 3100 50  0001 C CNN
F 1 "GND" H 6400 3200 50  0000 C CNN
F 2 "" H 6400 3350 50  0001 C CNN
F 3 "" H 6400 3350 50  0001 C CNN
	1    6400 3350
	1    0    0    -1  
$EndComp
$Comp
L C C9
U 1 1 5CB043D8
P 7350 3050
F 0 "C9" H 7375 3150 50  0000 L CNN
F 1 "0,022u" H 7375 2950 50  0000 L CNN
F 2 "" H 7388 2900 50  0001 C CNN
F 3 "" H 7350 3050 50  0001 C CNN
	1    7350 3050
	-1   0    0    1   
$EndComp
$Comp
L GND #PWR013
U 1 1 5CB04506
P 7350 3350
F 0 "#PWR013" H 7350 3100 50  0001 C CNN
F 1 "GND" H 7350 3200 50  0000 C CNN
F 2 "" H 7350 3350 50  0001 C CNN
F 3 "" H 7350 3350 50  0001 C CNN
	1    7350 3350
	1    0    0    -1  
$EndComp
$Comp
L GND #PWR014
U 1 1 5CB0473D
P 7300 2300
F 0 "#PWR014" H 7300 2050 50  0001 C CNN
F 1 "GND" H 7300 2150 50  0000 C CNN
F 2 "" H 7300 2300 50  0001 C CNN
F 3 "" H 7300 2300 50  0001 C CNN
	1    7300 2300
	0    1    1    0   
$EndComp
$Comp
L C C10
U 1 1 5CB04ACA
P 8350 3050
F 0 "C10" H 8375 3150 50  0000 L CNN
F 1 "1u" H 8375 2950 50  0000 L CNN
F 2 "" H 8388 2900 50  0001 C CNN
F 3 "" H 8350 3050 50  0001 C CNN
	1    8350 3050
	-1   0    0    1   
$EndComp
$Comp
L GND #PWR015
U 1 1 5CB04AD0
P 8350 3350
F 0 "#PWR015" H 8350 3100 50  0001 C CNN
F 1 "GND" H 8350 3200 50  0000 C CNN
F 2 "" H 8350 3350 50  0001 C CNN
F 3 "" H 8350 3350 50  0001 C CNN
	1    8350 3350
	1    0    0    -1  
$EndComp
$Comp
L C C11
U 1 1 5CB04F20
P 8500 2500
F 0 "C11" H 8525 2600 50  0000 L CNN
F 1 "0.01u" H 8525 2400 50  0000 L CNN
F 2 "" H 8538 2350 50  0001 C CNN
F 3 "" H 8500 2500 50  0001 C CNN
	1    8500 2500
	0    -1   -1   0   
$EndComp
$Comp
L L L1
U 1 1 5CB05418
P 8900 2500
F 0 "L1" V 8850 2500 50  0000 C CNN
F 1 "47u" V 8975 2500 50  0000 C CNN
F 2 "" H 8900 2500 50  0001 C CNN
F 3 "" H 8900 2500 50  0001 C CNN
	1    8900 2500
	0    -1   -1   0   
$EndComp
$Comp
L R R8
U 1 1 5CB059CD
P 9200 2750
F 0 "R8" V 9280 2750 50  0000 C CNN
F 1 "3k" V 9200 2750 50  0000 C CNN
F 2 "" V 9130 2750 50  0001 C CNN
F 3 "" H 9200 2750 50  0001 C CNN
	1    9200 2750
	-1   0    0    1   
$EndComp
$Comp
L R R9
U 1 1 5CB059D3
P 9200 3150
F 0 "R9" V 9280 3150 50  0000 C CNN
F 1 "2k" V 9200 3150 50  0000 C CNN
F 2 "" V 9130 3150 50  0001 C CNN
F 3 "" H 9200 3150 50  0001 C CNN
	1    9200 3150
	-1   0    0    1   
$EndComp
$Comp
L GND #PWR016
U 1 1 5CB059DB
P 9200 3350
F 0 "#PWR016" H 9200 3100 50  0001 C CNN
F 1 "GND" H 9200 3200 50  0000 C CNN
F 2 "" H 9200 3350 50  0001 C CNN
F 3 "" H 9200 3350 50  0001 C CNN
	1    9200 3350
	1    0    0    -1  
$EndComp
$Comp
L R R10
U 1 1 5CB06250
P 9450 2750
F 0 "R10" V 9530 2750 50  0000 C CNN
F 1 "3k" V 9450 2750 50  0000 C CNN
F 2 "" V 9380 2750 50  0001 C CNN
F 3 "" H 9450 2750 50  0001 C CNN
	1    9450 2750
	-1   0    0    1   
$EndComp
$Comp
L C C12
U 1 1 5CB06404
P 9450 3150
F 0 "C12" H 9475 3250 50  0000 L CNN
F 1 "10u" H 9475 3050 50  0000 L CNN
F 2 "" H 9488 3000 50  0001 C CNN
F 3 "" H 9450 3150 50  0001 C CNN
	1    9450 3150
	-1   0    0    1   
$EndComp
$Comp
L GND #PWR017
U 1 1 5CB06566
P 9450 3350
F 0 "#PWR017" H 9450 3100 50  0001 C CNN
F 1 "GND" H 9450 3200 50  0000 C CNN
F 2 "" H 9450 3350 50  0001 C CNN
F 3 "" H 9450 3350 50  0001 C CNN
	1    9450 3350
	1    0    0    -1  
$EndComp
$Comp
L C C13
U 1 1 5CB06688
P 9700 3150
F 0 "C13" H 9725 3250 50  0000 L CNN
F 1 "10u" H 9725 3050 50  0000 L CNN
F 2 "" H 9738 3000 50  0001 C CNN
F 3 "" H 9700 3150 50  0001 C CNN
	1    9700 3150
	-1   0    0    1   
$EndComp
$Comp
L GND #PWR018
U 1 1 5CB067C0
P 9700 3350
F 0 "#PWR018" H 9700 3100 50  0001 C CNN
F 1 "GND" H 9700 3200 50  0000 C CNN
F 2 "" H 9700 3350 50  0001 C CNN
F 3 "" H 9700 3350 50  0001 C CNN
	1    9700 3350
	1    0    0    -1  
$EndComp
Text GLabel 9650 2500 2    60   Input Italic 0
5VDC
$Comp
L C C4
U 1 1 5CB073F7
P 5700 2250
F 0 "C4" H 5725 2350 50  0000 L CNN
F 1 "2,2u" H 5725 2150 50  0000 L CNN
F 2 "" H 5738 2100 50  0001 C CNN
F 3 "" H 5700 2250 50  0001 C CNN
	1    5700 2250
	-1   0    0    1   
$EndComp
$Comp
L C C6
U 1 1 5CB07572
P 6200 2250
F 0 "C6" H 6225 2350 50  0000 L CNN
F 1 "0,47u" H 6225 2150 50  0000 L CNN
F 2 "" H 6238 2100 50  0001 C CNN
F 3 "" H 6200 2250 50  0001 C CNN
	1    6200 2250
	-1   0    0    1   
$EndComp
$Comp
L C C5
U 1 1 5CB07644
P 5950 2250
F 0 "C5" H 5975 2350 50  0000 L CNN
F 1 "2,2u" H 5975 2150 50  0000 L CNN
F 2 "" H 5988 2100 50  0001 C CNN
F 3 "" H 5950 2250 50  0001 C CNN
	1    5950 2250
	-1   0    0    1   
$EndComp
$Comp
L VCC #PWR019
U 1 1 5CB07D40
P 5450 2000
F 0 "#PWR019" H 5450 1850 50  0001 C CNN
F 1 "VCC" H 5450 2150 50  0000 C CNN
F 2 "" H 5450 2000 50  0001 C CNN
F 3 "" H 5450 2000 50  0001 C CNN
	1    5450 2000
	1    0    0    -1  
$EndComp
Wire Wire Line
	5600 5400 5600 5550
Wire Wire Line
	4950 5400 5600 5400
Wire Wire Line
	5500 4700 5500 6250
Wire Wire Line
	4950 5200 5500 5200
Connection ~ 5500 5200
Wire Wire Line
	5500 4350 5500 4400
Wire Wire Line
	3750 4350 5500 4350
Wire Wire Line
	6250 4800 6250 4750
Wire Wire Line
	6150 4750 6450 4750
Wire Wire Line
	6250 5100 6250 5150
Wire Wire Line
	6150 5150 6450 5150
Connection ~ 6250 4750
Connection ~ 6250 5150
Wire Wire Line
	5800 5150 5850 5150
Wire Wire Line
	6750 4750 6800 4750
Wire Wire Line
	6800 4750 6800 5150
Wire Wire Line
	6800 5150 6750 5150
Wire Wire Line
	6800 4950 6850 4950
Connection ~ 6800 4950
Wire Wire Line
	4950 4800 5300 4800
Wire Wire Line
	3750 4800 3750 4350
Wire Wire Line
	4250 4350 4250 4300
Connection ~ 4250 4350
Wire Wire Line
	1300 850  1300 750 
Wire Wire Line
	900  850  900  750 
Wire Wire Line
	4950 4900 5800 4900
Wire Wire Line
	4950 5000 5800 5000
Wire Wire Line
	5800 5000 5800 5150
Wire Wire Line
	5800 4900 5800 4750
Wire Wire Line
	5800 4750 5850 4750
Wire Wire Line
	5800 6200 5800 6150
Wire Wire Line
	5800 6150 5500 6150
Connection ~ 5500 6150
Wire Wire Line
	5800 6650 5800 6600
Wire Wire Line
	5500 6650 5500 6550
Wire Wire Line
	4950 5300 5700 5300
Wire Wire Line
	5700 5300 5700 5450
Wire Wire Line
	5250 6250 5250 6100
Wire Wire Line
	5250 6100 4950 6100
Wire Wire Line
	5300 6350 5300 5700
Wire Wire Line
	5300 5700 4950 5700
Wire Wire Line
	4950 5600 5350 5600
Wire Wire Line
	5350 5600 5350 6450
Wire Wire Line
	5400 6550 5400 5500
Wire Wire Line
	5400 5500 4950 5500
Wire Wire Line
	2300 5600 3750 5600
Wire Wire Line
	2300 5500 3750 5500
Wire Wire Line
	2300 5400 3000 5400
Wire Wire Line
	3000 5400 3000 6000
Wire Wire Line
	3000 6000 3750 6000
Wire Wire Line
	3050 6100 3750 6100
Wire Wire Line
	3050 5300 3050 6100
Wire Wire Line
	2300 5300 3050 5300
Wire Wire Line
	3100 6250 5250 6250
Wire Wire Line
	3100 5200 3100 6250
Wire Wire Line
	2300 5200 3100 5200
Wire Wire Line
	3150 6350 5300 6350
Wire Wire Line
	3150 5100 3150 6350
Wire Wire Line
	2300 5100 3150 5100
Wire Wire Line
	5350 6450 3200 6450
Wire Wire Line
	3200 6450 3200 5000
Wire Wire Line
	3200 5000 2300 5000
Wire Wire Line
	3250 6550 5400 6550
Wire Wire Line
	3250 4900 3250 6550
Wire Wire Line
	2300 4900 3250 4900
Wire Wire Line
	3450 4900 3750 4900
Wire Wire Line
	3450 4900 3450 4600
Wire Wire Line
	3450 4600 2300 4600
Wire Wire Line
	2300 4700 3400 4700
Wire Wire Line
	3400 4700 3400 5000
Wire Wire Line
	3400 5000 3750 5000
Wire Wire Line
	3350 5100 3750 5100
Wire Wire Line
	3350 5100 3350 4800
Wire Wire Line
	3350 4800 2300 4800
Wire Wire Line
	3350 5200 3750 5200
Wire Wire Line
	3400 5300 3750 5300
Wire Wire Line
	3450 5400 3750 5400
Wire Wire Line
	3450 5400 3450 5900
Wire Wire Line
	3450 5900 2300 5900
Wire Wire Line
	2300 5800 3400 5800
Wire Wire Line
	3400 5800 3400 5300
Wire Wire Line
	3350 5700 3350 5200
Wire Wire Line
	2300 5700 3350 5700
Wire Wire Line
	2300 4300 2350 4300
Wire Wire Line
	2600 4400 2300 4400
Wire Wire Line
	2300 4500 3150 4500
Wire Wire Line
	3150 4200 3200 4200
Wire Wire Line
	3350 4550 3350 4350
Wire Wire Line
	3350 4050 3350 4000
Wire Wire Line
	3150 4500 3150 4200
Wire Wire Line
	2450 4550 3350 4550
Wire Wire Line
	2450 4550 2450 6000
Wire Wire Line
	2450 6000 2300 6000
Wire Wire Line
	2700 6100 2650 6100
Wire Wire Line
	2350 6100 2300 6100
Wire Wire Line
	2300 6200 2350 6200
Wire Wire Line
	2350 6200 2350 6250
Wire Wire Line
	5700 5450 6000 5450
Wire Wire Line
	5600 5550 6000 5550
Wire Wire Line
	5000 5100 4950 5100
Wire Wire Line
	5000 5800 4950 5800
Wire Wire Line
	4950 5900 5000 5900
Wire Wire Line
	5000 6000 4950 6000
Wire Wire Line
	3750 5700 3700 5700
Wire Wire Line
	3750 5800 3700 5800
Wire Wire Line
	3750 5900 3700 5900
Wire Wire Line
	7400 2700 7000 2700
Wire Wire Line
	6550 2050 6550 2700
Wire Wire Line
	6550 2700 6700 2700
Wire Wire Line
	7400 2500 6550 2500
Connection ~ 6550 2500
Wire Wire Line
	7400 2600 6400 2600
Wire Wire Line
	6400 2550 6400 2650
Connection ~ 6400 2600
Wire Wire Line
	6400 2950 6400 3350
Wire Wire Line
	6400 2250 6400 2150
Wire Wire Line
	6400 2150 6550 2150
Connection ~ 6550 2150
Wire Wire Line
	7400 2800 7350 2800
Wire Wire Line
	7350 2800 7350 2900
Wire Wire Line
	7350 3200 7350 3350
Wire Wire Line
	7400 2400 7350 2400
Wire Wire Line
	7350 2400 7350 2300
Wire Wire Line
	7300 2300 7400 2300
Connection ~ 7350 2300
Wire Wire Line
	8300 2800 8350 2800
Wire Wire Line
	8350 2600 8350 2900
Wire Wire Line
	8350 2600 8300 2600
Wire Wire Line
	8350 3200 8350 3350
Connection ~ 8350 2800
Wire Wire Line
	8300 2400 8350 2400
Wire Wire Line
	8350 2400 8350 2300
Wire Wire Line
	8300 2300 8700 2300
Connection ~ 8350 2300
Wire Wire Line
	8300 2500 8350 2500
Wire Wire Line
	8700 2300 8700 2500
Wire Wire Line
	8650 2500 8750 2500
Connection ~ 8700 2500
Wire Wire Line
	9200 2900 9200 3000
Connection ~ 9200 2950
Wire Wire Line
	9200 2600 9200 2500
Wire Wire Line
	8300 2700 8850 2700
Wire Wire Line
	8850 2700 8850 2950
Wire Wire Line
	8850 2950 9200 2950
Wire Wire Line
	9200 3350 9200 3300
Connection ~ 9200 2500
Wire Wire Line
	9450 2500 9450 2600
Wire Wire Line
	9450 3000 9450 2900
Wire Wire Line
	9450 3350 9450 3300
Wire Wire Line
	9450 2950 9700 2950
Wire Wire Line
	9700 2950 9700 3000
Connection ~ 9450 2950
Wire Wire Line
	9700 3300 9700 3350
Connection ~ 9450 2500
Wire Wire Line
	9050 2500 9650 2500
Wire Wire Line
	6200 2400 6200 2450
Wire Wire Line
	6200 2450 5700 2450
Wire Wire Line
	5700 2450 5700 2400
Wire Wire Line
	5950 2400 5950 2450
Connection ~ 5950 2450
Wire Wire Line
	6200 2050 6200 2100
Wire Wire Line
	5450 2050 6550 2050
Wire Wire Line
	5700 2050 5700 2100
Wire Wire Line
	5950 2100 5950 2050
Connection ~ 5950 2050
Connection ~ 5700 2050
Wire Wire Line
	5450 2050 5450 2000
Connection ~ 6200 2050
$Comp
L LM2936-3.0 U1
U 1 1 5CB08E3E
P 2300 2700
F 0 "U1" H 2150 2825 50  0000 C CNN
F 1 "LM2936-3.0" H 2300 2825 50  0000 L CNN
F 2 "" H 2300 2925 50  0001 C CIN
F 3 "" H 2300 2650 50  0001 C CNN
	1    2300 2700
	1    0    0    -1  
$EndComp
$Comp
L C C1
U 1 1 5CB09903
P 1900 2900
F 0 "C1" H 1925 3000 50  0000 L CNN
F 1 "1u" H 1925 2800 50  0000 L CNN
F 2 "" H 1938 2750 50  0001 C CNN
F 3 "" H 1900 2900 50  0001 C CNN
	1    1900 2900
	-1   0    0    1   
$EndComp
$Comp
L CP1 C2
U 1 1 5CB099E8
P 2700 2900
F 0 "C2" H 2725 3000 50  0000 L CNN
F 1 "CP1" H 2725 2800 50  0000 L CNN
F 2 "" H 2700 2900 50  0001 C CNN
F 3 "" H 2700 2900 50  0001 C CNN
	1    2700 2900
	1    0    0    -1  
$EndComp
Wire Wire Line
	2600 2700 2850 2700
Wire Wire Line
	2700 2750 2700 2700
Connection ~ 2700 2700
Wire Wire Line
	2000 2700 1900 2700
Wire Wire Line
	1900 2650 1900 2750
Wire Wire Line
	2300 3000 2300 3100
$Comp
L GND #PWR020
U 1 1 5CB09DD5
P 1900 3100
F 0 "#PWR020" H 1900 2850 50  0001 C CNN
F 1 "GND" H 1900 2950 50  0000 C CNN
F 2 "" H 1900 3100 50  0001 C CNN
F 3 "" H 1900 3100 50  0001 C CNN
	1    1900 3100
	1    0    0    -1  
$EndComp
$Comp
L GND #PWR021
U 1 1 5CB09E55
P 2300 3100
F 0 "#PWR021" H 2300 2850 50  0001 C CNN
F 1 "GND" H 2300 2950 50  0000 C CNN
F 2 "" H 2300 3100 50  0001 C CNN
F 3 "" H 2300 3100 50  0001 C CNN
	1    2300 3100
	1    0    0    -1  
$EndComp
$Comp
L GND #PWR022
U 1 1 5CB09ED5
P 2700 3100
F 0 "#PWR022" H 2700 2850 50  0001 C CNN
F 1 "GND" H 2700 2950 50  0000 C CNN
F 2 "" H 2700 3100 50  0001 C CNN
F 3 "" H 2700 3100 50  0001 C CNN
	1    2700 3100
	1    0    0    -1  
$EndComp
Wire Wire Line
	2700 3100 2700 3050
Wire Wire Line
	1900 3100 1900 3050
Connection ~ 1900 2700
$Comp
L VCC #PWR023
U 1 1 5CB0A22E
P 1900 2650
F 0 "#PWR023" H 1900 2500 50  0001 C CNN
F 1 "VCC" H 1900 2800 50  0000 C CNN
F 2 "" H 1900 2650 50  0001 C CNN
F 3 "" H 1900 2650 50  0001 C CNN
	1    1900 2650
	1    0    0    -1  
$EndComp
Text GLabel 2850 2700 2    60   Input Italic 0
3,3VDC
$EndSCHEMATC
