\relax 
\@nameuse{bbl@beforestart}
\catcode `"\active 
\babel@aux{dutch}{}
\@writefile{@@@}{\chapterbegin }
\@writefile{@@@}{\chapterbegin }
\@writefile{@@@}{\chapterbegin }
\@writefile{@@@}{\chapterbegin }
\@writefile{@@@}{\chapterbegin }
\newlabel{hs:vb}{{}{7}}
\newlabel{hs:vb@cref}{{}{[1][7][]7}}
\@writefile{lot}{\contentsline {table}{\numberline {0.1}{\ignorespaces Versiehistorie\relax }}{7}\protected@file@percent }
\providecommand*\caption@xref[2]{\@setref\relax\@undefined{#1}}
\newlabel{tab:vb}{{0.1}{7}}
\newlabel{tab:vb@cref}{{[table][1][0]0.1}{[1][7][]7}}
\@writefile{@@@}{\chapterbegin }
\@writefile{toc}{\contentsline {chapter}{\numberline {1.}Inleiding}{12}\protected@file@percent }
\@writefile{lof}{\addvspace {10pt}}
\@writefile{lot}{\addvspace {10pt}}
\@writefile{lof}{\contentsline {xchapter}{Inleiding}{12}\protected@file@percent }
\@writefile{lot}{\contentsline {xchapter}{Inleiding}{12}\protected@file@percent }
\newlabel{hs:in}{{1}{12}}
\newlabel{hs:in@cref}{{[chapter][1][]1}{[1][12][]12}}
\@writefile{toc}{\contentsline {section}{\numberline {1.1}Bedrijfsachtergrond}{12}\protected@file@percent }
\@writefile{lof}{\contentsline {figure}{\numberline {1.1}{\ignorespaces Luiken voor in- en uitvoer van luchtstromen\relax }}{13}\protected@file@percent }
\newlabel{luik}{{1.1}{13}}
\newlabel{luik@cref}{{[figure][1][1]1.1}{[1][12][]13}}
\newlabel{im60}{{1.2a}{13}}
\newlabel{im60@cref}{{[subfigure][1][1,2]1.2a}{[1][13][]13}}
\newlabel{sub@im60}{{a}{13}}
\newlabel{sub@im60@cref}{{[subfigure][1][1,2]1.2a}{[1][13][]13}}
\newlabel{im125}{{1.2b}{13}}
\newlabel{im125@cref}{{[subfigure][2][1,2]1.2b}{[1][13][]13}}
\newlabel{sub@im125}{{b}{13}}
\newlabel{sub@im125@cref}{{[subfigure][2][1,2]1.2b}{[1][13][]13}}
\@writefile{lof}{\contentsline {figure}{\numberline {1.2}{\ignorespaces Motoren\relax }}{13}\protected@file@percent }
\newlabel{im60p}{{1.3a}{14}}
\newlabel{im60p@cref}{{[subfigure][1][1,3]1.3a}{[1][14][]14}}
\newlabel{sub@im60p}{{a}{14}}
\newlabel{sub@im60p@cref}{{[subfigure][1][1,3]1.3a}{[1][14][]14}}
\newlabel{im125p}{{1.3b}{14}}
\newlabel{im125p@cref}{{[subfigure][2][1,3]1.3b}{[1][14][]14}}
\newlabel{sub@im125p}{{b}{14}}
\newlabel{sub@im125p@cref}{{[subfigure][2][1,3]1.3b}{[1][14][]14}}
\@writefile{lof}{\contentsline {figure}{\numberline {1.3}{\ignorespaces Printplaten die de motoren aansturen\relax }}{14}\protected@file@percent }
\@writefile{toc}{\contentsline {section}{\numberline {1.2}Probleemstelling}{14}\protected@file@percent }
\newlabel{stal1}{{1.4a}{15}}
\newlabel{stal1@cref}{{[subfigure][1][1,4]1.4a}{[1][15][]15}}
\newlabel{sub@stal1}{{a}{15}}
\newlabel{sub@stal1@cref}{{[subfigure][1][1,4]1.4a}{[1][15][]15}}
\newlabel{stal2}{{1.4b}{15}}
\newlabel{stal2@cref}{{[subfigure][2][1,4]1.4b}{[1][15][]15}}
\newlabel{sub@stal2}{{b}{15}}
\newlabel{sub@stal2@cref}{{[subfigure][2][1,4]1.4b}{[1][15][]15}}
\@writefile{lof}{\contentsline {figure}{\numberline {1.4}{\ignorespaces Mogelijke ophanging motor\relax }}{15}\protected@file@percent }
\newlabel{stallensoorten}{{1.4}{15}}
\newlabel{stallensoorten@cref}{{[figure][4][1]1.4}{[1][15][]15}}
\@writefile{toc}{\contentsline {section}{\numberline {1.3}Doelstelling}{16}\protected@file@percent }
\@writefile{lof}{\contentsline {figure}{\numberline {1.5}{\ignorespaces V-model\relax }}{16}\protected@file@percent }
\newlabel{vmodel}{{1.5}{16}}
\newlabel{vmodel@cref}{{[figure][5][1]1.5}{[1][16][]16}}
\@writefile{toc}{\contentsline {chapter}{\numberline {2.}Onderzoek}{17}\protected@file@percent }
\@writefile{lof}{\addvspace {10pt}}
\@writefile{lot}{\addvspace {10pt}}
\@writefile{lof}{\contentsline {xchapter}{Onderzoek}{17}\protected@file@percent }
\@writefile{lot}{\contentsline {xchapter}{Onderzoek}{17}\protected@file@percent }
\@writefile{toc}{\contentsline {chapter}{\numberline {3.}Requirements}{18}\protected@file@percent }
\@writefile{lof}{\addvspace {10pt}}
\@writefile{lot}{\addvspace {10pt}}
\@writefile{lof}{\contentsline {xchapter}{Requirements}{18}\protected@file@percent }
\@writefile{lot}{\contentsline {xchapter}{Requirements}{18}\protected@file@percent }
\newlabel{hs:h2}{{3}{18}}
\newlabel{hs:h2@cref}{{[chapter][3][]3}{[1][18][]18}}
\@writefile{toc}{\contentsline {section}{\numberline {3.1}Systeemcontext}{18}\protected@file@percent }
\@writefile{toc}{\contentsline {subsection}{\numberline {3.1.1}Systeemfuncties}{18}\protected@file@percent }
\@writefile{lof}{\contentsline {figure}{\numberline {3.1}{\ignorespaces Data Context Diagram\relax }}{19}\protected@file@percent }
\newlabel{DCD}{{3.1}{19}}
\newlabel{DCD@cref}{{[figure][1][3]3.1}{[1][19][]19}}
\@writefile{toc}{\contentsline {section}{\numberline {3.2}Systeemfuncties}{20}\protected@file@percent }
\newlabel{hs:h24}{{3.2}{20}}
\newlabel{hs:h24@cref}{{[section][2][3]3.2}{[1][20][]20}}
\@writefile{toc}{\contentsline {subsection}{\numberline {3.2.1}Communicatie Bluetooth }{20}\protected@file@percent }
\newlabel{hs:h241}{{3.2.1}{20}}
\newlabel{hs:h241@cref}{{[subsection][1][3,2]3.2.1}{[1][20][]20}}
\@writefile{toc}{\contentsline {subsubsection}{Stimulus en response}{20}\protected@file@percent }
\newlabel{2411}{{3.2.1}{20}}
\newlabel{2411@cref}{{[subsection][1][3,2]3.2.1}{[1][20][]20}}
\@writefile{toc}{\contentsline {subsubsection}{Functionele klanteisen}{20}\protected@file@percent }
\newlabel{2411}{{3.2.1}{20}}
\newlabel{2411@cref}{{[subsection][1][3,2]3.2.1}{[1][20][]20}}
\@writefile{toc}{\contentsline {subsection}{\numberline {3.2.2}Communicatie met IM60/IM125}{21}\protected@file@percent }
\newlabel{hs:h242}{{3.2.2}{21}}
\newlabel{hs:h242@cref}{{[subsection][2][3,2]3.2.2}{[1][21][]21}}
\@writefile{toc}{\contentsline {subsubsection}{Stimulus en response}{21}\protected@file@percent }
\newlabel{2421}{{3.2.2}{21}}
\newlabel{2421@cref}{{[subsection][2][3,2]3.2.2}{[1][21][]21}}
\@writefile{toc}{\contentsline {subsubsection}{Functionele klanteisen}{21}\protected@file@percent }
\newlabel{2421}{{3.2.2}{21}}
\newlabel{2421@cref}{{[subsection][2][3,2]3.2.2}{[1][21][]21}}
\@writefile{toc}{\contentsline {subsection}{\numberline {3.2.3}Opslaan data}{22}\protected@file@percent }
\newlabel{hs:h243}{{3.2.3}{22}}
\newlabel{hs:h243@cref}{{[subsection][3][3,2]3.2.3}{[1][22][]22}}
\@writefile{toc}{\contentsline {subsubsection}{Stimulus en response}{22}\protected@file@percent }
\newlabel{2431}{{3.2.3}{22}}
\newlabel{2431@cref}{{[subsection][3][3,2]3.2.3}{[1][22][]22}}
\@writefile{toc}{\contentsline {subsubsection}{Functionele klanteisen}{22}\protected@file@percent }
\newlabel{2431}{{3.2.3}{22}}
\newlabel{2431@cref}{{[subsection][3][3,2]3.2.3}{[1][22][]22}}
\@writefile{toc}{\contentsline {subsection}{\numberline {3.2.4}Identificeren systeem}{22}\protected@file@percent }
\newlabel{hs:h243}{{3.2.4}{22}}
\newlabel{hs:h243@cref}{{[subsection][4][3,2]3.2.4}{[1][22][]22}}
\@writefile{toc}{\contentsline {subsubsection}{Stimulus en response}{22}\protected@file@percent }
\newlabel{2431}{{3.2.4}{22}}
\newlabel{2431@cref}{{[subsection][4][3,2]3.2.4}{[1][22][]22}}
\@writefile{toc}{\contentsline {subsubsection}{Functionele klanteisen}{22}\protected@file@percent }
\newlabel{2431}{{3.2.4}{22}}
\newlabel{2431@cref}{{[subsection][4][3,2]3.2.4}{[1][22][]22}}
\@writefile{toc}{\contentsline {section}{\numberline {3.3}Niet-functionele klanteisen}{23}\protected@file@percent }
\newlabel{hs:h25}{{3.3}{23}}
\newlabel{hs:h25@cref}{{[section][3][3]3.3}{[1][23][]23}}
\@writefile{toc}{\contentsline {chapter}{\numberline {4.}Architectuur}{24}\protected@file@percent }
\@writefile{lof}{\addvspace {10pt}}
\@writefile{lot}{\addvspace {10pt}}
\@writefile{lof}{\contentsline {xchapter}{Architectuur}{24}\protected@file@percent }
\@writefile{lot}{\contentsline {xchapter}{Architectuur}{24}\protected@file@percent }
\@writefile{lof}{\contentsline {figure}{\numberline {4.1}{\ignorespaces Data Flow Diagram 0\relax }}{24}\protected@file@percent }
\newlabel{DFD0}{{4.1}{24}}
\newlabel{DFD0@cref}{{[figure][1][4]4.1}{[1][24][]24}}
\@writefile{toc}{\contentsline {section}{\numberline {4.1}Ontwerpbesluiten}{25}\protected@file@percent }
\@writefile{toc}{\contentsline {section}{\numberline {4.2}Deelsysteem 1: Control mesh}{25}\protected@file@percent }
\@writefile{lot}{\contentsline {table}{\numberline {4.1}{\ignorespaces Overzicht draadloze verbindingen\relax }}{25}\protected@file@percent }
\newlabel{keusdraadloos}{{4.1}{25}}
\newlabel{keusdraadloos@cref}{{[table][1][4]4.1}{[1][25][]25}}
\@writefile{lof}{\contentsline {figure}{\numberline {4.2}{\ignorespaces Schematische weergave nodes in stal \relax }}{26}\protected@file@percent }
\newlabel{nodesstal}{{4.2}{26}}
\newlabel{nodesstal@cref}{{[figure][2][4]4.2}{[1][26][]26}}
\@writefile{lof}{\contentsline {figure}{\numberline {4.3}{\ignorespaces BT840 Bluetooth module van Fanstel\relax }}{27}\protected@file@percent }
\newlabel{BT840}{{4.3}{27}}
\newlabel{BT840@cref}{{[figure][3][4]4.3}{[1][27][]27}}
\@writefile{lot}{\contentsline {table}{\numberline {4.2}{\ignorespaces Keuze matrix Draadloze $\mu C$ (*Prijzen Mouser rond 03-03-2020)\relax }}{28}\protected@file@percent }
\newlabel{tabmcu}{{4.2}{28}}
\newlabel{tabmcu@cref}{{[table][2][4]4.2}{[1][28][]28}}
\@writefile{lot}{\contentsline {table}{\numberline {4.3}{\ignorespaces Keuzetabel mesh model\relax }}{29}\protected@file@percent }
\newlabel{Meshmodel}{{4.3}{29}}
\newlabel{Meshmodel@cref}{{[table][3][4]4.3}{[1][29][]29}}
\@writefile{toc}{\contentsline {section}{\numberline {4.3}Identificeren Systeem}{29}\protected@file@percent }
\@writefile{lot}{\contentsline {table}{\numberline {4.4}{\ignorespaces Keuzetabel flits LED\relax }}{29}\protected@file@percent }
\newlabel{pulsemaken}{{4.4}{29}}
\newlabel{pulsemaken@cref}{{[table][4][4]4.4}{[1][29][]29}}
\@writefile{lot}{\contentsline {table}{\numberline {4.5}{\ignorespaces Keuzetabel PWM\relax }}{30}\protected@file@percent }
\newlabel{PWMgenereren}{{4.5}{30}}
\newlabel{PWMgenereren@cref}{{[table][5][4]4.5}{[1][30][]30}}
\@writefile{toc}{\contentsline {section}{\numberline {4.4}Opslaan gegevens}{30}\protected@file@percent }
\@writefile{lot}{\contentsline {table}{\numberline {4.6}{\ignorespaces Keuzetabel opslaan gegevens\relax }}{30}\protected@file@percent }
\newlabel{opslaandata}{{4.6}{30}}
\newlabel{opslaandata@cref}{{[table][6][4]4.6}{[1][30][]30}}
\@writefile{toc}{\contentsline {chapter}{\numberline {5.}Detailontwerp}{31}\protected@file@percent }
\@writefile{lof}{\addvspace {10pt}}
\@writefile{lot}{\addvspace {10pt}}
\@writefile{lof}{\contentsline {xchapter}{Detailontwerp}{31}\protected@file@percent }
\@writefile{lot}{\contentsline {xchapter}{Detailontwerp}{31}\protected@file@percent }
\@writefile{lof}{\contentsline {figure}{\numberline {5.1}{\ignorespaces Architectuur Interconnect Diagram\relax }}{31}\protected@file@percent }
\newlabel{AID}{{5.1}{31}}
\newlabel{AID@cref}{{[figure][1][5]5.1}{[1][31][]31}}
\@writefile{lot}{\contentsline {table}{\numberline {5.1}{\ignorespaces Traceertabel Requirements \relax }}{33}\protected@file@percent }
\newlabel{tab:tr}{{5.1}{33}}
\newlabel{tab:tr@cref}{{[table][1][5]5.1}{[1][33][]33}}
\@writefile{toc}{\contentsline {section}{\numberline {5.1}Unit 1: Microcontroller}{34}\protected@file@percent }
\@writefile{toc}{\contentsline {subsection}{\numberline {5.1.1}Unit 1.2: UART IM60/IM125}{34}\protected@file@percent }
\newlabel{hs:43}{{5.1.1}{34}}
\newlabel{hs:43@cref}{{[subsection][1][5,1]5.1.1}{[1][34][]34}}
\@writefile{lof}{\contentsline {figure}{\numberline {5.2}{\ignorespaces Easydma nRF52840\relax }}{34}\protected@file@percent }
\newlabel{dma}{{5.2}{34}}
\newlabel{dma@cref}{{[figure][2][5]5.2}{[1][34][]34}}
\@writefile{toc}{\contentsline {subsection}{\numberline {5.1.2}TX}{35}\protected@file@percent }
\@writefile{lof}{\contentsline {figure}{\numberline {5.3}{\ignorespaces Zenden UART\relax }}{35}\protected@file@percent }
\newlabel{uarttx}{{5.3}{35}}
\newlabel{uarttx@cref}{{[figure][3][5]5.3}{[1][35][]35}}
\newlabel{frameformat}{{5.4a}{36}}
\newlabel{frameformat@cref}{{[subfigure][1][5,4]5.4a}{[1][36][]36}}
\newlabel{sub@frameformat}{{a}{36}}
\newlabel{sub@frameformat@cref}{{[subfigure][1][5,4]5.4a}{[1][36][]36}}
\newlabel{framecontent}{{5.4b}{36}}
\newlabel{framecontent@cref}{{[subfigure][2][5,4]5.4b}{[1][36][]36}}
\newlabel{sub@framecontent}{{b}{36}}
\newlabel{sub@framecontent@cref}{{[subfigure][2][5,4]5.4b}{[1][36][]36}}
\@writefile{lof}{\contentsline {figure}{\numberline {5.4}{\ignorespaces Inhoud commando\relax }}{36}\protected@file@percent }
\@writefile{lof}{\contentsline {figure}{\numberline {5.5}{\ignorespaces Communicatie UART\relax }}{36}\protected@file@percent }
\newlabel{uarttx}{{5.5}{36}}
\newlabel{uarttx@cref}{{[figure][5][5]5.5}{[1][36][]36}}
\@writefile{toc}{\contentsline {subsection}{\numberline {5.1.3}RX}{37}\protected@file@percent }
\@writefile{lof}{\contentsline {figure}{\numberline {5.6}{\ignorespaces Ontvangen UART\relax }}{37}\protected@file@percent }
\newlabel{uartrx}{{5.6}{37}}
\newlabel{uartrx@cref}{{[figure][6][5]5.6}{[1][37][]37}}
\@writefile{lof}{\contentsline {figure}{\numberline {5.7}{\ignorespaces Ontvangen UART Flowdiagram\relax }}{38}\protected@file@percent }
\newlabel{rxflow}{{5.7}{38}}
\newlabel{rxflow@cref}{{[figure][7][5]5.7}{[1][38][]38}}
\citation{Introduction2017}
\@writefile{toc}{\contentsline {subsection}{\numberline {5.1.4}Unit 1.2: Bluetooth 5.0 mesh}{39}\protected@file@percent }
\@writefile{toc}{\contentsline {subsubsection}{Node}{39}\protected@file@percent }
\@writefile{lof}{\contentsline {figure}{\numberline {5.8}{\ignorespaces Opbouw node\relax }}{39}\protected@file@percent }
\newlabel{nodestruct}{{5.8}{39}}
\newlabel{nodestruct@cref}{{[figure][8][5]5.8}{[1][39][]39}}
\@writefile{toc}{\contentsline {subsubsection}{Model}{40}\protected@file@percent }
\@writefile{lof}{\contentsline {figure}{\numberline {5.9}{\ignorespaces Client en server\relax }}{40}\protected@file@percent }
\newlabel{clientserver}{{5.9}{40}}
\newlabel{clientserver@cref}{{[figure][9][5]5.9}{[1][40][]40}}
\@writefile{toc}{\contentsline {subsubsection}{Proxy}{41}\protected@file@percent }
\newlabel{nodeproxy}{{5.10a}{41}}
\newlabel{nodeproxy@cref}{{[subfigure][1][5,10]5.10a}{[1][41][]41}}
\newlabel{sub@nodeproxy}{{a}{41}}
\newlabel{sub@nodeproxy@cref}{{[subfigure][1][5,10]5.10a}{[1][41][]41}}
\newlabel{stalgatt}{{5.10b}{41}}
\newlabel{stalgatt@cref}{{[subfigure][2][5,10]5.10b}{[1][41][]41}}
\newlabel{sub@stalgatt}{{b}{41}}
\newlabel{sub@stalgatt@cref}{{[subfigure][2][5,10]5.10b}{[1][41][]41}}
\@writefile{lof}{\contentsline {figure}{\numberline {5.10}{\ignorespaces De stal met mesh nodes\relax }}{41}\protected@file@percent }
\citation{codemeshlr}
\@writefile{toc}{\contentsline {subsubsection}{Bereik}{42}\protected@file@percent }
\@writefile{toc}{\contentsline {section}{\numberline {5.2}Unit 1.3: Opslaam data}{43}\protected@file@percent }
\@writefile{lot}{\contentsline {table}{\numberline {5.2}{\ignorespaces Keuzetabel opslag\relax }}{43}\protected@file@percent }
\newlabel{Memory}{{5.2}{43}}
\newlabel{Memory@cref}{{[table][2][5]5.2}{[1][43][]43}}
\@writefile{lof}{\contentsline {figure}{\numberline {5.11}{\ignorespaces MX25R6435FM2IH0 in Altium\relax }}{43}\protected@file@percent }
\newlabel{flash}{{5.11}{43}}
\newlabel{flash@cref}{{[figure][11][5]5.11}{[1][43][]43}}
\@writefile{lof}{\contentsline {figure}{\numberline {5.12}{\ignorespaces SPI transactie nRF52840\relax }}{44}\protected@file@percent }
\newlabel{spi}{{5.12}{44}}
\newlabel{spi@cref}{{[figure][12][5]5.12}{[1][43][]44}}
\@writefile{toc}{\contentsline {subsection}{\numberline {5.2.1}Software}{44}\protected@file@percent }
\@writefile{lof}{\contentsline {figure}{\numberline {5.13}{\ignorespaces Flowdiagram transmit\relax }}{45}\protected@file@percent }
\newlabel{spitx}{{5.13}{45}}
\newlabel{spitx@cref}{{[figure][13][5]5.13}{[1][45][]45}}
\@writefile{lof}{\contentsline {figure}{\numberline {5.14}{\ignorespaces Flowdiagram receive\relax }}{46}\protected@file@percent }
\newlabel{spirx}{{5.14}{46}}
\newlabel{spirx@cref}{{[figure][14][5]5.14}{[1][46][]46}}
\@writefile{lof}{\contentsline {figure}{\numberline {5.15}{\ignorespaces Indeling adressen flash geheugen\relax }}{46}\protected@file@percent }
\newlabel{spimem}{{5.15}{46}}
\newlabel{spimem@cref}{{[figure][15][5]5.15}{[1][46][]46}}
\citation{Pylarinos2003}
\@writefile{toc}{\contentsline {section}{\numberline {5.3}Unit 2: LED schakeling}{47}\protected@file@percent }
\@writefile{lof}{\contentsline {figure}{\numberline {5.16}{\ignorespaces Principe Charge Pump\relax }}{47}\protected@file@percent }
\newlabel{prcp}{{5.16}{47}}
\newlabel{prcp@cref}{{[figure][16][5]5.16}{[1][47][]47}}
\@writefile{lof}{\contentsline {figure}{\numberline {5.17}{\ignorespaces Charge pump\relax }}{47}\protected@file@percent }
\newlabel{schemacp}{{5.17}{47}}
\newlabel{schemacp@cref}{{[figure][17][5]5.17}{[1][47][]47}}
\citation{Palumbo2010}
\@writefile{lot}{\contentsline {table}{\numberline {5.3}{\ignorespaces Keuzetabel schakel element\relax }}{48}\protected@file@percent }
\newlabel{schakel}{{5.3}{48}}
\newlabel{schakel@cref}{{[table][3][5]5.3}{[1][48][]48}}
\newlabel{eqvout}{{5.1}{48}}
\newlabel{eqvout@cref}{{[equation][1][5]5.1}{[1][48][]48}}
\@writefile{lot}{\contentsline {table}{\numberline {5.4}{\ignorespaces Keuzetabel Schakelen LED\relax }}{48}\protected@file@percent }
\newlabel{schakelled}{{5.4}{48}}
\newlabel{schakelled@cref}{{[table][4][5]5.4}{[1][48][]48}}
\@writefile{lof}{\contentsline {figure}{\numberline {5.18}{\ignorespaces Charge pump met schakel gedeelte\relax }}{49}\protected@file@percent }
\newlabel{schemacpschakel}{{5.18}{49}}
\newlabel{schemacpschakel@cref}{{[figure][18][5]5.18}{[1][48][]49}}
\newlabel{eqmaasc}{{5.3}{49}}
\newlabel{eqmaasc@cref}{{[equation][3][5]5.3}{[1][49][]49}}
\citation{Campbell1966}
\@writefile{lot}{\contentsline {table}{\numberline {5.5}{\ignorespaces Keuzetabel Schakelen LED\relax }}{50}\protected@file@percent }
\newlabel{schakelled}{{5.5}{50}}
\newlabel{schakelled@cref}{{[table][5][5]5.5}{[1][50][]50}}
\@writefile{lot}{\contentsline {table}{\numberline {5.6}{\ignorespaces Keuzetabel LED\relax }}{50}\protected@file@percent }
\@writefile{lof}{\contentsline {figure}{\numberline {5.19}{\ignorespaces Simulatie spanning op LED\relax }}{51}\protected@file@percent }
\newlabel{schemacpschakellt}{{5.19}{51}}
\newlabel{schemacpschakellt@cref}{{[figure][19][5]5.19}{[1][50][]51}}
\@writefile{lof}{\contentsline {figure}{\numberline {5.20}{\ignorespaces Simulatie stroom door LED bij pulse\relax }}{51}\protected@file@percent }
\newlabel{schemacpschakellt}{{5.20}{51}}
\newlabel{schemacpschakellt@cref}{{[figure][20][5]5.20}{[1][50][]51}}
\@writefile{lof}{\contentsline {figure}{\numberline {5.21}{\ignorespaces Charge pump in LT-Spice\relax }}{52}\protected@file@percent }
\newlabel{similed}{{5.21}{52}}
\newlabel{similed@cref}{{[figure][21][5]5.21}{[1][51][]52}}
\@writefile{lof}{\contentsline {figure}{\numberline {5.22}{\ignorespaces Simulatie spanning LED ingezoomd\relax }}{52}\protected@file@percent }
\newlabel{schemacpschakellt}{{5.22}{52}}
\newlabel{schemacpschakellt@cref}{{[figure][22][5]5.22}{[1][51][]52}}
\@writefile{toc}{\contentsline {chapter}{\numberline {6.}Testen}{53}\protected@file@percent }
\@writefile{lof}{\addvspace {10pt}}
\@writefile{lot}{\addvspace {10pt}}
\@writefile{lof}{\contentsline {xchapter}{Testen}{53}\protected@file@percent }
\@writefile{lot}{\contentsline {xchapter}{Testen}{53}\protected@file@percent }
\@writefile{toc}{\contentsline {chapter}{\numberline {7.}Conclusie}{54}\protected@file@percent }
\@writefile{lof}{\addvspace {10pt}}
\@writefile{lot}{\addvspace {10pt}}
\@writefile{lof}{\contentsline {xchapter}{Conclusie}{54}\protected@file@percent }
\@writefile{lot}{\contentsline {xchapter}{Conclusie}{54}\protected@file@percent }
\@writefile{toc}{\contentsline {chapter}{\numberline {8.}Aanbevelingen}{55}\protected@file@percent }
\@writefile{lof}{\addvspace {10pt}}
\@writefile{lot}{\addvspace {10pt}}
\@writefile{lof}{\contentsline {xchapter}{Aanbevelingen}{55}\protected@file@percent }
\@writefile{lot}{\contentsline {xchapter}{Aanbevelingen}{55}\protected@file@percent }
\@writefile{toc}{\contentsline {section}{\numberline {8.1}Plaatsing op IM60/IM125}{55}\protected@file@percent }
\@writefile{toc}{\contentsline {chapter}{Appendices}{56}\protected@file@percent }
\citation{cbs}
\@writefile{toc}{\contentsline {chapter}{\numberline {A.}Onderzoek draadloze technologieën}{57}\protected@file@percent }
\@writefile{lof}{\addvspace {10pt}}
\@writefile{lot}{\addvspace {10pt}}
\@writefile{lof}{\contentsline {xchapter}{Onderzoek draadloze technologieën}{57}\protected@file@percent }
\@writefile{lot}{\contentsline {xchapter}{Onderzoek draadloze technologieën}{57}\protected@file@percent }
\newlabel{onddr}{{A}{57}}
\newlabel{onddr@cref}{{[chapter][1][]A}{[1][57][]57}}
\@writefile{toc}{\contentsline {section}{\numberline {A.1}Inleiding}{57}\protected@file@percent }
\newlabel{stal1}{{A.1a}{58}}
\newlabel{stal1@cref}{{[subfigure][1][1,1]A.1a}{[1][58][]58}}
\newlabel{sub@stal1}{{a}{58}}
\newlabel{sub@stal1@cref}{{[subfigure][1][1,1]A.1a}{[1][58][]58}}
\newlabel{stal2}{{A.1b}{58}}
\newlabel{stal2@cref}{{[subfigure][2][1,1]A.1b}{[1][58][]58}}
\newlabel{sub@stal2}{{b}{58}}
\newlabel{sub@stal2@cref}{{[subfigure][2][1,1]A.1b}{[1][58][]58}}
\@writefile{lof}{\contentsline {figure}{\numberline {A.1}{\ignorespaces Mogelijke ophanging motor\relax }}{58}\protected@file@percent }
\citation{los}
\citation{topo}
\@writefile{toc}{\contentsline {section}{\numberline {A.2}Draadloze technologieën}{59}\protected@file@percent }
\@writefile{lof}{\contentsline {figure}{\numberline {A.2}{\ignorespaces Line Of Sight \relax }}{59}\protected@file@percent }
\newlabel{los}{{A.2}{59}}
\newlabel{los@cref}{{[figure][2][1]A.2}{[1][59][]59}}
\citation{Verma2013}
\citation{Zhao2014}
\citation{meshfaq}
\citation{meshfaq}
\citation{Yaakop2017}
\citation{zigbee}
\citation{Ali-rantala}
\citation{Chruszczyk2017}
\@writefile{toc}{\contentsline {subsection}{\numberline {A.2.1}Frequentie, bereik en maximale snelheid}{60}\protected@file@percent }
\citation{DelaCruz2016}
\citation{starmesh}
\citation{hu2013}
\citation{blfees}
\citation{lora}
\@writefile{toc}{\contentsline {subsection}{\numberline {A.2.2}Topologie en gebruik smartphone}{61}\protected@file@percent }
\newlabel{star}{{A.3a}{61}}
\newlabel{star@cref}{{[subfigure][1][1,3]A.3a}{[1][61][]61}}
\newlabel{sub@star}{{a}{61}}
\newlabel{sub@star@cref}{{[subfigure][1][1,3]A.3a}{[1][61][]61}}
\newlabel{mesh}{{A.3b}{61}}
\newlabel{mesh@cref}{{[subfigure][2][1,3]A.3b}{[1][61][]61}}
\newlabel{sub@mesh}{{b}{61}}
\newlabel{sub@mesh@cref}{{[subfigure][2][1,3]A.3b}{[1][61][]61}}
\@writefile{lof}{\contentsline {figure}{\numberline {A.3}{\ignorespaces Twee verschillende netwerk configuraties\relax }}{61}\protected@file@percent }
\@writefile{toc}{\contentsline {subsection}{\numberline {A.2.3}Kosten}{61}\protected@file@percent }
\citation{zigbee}
\@writefile{toc}{\contentsline {section}{\numberline {A.3}Conclusie}{63}\protected@file@percent }
\@writefile{lot}{\contentsline {table}{\numberline {A.1}{\ignorespaces Overzicht draadloze verbindingen\relax }}{63}\protected@file@percent }
\newlabel{tbWrlss}{{A.1}{63}}
\newlabel{tbWrlss@cref}{{[table][1][1]A.1}{[1][63][]63}}
\@writefile{toc}{\contentsline {chapter}{\numberline {B.}Onderzoek Bluetooth mesh}{64}\protected@file@percent }
\@writefile{lof}{\addvspace {10pt}}
\@writefile{lot}{\addvspace {10pt}}
\@writefile{lof}{\contentsline {xchapter}{Onderzoek Bluetooth mesh}{64}\protected@file@percent }
\@writefile{lot}{\contentsline {xchapter}{Onderzoek Bluetooth mesh}{64}\protected@file@percent }
\newlabel{ondmesh}{{B}{64}}
\newlabel{ondmesh@cref}{{[chapter][2][]B}{[1][64][]64}}
\citation{btversions}
\@writefile{toc}{\contentsline {section}{\numberline {B.1}Inleiding}{65}\protected@file@percent }
\@writefile{toc}{\contentsline {section}{\numberline {B.2}Bluetooth Low Energie}{65}\protected@file@percent }
\@writefile{lof}{\contentsline {figure}{\numberline {B.1}{\ignorespaces BLE stack\relax }}{65}\protected@file@percent }
\newlabel{blestack}{{B.1}{65}}
\newlabel{blestack@cref}{{[figure][1][2]B.1}{[1][65][]65}}
\citation{Gomez2012}
\citation{btgatt}
\@writefile{toc}{\contentsline {paragraph}{Physical layer}{66}\protected@file@percent }
\@writefile{lof}{\contentsline {figure}{\numberline {B.2}{\ignorespaces Fequentiespectrum\relax }}{66}\protected@file@percent }
\newlabel{freqhop}{{B.2}{66}}
\newlabel{freqhop@cref}{{[figure][2][2]B.2}{[1][66][]66}}
\@writefile{toc}{\contentsline {paragraph}{Link layer}{66}\protected@file@percent }
\@writefile{toc}{\contentsline {paragraph}{L2CAP}{66}\protected@file@percent }
\@writefile{toc}{\contentsline {paragraph}{GAP}{66}\protected@file@percent }
\@writefile{toc}{\contentsline {paragraph}{Attribute Protocol}{66}\protected@file@percent }
\@writefile{lof}{\contentsline {figure}{\numberline {B.3}{\ignorespaces Attribute structure\relax }}{67}\protected@file@percent }
\newlabel{attstruct}{{B.3}{67}}
\newlabel{attstruct@cref}{{[figure][3][2]B.3}{[1][67][]67}}
\@writefile{toc}{\contentsline {paragraph}{GATT}{68}\protected@file@percent }
\@writefile{toc}{\contentsline {section}{\numberline {B.3}Bluetooth mesh}{68}\protected@file@percent }
\@writefile{lof}{\contentsline {figure}{\numberline {B.4}{\ignorespaces Mesh layers\relax }}{68}\protected@file@percent }
\newlabel{meshlayer}{{B.4}{68}}
\newlabel{meshlayer@cref}{{[figure][4][2]B.4}{[1][68][]68}}
\@writefile{toc}{\contentsline {paragraph}{Bearer Layer}{69}\protected@file@percent }
\@writefile{toc}{\contentsline {paragraph}{Network Layer}{69}\protected@file@percent }
\@writefile{toc}{\contentsline {paragraph}{Lower Transport Layer}{69}\protected@file@percent }
\@writefile{toc}{\contentsline {paragraph}{Upper Transport Layer}{69}\protected@file@percent }
\@writefile{toc}{\contentsline {paragraph}{Acces Layer}{69}\protected@file@percent }
\@writefile{toc}{\contentsline {paragraph}{Foundation Model Layer}{69}\protected@file@percent }
\@writefile{toc}{\contentsline {paragraph}{Model layer}{69}\protected@file@percent }
\@writefile{lof}{\contentsline {figure}{\numberline {B.5}{\ignorespaces Mesh Netwerk\relax }}{70}\protected@file@percent }
\newlabel{meshnetwerk}{{B.5}{70}}
\newlabel{meshnetwerk@cref}{{[figure][5][2]B.5}{[1][70][]70}}
\@writefile{toc}{\contentsline {section}{\numberline {B.4}Test mesh}{70}\protected@file@percent }
\@writefile{lof}{\contentsline {figure}{\numberline {B.6}{\ignorespaces Mesh layers\relax }}{71}\protected@file@percent }
\newlabel{testmesh}{{B.6}{71}}
\newlabel{testmesh@cref}{{[figure][6][2]B.6}{[1][70][]71}}
\@writefile{toc}{\contentsline {section}{\numberline {B.5}Conclusie}{71}\protected@file@percent }
\citation{Specification2018}
\citation{Campbell1966}
\citation{ccled}
\@writefile{toc}{\contentsline {chapter}{\numberline {C.}Onderzoek LED}{72}\protected@file@percent }
\@writefile{lof}{\addvspace {10pt}}
\@writefile{lot}{\addvspace {10pt}}
\@writefile{lof}{\contentsline {xchapter}{Onderzoek LED}{72}\protected@file@percent }
\@writefile{lot}{\contentsline {xchapter}{Onderzoek LED}{72}\protected@file@percent }
\newlabel{ondled}{{C}{72}}
\newlabel{ondled@cref}{{[chapter][3][]C}{[1][72][]72}}
\@writefile{lof}{\contentsline {figure}{\numberline {C.1}{\ignorespaces LED Forward Current en Load\relax }}{72}\protected@file@percent }
\newlabel{ILED}{{C.1}{72}}
\newlabel{ILED@cref}{{[figure][1][3]C.1}{[1][72][]72}}
\@writefile{toc}{\contentsline {section}{\numberline {C.1}DC-DC conversie}{73}\protected@file@percent }
\@writefile{toc}{\contentsline {subsection}{\numberline {C.1.1}Charge pump}{73}\protected@file@percent }
\@writefile{lof}{\contentsline {figure}{\numberline {C.2}{\ignorespaces Charge pump\relax }}{73}\protected@file@percent }
\newlabel{VD}{{C.2}{73}}
\newlabel{VD@cref}{{[figure][2][3]C.2}{[1][73][]73}}
\newlabel{eqvc2}{{C.2}{73}}
\newlabel{eqvc2@cref}{{[equation][2][3]C.2}{[1][73][]73}}
\newlabel{eqvc2}{{C.3}{73}}
\newlabel{eqvc2@cref}{{[equation][3][3]C.3}{[1][73][]73}}
\@writefile{toc}{\contentsline {subsubsection}{Simulatie en opbouw Charge pump}{74}\protected@file@percent }
\@writefile{lof}{\contentsline {figure}{\numberline {C.3}{\ignorespaces Chargepump in LT spice opgebouwd\relax }}{75}\protected@file@percent }
\newlabel{CPLT}{{C.3}{75}}
\newlabel{CPLT@cref}{{[figure][3][3]C.3}{[1][74][]75}}
\@writefile{lof}{\contentsline {figure}{\numberline {C.4}{\ignorespaces Vout in simulatie\relax }}{76}\protected@file@percent }
\newlabel{VOCPLT}{{C.4}{76}}
\newlabel{VOCPLT@cref}{{[figure][4][3]C.4}{[1][75][]76}}
\@writefile{lof}{\contentsline {figure}{\numberline {C.5}{\ignorespaces Vout in scope\relax }}{77}\protected@file@percent }
\newlabel{VOSLT}{{C.5}{77}}
\newlabel{VOSLT@cref}{{[figure][5][3]C.5}{[1][76][]77}}
\@writefile{lof}{\contentsline {figure}{\numberline {C.6}{\ignorespaces Rimpel in stroom aan voeding\relax }}{77}\protected@file@percent }
\newlabel{3v3rimpel}{{C.6}{77}}
\newlabel{3v3rimpel@cref}{{[figure][6][3]C.6}{[1][77][]77}}
\@writefile{toc}{\contentsline {subsubsection}{BOM charge pump}{78}\protected@file@percent }
\newlabel{BOM chargePUMP}{{\caption@xref {BOM chargePUMP}{ on input line 1459}}{78}}
\newlabel{BOM chargePUMP@cref}{{[subsection][1][3,1]C.1.1}{[1][78][]78}}
\citation{boost}
\@writefile{toc}{\contentsline {subsection}{\numberline {C.1.2}Boost Converter}{79}\protected@file@percent }
\newlabel{boost}{{C.1.2}{79}}
\newlabel{boost@cref}{{[subsection][2][3,1]C.1.2}{[1][79][]79}}
\@writefile{lof}{\contentsline {figure}{\numberline {C.7}{\ignorespaces Schema boost converter\relax }}{79}\protected@file@percent }
\newlabel{boost}{{C.7}{79}}
\newlabel{boost@cref}{{[figure][7][3]C.7}{[1][79][]79}}
\newlabel{ipk}{{C.18}{80}}
\newlabel{ipk@cref}{{[equation][18][3]C.18}{[1][80][]80}}
\citation{tiboost}
\@writefile{lof}{\contentsline {figure}{\numberline {C.8}{\ignorespaces LTspice boost converter simulatie\relax }}{81}\protected@file@percent }
\newlabel{boostsim}{{C.8}{81}}
\newlabel{boostsim@cref}{{[figure][8][3]C.8}{[1][81][]81}}
\@writefile{lof}{\contentsline {figure}{\numberline {C.9}{\ignorespaces LTspice output stroom V1\relax }}{81}\protected@file@percent }
\newlabel{v1sim}{{C.9}{81}}
\newlabel{v1sim@cref}{{[figure][9][3]C.9}{[1][81][]81}}
\@writefile{toc}{\contentsline {subsection}{\numberline {C.1.3}Schakelen LED}{82}\protected@file@percent }
\@writefile{toc}{\contentsline {subsubsection}{Schakelen met transistor}{82}\protected@file@percent }
\@writefile{lof}{\contentsline {figure}{\numberline {C.10}{\ignorespaces LED aangestuurd d.m.v. NPN\relax }}{82}\protected@file@percent }
\newlabel{LEDNPN}{{C.10}{82}}
\newlabel{LEDNPN@cref}{{[figure][10][3]C.10}{[1][82][]82}}
\newlabel{eqr3}{{C.21}{83}}
\newlabel{eqr3@cref}{{[equation][21][3]C.21}{[1][83][]83}}
\@writefile{toc}{\contentsline {subsection}{\numberline {C.1.4}Schakelen met FET}{84}\protected@file@percent }
\@writefile{lof}{\contentsline {figure}{\numberline {C.11}{\ignorespaces LED aangestuurd d.m.v. NMOS\relax }}{84}\protected@file@percent }
\newlabel{NMOSLED}{{C.11}{84}}
\newlabel{NMOSLED@cref}{{[figure][11][3]C.11}{[1][84][]84}}
\@writefile{toc}{\contentsline {section}{\numberline {C.2}Berekeningen gekozen FET}{85}\protected@file@percent }
\newlabel{berfet}{{C.2}{85}}
\newlabel{berfet@cref}{{[section][2][3]C.2}{[1][85][]85}}
\newlabel{eqfet}{{C.25}{85}}
\newlabel{eqfet@cref}{{[equation][25][3]C.25}{[1][85][]85}}
\@writefile{lof}{\contentsline {figure}{\numberline {C.12}{\ignorespaces Warmte weerstand\relax }}{86}\protected@file@percent }
\newlabel{pulse}{{C.12}{86}}
\newlabel{pulse@cref}{{[figure][12][3]C.12}{[1][86][]86}}
\@writefile{toc}{\contentsline {section}{\numberline {C.3}Conclusie}{86}\protected@file@percent }
\@writefile{toc}{\contentsline {chapter}{\numberline {D.}Plan Van Aanpak}{87}\protected@file@percent }
\@writefile{lof}{\addvspace {10pt}}
\@writefile{lot}{\addvspace {10pt}}
\@writefile{lof}{\contentsline {xchapter}{Plan Van Aanpak}{87}\protected@file@percent }
\@writefile{lot}{\contentsline {xchapter}{Plan Van Aanpak}{87}\protected@file@percent }
\newlabel{hs:vb}{{D}{87}}
\newlabel{hs:vb@cref}{{[chapter][4][]D}{[1][87][]87}}
\@writefile{lot}{\contentsline {table}{\numberline {D.1}{\ignorespaces Versiehistorie\relax }}{87}\protected@file@percent }
\newlabel{tab:vb}{{D.1}{87}}
\newlabel{tab:vb@cref}{{[table][1][4]D.1}{[1][87][]87}}
\@writefile{toc}{\contentsline {section}{\numberline {D.1}Achtergronden}{88}\protected@file@percent }
\newlabel{hs:h1}{{D.1}{88}}
\newlabel{hs:h1@cref}{{[section][1][4]D.1}{[1][88][]88}}
\newlabel{hs:h11}{{D.1}{88}}
\newlabel{hs:h11@cref}{{[section][1][4]D.1}{[1][88][]88}}
\newlabel{hs:h12}{{D.1}{88}}
\newlabel{hs:h12@cref}{{[section][1][4]D.1}{[1][88][]88}}
\newlabel{hs:h13}{{D.1}{88}}
\newlabel{hs:h13@cref}{{[section][1][4]D.1}{[1][88][]88}}
\@writefile{toc}{\contentsline {section}{\numberline {D.2}Projectresultaat}{88}\protected@file@percent }
\newlabel{hs:h2}{{D.2}{88}}
\newlabel{hs:h2@cref}{{[section][2][4]D.2}{[1][88][]88}}
\newlabel{hs:h21}{{D.2}{88}}
\newlabel{hs:h21@cref}{{[section][2][4]D.2}{[1][88][]88}}
\newlabel{hs:h22}{{D.2}{88}}
\newlabel{hs:h22@cref}{{[section][2][4]D.2}{[1][88][]88}}
\newlabel{hs:h3}{{D.2}{89}}
\newlabel{hs:h3@cref}{{[section][2][4]D.2}{[1][89][]89}}
\newlabel{hs:h31}{{D.2}{89}}
\newlabel{hs:h31@cref}{{[section][2][4]D.2}{[1][89][]89}}
\newlabel{hs:h32}{{D.2}{89}}
\newlabel{hs:h32@cref}{{[section][2][4]D.2}{[1][89][]89}}
\@writefile{toc}{\contentsline {section}{\numberline {D.4}Projectgrenzen en randvoorwaarden}{91}\protected@file@percent }
\newlabel{hs:h4}{{D.4}{91}}
\newlabel{hs:h4@cref}{{[section][4][4]D.4}{[1][91][]91}}
\newlabel{hs:h41}{{D.4}{91}}
\newlabel{hs:h41@cref}{{[section][4][4]D.4}{[1][91][]91}}
\newlabel{hs:h42}{{D.4}{91}}
\newlabel{hs:h42@cref}{{[section][4][4]D.4}{[1][91][]91}}
\@writefile{toc}{\contentsline {section}{\numberline {D.5}Tussenresultaten}{91}\protected@file@percent }
\newlabel{hs:h5}{{D.5}{91}}
\newlabel{hs:h5@cref}{{[section][5][4]D.5}{[1][91][]91}}
\newlabel{hs:h51}{{D.5}{91}}
\newlabel{hs:h51@cref}{{[section][5][4]D.5}{[1][91][]91}}
\newlabel{hs:h52}{{D.5}{91}}
\newlabel{hs:h52@cref}{{[section][5][4]D.5}{[1][91][]91}}
\@writefile{toc}{\contentsline {section}{\numberline {D.6}Kwaliteit}{92}\protected@file@percent }
\newlabel{hs:h6}{{D.6}{92}}
\newlabel{hs:h6@cref}{{[section][6][4]D.6}{[1][92][]92}}
\newlabel{hs:h61}{{D.6}{92}}
\newlabel{hs:h61@cref}{{[section][6][4]D.6}{[1][92][]92}}
\newlabel{hs:h62}{{D.6}{92}}
\newlabel{hs:h62@cref}{{[section][6][4]D.6}{[1][92][]92}}
\newlabel{hs:h63}{{D.6}{92}}
\newlabel{hs:h63@cref}{{[section][6][4]D.6}{[1][92][]92}}
\newlabel{hs:h64}{{D.6}{92}}
\newlabel{hs:h64@cref}{{[section][6][4]D.6}{[1][92][]92}}
\@writefile{toc}{\contentsline {section}{\numberline {D.7}Projectorganisatie}{93}\protected@file@percent }
\newlabel{hs:h7}{{D.7}{93}}
\newlabel{hs:h7@cref}{{[section][7][4]D.7}{[1][93][]93}}
\newlabel{hs:h71}{{D.7}{93}}
\newlabel{hs:h71@cref}{{[section][7][4]D.7}{[1][93][]93}}
\@writefile{lot}{\contentsline {table}{\numberline {D.2}{\ignorespaces Persoonlijke gegevens\relax }}{93}\protected@file@percent }
\newlabel{tab:pg}{{D.2}{93}}
\newlabel{tab:pg@cref}{{[table][2][4]D.2}{[1][93][]93}}
\newlabel{hs:h72}{{D.7}{93}}
\newlabel{hs:h72@cref}{{[section][7][4]D.7}{[1][93][]93}}
\newlabel{hs:h73}{{D.7}{93}}
\newlabel{hs:h73@cref}{{[section][7][4]D.7}{[1][93][]93}}
\newlabel{hs:h74}{{D.7}{93}}
\newlabel{hs:h74@cref}{{[section][7][4]D.7}{[1][93][]93}}
\@writefile{toc}{\contentsline {section}{\numberline {D.8}Planning}{93}\protected@file@percent }
\newlabel{hs:h8}{{D.8}{93}}
\newlabel{hs:h8@cref}{{[section][8][4]D.8}{[1][93][]93}}
\@writefile{lof}{\contentsline {figure}{\numberline {D.1}{\ignorespaces Planning deel 1\relax }}{94}\protected@file@percent }
\newlabel{planning}{{D.1}{94}}
\newlabel{planning@cref}{{[figure][1][4]D.1}{[1][93][]94}}
\@writefile{lof}{\contentsline {figure}{\numberline {D.2}{\ignorespaces Planning deel 2\relax }}{95}\protected@file@percent }
\@writefile{toc}{\contentsline {section}{\numberline {D.9}Kosten en baten}{96}\protected@file@percent }
\newlabel{hs:h9}{{D.9}{96}}
\newlabel{hs:h9@cref}{{[section][9][4]D.9}{[1][96][]96}}
\newlabel{hs:h91}{{D.9}{96}}
\newlabel{hs:h91@cref}{{[section][9][4]D.9}{[1][96][]96}}
\newlabel{hs:h92}{{D.9}{96}}
\newlabel{hs:h92@cref}{{[section][9][4]D.9}{[1][96][]96}}
\newlabel{hs:h93}{{D.9}{96}}
\newlabel{hs:h93@cref}{{[section][9][4]D.9}{[1][96][]96}}
\@writefile{toc}{\contentsline {section}{\numberline {D.10}Risico's}{96}\protected@file@percent }
\newlabel{hs:h10}{{D.10}{96}}
\newlabel{hs:h10@cref}{{[section][10][4]D.10}{[1][96][]96}}
\newlabel{hs:h101}{{D.10}{96}}
\newlabel{hs:h101@cref}{{[section][10][4]D.10}{[1][96][]96}}
\newlabel{hs:h102}{{D.10}{96}}
\newlabel{hs:h102@cref}{{[section][10][4]D.10}{[1][96][]96}}
\newlabel{hs:h103}{{D.10}{96}}
\newlabel{hs:h103@cref}{{[section][10][4]D.10}{[1][96][]96}}
\@writefile{lot}{\contentsline {table}{\numberline {D.3}{\ignorespaces Externe Risico's\relax }}{97}\protected@file@percent }
\newlabel{tab:ra}{{D.3}{97}}
\newlabel{tab:ra@cref}{{[table][3][4]D.3}{[1][96][]97}}
\@writefile{toc}{\contentsline {chapter}{\numberline {E.}Tekeningen PCB en solderen}{98}\protected@file@percent }
\@writefile{lof}{\addvspace {10pt}}
\@writefile{lot}{\addvspace {10pt}}
\@writefile{lof}{\contentsline {xchapter}{Tekeningen PCB en solderen}{98}\protected@file@percent }
\@writefile{lot}{\contentsline {xchapter}{Tekeningen PCB en solderen}{98}\protected@file@percent }
\@writefile{toc}{\contentsline {section}{\numberline {E.1}Realisatie Hardware}{98}\protected@file@percent }
\newlabel{PCB2DTOP}{{E.1a}{99}}
\newlabel{PCB2DTOP@cref}{{[subfigure][1][5,1]E.1a}{[1][99][]99}}
\newlabel{sub@PCB2DTOP}{{a}{99}}
\newlabel{sub@PCB2DTOP@cref}{{[subfigure][1][5,1]E.1a}{[1][99][]99}}
\newlabel{PCB2DBOT}{{E.1b}{99}}
\newlabel{PCB2DBOT@cref}{{[subfigure][2][5,1]E.1b}{[1][99][]99}}
\newlabel{sub@PCB2DBOT}{{b}{99}}
\newlabel{sub@PCB2DBOT@cref}{{[subfigure][2][5,1]E.1b}{[1][99][]99}}
\@writefile{lof}{\contentsline {figure}{\numberline {E.1}{\ignorespaces 2D tekeningen van de printplaten\relax }}{99}\protected@file@percent }
\newlabel{PCB3DTOP}{{E.2a}{100}}
\newlabel{PCB3DTOP@cref}{{[subfigure][1][5,2]E.2a}{[1][99][]100}}
\newlabel{sub@PCB3DTOP}{{a}{100}}
\newlabel{sub@PCB3DTOP@cref}{{[subfigure][1][5,2]E.2a}{[1][99][]100}}
\newlabel{PCB3DBOT}{{E.2b}{100}}
\newlabel{PCB3DBOT@cref}{{[subfigure][2][5,2]E.2b}{[1][99][]100}}
\newlabel{sub@PCB3DBOT}{{b}{100}}
\newlabel{sub@PCB3DBOT@cref}{{[subfigure][2][5,2]E.2b}{[1][99][]100}}
\@writefile{lof}{\contentsline {figure}{\numberline {E.2}{\ignorespaces 3D tekeningen van de printplaten\relax }}{100}\protected@file@percent }
\@writefile{toc}{\contentsline {section}{\numberline {E.2}Software}{101}\protected@file@percent }
\@writefile{toc}{\contentsline {section}{\numberline {E.3}Solderen}{102}\protected@file@percent }
\newlabel{PCBTOP}{{E.3a}{102}}
\newlabel{PCBTOP@cref}{{[subfigure][1][5,3]E.3a}{[1][102][]102}}
\newlabel{sub@PCBTOP}{{a}{102}}
\newlabel{sub@PCBTOP@cref}{{[subfigure][1][5,3]E.3a}{[1][102][]102}}
\newlabel{PCBBOT}{{E.3b}{102}}
\newlabel{PCBBOT@cref}{{[subfigure][2][5,3]E.3b}{[1][102][]102}}
\newlabel{sub@PCBBOT}{{b}{102}}
\newlabel{sub@PCBBOT@cref}{{[subfigure][2][5,3]E.3b}{[1][102][]102}}
\@writefile{lof}{\contentsline {figure}{\numberline {E.3}{\ignorespaces 2D tekeningen van de printplaten\relax }}{102}\protected@file@percent }
\@writefile{toc}{\contentsline {section}{\numberline {E.4}Componenten}{102}\protected@file@percent }
\@writefile{toc}{\contentsline {section}{\numberline {E.5}Program connector}{103}\protected@file@percent }
\newlabel{progont}{{E.4a}{103}}
\newlabel{progont@cref}{{[subfigure][1][5,4]E.4a}{[1][103][]103}}
\newlabel{sub@progont}{{a}{103}}
\newlabel{sub@progont@cref}{{[subfigure][1][5,4]E.4a}{[1][103][]103}}
\newlabel{progrea}{{E.4b}{103}}
\newlabel{progrea@cref}{{[subfigure][2][5,4]E.4b}{[1][103][]103}}
\newlabel{sub@progrea}{{b}{103}}
\newlabel{sub@progrea@cref}{{[subfigure][2][5,4]E.4b}{[1][103][]103}}
\@writefile{lof}{\contentsline {figure}{\numberline {E.4}{\ignorespaces Program connector\relax }}{103}\protected@file@percent }
\@writefile{toc}{\contentsline {chapter}{\numberline {F.}Volledige keuze verantwoording draadloze microcontroller}{104}\protected@file@percent }
\@writefile{lof}{\addvspace {10pt}}
\@writefile{lot}{\addvspace {10pt}}
\@writefile{lof}{\contentsline {xchapter}{Volledige keuze verantwoording draadloze microcontroller}{104}\protected@file@percent }
\@writefile{lot}{\contentsline {xchapter}{Volledige keuze verantwoording draadloze microcontroller}{104}\protected@file@percent }
\newlabel{mcukeus}{{F}{104}}
\newlabel{mcukeus@cref}{{[chapter][6][]F}{[1][104][]104}}
\@writefile{toc}{\contentsline {paragraph}{Nordic}{104}\protected@file@percent }
\@writefile{toc}{\contentsline {paragraph}{ST}{104}\protected@file@percent }
\@writefile{toc}{\contentsline {paragraph}{NXP}{104}\protected@file@percent }
\@writefile{toc}{\contentsline {paragraph}{TI}{105}\protected@file@percent }
\@writefile{toc}{\contentsline {paragraph}{Silicon Labs}{105}\protected@file@percent }
\@writefile{toc}{\contentsline {paragraph}{Conclusie}{105}\protected@file@percent }
\@writefile{toc}{\contentsline {chapter}{\numberline {G.}Acceptatie test}{106}\protected@file@percent }
\@writefile{lof}{\addvspace {10pt}}
\@writefile{lot}{\addvspace {10pt}}
\@writefile{lof}{\contentsline {xchapter}{Acceptatie test}{106}\protected@file@percent }
\@writefile{lot}{\contentsline {xchapter}{Acceptatie test}{106}\protected@file@percent }
\newlabel{acctest}{{G}{106}}
\newlabel{acctest@cref}{{[chapter][7][]G}{[1][106][]106}}
\@writefile{toc}{\contentsline {section}{\numberline {G.1}Voorbereidingen acceptatietest}{106}\protected@file@percent }
\@writefile{toc}{\contentsline {subsection}{\numberline {G.1.1}Visuele testomgeving}{106}\protected@file@percent }
\@writefile{toc}{\contentsline {subsubsection}{Hardware}{106}\protected@file@percent }
\@writefile{toc}{\contentsline {subsubsection}{Software}{106}\protected@file@percent }
\@writefile{toc}{\contentsline {subsection}{\numberline {G.1.2}Testomgeving seriële verbinding}{106}\protected@file@percent }
\newlabel{to1}{{G.1.2}{106}}
\newlabel{to1@cref}{{[subsection][2][7,1]G.1.2}{[1][106][]106}}
\@writefile{toc}{\contentsline {subsubsection}{Hardware}{106}\protected@file@percent }
\@writefile{toc}{\contentsline {subsubsection}{Software}{107}\protected@file@percent }
\@writefile{toc}{\contentsline {subsubsection}{Overig}{107}\protected@file@percent }
\@writefile{toc}{\contentsline {subsection}{\numberline {G.1.3}Test mesh}{107}\protected@file@percent }
\newlabel{to2}{{G.1.3}{107}}
\newlabel{to2@cref}{{[subsection][3][7,1]G.1.3}{[1][107][]107}}
\@writefile{toc}{\contentsline {subsubsection}{Hardware}{107}\protected@file@percent }
\@writefile{toc}{\contentsline {subsubsection}{Software}{107}\protected@file@percent }
\@writefile{toc}{\contentsline {subsection}{\numberline {G.1.4}Test data opslag}{108}\protected@file@percent }
\newlabel{to3}{{G.1.4}{108}}
\newlabel{to3@cref}{{[subsection][4][7,1]G.1.4}{[1][108][]108}}
\@writefile{toc}{\contentsline {subsubsection}{Hardware}{108}\protected@file@percent }
\@writefile{toc}{\contentsline {subsubsection}{Software}{108}\protected@file@percent }
\@writefile{toc}{\contentsline {subsection}{\numberline {G.1.5}Test software update}{108}\protected@file@percent }
\newlabel{to4}{{G.1.5}{108}}
\newlabel{to4@cref}{{[subsection][5][7,1]G.1.5}{[1][108][]108}}
\@writefile{toc}{\contentsline {subsubsection}{Hardware}{108}\protected@file@percent }
\@writefile{toc}{\contentsline {section}{\numberline {G.2}Acceptatietestbeschrijvingen}{109}\protected@file@percent }
\@writefile{toc}{\contentsline {subsection}{\numberline {G.2.1}Test Bluetooth naar serieel}{109}\protected@file@percent }
\@writefile{toc}{\contentsline {subsubsection}{Testcase 1.1: Commando's io-net}{109}\protected@file@percent }
\@writefile{lot}{\contentsline {table}{\numberline {G.1}{\ignorespaces Testcase 1.1\relax }}{109}\protected@file@percent }
\newlabel{tc11}{{G.1}{109}}
\newlabel{tc11@cref}{{[table][1][7]G.1}{[1][109][]109}}
\@writefile{toc}{\contentsline {subsubsection}{Testcase 1.2: Draaien motor}{110}\protected@file@percent }
\@writefile{lot}{\contentsline {table}{\numberline {G.2}{\ignorespaces Testcase 1.2\relax }}{110}\protected@file@percent }
\newlabel{tcx}{{G.2}{110}}
\newlabel{tcx@cref}{{[table][2][7]G.2}{[1][110][]110}}
\@writefile{toc}{\contentsline {subsection}{\numberline {G.2.2}Test Visuele feedback}{111}\protected@file@percent }
\@writefile{toc}{\contentsline {subsubsection}{Testcase 2.1: Test LED}{111}\protected@file@percent }
\@writefile{lot}{\contentsline {table}{\numberline {G.3}{\ignorespaces Testcase 2.1\relax }}{111}\protected@file@percent }
\newlabel{tcx}{{G.3}{111}}
\newlabel{tcx@cref}{{[table][3][7]G.3}{[1][111][]111}}
\@writefile{toc}{\contentsline {subsubsection}{Testcase 2.2: Test maximale afstand}{112}\protected@file@percent }
\@writefile{lot}{\contentsline {table}{\numberline {G.4}{\ignorespaces Testcase 2.2\relax }}{112}\protected@file@percent }
\newlabel{tcx}{{G.4}{112}}
\newlabel{tcx@cref}{{[table][4][7]G.4}{[1][112][]112}}
\@writefile{toc}{\contentsline {subsection}{\numberline {G.2.3}Test opgeslagen data}{113}\protected@file@percent }
\@writefile{toc}{\contentsline {subsubsection}{Testcase 3.1: Test Opslag data}{113}\protected@file@percent }
\@writefile{lot}{\contentsline {table}{\numberline {G.5}{\ignorespaces Testcase 3.1\relax }}{113}\protected@file@percent }
\newlabel{tcx}{{G.5}{113}}
\newlabel{tcx@cref}{{[table][5][7]G.5}{[1][113][]113}}
\@writefile{toc}{\contentsline {subsection}{\numberline {G.2.4}Test RoHS}{113}\protected@file@percent }
\@writefile{lot}{\contentsline {table}{\numberline {G.6}{\ignorespaces Testcase 5.1\relax }}{113}\protected@file@percent }
\newlabel{tcx}{{G.6}{113}}
\newlabel{tcx@cref}{{[table][6][7]G.6}{[1][113][]113}}
\@writefile{toc}{\contentsline {section}{\numberline {G.3}Traceerbaarheid klanteisen}{114}\protected@file@percent }
\@writefile{lot}{\contentsline {table}{\numberline {G.7}{\ignorespaces Traceertabel Requirements \relax }}{114}\protected@file@percent }
\newlabel{tab:ta}{{G.7}{114}}
\newlabel{tab:ta@cref}{{[table][7][7]G.7}{[1][114][]114}}
\@writefile{toc}{\contentsline {chapter}{\numberline {H.}Integratietest}{115}\protected@file@percent }
\@writefile{lof}{\addvspace {10pt}}
\@writefile{lot}{\addvspace {10pt}}
\@writefile{lof}{\contentsline {xchapter}{Integratietest}{115}\protected@file@percent }
\@writefile{lot}{\contentsline {xchapter}{Integratietest}{115}\protected@file@percent }
\newlabel{inttest}{{H}{115}}
\newlabel{inttest@cref}{{[chapter][8][]H}{[1][115][]115}}
\@writefile{toc}{\contentsline {section}{\numberline {H.1}Testen}{115}\protected@file@percent }
\@writefile{toc}{\contentsline {subsection}{\numberline {H.1.1}Test IC1: zenden UART}{116}\protected@file@percent }
\@writefile{lot}{\contentsline {table}{\numberline {H.1}{\ignorespaces Test zenden UART\relax }}{116}\protected@file@percent }
\newlabel{itc1}{{H.1}{116}}
\newlabel{itc1@cref}{{[table][1][8]H.1}{[1][116][]116}}
\@writefile{toc}{\contentsline {subsection}{\numberline {H.1.2}Test IC1: ontvangen UART}{117}\protected@file@percent }
\@writefile{lot}{\contentsline {table}{\numberline {H.2}{\ignorespaces Test ontvangen UART\relax }}{117}\protected@file@percent }
\newlabel{itc1}{{H.2}{117}}
\newlabel{itc1@cref}{{[table][2][8]H.2}{[1][117][]117}}
\@writefile{toc}{\contentsline {subsection}{\numberline {H.1.3}Test IC2: Hardware software update}{118}\protected@file@percent }
\@writefile{lot}{\contentsline {table}{\numberline {H.3}{\ignorespaces Test verbinding program connector\relax }}{118}\protected@file@percent }
\newlabel{itc1}{{H.3}{118}}
\newlabel{itc1@cref}{{[table][3][8]H.3}{[1][118][]118}}
\@writefile{toc}{\contentsline {subsection}{\numberline {H.1.4}Test IC3: rimpel voeding}{119}\protected@file@percent }
\@writefile{lot}{\contentsline {table}{\numberline {H.4}{\ignorespaces Test rimpel voeding\relax }}{119}\protected@file@percent }
\newlabel{itc1}{{H.4}{119}}
\newlabel{itc1@cref}{{[table][4][8]H.4}{[1][119][]119}}
\@writefile{toc}{\contentsline {subsection}{\numberline {H.1.5}Test IC4: Extern Flash}{120}\protected@file@percent }
\@writefile{lot}{\contentsline {table}{\numberline {H.5}{\ignorespaces Test Extern Flash\relax }}{120}\protected@file@percent }
\newlabel{itc1}{{H.5}{120}}
\newlabel{itc1@cref}{{[table][5][8]H.5}{[1][120][]120}}
\@writefile{toc}{\contentsline {subsection}{\numberline {H.1.6}Test IC5: mesh LED}{121}\protected@file@percent }
\@writefile{lot}{\contentsline {table}{\numberline {H.6}{\ignorespaces Test mesh LED\relax }}{121}\protected@file@percent }
\newlabel{itc1}{{H.6}{121}}
\newlabel{itc1@cref}{{[table][6][8]H.6}{[1][121][]121}}
\@writefile{toc}{\contentsline {subsection}{\numberline {H.1.7}Test IC5: mesh UART}{122}\protected@file@percent }
\@writefile{lot}{\contentsline {table}{\numberline {H.7}{\ignorespaces Test mesh UART\relax }}{122}\protected@file@percent }
\newlabel{itc1}{{H.7}{122}}
\newlabel{itc1@cref}{{[table][7][8]H.7}{[1][122][]122}}
\@writefile{toc}{\contentsline {subsection}{\numberline {H.1.8}Test IC6: LED}{123}\protected@file@percent }
\@writefile{lot}{\contentsline {table}{\numberline {H.8}{\ignorespaces Test mesh LED\relax }}{123}\protected@file@percent }
\newlabel{itc1}{{H.8}{123}}
\newlabel{itc1@cref}{{[table][8][8]H.8}{[1][123][]123}}
\@writefile{toc}{\contentsline {chapter}{\numberline {I.}Unit test}{124}\protected@file@percent }
\@writefile{lof}{\addvspace {10pt}}
\@writefile{lot}{\addvspace {10pt}}
\@writefile{lof}{\contentsline {xchapter}{Unit test}{124}\protected@file@percent }
\@writefile{lot}{\contentsline {xchapter}{Unit test}{124}\protected@file@percent }
\newlabel{unittest}{{I}{124}}
\newlabel{unittest@cref}{{[chapter][9][]I}{[1][124][]124}}
\@writefile{toc}{\contentsline {section}{\numberline {I.1}Test LED}{124}\protected@file@percent }
\@writefile{lot}{\contentsline {table}{\numberline {I.1}{\ignorespaces Test output spanning Charge-pump\relax }}{124}\protected@file@percent }
\newlabel{utci}{{I.1}{124}}
\newlabel{utci@cref}{{[table][1][9]I.1}{[1][124][]124}}
\@writefile{toc}{\contentsline {section}{\numberline {I.2}Test stroom LED}{125}\protected@file@percent }
\@writefile{lot}{\contentsline {table}{\numberline {I.2}{\ignorespaces Test stroom LED\relax }}{125}\protected@file@percent }
\newlabel{utc2}{{I.2}{125}}
\newlabel{utc2@cref}{{[table][2][9]I.2}{[1][125][]125}}
\@writefile{toc}{\contentsline {section}{\numberline {I.3}Test UART zenden}{125}\protected@file@percent }
\@writefile{lot}{\contentsline {table}{\numberline {I.3}{\ignorespaces Test mesh LED\relax }}{125}\protected@file@percent }
\newlabel{itc1}{{I.3}{125}}
\newlabel{itc1@cref}{{[table][3][9]I.3}{[1][125][]125}}
\@writefile{toc}{\contentsline {chapter}{\numberline {J.}Testresultaten}{126}\protected@file@percent }
\@writefile{lof}{\addvspace {10pt}}
\@writefile{lot}{\addvspace {10pt}}
\@writefile{lof}{\contentsline {xchapter}{Testresultaten}{126}\protected@file@percent }
\@writefile{lot}{\contentsline {xchapter}{Testresultaten}{126}\protected@file@percent }
\@writefile{toc}{\contentsline {section}{\numberline {J.1}Unittest}{126}\protected@file@percent }
\newlabel{teststrled}{{J.1a}{126}}
\newlabel{teststrled@cref}{{[subfigure][1][10,1]J.1a}{[1][126][]126}}
\newlabel{sub@teststrled}{{a}{126}}
\newlabel{sub@teststrled@cref}{{[subfigure][1][10,1]J.1a}{[1][126][]126}}
\newlabel{bwstrled}{{J.1b}{126}}
\newlabel{bwstrled@cref}{{[subfigure][2][10,1]J.1b}{[1][126][]126}}
\newlabel{sub@bwstrled}{{b}{126}}
\newlabel{sub@bwstrled@cref}{{[subfigure][2][10,1]J.1b}{[1][126][]126}}
\@writefile{lof}{\contentsline {figure}{\numberline {J.1}{\ignorespaces Test stroom LED\relax }}{126}\protected@file@percent }
\newlabel{teststrled}{{J.2a}{127}}
\newlabel{teststrled@cref}{{[subfigure][1][10,2]J.2a}{[1][127][]127}}
\newlabel{sub@teststrled}{{a}{127}}
\newlabel{sub@teststrled@cref}{{[subfigure][1][10,2]J.2a}{[1][127][]127}}
\newlabel{bwstrled}{{J.2b}{127}}
\newlabel{bwstrled@cref}{{[subfigure][2][10,2]J.2b}{[1][127][]127}}
\newlabel{sub@bwstrled}{{b}{127}}
\newlabel{sub@bwstrled@cref}{{[subfigure][2][10,2]J.2b}{[1][127][]127}}
\@writefile{lof}{\contentsline {figure}{\numberline {J.2}{\ignorespaces Test spanning charge pump\relax }}{127}\protected@file@percent }
\newlabel{terauartunit}{{J.3a}{128}}
\newlabel{terauartunit@cref}{{[subfigure][1][10,3]J.3a}{[1][128][]128}}
\newlabel{sub@terauartunit}{{a}{128}}
\newlabel{sub@terauartunit@cref}{{[subfigure][1][10,3]J.3a}{[1][128][]128}}
\newlabel{unituart}{{J.3b}{128}}
\newlabel{unituart@cref}{{[subfigure][2][10,3]J.3b}{[1][128][]128}}
\newlabel{sub@unituart}{{b}{128}}
\newlabel{sub@unituart@cref}{{[subfigure][2][10,3]J.3b}{[1][128][]128}}
\newlabel{instuart}{{J.3c}{128}}
\newlabel{instuart@cref}{{[subfigure][3][10,3]J.3c}{[1][128][]128}}
\newlabel{sub@instuart}{{c}{128}}
\newlabel{sub@instuart@cref}{{[subfigure][3][10,3]J.3c}{[1][128][]128}}
\@writefile{lof}{\contentsline {figure}{\numberline {J.3}{\ignorespaces Test UART\relax }}{128}\protected@file@percent }
\newlabel{teststrled}{{J.4a}{129}}
\newlabel{teststrled@cref}{{[subfigure][1][10,4]J.4a}{[1][129][]129}}
\newlabel{sub@teststrled}{{a}{129}}
\newlabel{sub@teststrled@cref}{{[subfigure][1][10,4]J.4a}{[1][129][]129}}
\newlabel{bwstrled}{{J.4b}{129}}
\newlabel{bwstrled@cref}{{[subfigure][2][10,4]J.4b}{[1][129][]129}}
\newlabel{sub@bwstrled}{{b}{129}}
\newlabel{sub@bwstrled@cref}{{[subfigure][2][10,4]J.4b}{[1][129][]129}}
\@writefile{lof}{\contentsline {figure}{\numberline {J.4}{\ignorespaces Test ontvangen UART\relax }}{129}\protected@file@percent }
\@writefile{toc}{\contentsline {section}{\numberline {J.2}Integratietest}{130}\protected@file@percent }
\@writefile{toc}{\contentsline {subsection}{\numberline {J.2.1}Test rimpel}{130}\protected@file@percent }
\newlabel{testrimpelscope}{{J.5a}{130}}
\newlabel{testrimpelscope@cref}{{[subfigure][1][10,5]J.5a}{[1][130][]130}}
\newlabel{sub@testrimpelscope}{{a}{130}}
\newlabel{sub@testrimpelscope@cref}{{[subfigure][1][10,5]J.5a}{[1][130][]130}}
\newlabel{testrimpelfoto}{{J.5b}{130}}
\newlabel{testrimpelfoto@cref}{{[subfigure][2][10,5]J.5b}{[1][130][]130}}
\newlabel{sub@testrimpelfoto}{{b}{130}}
\newlabel{sub@testrimpelfoto@cref}{{[subfigure][2][10,5]J.5b}{[1][130][]130}}
\@writefile{lof}{\contentsline {figure}{\numberline {J.5}{\ignorespaces Test rimpelspanning voeding\relax }}{130}\protected@file@percent }
\newlabel{testrimpel}{{J.5}{130}}
\newlabel{testrimpel@cref}{{[figure][5][10]J.5}{[1][130][]130}}
\@writefile{toc}{\contentsline {subsection}{\numberline {J.2.2}Test mesh LED}{131}\protected@file@percent }
\newlabel{testrimpelfoto}{{J.6b}{131}}
\newlabel{testrimpelfoto@cref}{{[subfigure][2][10,6]J.6b}{[1][131][]131}}
\newlabel{sub@testrimpelfoto}{{b}{131}}
\newlabel{sub@testrimpelfoto@cref}{{[subfigure][2][10,6]J.6b}{[1][131][]131}}
\@writefile{lof}{\contentsline {figure}{\numberline {J.6}{\ignorespaces Test LED\relax }}{131}\protected@file@percent }
\newlabel{testrimpel}{{J.6}{131}}
\newlabel{testrimpel@cref}{{[figure][6][10]J.6}{[1][131][]131}}
\@writefile{toc}{\contentsline {subsection}{\numberline {J.2.3}Test mesh UART}{132}\protected@file@percent }
\newlabel{testrimpelfoto}{{J.7b}{132}}
\newlabel{testrimpelfoto@cref}{{[subfigure][2][10,7]J.7b}{[1][132][]132}}
\newlabel{sub@testrimpelfoto}{{b}{132}}
\newlabel{sub@testrimpelfoto@cref}{{[subfigure][2][10,7]J.7b}{[1][132][]132}}
\newlabel{testrimpelfoto}{{J.7c}{132}}
\newlabel{testrimpelfoto@cref}{{[subfigure][3][10,7]J.7c}{[1][132][]132}}
\newlabel{sub@testrimpelfoto}{{c}{132}}
\newlabel{sub@testrimpelfoto@cref}{{[subfigure][3][10,7]J.7c}{[1][132][]132}}
\@writefile{lof}{\contentsline {figure}{\numberline {J.7}{\ignorespaces Test UART\relax }}{132}\protected@file@percent }
\newlabel{testrimpel}{{J.7}{132}}
\newlabel{testrimpel@cref}{{[figure][7][10]J.7}{[1][132][]132}}
\@writefile{toc}{\contentsline {section}{\numberline {J.3}Acceptatietest}{133}\protected@file@percent }
\@writefile{toc}{\contentsline {subsection}{\numberline {J.3.1}Testcase 1.1 en testcase 1.2}{133}\protected@file@percent }
\@writefile{lof}{\contentsline {figure}{\numberline {J.8}{\ignorespaces Test LED\relax }}{133}\protected@file@percent }
\newlabel{testrimpel}{{J.8}{133}}
\newlabel{testrimpel@cref}{{[figure][8][10]J.8}{[1][133][]133}}
\@writefile{toc}{\contentsline {subsection}{\numberline {J.3.2}Testcase 2.1}{134}\protected@file@percent }
\newlabel{testrimpelfoto}{{J.9b}{134}}
\newlabel{testrimpelfoto@cref}{{[subfigure][2][10,9]J.9b}{[1][134][]134}}
\newlabel{sub@testrimpelfoto}{{b}{134}}
\newlabel{sub@testrimpelfoto@cref}{{[subfigure][2][10,9]J.9b}{[1][134][]134}}
\@writefile{lof}{\contentsline {figure}{\numberline {J.9}{\ignorespaces Test LED\relax }}{134}\protected@file@percent }
\newlabel{testrimpel}{{J.9}{134}}
\newlabel{testrimpel@cref}{{[figure][9][10]J.9}{[1][134][]134}}
\@writefile{toc}{\contentsline {section}{\numberline {J.4}Testcase 2.2}{135}\protected@file@percent }
\newlabel{testlongrange2}{{J.10a}{135}}
\newlabel{testlongrange2@cref}{{[subfigure][1][10,10]J.10a}{[1][135][]135}}
\newlabel{sub@testlongrange2}{{a}{135}}
\newlabel{sub@testlongrange2@cref}{{[subfigure][1][10,10]J.10a}{[1][135][]135}}
\@writefile{lof}{\contentsline {figure}{\numberline {J.10}{\ignorespaces Test afstand\relax }}{135}\protected@file@percent }
\newlabel{testlongrange1}{{J.10}{135}}
\newlabel{testlongrange1@cref}{{[figure][10][10]J.10}{[1][135][]135}}
\@writefile{toc}{\contentsline {section}{\numberline {J.5}Testcase 3.1}{136}\protected@file@percent }
\@writefile{toc}{\contentsline {section}{\numberline {J.6}Testcase 5.1}{136}\protected@file@percent }
\@writefile{toc}{\contentsline {chapter}{\numberline {K.}Bill Of Materials}{137}\protected@file@percent }
\@writefile{lof}{\addvspace {10pt}}
\@writefile{lot}{\addvspace {10pt}}
\@writefile{lof}{\contentsline {xchapter}{Bill Of Materials}{137}\protected@file@percent }
\@writefile{lot}{\contentsline {xchapter}{Bill Of Materials}{137}\protected@file@percent }
\@writefile{lof}{\contentsline {figure}{\numberline {K.1}{\ignorespaces BOM\relax }}{138}\protected@file@percent }
\newlabel{BOM}{{K.1}{138}}
\newlabel{BOM@cref}{{[figure][1][11]K.1}{[1][138][]138}}
\@writefile{toc}{\contentsline {chapter}{\numberline {L.}Handleiding BlueFarm}{139}\protected@file@percent }
\@writefile{lof}{\addvspace {10pt}}
\@writefile{lot}{\addvspace {10pt}}
\@writefile{lof}{\contentsline {xchapter}{Handleiding BlueFarm}{139}\protected@file@percent }
\@writefile{lot}{\contentsline {xchapter}{Handleiding BlueFarm}{139}\protected@file@percent }
\@writefile{toc}{\contentsline {section}{\numberline {L.1}Programmeren}{139}\protected@file@percent }
\@writefile{toc}{\contentsline {section}{\numberline {L.2}Provisioneren}{140}\protected@file@percent }
\@writefile{lof}{\contentsline {figure}{\numberline {L.1}{\ignorespaces Stappenplan provisioneren\relax }}{141}\protected@file@percent }
\newlabel{Stappenplan}{{L.1}{141}}
\newlabel{Stappenplan@cref}{{[figure][1][12]L.1}{[1][140][]141}}
\@writefile{lof}{\contentsline {figure}{\numberline {L.1}{\ignorespaces Stap 10\relax }}{141}\protected@file@percent }
\@writefile{toc}{\contentsline {section}{\numberline {L.3}Probleem oplossen}{142}\protected@file@percent }
\@writefile{toc}{\contentsline {chapter}{\numberline {M.}Competentieverantwoording}{143}\protected@file@percent }
\@writefile{lof}{\addvspace {10pt}}
\@writefile{lot}{\addvspace {10pt}}
\@writefile{lof}{\contentsline {xchapter}{Competentieverantwoording}{143}\protected@file@percent }
\@writefile{lot}{\contentsline {xchapter}{Competentieverantwoording}{143}\protected@file@percent }
\@writefile{toc}{\contentsline {section}{\numberline {M.1}Analyseren}{143}\protected@file@percent }
\@writefile{toc}{\contentsline {section}{\numberline {M.2}Ontwerpen}{144}\protected@file@percent }
\@writefile{toc}{\contentsline {section}{\numberline {M.3}Realiseren}{144}\protected@file@percent }
\@writefile{toc}{\contentsline {section}{\numberline {M.4}Beheren}{144}\protected@file@percent }
\@writefile{toc}{\contentsline {section}{\numberline {M.5}Managen}{144}\protected@file@percent }
\@writefile{toc}{\contentsline {section}{\numberline {M.6}Adviseren}{144}\protected@file@percent }
\@writefile{toc}{\contentsline {section}{\numberline {M.7}Onderzoeken}{145}\protected@file@percent }
\@writefile{toc}{\contentsline {section}{\numberline {M.8}Professionaliseren}{145}\protected@file@percent }
\@writefile{toc}{\contentsline {chapter}{\numberline {N.}Reflectie}{146}\protected@file@percent }
\@writefile{lof}{\addvspace {10pt}}
\@writefile{lot}{\addvspace {10pt}}
\@writefile{lof}{\contentsline {xchapter}{Reflectie}{146}\protected@file@percent }
\@writefile{lot}{\contentsline {xchapter}{Reflectie}{146}\protected@file@percent }
\@writefile{toc}{\contentsline {section}{\numberline {N.1}Analyseren}{146}\protected@file@percent }
\@writefile{toc}{\contentsline {section}{\numberline {N.2}Ontwerpen}{146}\protected@file@percent }
\@writefile{toc}{\contentsline {section}{\numberline {N.3}Realiseren}{146}\protected@file@percent }
\@writefile{toc}{\contentsline {section}{\numberline {N.4}Beheren}{146}\protected@file@percent }
\@writefile{toc}{\contentsline {section}{\numberline {N.5}Managen}{146}\protected@file@percent }
\@writefile{toc}{\contentsline {section}{\numberline {N.6}Adviseren}{147}\protected@file@percent }
\@writefile{toc}{\contentsline {section}{\numberline {N.7}Onderzoeken}{147}\protected@file@percent }
\@writefile{toc}{\contentsline {section}{\numberline {N.8}Professionaliseren}{147}\protected@file@percent }
\@writefile{toc}{\contentsline {chapter}{\numberline {O.}Beoordeling bedrijfsbegeleider}{148}\protected@file@percent }
\@writefile{lof}{\addvspace {10pt}}
\@writefile{lot}{\addvspace {10pt}}
\@writefile{lof}{\contentsline {xchapter}{Beoordeling bedrijfsbegeleider}{148}\protected@file@percent }
\@writefile{lot}{\contentsline {xchapter}{Beoordeling bedrijfsbegeleider}{148}\protected@file@percent }
\@writefile{toc}{\contentsline {chapter}{\numberline {P.}Code}{149}\protected@file@percent }
\@writefile{lof}{\addvspace {10pt}}
\@writefile{lot}{\addvspace {10pt}}
\@writefile{lof}{\contentsline {xchapter}{Code}{149}\protected@file@percent }
\@writefile{lot}{\contentsline {xchapter}{Code}{149}\protected@file@percent }
\@writefile{toc}{\contentsline {section}{\numberline {P.1}Main.c}{149}\protected@file@percent }
\@writefile{toc}{\contentsline {section}{\numberline {P.2}UART\_debug.c}{155}\protected@file@percent }
\newlabel{codeuart}{{P.2}{155}}
\newlabel{codeuart@cref}{{[section][2][16]P.2}{[1][155][]155}}
\bibstyle{apacite}
\bibdata{Referenties/Referenties,Referenties/Afstuderen}
\bibcite{Ali-rantala}{\citeauthoryear {Ali-rantala, Sydanheimo, Keskilammi{}\ \BBA{} Kivikoski}{Ali-rantala\ \BOthers {.}}{{\APACyear {{\bibnodate {}}}}}}
\APACbibcite{Ali-rantala}{\citeauthoryear {Ali-rantala, Sydanheimo, Keskilammi{}\ \BBA{} Kivikoski}{Ali-rantala\ \BOthers {.}}{{\APACyear {{\bibnodate {}}}}}}
\bibcite{zigbee}{\citeauthoryear {Alliance}{Alliance}{{\APACyear {2020}}}}
\APACbibcite{zigbee}{\citeauthoryear {Alliance}{Alliance}{{\APACyear {2020}}}}
\bibcite{meshfaq}{\citeauthoryear {Bluetooth}{Bluetooth}{{\APACyear {2020}}{\APACexlab {{\BCnt {1}}}}}}
\APACbibcite{meshfaq}{\citeauthoryear {Bluetooth}{Bluetooth}{{\APACyear {2020}}{\APACexlab {{\BCnt {1}}}}}}
\bibcite{blfees}{\citeauthoryear {Bluetooth}{Bluetooth}{{\APACyear {2020}}{\APACexlab {{\BCnt {2}}}}}}
\APACbibcite{blfees}{\citeauthoryear {Bluetooth}{Bluetooth}{{\APACyear {2020}}{\APACexlab {{\BCnt {2}}}}}}
\bibcite{btversions}{\citeauthoryear {Bluetooth}{Bluetooth}{{\APACyear {2020}}{\APACexlab {{\BCnt {3}}}}}}
\APACbibcite{btversions}{\citeauthoryear {Bluetooth}{Bluetooth}{{\APACyear {2020}}{\APACexlab {{\BCnt {3}}}}}}
\bibcite{btgatt}{\citeauthoryear {Bluetooth}{Bluetooth}{{\APACyear {2020}}{\APACexlab {{\BCnt {4}}}}}}
\APACbibcite{btgatt}{\citeauthoryear {Bluetooth}{Bluetooth}{{\APACyear {2020}}{\APACexlab {{\BCnt {4}}}}}}
\bibcite{Introduction2017}{\citeauthoryear {{Bluetooth SIG}}{{Bluetooth SIG}}{{\APACyear {2017}}}}
\APACbibcite{Introduction2017}{\citeauthoryear {{Bluetooth SIG}}{{Bluetooth SIG}}{{\APACyear {2017}}}}
\bibcite{codemeshlr}{\citeauthoryear {Bui}{Bui}{{\APACyear {2017}}}}
\APACbibcite{codemeshlr}{\citeauthoryear {Bui}{Bui}{{\APACyear {2017}}}}
\bibcite{tiboost}{\citeauthoryear {Caldwell\ \BBA{} Amidon}{Caldwell\ \BBA{} Amidon}{{\APACyear {2012}}}}
\APACbibcite{tiboost}{\citeauthoryear {Caldwell\ \BBA{} Amidon}{Caldwell\ \BBA{} Amidon}{{\APACyear {2012}}}}
\bibcite{Campbell1966}{\citeauthoryear {Campbell\ \BBA{} Gubisch}{Campbell\ \BBA{} Gubisch}{{\APACyear {1966}}}}
\APACbibcite{Campbell1966}{\citeauthoryear {Campbell\ \BBA{} Gubisch}{Campbell\ \BBA{} Gubisch}{{\APACyear {1966}}}}
\bibcite{cbs}{\citeauthoryear {CBS}{CBS}{{\APACyear {2019}}}}
\APACbibcite{cbs}{\citeauthoryear {CBS}{CBS}{{\APACyear {2019}}}}
\bibcite{Chruszczyk2017}{\citeauthoryear {Chruszczyk}{Chruszczyk}{{\APACyear {2017}}}}
\APACbibcite{Chruszczyk2017}{\citeauthoryear {Chruszczyk}{Chruszczyk}{{\APACyear {2017}}}}
\bibcite{boost}{\citeauthoryear {Cooper}{Cooper}{{\APACyear {2013}}}}
\APACbibcite{boost}{\citeauthoryear {Cooper}{Cooper}{{\APACyear {2013}}}}
\bibcite{DelaCruz2016}{\citeauthoryear {{Dela Cruz}, Parabuac{}\ \BBA{} Tiglao}{{Dela Cruz}\ \BOthers {.}}{{\APACyear {2016}}}}
\APACbibcite{DelaCruz2016}{\citeauthoryear {{Dela Cruz}, Parabuac{}\ \BBA{} Tiglao}{{Dela Cruz}\ \BOthers {.}}{{\APACyear {2016}}}}
\bibcite{Gomez2012}{\citeauthoryear {Gomez, Oller{}\ \BBA{} Paradells}{Gomez\ \BOthers {.}}{{\APACyear {2012}}}}
\APACbibcite{Gomez2012}{\citeauthoryear {Gomez, Oller{}\ \BBA{} Paradells}{Gomez\ \BOthers {.}}{{\APACyear {2012}}}}
\bibcite{hu2013}{\citeauthoryear {Hu, Fu, She{}\ \BBA{} Yao}{Hu\ \BOthers {.}}{{\APACyear {2013}}}}
\APACbibcite{hu2013}{\citeauthoryear {Hu, Fu, She{}\ \BBA{} Yao}{Hu\ \BOthers {.}}{{\APACyear {2013}}}}
\bibcite{ccled}{\citeauthoryear {Keim}{Keim}{{\APACyear {2016}}}}
\APACbibcite{ccled}{\citeauthoryear {Keim}{Keim}{{\APACyear {2016}}}}
\bibcite{lora}{\citeauthoryear {KPN}{KPN}{{\APACyear {2020}}}}
\APACbibcite{lora}{\citeauthoryear {KPN}{KPN}{{\APACyear {2020}}}}
\bibcite{Specification2018}{\citeauthoryear {Nordic}{Nordic}{{\APACyear {2018}}}}
\APACbibcite{Specification2018}{\citeauthoryear {Nordic}{Nordic}{{\APACyear {2018}}}}
\bibcite{Palumbo2010}{\citeauthoryear {Palumbo\ \BBA{} Pappalardo}{Palumbo\ \BBA{} Pappalardo}{{\APACyear {2010}}}}
\APACbibcite{Palumbo2010}{\citeauthoryear {Palumbo\ \BBA{} Pappalardo}{Palumbo\ \BBA{} Pappalardo}{{\APACyear {2010}}}}
\bibcite{Pylarinos2003}{\citeauthoryear {Pylarinos}{Pylarinos}{{\APACyear {2003}}}}
\APACbibcite{Pylarinos2003}{\citeauthoryear {Pylarinos}{Pylarinos}{{\APACyear {2003}}}}
\bibcite{los}{\citeauthoryear {Tablo}{Tablo}{{\APACyear {2018}}}}
\APACbibcite{los}{\citeauthoryear {Tablo}{Tablo}{{\APACyear {2018}}}}
\@writefile{toc}{\contentsline {section}{Literatuur}{156}\protected@file@percent }
\bibcite{starmesh}{\citeauthoryear {Techdifferences}{Techdifferences}{{\APACyear {2018}}}}
\APACbibcite{starmesh}{\citeauthoryear {Techdifferences}{Techdifferences}{{\APACyear {2018}}}}
\bibcite{Verma2013}{\citeauthoryear {Verma, Fakharzadeh{}\ \BBA{} Technologies}{Verma\ \BOthers {.}}{{\APACyear {2013}}}}
\APACbibcite{Verma2013}{\citeauthoryear {Verma, Fakharzadeh{}\ \BBA{} Technologies}{Verma\ \BOthers {.}}{{\APACyear {2013}}}}
\bibcite{topo}{\citeauthoryear {Wikipedia}{Wikipedia}{{\APACyear {2018}}}}
\APACbibcite{topo}{\citeauthoryear {Wikipedia}{Wikipedia}{{\APACyear {2018}}}}
\bibcite{Yaakop2017}{\citeauthoryear {Yaakop, Malik, {Bin Suboh}, Ramli{}\ \BBA{} Abu}{Yaakop\ \BOthers {.}}{{\APACyear {2017}}}}
\APACbibcite{Yaakop2017}{\citeauthoryear {Yaakop, Malik, {Bin Suboh}, Ramli{}\ \BBA{} Abu}{Yaakop\ \BOthers {.}}{{\APACyear {2017}}}}
\bibcite{Zhao2014}{\citeauthoryear {Zhao, Xiao, Markham, Trigoni{}\ \BBA{} Ren}{Zhao\ \BOthers {.}}{{\APACyear {2014}}}}
\APACbibcite{Zhao2014}{\citeauthoryear {Zhao, Xiao, Markham, Trigoni{}\ \BBA{} Ren}{Zhao\ \BOthers {.}}{{\APACyear {2014}}}}
\global\mtcsecondpartfalse
