\relax 
\@nameuse{bbl@beforestart}
\catcode `"\active 
\babel@aux{dutch}{}
\@writefile{@@@}{\chapterbegin }
\@writefile{@@@}{\chapterbegin }
\@writefile{@@@}{\chapterbegin }
\@writefile{@@@}{\chapterbegin }
\@writefile{@@@}{\chapterbegin }
\newlabel{hs:vb}{{}{8}}
\newlabel{hs:vb@cref}{{}{[1][8][]8}}
\@writefile{lot}{\contentsline {table}{\numberline {0.1}{\ignorespaces Versiehistorie\relax }}{8}\protected@file@percent }
\providecommand*\caption@xref[2]{\@setref\relax\@undefined{#1}}
\newlabel{tab:vb}{{0.1}{8}}
\newlabel{tab:vb@cref}{{[table][1][0]0.1}{[1][8][]8}}
\@writefile{@@@}{\chapterbegin }
\@writefile{toc}{\contentsline {chapter}{\numberline {1.}Inleiding}{13}\protected@file@percent }
\@writefile{lof}{\addvspace {10pt}}
\@writefile{lot}{\addvspace {10pt}}
\@writefile{lof}{\contentsline {xchapter}{Inleiding}{13}\protected@file@percent }
\@writefile{lot}{\contentsline {xchapter}{Inleiding}{13}\protected@file@percent }
\newlabel{hs:in}{{1}{13}}
\newlabel{hs:in@cref}{{[chapter][1][]1}{[1][13][]13}}
\@writefile{toc}{\contentsline {section}{\numberline {1.1}Bedrijfsachtergrond}{13}\protected@file@percent }
\@writefile{lof}{\contentsline {figure}{\numberline {1.1}{\ignorespaces Luiken voor in- en uitvoer van luchtstromen\relax }}{14}\protected@file@percent }
\newlabel{luik}{{1.1}{14}}
\newlabel{luik@cref}{{[figure][1][1]1.1}{[1][13][]14}}
\newlabel{im60}{{1.2a}{15}}
\newlabel{im60@cref}{{[subfigure][1][1,2]1.2a}{[1][15][]15}}
\newlabel{sub@im60}{{a}{15}}
\newlabel{sub@im60@cref}{{[subfigure][1][1,2]1.2a}{[1][15][]15}}
\newlabel{im125}{{1.2b}{15}}
\newlabel{im125@cref}{{[subfigure][2][1,2]1.2b}{[1][15][]15}}
\newlabel{sub@im125}{{b}{15}}
\newlabel{sub@im125@cref}{{[subfigure][2][1,2]1.2b}{[1][15][]15}}
\@writefile{lof}{\contentsline {figure}{\numberline {1.2}{\ignorespaces Motoren\relax }}{15}\protected@file@percent }
\newlabel{im60p}{{1.3a}{16}}
\newlabel{im60p@cref}{{[subfigure][1][1,3]1.3a}{[1][15][]16}}
\newlabel{sub@im60p}{{a}{16}}
\newlabel{sub@im60p@cref}{{[subfigure][1][1,3]1.3a}{[1][15][]16}}
\newlabel{im125p}{{1.3b}{16}}
\newlabel{im125p@cref}{{[subfigure][2][1,3]1.3b}{[1][15][]16}}
\newlabel{sub@im125p}{{b}{16}}
\newlabel{sub@im125p@cref}{{[subfigure][2][1,3]1.3b}{[1][15][]16}}
\@writefile{lof}{\contentsline {figure}{\numberline {1.3}{\ignorespaces Printplaten die de motoren aansturen\relax }}{16}\protected@file@percent }
\@writefile{toc}{\contentsline {section}{\numberline {1.2}Probleemstelling}{16}\protected@file@percent }
\@writefile{toc}{\contentsline {section}{\numberline {1.3}Doelstelling}{17}\protected@file@percent }
\@writefile{lof}{\contentsline {figure}{\numberline {1.4}{\ignorespaces V-model\relax }}{17}\protected@file@percent }
\newlabel{vmodel}{{1.4}{17}}
\newlabel{vmodel@cref}{{[figure][4][1]1.4}{[1][17][]17}}
\@writefile{toc}{\contentsline {chapter}{\numberline {2.}Onderzoek}{18}\protected@file@percent }
\@writefile{lof}{\addvspace {10pt}}
\@writefile{lot}{\addvspace {10pt}}
\@writefile{lof}{\contentsline {xchapter}{Onderzoek}{18}\protected@file@percent }
\@writefile{lot}{\contentsline {xchapter}{Onderzoek}{18}\protected@file@percent }
\@writefile{toc}{\contentsline {chapter}{\numberline {3.}Requirements}{19}\protected@file@percent }
\@writefile{lof}{\addvspace {10pt}}
\@writefile{lot}{\addvspace {10pt}}
\@writefile{lof}{\contentsline {xchapter}{Requirements}{19}\protected@file@percent }
\@writefile{lot}{\contentsline {xchapter}{Requirements}{19}\protected@file@percent }
\newlabel{hs:h2}{{3}{19}}
\newlabel{hs:h2@cref}{{[chapter][3][]3}{[1][19][]19}}
\@writefile{toc}{\contentsline {section}{\numberline {3.1}Systeemcontext}{19}\protected@file@percent }
\@writefile{toc}{\contentsline {subsection}{\numberline {3.1.1}Systeemfuncties}{19}\protected@file@percent }
\@writefile{lof}{\contentsline {figure}{\numberline {3.1}{\ignorespaces Data Context Diagram\relax }}{20}\protected@file@percent }
\newlabel{DCD}{{3.1}{20}}
\newlabel{DCD@cref}{{[figure][1][3]3.1}{[1][20][]20}}
\@writefile{toc}{\contentsline {section}{\numberline {3.2}Systeemfuncties}{21}\protected@file@percent }
\newlabel{hs:h24}{{3.2}{21}}
\newlabel{hs:h24@cref}{{[section][2][3]3.2}{[1][21][]21}}
\@writefile{toc}{\contentsline {subsection}{\numberline {3.2.1}Communicatie Bluetooth }{21}\protected@file@percent }
\newlabel{hs:h241}{{3.2.1}{21}}
\newlabel{hs:h241@cref}{{[subsection][1][3,2]3.2.1}{[1][21][]21}}
\@writefile{toc}{\contentsline {subsubsection}{Stimulus en response}{21}\protected@file@percent }
\newlabel{2411}{{3.2.1}{21}}
\newlabel{2411@cref}{{[subsection][1][3,2]3.2.1}{[1][21][]21}}
\@writefile{toc}{\contentsline {subsubsection}{Functionele klanteisen}{21}\protected@file@percent }
\newlabel{2411}{{3.2.1}{21}}
\newlabel{2411@cref}{{[subsection][1][3,2]3.2.1}{[1][21][]21}}
\@writefile{toc}{\contentsline {subsection}{\numberline {3.2.2}Communicatie met IM60/IM125}{22}\protected@file@percent }
\newlabel{hs:h242}{{3.2.2}{22}}
\newlabel{hs:h242@cref}{{[subsection][2][3,2]3.2.2}{[1][22][]22}}
\@writefile{toc}{\contentsline {subsubsection}{Stimulus en response}{22}\protected@file@percent }
\newlabel{2421}{{3.2.2}{22}}
\newlabel{2421@cref}{{[subsection][2][3,2]3.2.2}{[1][22][]22}}
\@writefile{toc}{\contentsline {subsubsection}{Functionele klanteisen}{22}\protected@file@percent }
\newlabel{2421}{{3.2.2}{22}}
\newlabel{2421@cref}{{[subsection][2][3,2]3.2.2}{[1][22][]22}}
\@writefile{toc}{\contentsline {subsection}{\numberline {3.2.3}Opslaan data}{23}\protected@file@percent }
\newlabel{hs:h243}{{3.2.3}{23}}
\newlabel{hs:h243@cref}{{[subsection][3][3,2]3.2.3}{[1][23][]23}}
\@writefile{toc}{\contentsline {subsubsection}{Stimulus en response}{23}\protected@file@percent }
\newlabel{2431}{{3.2.3}{23}}
\newlabel{2431@cref}{{[subsection][3][3,2]3.2.3}{[1][23][]23}}
\@writefile{toc}{\contentsline {subsubsection}{Functionele klanteisen}{23}\protected@file@percent }
\newlabel{2431}{{3.2.3}{23}}
\newlabel{2431@cref}{{[subsection][3][3,2]3.2.3}{[1][23][]23}}
\@writefile{toc}{\contentsline {subsection}{\numberline {3.2.4}Identificeren systeem}{23}\protected@file@percent }
\newlabel{hs:h243}{{3.2.4}{23}}
\newlabel{hs:h243@cref}{{[subsection][4][3,2]3.2.4}{[1][23][]23}}
\@writefile{toc}{\contentsline {subsubsection}{Stimulus en response}{23}\protected@file@percent }
\newlabel{2431}{{3.2.4}{23}}
\newlabel{2431@cref}{{[subsection][4][3,2]3.2.4}{[1][23][]23}}
\@writefile{toc}{\contentsline {subsubsection}{Functionele klanteisen}{23}\protected@file@percent }
\newlabel{2431}{{3.2.4}{23}}
\newlabel{2431@cref}{{[subsection][4][3,2]3.2.4}{[1][23][]23}}
\@writefile{toc}{\contentsline {section}{\numberline {3.3}Niet-functionele klanteisen}{24}\protected@file@percent }
\newlabel{hs:h25}{{3.3}{24}}
\newlabel{hs:h25@cref}{{[section][3][3]3.3}{[1][24][]24}}
\@writefile{toc}{\contentsline {chapter}{\numberline {4.}Architectuur}{25}\protected@file@percent }
\@writefile{lof}{\addvspace {10pt}}
\@writefile{lot}{\addvspace {10pt}}
\@writefile{lof}{\contentsline {xchapter}{Architectuur}{25}\protected@file@percent }
\@writefile{lot}{\contentsline {xchapter}{Architectuur}{25}\protected@file@percent }
\@writefile{lof}{\contentsline {figure}{\numberline {4.1}{\ignorespaces Data Flow Diagram 0\relax }}{25}\protected@file@percent }
\newlabel{DFD0}{{4.1}{25}}
\newlabel{DFD0@cref}{{[figure][1][4]4.1}{[1][25][]25}}
\@writefile{toc}{\contentsline {section}{\numberline {4.1}Ontwerpbesluiten}{26}\protected@file@percent }
\@writefile{toc}{\contentsline {section}{\numberline {4.2}Deelsysteem 1: Control mesh}{26}\protected@file@percent }
\@writefile{lot}{\contentsline {table}{\numberline {4.1}{\ignorespaces Overzicht draadloze verbindingen\relax }}{26}\protected@file@percent }
\newlabel{tbWrlss}{{4.1}{26}}
\newlabel{tbWrlss@cref}{{[table][1][4]4.1}{[1][26][]26}}
\@writefile{lof}{\contentsline {figure}{\numberline {4.2}{\ignorespaces Schematische weergave nodes in stal \relax }}{27}\protected@file@percent }
\newlabel{nodesstal}{{4.2}{27}}
\newlabel{nodesstal@cref}{{[figure][2][4]4.2}{[1][27][]27}}
\@writefile{lof}{\contentsline {figure}{\numberline {4.3}{\ignorespaces BT840 Bluetooth module van Fanstel\relax }}{28}\protected@file@percent }
\newlabel{BT840}{{4.3}{28}}
\newlabel{BT840@cref}{{[figure][3][4]4.3}{[1][28][]28}}
\@writefile{lot}{\contentsline {table}{\numberline {4.2}{\ignorespaces Keuze matrix Draadloze $\mu C$ (*Prijzen Mouser rond 03-03-2020)\relax }}{29}\protected@file@percent }
\newlabel{tabmcu}{{4.2}{29}}
\newlabel{tabmcu@cref}{{[table][2][4]4.2}{[1][29][]29}}
\@writefile{lot}{\contentsline {table}{\numberline {4.3}{\ignorespaces Keuzetabel mesh model\relax }}{30}\protected@file@percent }
\newlabel{Meshmodel}{{4.3}{30}}
\newlabel{Meshmodel@cref}{{[table][3][4]4.3}{[1][30][]30}}
\@writefile{toc}{\contentsline {section}{\numberline {4.3}Identificeren Systeem}{30}\protected@file@percent }
\@writefile{lot}{\contentsline {table}{\numberline {4.4}{\ignorespaces Keuzetabel flits LED\relax }}{30}\protected@file@percent }
\newlabel{pulsemaken}{{4.4}{30}}
\newlabel{pulsemaken@cref}{{[table][4][4]4.4}{[1][30][]30}}
\@writefile{lot}{\contentsline {table}{\numberline {4.5}{\ignorespaces Keuzetabel PWM\relax }}{31}\protected@file@percent }
\newlabel{PWMgenereren}{{4.5}{31}}
\newlabel{PWMgenereren@cref}{{[table][5][4]4.5}{[1][31][]31}}
\@writefile{toc}{\contentsline {section}{\numberline {4.4}Opslaan gegevens}{31}\protected@file@percent }
\@writefile{lot}{\contentsline {table}{\numberline {4.6}{\ignorespaces Keuzetabel opslaan gegevens\relax }}{31}\protected@file@percent }
\newlabel{opslaandata}{{4.6}{31}}
\newlabel{opslaandata@cref}{{[table][6][4]4.6}{[1][31][]31}}
\@writefile{toc}{\contentsline {chapter}{\numberline {5.}Detailontwerp}{32}\protected@file@percent }
\@writefile{lof}{\addvspace {10pt}}
\@writefile{lot}{\addvspace {10pt}}
\@writefile{lof}{\contentsline {xchapter}{Detailontwerp}{32}\protected@file@percent }
\@writefile{lot}{\contentsline {xchapter}{Detailontwerp}{32}\protected@file@percent }
\@writefile{lof}{\contentsline {figure}{\numberline {5.1}{\ignorespaces Architectuur Interconnect Diagram\relax }}{32}\protected@file@percent }
\newlabel{AID}{{5.1}{32}}
\newlabel{AID@cref}{{[figure][1][5]5.1}{[1][32][]32}}
\@writefile{toc}{\contentsline {section}{\numberline {5.1}Unit 1: Microcontroller}{33}\protected@file@percent }
\@writefile{toc}{\contentsline {section}{\numberline {5.2}Deelsysteem 1.2: Control saved data}{34}\protected@file@percent }
\@writefile{lot}{\contentsline {table}{\numberline {5.1}{\ignorespaces Keuzetabel opslag\relax }}{34}\protected@file@percent }
\newlabel{Memory}{{5.1}{34}}
\newlabel{Memory@cref}{{[table][1][5]5.1}{[1][34][]34}}
\@writefile{lof}{\contentsline {figure}{\numberline {5.2}{\ignorespaces MX25R6435FM2IH0 in Altium\relax }}{34}\protected@file@percent }
\newlabel{flash}{{5.2}{34}}
\newlabel{flash@cref}{{[figure][2][5]5.2}{[1][34][]34}}
\@writefile{lof}{\contentsline {figure}{\numberline {5.3}{\ignorespaces SPI transactie nRF52840\relax }}{35}\protected@file@percent }
\newlabel{spi}{{5.3}{35}}
\newlabel{spi@cref}{{[figure][3][5]5.3}{[1][34][]35}}
\@writefile{toc}{\contentsline {subsection}{\numberline {5.2.1}Software}{35}\protected@file@percent }
\@writefile{lof}{\contentsline {figure}{\numberline {5.4}{\ignorespaces Flowdiagram transmit\relax }}{36}\protected@file@percent }
\newlabel{spitx}{{5.4}{36}}
\newlabel{spitx@cref}{{[figure][4][5]5.4}{[1][36][]36}}
\@writefile{lof}{\contentsline {figure}{\numberline {5.5}{\ignorespaces Flowdiagram receive\relax }}{37}\protected@file@percent }
\newlabel{spirx}{{5.5}{37}}
\newlabel{spirx@cref}{{[figure][5][5]5.5}{[1][37][]37}}
\@writefile{lof}{\contentsline {figure}{\numberline {5.6}{\ignorespaces Indeling adressen flash geheugen\relax }}{37}\protected@file@percent }
\newlabel{spimem}{{5.6}{37}}
\newlabel{spimem@cref}{{[figure][6][5]5.6}{[1][37][]37}}
\@writefile{toc}{\contentsline {section}{\numberline {5.3}Deelsysteem 1.3: Communicate Motor Control Unit}{38}\protected@file@percent }
\newlabel{hs:43}{{5.3}{38}}
\newlabel{hs:43@cref}{{[section][3][5]5.3}{[1][38][]38}}
\@writefile{lof}{\contentsline {figure}{\numberline {5.7}{\ignorespaces Easydma nRF52840\relax }}{38}\protected@file@percent }
\newlabel{dma}{{5.7}{38}}
\newlabel{dma@cref}{{[figure][7][5]5.7}{[1][38][]38}}
\@writefile{toc}{\contentsline {subsection}{\numberline {5.3.1}TX}{39}\protected@file@percent }
\@writefile{lof}{\contentsline {figure}{\numberline {5.8}{\ignorespaces Zenden UART\relax }}{39}\protected@file@percent }
\newlabel{uarttx}{{5.8}{39}}
\newlabel{uarttx@cref}{{[figure][8][5]5.8}{[1][39][]39}}
\newlabel{frameformat}{{5.9a}{40}}
\newlabel{frameformat@cref}{{[subfigure][1][5,9]5.9a}{[1][40][]40}}
\newlabel{sub@frameformat}{{a}{40}}
\newlabel{sub@frameformat@cref}{{[subfigure][1][5,9]5.9a}{[1][40][]40}}
\newlabel{framecontent}{{5.9b}{40}}
\newlabel{framecontent@cref}{{[subfigure][2][5,9]5.9b}{[1][40][]40}}
\newlabel{sub@framecontent}{{b}{40}}
\newlabel{sub@framecontent@cref}{{[subfigure][2][5,9]5.9b}{[1][40][]40}}
\@writefile{lof}{\contentsline {figure}{\numberline {5.9}{\ignorespaces Inhoud commando\relax }}{40}\protected@file@percent }
\@writefile{lof}{\contentsline {figure}{\numberline {5.10}{\ignorespaces Communicatie UART\relax }}{40}\protected@file@percent }
\newlabel{uarttx}{{5.10}{40}}
\newlabel{uarttx@cref}{{[figure][10][5]5.10}{[1][40][]40}}
\@writefile{toc}{\contentsline {subsection}{\numberline {5.3.2}RX}{41}\protected@file@percent }
\@writefile{lof}{\contentsline {figure}{\numberline {5.11}{\ignorespaces Ontvangen UART\relax }}{41}\protected@file@percent }
\newlabel{uartrx}{{5.11}{41}}
\newlabel{uartrx@cref}{{[figure][11][5]5.11}{[1][41][]41}}
\@writefile{lof}{\contentsline {figure}{\numberline {5.12}{\ignorespaces Ontvangen UART Flowdiagram\relax }}{42}\protected@file@percent }
\newlabel{rxflow}{{5.12}{42}}
\newlabel{rxflow@cref}{{[figure][12][5]5.12}{[1][42][]42}}
\citation{Introduction2017}
\@writefile{toc}{\contentsline {section}{\numberline {5.4}Unit 2: Bluetooth mesh}{43}\protected@file@percent }
\@writefile{toc}{\contentsline {subsection}{\numberline {5.4.1}Node}{43}\protected@file@percent }
\@writefile{lof}{\contentsline {figure}{\numberline {5.13}{\ignorespaces Opbouw node\relax }}{43}\protected@file@percent }
\newlabel{nodestruct}{{5.13}{43}}
\newlabel{nodestruct@cref}{{[figure][13][5]5.13}{[1][43][]43}}
\@writefile{toc}{\contentsline {subsection}{\numberline {5.4.2}Model}{44}\protected@file@percent }
\@writefile{lof}{\contentsline {figure}{\numberline {5.14}{\ignorespaces Client en server\relax }}{44}\protected@file@percent }
\newlabel{clientserver}{{5.14}{44}}
\newlabel{clientserver@cref}{{[figure][14][5]5.14}{[1][44][]44}}
\@writefile{toc}{\contentsline {subsection}{\numberline {5.4.3}Proxy}{45}\protected@file@percent }
\newlabel{nodeproxy}{{5.15a}{45}}
\newlabel{nodeproxy@cref}{{[subfigure][1][5,15]5.15a}{[1][45][]45}}
\newlabel{sub@nodeproxy}{{a}{45}}
\newlabel{sub@nodeproxy@cref}{{[subfigure][1][5,15]5.15a}{[1][45][]45}}
\newlabel{stalgatt}{{5.15b}{45}}
\newlabel{stalgatt@cref}{{[subfigure][2][5,15]5.15b}{[1][45][]45}}
\newlabel{sub@stalgatt}{{b}{45}}
\newlabel{sub@stalgatt@cref}{{[subfigure][2][5,15]5.15b}{[1][45][]45}}
\@writefile{lof}{\contentsline {figure}{\numberline {5.15}{\ignorespaces De stal met mesh nodes\relax }}{45}\protected@file@percent }
\citation{codemeshlr}
\@writefile{toc}{\contentsline {subsection}{\numberline {5.4.4}Bereik}{46}\protected@file@percent }
\@writefile{lof}{\contentsline {figure}{\numberline {5.16}{\ignorespaces De \texttt  {generic\textunderscore level\textunderscore state\textunderscore set\textunderscore cb} functie\relax }}{47}\protected@file@percent }
\newlabel{switchcase}{{5.16}{47}}
\newlabel{switchcase@cref}{{[figure][16][5]5.16}{[1][47][]47}}
\citation{Pylarinos2003}
\@writefile{toc}{\contentsline {section}{\numberline {5.5}Unit 3: LED schakeling}{48}\protected@file@percent }
\@writefile{lof}{\contentsline {figure}{\numberline {5.17}{\ignorespaces Principe Charge Pump\relax }}{48}\protected@file@percent }
\newlabel{prcp}{{5.17}{48}}
\newlabel{prcp@cref}{{[figure][17][5]5.17}{[1][48][]48}}
\citation{Palumbo2010}
\@writefile{lot}{\contentsline {table}{\numberline {5.2}{\ignorespaces Keuzetabel schakel element\relax }}{49}\protected@file@percent }
\newlabel{schakel}{{5.2}{49}}
\newlabel{schakel@cref}{{[table][2][5]5.2}{[1][49][]49}}
\@writefile{lof}{\contentsline {figure}{\numberline {5.18}{\ignorespaces Charge pump\relax }}{49}\protected@file@percent }
\newlabel{schemacp}{{5.18}{49}}
\newlabel{schemacp@cref}{{[figure][18][5]5.18}{[1][49][]49}}
\newlabel{eqvout}{{5.1}{49}}
\newlabel{eqvout@cref}{{[equation][1][5]5.1}{[1][49][]49}}
\@writefile{lot}{\contentsline {table}{\numberline {5.3}{\ignorespaces Keuzetabel Schakelen LED\relax }}{50}\protected@file@percent }
\newlabel{schakelled}{{5.3}{50}}
\newlabel{schakelled@cref}{{[table][3][5]5.3}{[1][49][]50}}
\@writefile{lof}{\contentsline {figure}{\numberline {5.19}{\ignorespaces Charge pump met schakel gedeelte\relax }}{50}\protected@file@percent }
\newlabel{schemacpschakel}{{5.19}{50}}
\newlabel{schemacpschakel@cref}{{[figure][19][5]5.19}{[1][49][]50}}
\newlabel{eqmaasc}{{5.3}{51}}
\newlabel{eqmaasc@cref}{{[equation][3][5]5.3}{[1][50][]51}}
\citation{Campbell1966}
\@writefile{lot}{\contentsline {table}{\numberline {5.4}{\ignorespaces Keuzetabel Schakelen LED\relax }}{52}\protected@file@percent }
\newlabel{schakelled}{{5.4}{52}}
\newlabel{schakelled@cref}{{[table][4][5]5.4}{[1][52][]52}}
\@writefile{lot}{\contentsline {table}{\numberline {5.5}{\ignorespaces Keuzetabel LED\relax }}{52}\protected@file@percent }
\@writefile{lof}{\contentsline {figure}{\numberline {5.20}{\ignorespaces Simulatie spanning op LED\relax }}{53}\protected@file@percent }
\newlabel{schemacpschakellt}{{5.20}{53}}
\newlabel{schemacpschakellt@cref}{{[figure][20][5]5.20}{[1][52][]53}}
\@writefile{lof}{\contentsline {figure}{\numberline {5.21}{\ignorespaces Simulatie stroom door LED bij pulse\relax }}{53}\protected@file@percent }
\newlabel{schemacpschakellt}{{5.21}{53}}
\newlabel{schemacpschakellt@cref}{{[figure][21][5]5.21}{[1][53][]53}}
\@writefile{lof}{\contentsline {figure}{\numberline {5.22}{\ignorespaces Charge pump in LT-Spice\relax }}{54}\protected@file@percent }
\newlabel{similed}{{5.22}{54}}
\newlabel{similed@cref}{{[figure][22][5]5.22}{[1][54][]54}}
\@writefile{lof}{\contentsline {figure}{\numberline {5.23}{\ignorespaces Simulatie spanning LED ingezoomd\relax }}{54}\protected@file@percent }
\newlabel{schemacpschakellt}{{5.23}{54}}
\newlabel{schemacpschakellt@cref}{{[figure][23][5]5.23}{[1][54][]54}}
\@writefile{toc}{\contentsline {chapter}{\numberline {6.}Realisatie}{55}\protected@file@percent }
\@writefile{lof}{\addvspace {10pt}}
\@writefile{lot}{\addvspace {10pt}}
\@writefile{lof}{\contentsline {xchapter}{Realisatie}{55}\protected@file@percent }
\@writefile{lot}{\contentsline {xchapter}{Realisatie}{55}\protected@file@percent }
\@writefile{toc}{\contentsline {section}{\numberline {6.1}Realisatie Hardware}{55}\protected@file@percent }
\newlabel{PCB2DTOP}{{6.1a}{56}}
\newlabel{PCB2DTOP@cref}{{[subfigure][1][6,1]6.1a}{[1][56][]56}}
\newlabel{sub@PCB2DTOP}{{a}{56}}
\newlabel{sub@PCB2DTOP@cref}{{[subfigure][1][6,1]6.1a}{[1][56][]56}}
\newlabel{PCB2DBOT}{{6.1b}{56}}
\newlabel{PCB2DBOT@cref}{{[subfigure][2][6,1]6.1b}{[1][56][]56}}
\newlabel{sub@PCB2DBOT}{{b}{56}}
\newlabel{sub@PCB2DBOT@cref}{{[subfigure][2][6,1]6.1b}{[1][56][]56}}
\@writefile{lof}{\contentsline {figure}{\numberline {6.1}{\ignorespaces 2D tekeningen van de printplaten\relax }}{56}\protected@file@percent }
\newlabel{PCB3DTOP}{{6.2a}{57}}
\newlabel{PCB3DTOP@cref}{{[subfigure][1][6,2]6.2a}{[1][56][]57}}
\newlabel{sub@PCB3DTOP}{{a}{57}}
\newlabel{sub@PCB3DTOP@cref}{{[subfigure][1][6,2]6.2a}{[1][56][]57}}
\newlabel{PCB3DBOT}{{6.2b}{57}}
\newlabel{PCB3DBOT@cref}{{[subfigure][2][6,2]6.2b}{[1][56][]57}}
\newlabel{sub@PCB3DBOT}{{b}{57}}
\newlabel{sub@PCB3DBOT@cref}{{[subfigure][2][6,2]6.2b}{[1][56][]57}}
\@writefile{lof}{\contentsline {figure}{\numberline {6.2}{\ignorespaces 3D tekeningen van de printplaten\relax }}{57}\protected@file@percent }
\@writefile{toc}{\contentsline {section}{\numberline {6.2}Software}{58}\protected@file@percent }
\@writefile{toc}{\contentsline {section}{\numberline {6.3}Solderen}{59}\protected@file@percent }
\newlabel{PCBTOP}{{6.3a}{59}}
\newlabel{PCBTOP@cref}{{[subfigure][1][6,3]6.3a}{[1][59][]59}}
\newlabel{sub@PCBTOP}{{a}{59}}
\newlabel{sub@PCBTOP@cref}{{[subfigure][1][6,3]6.3a}{[1][59][]59}}
\newlabel{PCBBOT}{{6.3b}{59}}
\newlabel{PCBBOT@cref}{{[subfigure][2][6,3]6.3b}{[1][59][]59}}
\newlabel{sub@PCBBOT}{{b}{59}}
\newlabel{sub@PCBBOT@cref}{{[subfigure][2][6,3]6.3b}{[1][59][]59}}
\@writefile{lof}{\contentsline {figure}{\numberline {6.3}{\ignorespaces 2D tekeningen van de printplaten\relax }}{59}\protected@file@percent }
\@writefile{toc}{\contentsline {section}{\numberline {6.4}Componenten}{59}\protected@file@percent }
\@writefile{toc}{\contentsline {section}{\numberline {6.5}Program connector}{60}\protected@file@percent }
\newlabel{progont}{{6.4a}{60}}
\newlabel{progont@cref}{{[subfigure][1][6,4]6.4a}{[1][60][]60}}
\newlabel{sub@progont}{{a}{60}}
\newlabel{sub@progont@cref}{{[subfigure][1][6,4]6.4a}{[1][60][]60}}
\newlabel{progrea}{{6.4b}{60}}
\newlabel{progrea@cref}{{[subfigure][2][6,4]6.4b}{[1][60][]60}}
\newlabel{sub@progrea}{{b}{60}}
\newlabel{sub@progrea@cref}{{[subfigure][2][6,4]6.4b}{[1][60][]60}}
\@writefile{lof}{\contentsline {figure}{\numberline {6.4}{\ignorespaces Program connector\relax }}{60}\protected@file@percent }
\@writefile{toc}{\contentsline {chapter}{\numberline {7.}Conclusie}{61}\protected@file@percent }
\@writefile{lof}{\addvspace {10pt}}
\@writefile{lot}{\addvspace {10pt}}
\@writefile{lof}{\contentsline {xchapter}{Conclusie}{61}\protected@file@percent }
\@writefile{lot}{\contentsline {xchapter}{Conclusie}{61}\protected@file@percent }
\@writefile{toc}{\contentsline {chapter}{\numberline {8.}Aanbevelingen}{62}\protected@file@percent }
\@writefile{lof}{\addvspace {10pt}}
\@writefile{lot}{\addvspace {10pt}}
\@writefile{lof}{\contentsline {xchapter}{Aanbevelingen}{62}\protected@file@percent }
\@writefile{lot}{\contentsline {xchapter}{Aanbevelingen}{62}\protected@file@percent }
\@writefile{toc}{\contentsline {section}{\numberline {8.1}Module}{62}\protected@file@percent }
\@writefile{toc}{\contentsline {section}{\numberline {8.2}Plaatsing op IM60/IM125}{63}\protected@file@percent }
\@writefile{toc}{\contentsline {chapter}{Appendices}{64}\protected@file@percent }
\@writefile{toc}{\contentsline {chapter}{\numberline {A.}Onderzoek Bluetooth mesh}{65}\protected@file@percent }
\@writefile{lof}{\addvspace {10pt}}
\@writefile{lot}{\addvspace {10pt}}
\@writefile{lof}{\contentsline {xchapter}{Onderzoek Bluetooth mesh}{65}\protected@file@percent }
\@writefile{lot}{\contentsline {xchapter}{Onderzoek Bluetooth mesh}{65}\protected@file@percent }
\newlabel{ondmesh}{{A}{65}}
\newlabel{ondmesh@cref}{{[chapter][1][]A}{[1][65][]65}}
\citation{btversions}
\@writefile{toc}{\contentsline {section}{\numberline {A.1}Inleiding}{66}\protected@file@percent }
\@writefile{toc}{\contentsline {section}{\numberline {A.2}Bluetooth Low Energie}{66}\protected@file@percent }
\@writefile{lof}{\contentsline {figure}{\numberline {A.1}{\ignorespaces BLE stack\relax }}{66}\protected@file@percent }
\newlabel{blestack}{{A.1}{66}}
\newlabel{blestack@cref}{{[figure][1][1]A.1}{[1][66][]66}}
\citation{Gomez2012}
\@writefile{toc}{\contentsline {paragraph}{Physical layer}{67}\protected@file@percent }
\@writefile{lof}{\contentsline {figure}{\numberline {A.2}{\ignorespaces Fequentiespectrum\relax }}{67}\protected@file@percent }
\newlabel{freqhop}{{A.2}{67}}
\newlabel{freqhop@cref}{{[figure][2][1]A.2}{[1][67][]67}}
\@writefile{toc}{\contentsline {paragraph}{Link layer}{67}\protected@file@percent }
\@writefile{toc}{\contentsline {paragraph}{L2CAP}{67}\protected@file@percent }
\@writefile{toc}{\contentsline {paragraph}{GAP}{67}\protected@file@percent }
\citation{btgatt}
\@writefile{toc}{\contentsline {paragraph}{Attribute Protocol}{68}\protected@file@percent }
\@writefile{lof}{\contentsline {figure}{\numberline {A.3}{\ignorespaces Attribute structure\relax }}{68}\protected@file@percent }
\newlabel{attstruct}{{A.3}{68}}
\newlabel{attstruct@cref}{{[figure][3][1]A.3}{[1][68][]68}}
\@writefile{toc}{\contentsline {paragraph}{GATT}{69}\protected@file@percent }
\@writefile{toc}{\contentsline {section}{\numberline {A.3}Bluetooth mesh}{69}\protected@file@percent }
\@writefile{lof}{\contentsline {figure}{\numberline {A.4}{\ignorespaces Mesh layers\relax }}{69}\protected@file@percent }
\newlabel{meshlayer}{{A.4}{69}}
\newlabel{meshlayer@cref}{{[figure][4][1]A.4}{[1][69][]69}}
\@writefile{toc}{\contentsline {paragraph}{Bearer Layer}{70}\protected@file@percent }
\@writefile{toc}{\contentsline {paragraph}{Network Layer}{70}\protected@file@percent }
\@writefile{toc}{\contentsline {paragraph}{Lower Transport Layer}{70}\protected@file@percent }
\@writefile{toc}{\contentsline {paragraph}{Upper Transport Layer}{70}\protected@file@percent }
\@writefile{toc}{\contentsline {paragraph}{Acces Layer}{70}\protected@file@percent }
\@writefile{toc}{\contentsline {paragraph}{Foundation Model Layer}{70}\protected@file@percent }
\@writefile{toc}{\contentsline {paragraph}{Model layer}{70}\protected@file@percent }
\@writefile{lof}{\contentsline {figure}{\numberline {A.5}{\ignorespaces Mesh Netwerk\relax }}{71}\protected@file@percent }
\newlabel{meshnetwerk}{{A.5}{71}}
\newlabel{meshnetwerk@cref}{{[figure][5][1]A.5}{[1][71][]71}}
\@writefile{toc}{\contentsline {section}{\numberline {A.4}Test mesh}{72}\protected@file@percent }
\@writefile{lof}{\contentsline {figure}{\numberline {A.6}{\ignorespaces Mesh layers\relax }}{72}\protected@file@percent }
\newlabel{testmesh}{{A.6}{72}}
\newlabel{testmesh@cref}{{[figure][6][1]A.6}{[1][72][]72}}
\@writefile{toc}{\contentsline {section}{\numberline {A.5}Conclusie}{73}\protected@file@percent }
\citation{Specification2018}
\citation{Campbell1966}
\citation{ccled}
\@writefile{toc}{\contentsline {chapter}{\numberline {B.}Onderzoek LED}{74}\protected@file@percent }
\@writefile{lof}{\addvspace {10pt}}
\@writefile{lot}{\addvspace {10pt}}
\@writefile{lof}{\contentsline {xchapter}{Onderzoek LED}{74}\protected@file@percent }
\@writefile{lot}{\contentsline {xchapter}{Onderzoek LED}{74}\protected@file@percent }
\newlabel{ondled}{{B}{74}}
\newlabel{ondled@cref}{{[chapter][2][]B}{[1][74][]74}}
\@writefile{toc}{\contentsline {section}{\numberline {B.1}DC-DC conversie}{74}\protected@file@percent }
\@writefile{lof}{\contentsline {figure}{\numberline {B.1}{\ignorespaces LED Forward Current en Load\relax }}{75}\protected@file@percent }
\newlabel{ILED}{{B.1}{75}}
\newlabel{ILED@cref}{{[figure][1][2]B.1}{[1][74][]75}}
\@writefile{toc}{\contentsline {subsection}{\numberline {B.1.1}Charge pump}{75}\protected@file@percent }
\@writefile{lof}{\contentsline {figure}{\numberline {B.2}{\ignorespaces Charge pump\relax }}{75}\protected@file@percent }
\newlabel{VD}{{B.2}{75}}
\newlabel{VD@cref}{{[figure][2][2]B.2}{[1][74][]75}}
\newlabel{eqvc2}{{B.2}{76}}
\newlabel{eqvc2@cref}{{[equation][2][2]B.2}{[1][76][]76}}
\newlabel{eqvc2}{{B.3}{76}}
\newlabel{eqvc2@cref}{{[equation][3][2]B.3}{[1][76][]76}}
\@writefile{toc}{\contentsline {subsubsection}{Simulatie en opbouw Charge pump}{77}\protected@file@percent }
\@writefile{lof}{\contentsline {figure}{\numberline {B.3}{\ignorespaces Chargepump in LT spice opgebouwd\relax }}{77}\protected@file@percent }
\newlabel{CPLT}{{B.3}{77}}
\newlabel{CPLT@cref}{{[figure][3][2]B.3}{[1][77][]77}}
\@writefile{lof}{\contentsline {figure}{\numberline {B.4}{\ignorespaces Vout in simulatie\relax }}{78}\protected@file@percent }
\newlabel{VOCPLT}{{B.4}{78}}
\newlabel{VOCPLT@cref}{{[figure][4][2]B.4}{[1][78][]78}}
\@writefile{lof}{\contentsline {figure}{\numberline {B.5}{\ignorespaces Vout in scope\relax }}{79}\protected@file@percent }
\newlabel{VOSLT}{{B.5}{79}}
\newlabel{VOSLT@cref}{{[figure][5][2]B.5}{[1][79][]79}}
\@writefile{lof}{\contentsline {figure}{\numberline {B.6}{\ignorespaces Rimpel in stroom aan voeding\relax }}{80}\protected@file@percent }
\newlabel{3v3rimpel}{{B.6}{80}}
\newlabel{3v3rimpel@cref}{{[figure][6][2]B.6}{[1][80][]80}}
\@writefile{toc}{\contentsline {subsubsection}{BOM charge pump}{81}\protected@file@percent }
\newlabel{BOM chargePUMP}{{\caption@xref {BOM chargePUMP}{ on input line 1393}}{81}}
\newlabel{BOM chargePUMP@cref}{{[subsection][1][2,1]B.1.1}{[1][81][]81}}
\citation{boost}
\@writefile{toc}{\contentsline {subsection}{\numberline {B.1.2}Boost Converter}{82}\protected@file@percent }
\newlabel{boost}{{B.1.2}{82}}
\newlabel{boost@cref}{{[subsection][2][2,1]B.1.2}{[1][82][]82}}
\@writefile{lof}{\contentsline {figure}{\numberline {B.7}{\ignorespaces Schema boost converter\relax }}{82}\protected@file@percent }
\newlabel{boost}{{B.7}{82}}
\newlabel{boost@cref}{{[figure][7][2]B.7}{[1][82][]82}}
\newlabel{ipk}{{B.18}{83}}
\newlabel{ipk@cref}{{[equation][18][2]B.18}{[1][83][]83}}
\citation{tiboost}
\@writefile{lof}{\contentsline {figure}{\numberline {B.8}{\ignorespaces LTspice boost converter simulatie\relax }}{84}\protected@file@percent }
\newlabel{boostsim}{{B.8}{84}}
\newlabel{boostsim@cref}{{[figure][8][2]B.8}{[1][84][]84}}
\@writefile{lof}{\contentsline {figure}{\numberline {B.9}{\ignorespaces LTspice output stroom V1\relax }}{84}\protected@file@percent }
\newlabel{v1sim}{{B.9}{84}}
\newlabel{v1sim@cref}{{[figure][9][2]B.9}{[1][84][]84}}
\@writefile{toc}{\contentsline {subsection}{\numberline {B.1.3}Schakelen LED}{85}\protected@file@percent }
\@writefile{toc}{\contentsline {subsubsection}{Schakelen met transistor}{85}\protected@file@percent }
\@writefile{lof}{\contentsline {figure}{\numberline {B.10}{\ignorespaces LED aangestuurd d.m.v. NPN\relax }}{85}\protected@file@percent }
\newlabel{LEDNPN}{{B.10}{85}}
\newlabel{LEDNPN@cref}{{[figure][10][2]B.10}{[1][85][]85}}
\newlabel{eqr3}{{B.21}{86}}
\newlabel{eqr3@cref}{{[equation][21][2]B.21}{[1][86][]86}}
\@writefile{toc}{\contentsline {subsection}{\numberline {B.1.4}Schakelen met FET}{87}\protected@file@percent }
\@writefile{lof}{\contentsline {figure}{\numberline {B.11}{\ignorespaces LED aangestuurd d.m.v. NMOS\relax }}{87}\protected@file@percent }
\newlabel{NMOSLED}{{B.11}{87}}
\newlabel{NMOSLED@cref}{{[figure][11][2]B.11}{[1][87][]87}}
\@writefile{toc}{\contentsline {section}{\numberline {B.2}Berekeningen gekozen FET}{88}\protected@file@percent }
\newlabel{berfet}{{B.2}{88}}
\newlabel{berfet@cref}{{[section][2][2]B.2}{[1][88][]88}}
\newlabel{eqfet}{{B.25}{88}}
\newlabel{eqfet@cref}{{[equation][25][2]B.25}{[1][88][]88}}
\@writefile{lof}{\contentsline {figure}{\numberline {B.12}{\ignorespaces Warmte weerstand\relax }}{89}\protected@file@percent }
\newlabel{pulse}{{B.12}{89}}
\newlabel{pulse@cref}{{[figure][12][2]B.12}{[1][89][]89}}
\@writefile{toc}{\contentsline {section}{\numberline {B.3}Conclusie}{89}\protected@file@percent }
\citation{cbs}
\@writefile{toc}{\contentsline {chapter}{\numberline {C.}Onderzoek draadloze technologieën}{90}\protected@file@percent }
\@writefile{lof}{\addvspace {10pt}}
\@writefile{lot}{\addvspace {10pt}}
\@writefile{lof}{\contentsline {xchapter}{Onderzoek draadloze technologieën}{90}\protected@file@percent }
\@writefile{lot}{\contentsline {xchapter}{Onderzoek draadloze technologieën}{90}\protected@file@percent }
\newlabel{onddr}{{C}{90}}
\newlabel{onddr@cref}{{[chapter][3][]C}{[1][90][]90}}
\@writefile{toc}{\contentsline {section}{\numberline {C.1}Inleiding}{90}\protected@file@percent }
\newlabel{stal1}{{C.1a}{91}}
\newlabel{stal1@cref}{{[subfigure][1][3,1]C.1a}{[1][91][]91}}
\newlabel{sub@stal1}{{a}{91}}
\newlabel{sub@stal1@cref}{{[subfigure][1][3,1]C.1a}{[1][91][]91}}
\newlabel{stal2}{{C.1b}{91}}
\newlabel{stal2@cref}{{[subfigure][2][3,1]C.1b}{[1][91][]91}}
\newlabel{sub@stal2}{{b}{91}}
\newlabel{sub@stal2@cref}{{[subfigure][2][3,1]C.1b}{[1][91][]91}}
\@writefile{lof}{\contentsline {figure}{\numberline {C.1}{\ignorespaces Mogelijke ophanging motor\relax }}{91}\protected@file@percent }
\citation{los}
\citation{topo}
\@writefile{toc}{\contentsline {section}{\numberline {C.2}Draadloze technologieën}{92}\protected@file@percent }
\@writefile{lof}{\contentsline {figure}{\numberline {C.2}{\ignorespaces Line Of Sight \relax }}{92}\protected@file@percent }
\newlabel{los}{{C.2}{92}}
\newlabel{los@cref}{{[figure][2][3]C.2}{[1][92][]92}}
\citation{Verma2013}
\citation{Zhao2014}
\citation{meshfaq}
\citation{meshfaq}
\citation{Yaakop2017}
\citation{zigbee}
\citation{Ali-rantala}
\citation{Chruszczyk2017}
\@writefile{toc}{\contentsline {subsection}{\numberline {C.2.1}Frequentie, bereik en maximale snelheid}{93}\protected@file@percent }
\citation{DelaCruz2016}
\citation{starmesh}
\citation{hu2013}
\@writefile{toc}{\contentsline {subsection}{\numberline {C.2.2}Topologie en gebruik smartphone}{94}\protected@file@percent }
\newlabel{star}{{C.3a}{94}}
\newlabel{star@cref}{{[subfigure][1][3,3]C.3a}{[1][94][]94}}
\newlabel{sub@star}{{a}{94}}
\newlabel{sub@star@cref}{{[subfigure][1][3,3]C.3a}{[1][94][]94}}
\newlabel{mesh}{{C.3b}{94}}
\newlabel{mesh@cref}{{[subfigure][2][3,3]C.3b}{[1][94][]94}}
\newlabel{sub@mesh}{{b}{94}}
\newlabel{sub@mesh@cref}{{[subfigure][2][3,3]C.3b}{[1][94][]94}}
\@writefile{lof}{\contentsline {figure}{\numberline {C.3}{\ignorespaces Twee verschillende netwerk configuraties\relax }}{94}\protected@file@percent }
\citation{blfees}
\citation{lora}
\citation{zigbee}
\@writefile{toc}{\contentsline {subsection}{\numberline {C.2.3}Kosten}{95}\protected@file@percent }
\@writefile{toc}{\contentsline {section}{\numberline {C.3}Conclusie}{96}\protected@file@percent }
\@writefile{lot}{\contentsline {table}{\numberline {C.1}{\ignorespaces Overzicht draadloze verbindingen\relax }}{96}\protected@file@percent }
\newlabel{tbWrlss}{{C.1}{96}}
\newlabel{tbWrlss@cref}{{[table][1][3]C.1}{[1][96][]96}}
\@writefile{toc}{\contentsline {chapter}{\numberline {D.}Plan Van Aanpak}{97}\protected@file@percent }
\@writefile{lof}{\addvspace {10pt}}
\@writefile{lot}{\addvspace {10pt}}
\@writefile{lof}{\contentsline {xchapter}{Plan Van Aanpak}{97}\protected@file@percent }
\@writefile{lot}{\contentsline {xchapter}{Plan Van Aanpak}{97}\protected@file@percent }
\newlabel{hs:vb}{{D}{97}}
\newlabel{hs:vb@cref}{{[chapter][4][]D}{[1][97][]97}}
\@writefile{lot}{\contentsline {table}{\numberline {D.1}{\ignorespaces Versiehistorie\relax }}{97}\protected@file@percent }
\newlabel{tab:vb}{{D.1}{97}}
\newlabel{tab:vb@cref}{{[table][1][4]D.1}{[1][97][]97}}
\@writefile{toc}{\contentsline {section}{\numberline {D.1}Achtergronden}{98}\protected@file@percent }
\newlabel{hs:h1}{{D.1}{98}}
\newlabel{hs:h1@cref}{{[section][1][4]D.1}{[1][98][]98}}
\newlabel{hs:h11}{{D.1}{98}}
\newlabel{hs:h11@cref}{{[section][1][4]D.1}{[1][98][]98}}
\newlabel{hs:h12}{{D.1}{98}}
\newlabel{hs:h12@cref}{{[section][1][4]D.1}{[1][98][]98}}
\newlabel{hs:h13}{{D.1}{98}}
\newlabel{hs:h13@cref}{{[section][1][4]D.1}{[1][98][]98}}
\@writefile{toc}{\contentsline {section}{\numberline {D.2}Projectresultaat}{98}\protected@file@percent }
\newlabel{hs:h2}{{D.2}{98}}
\newlabel{hs:h2@cref}{{[section][2][4]D.2}{[1][98][]98}}
\newlabel{hs:h21}{{D.2}{98}}
\newlabel{hs:h21@cref}{{[section][2][4]D.2}{[1][98][]98}}
\newlabel{hs:h22}{{D.2}{99}}
\newlabel{hs:h22@cref}{{[section][2][4]D.2}{[1][98][]99}}
\newlabel{hs:h3}{{D.2}{100}}
\newlabel{hs:h3@cref}{{[section][2][4]D.2}{[1][100][]100}}
\newlabel{hs:h31}{{D.2}{100}}
\newlabel{hs:h31@cref}{{[section][2][4]D.2}{[1][100][]100}}
\newlabel{hs:h32}{{D.2}{100}}
\newlabel{hs:h32@cref}{{[section][2][4]D.2}{[1][100][]100}}
\@writefile{toc}{\contentsline {section}{\numberline {D.4}Projectgrenzen en randvoorwaarden}{102}\protected@file@percent }
\newlabel{hs:h4}{{D.4}{102}}
\newlabel{hs:h4@cref}{{[section][4][4]D.4}{[1][102][]102}}
\newlabel{hs:h41}{{D.4}{102}}
\newlabel{hs:h41@cref}{{[section][4][4]D.4}{[1][102][]102}}
\newlabel{hs:h42}{{D.4}{102}}
\newlabel{hs:h42@cref}{{[section][4][4]D.4}{[1][102][]102}}
\@writefile{toc}{\contentsline {section}{\numberline {D.5}Tussenresultaten}{102}\protected@file@percent }
\newlabel{hs:h5}{{D.5}{102}}
\newlabel{hs:h5@cref}{{[section][5][4]D.5}{[1][102][]102}}
\newlabel{hs:h51}{{D.5}{102}}
\newlabel{hs:h51@cref}{{[section][5][4]D.5}{[1][102][]102}}
\newlabel{hs:h52}{{D.5}{102}}
\newlabel{hs:h52@cref}{{[section][5][4]D.5}{[1][102][]102}}
\@writefile{toc}{\contentsline {section}{\numberline {D.6}Kwaliteit}{103}\protected@file@percent }
\newlabel{hs:h6}{{D.6}{103}}
\newlabel{hs:h6@cref}{{[section][6][4]D.6}{[1][103][]103}}
\newlabel{hs:h61}{{D.6}{103}}
\newlabel{hs:h61@cref}{{[section][6][4]D.6}{[1][103][]103}}
\newlabel{hs:h62}{{D.6}{103}}
\newlabel{hs:h62@cref}{{[section][6][4]D.6}{[1][103][]103}}
\newlabel{hs:h63}{{D.6}{103}}
\newlabel{hs:h63@cref}{{[section][6][4]D.6}{[1][103][]103}}
\newlabel{hs:h64}{{D.6}{103}}
\newlabel{hs:h64@cref}{{[section][6][4]D.6}{[1][103][]103}}
\@writefile{toc}{\contentsline {section}{\numberline {D.7}Projectorganisatie}{104}\protected@file@percent }
\newlabel{hs:h7}{{D.7}{104}}
\newlabel{hs:h7@cref}{{[section][7][4]D.7}{[1][104][]104}}
\newlabel{hs:h71}{{D.7}{104}}
\newlabel{hs:h71@cref}{{[section][7][4]D.7}{[1][104][]104}}
\@writefile{lot}{\contentsline {table}{\numberline {D.2}{\ignorespaces Persoonlijke gegevens\relax }}{104}\protected@file@percent }
\newlabel{tab:pg}{{D.2}{104}}
\newlabel{tab:pg@cref}{{[table][2][4]D.2}{[1][104][]104}}
\newlabel{hs:h72}{{D.7}{104}}
\newlabel{hs:h72@cref}{{[section][7][4]D.7}{[1][104][]104}}
\newlabel{hs:h73}{{D.7}{104}}
\newlabel{hs:h73@cref}{{[section][7][4]D.7}{[1][104][]104}}
\newlabel{hs:h74}{{D.7}{104}}
\newlabel{hs:h74@cref}{{[section][7][4]D.7}{[1][104][]104}}
\@writefile{toc}{\contentsline {section}{\numberline {D.8}Planning}{105}\protected@file@percent }
\newlabel{hs:h8}{{D.8}{105}}
\newlabel{hs:h8@cref}{{[section][8][4]D.8}{[1][105][]105}}
\@writefile{lof}{\contentsline {figure}{\numberline {D.1}{\ignorespaces Planning deel 1\relax }}{106}\protected@file@percent }
\newlabel{planning}{{D.1}{106}}
\newlabel{planning@cref}{{[figure][1][4]D.1}{[1][105][]106}}
\@writefile{lof}{\contentsline {figure}{\numberline {D.2}{\ignorespaces Planning deel 2\relax }}{107}\protected@file@percent }
\@writefile{toc}{\contentsline {section}{\numberline {D.9}Kosten en baten}{108}\protected@file@percent }
\newlabel{hs:h9}{{D.9}{108}}
\newlabel{hs:h9@cref}{{[section][9][4]D.9}{[1][108][]108}}
\newlabel{hs:h91}{{D.9}{108}}
\newlabel{hs:h91@cref}{{[section][9][4]D.9}{[1][108][]108}}
\newlabel{hs:h92}{{D.9}{108}}
\newlabel{hs:h92@cref}{{[section][9][4]D.9}{[1][108][]108}}
\newlabel{hs:h93}{{D.9}{108}}
\newlabel{hs:h93@cref}{{[section][9][4]D.9}{[1][108][]108}}
\@writefile{toc}{\contentsline {section}{\numberline {D.10}Risico's}{108}\protected@file@percent }
\newlabel{hs:h10}{{D.10}{108}}
\newlabel{hs:h10@cref}{{[section][10][4]D.10}{[1][108][]108}}
\newlabel{hs:h101}{{D.10}{108}}
\newlabel{hs:h101@cref}{{[section][10][4]D.10}{[1][108][]108}}
\newlabel{hs:h102}{{D.10}{109}}
\newlabel{hs:h102@cref}{{[section][10][4]D.10}{[1][108][]109}}
\newlabel{hs:h103}{{D.10}{109}}
\newlabel{hs:h103@cref}{{[section][10][4]D.10}{[1][109][]109}}
\@writefile{lot}{\contentsline {table}{\numberline {D.3}{\ignorespaces Externe Risico's\relax }}{110}\protected@file@percent }
\newlabel{tab:ra}{{D.3}{110}}
\newlabel{tab:ra@cref}{{[table][3][4]D.3}{[1][109][]110}}
\@writefile{toc}{\contentsline {chapter}{\numberline {E.}Volledige keuze verantwoording draadloze microcontroller}{111}\protected@file@percent }
\@writefile{lof}{\addvspace {10pt}}
\@writefile{lot}{\addvspace {10pt}}
\@writefile{lof}{\contentsline {xchapter}{Volledige keuze verantwoording draadloze microcontroller}{111}\protected@file@percent }
\@writefile{lot}{\contentsline {xchapter}{Volledige keuze verantwoording draadloze microcontroller}{111}\protected@file@percent }
\newlabel{mcukeus}{{E}{111}}
\newlabel{mcukeus@cref}{{[chapter][5][]E}{[1][111][]111}}
\@writefile{toc}{\contentsline {paragraph}{Nordic}{111}\protected@file@percent }
\@writefile{toc}{\contentsline {paragraph}{ST}{111}\protected@file@percent }
\@writefile{toc}{\contentsline {paragraph}{NXP}{111}\protected@file@percent }
\@writefile{toc}{\contentsline {paragraph}{TI}{112}\protected@file@percent }
\@writefile{toc}{\contentsline {paragraph}{Silicon Labs}{112}\protected@file@percent }
\@writefile{toc}{\contentsline {paragraph}{Conclusie}{112}\protected@file@percent }
\@writefile{toc}{\contentsline {chapter}{\numberline {F.}Acceptatie test}{113}\protected@file@percent }
\@writefile{lof}{\addvspace {10pt}}
\@writefile{lot}{\addvspace {10pt}}
\@writefile{lof}{\contentsline {xchapter}{Acceptatie test}{113}\protected@file@percent }
\@writefile{lot}{\contentsline {xchapter}{Acceptatie test}{113}\protected@file@percent }
\newlabel{acctest}{{F}{113}}
\newlabel{acctest@cref}{{[chapter][6][]F}{[1][113][]113}}
\@writefile{toc}{\contentsline {section}{\numberline {F.1}Voorbereidingen acceptatietest}{113}\protected@file@percent }
\@writefile{toc}{\contentsline {subsection}{\numberline {F.1.1}Visuele testomgeving}{113}\protected@file@percent }
\@writefile{toc}{\contentsline {subsubsection}{Hardware}{113}\protected@file@percent }
\@writefile{toc}{\contentsline {subsubsection}{Software}{114}\protected@file@percent }
\@writefile{toc}{\contentsline {subsection}{\numberline {F.1.2}Testomgeving seriële verbinding}{114}\protected@file@percent }
\newlabel{to1}{{F.1.2}{114}}
\newlabel{to1@cref}{{[subsection][2][6,1]F.1.2}{[1][114][]114}}
\@writefile{toc}{\contentsline {subsubsection}{Hardware}{114}\protected@file@percent }
\@writefile{toc}{\contentsline {subsubsection}{Software}{114}\protected@file@percent }
\@writefile{toc}{\contentsline {subsubsection}{Overig}{114}\protected@file@percent }
\@writefile{toc}{\contentsline {subsection}{\numberline {F.1.3}Test mesh}{114}\protected@file@percent }
\newlabel{to2}{{F.1.3}{114}}
\newlabel{to2@cref}{{[subsection][3][6,1]F.1.3}{[1][114][]114}}
\@writefile{toc}{\contentsline {subsubsection}{Hardware}{114}\protected@file@percent }
\@writefile{toc}{\contentsline {subsubsection}{Software}{114}\protected@file@percent }
\@writefile{toc}{\contentsline {subsection}{\numberline {F.1.4}Test data opslag}{115}\protected@file@percent }
\newlabel{to3}{{F.1.4}{115}}
\newlabel{to3@cref}{{[subsection][4][6,1]F.1.4}{[1][115][]115}}
\@writefile{toc}{\contentsline {subsubsection}{Hardware}{115}\protected@file@percent }
\@writefile{toc}{\contentsline {subsubsection}{Software}{115}\protected@file@percent }
\@writefile{toc}{\contentsline {subsection}{\numberline {F.1.5}Test software update}{115}\protected@file@percent }
\newlabel{to4}{{F.1.5}{115}}
\newlabel{to4@cref}{{[subsection][5][6,1]F.1.5}{[1][115][]115}}
\@writefile{toc}{\contentsline {subsubsection}{Hardware}{115}\protected@file@percent }
\@writefile{toc}{\contentsline {section}{\numberline {F.2}Acceptatietestbeschrijvingen}{116}\protected@file@percent }
\@writefile{toc}{\contentsline {subsection}{\numberline {F.2.1}Test Bluetooth naar serieel}{116}\protected@file@percent }
\@writefile{toc}{\contentsline {subsubsection}{Testcase 1.1: Commando's io-net}{116}\protected@file@percent }
\@writefile{lot}{\contentsline {table}{\numberline {F.1}{\ignorespaces Testcase 1.1\relax }}{116}\protected@file@percent }
\newlabel{tc11}{{F.1}{116}}
\newlabel{tc11@cref}{{[table][1][6]F.1}{[1][116][]116}}
\@writefile{toc}{\contentsline {subsubsection}{Testcase 1.2: Draaien motor}{117}\protected@file@percent }
\@writefile{lot}{\contentsline {table}{\numberline {F.2}{\ignorespaces Testcase 1.2\relax }}{117}\protected@file@percent }
\newlabel{tcx}{{F.2}{117}}
\newlabel{tcx@cref}{{[table][2][6]F.2}{[1][117][]117}}
\@writefile{toc}{\contentsline {subsection}{\numberline {F.2.2}Test Visuele feedback}{118}\protected@file@percent }
\@writefile{toc}{\contentsline {subsubsection}{Testcase 2.1: Test LED}{118}\protected@file@percent }
\@writefile{lot}{\contentsline {table}{\numberline {F.3}{\ignorespaces Testcase 2.1\relax }}{118}\protected@file@percent }
\newlabel{tcx}{{F.3}{118}}
\newlabel{tcx@cref}{{[table][3][6]F.3}{[1][118][]118}}
\@writefile{toc}{\contentsline {subsubsection}{Testcase 2.2: Test maximale afstand}{119}\protected@file@percent }
\@writefile{lot}{\contentsline {table}{\numberline {F.4}{\ignorespaces Testcase 2.2\relax }}{119}\protected@file@percent }
\newlabel{tcx}{{F.4}{119}}
\newlabel{tcx@cref}{{[table][4][6]F.4}{[1][119][]119}}
\@writefile{toc}{\contentsline {subsection}{\numberline {F.2.3}Test opgeslagen data}{120}\protected@file@percent }
\@writefile{toc}{\contentsline {subsubsection}{Testcase 3.1: Test Opslag data}{120}\protected@file@percent }
\@writefile{lot}{\contentsline {table}{\numberline {F.5}{\ignorespaces Testcase 3.1\relax }}{120}\protected@file@percent }
\newlabel{tcx}{{F.5}{120}}
\newlabel{tcx@cref}{{[table][5][6]F.5}{[1][120][]120}}
\@writefile{toc}{\contentsline {subsection}{\numberline {F.2.4}Test software update}{120}\protected@file@percent }
\@writefile{lot}{\contentsline {table}{\numberline {F.6}{\ignorespaces Testcase 4.1\relax }}{120}\protected@file@percent }
\newlabel{tcx}{{F.6}{120}}
\newlabel{tcx@cref}{{[table][6][6]F.6}{[1][120][]120}}
\@writefile{toc}{\contentsline {subsection}{\numberline {F.2.5}Test RoHS}{121}\protected@file@percent }
\@writefile{lot}{\contentsline {table}{\numberline {F.7}{\ignorespaces Testcase 5.1\relax }}{121}\protected@file@percent }
\newlabel{tcx}{{F.7}{121}}
\newlabel{tcx@cref}{{[table][7][6]F.7}{[1][121][]121}}
\@writefile{toc}{\contentsline {section}{\numberline {F.3}Traceerbaarheid klanteisen}{122}\protected@file@percent }
\@writefile{lot}{\contentsline {table}{\numberline {F.8}{\ignorespaces Traceertabel Requirements \relax }}{122}\protected@file@percent }
\newlabel{tab:ta}{{F.8}{122}}
\newlabel{tab:ta@cref}{{[table][8][6]F.8}{[1][122][]122}}
\@writefile{toc}{\contentsline {chapter}{\numberline {G.}Integratietest}{123}\protected@file@percent }
\@writefile{lof}{\addvspace {10pt}}
\@writefile{lot}{\addvspace {10pt}}
\@writefile{lof}{\contentsline {xchapter}{Integratietest}{123}\protected@file@percent }
\@writefile{lot}{\contentsline {xchapter}{Integratietest}{123}\protected@file@percent }
\newlabel{inttest}{{G}{123}}
\newlabel{inttest@cref}{{[chapter][7][]G}{[1][123][]123}}
\@writefile{toc}{\contentsline {section}{\numberline {G.1}Testen}{123}\protected@file@percent }
\@writefile{toc}{\contentsline {subsection}{\numberline {G.1.1}Test IC1: zenden UART}{124}\protected@file@percent }
\@writefile{lot}{\contentsline {table}{\numberline {G.1}{\ignorespaces Test zenden UART\relax }}{124}\protected@file@percent }
\newlabel{itc1}{{G.1}{124}}
\newlabel{itc1@cref}{{[table][1][7]G.1}{[1][124][]124}}
\@writefile{toc}{\contentsline {subsection}{\numberline {G.1.2}Test IC1: ontvangen UART}{125}\protected@file@percent }
\@writefile{lot}{\contentsline {table}{\numberline {G.2}{\ignorespaces Test ontvangen UART\relax }}{125}\protected@file@percent }
\newlabel{itc1}{{G.2}{125}}
\newlabel{itc1@cref}{{[table][2][7]G.2}{[1][125][]125}}
\@writefile{toc}{\contentsline {subsection}{\numberline {G.1.3}Test IC2: Hardware software update}{126}\protected@file@percent }
\@writefile{lot}{\contentsline {table}{\numberline {G.3}{\ignorespaces Test verbinding program connector\relax }}{126}\protected@file@percent }
\newlabel{itc1}{{G.3}{126}}
\newlabel{itc1@cref}{{[table][3][7]G.3}{[1][126][]126}}
\@writefile{toc}{\contentsline {subsection}{\numberline {G.1.4}Test IC3: rimpel voeding}{127}\protected@file@percent }
\@writefile{lot}{\contentsline {table}{\numberline {G.4}{\ignorespaces Test rimpel voeding\relax }}{127}\protected@file@percent }
\newlabel{itc1}{{G.4}{127}}
\newlabel{itc1@cref}{{[table][4][7]G.4}{[1][127][]127}}
\@writefile{toc}{\contentsline {subsection}{\numberline {G.1.5}Test IC4: Extern Flash}{128}\protected@file@percent }
\@writefile{lot}{\contentsline {table}{\numberline {G.5}{\ignorespaces Test Extern Flash\relax }}{128}\protected@file@percent }
\newlabel{itc1}{{G.5}{128}}
\newlabel{itc1@cref}{{[table][5][7]G.5}{[1][128][]128}}
\@writefile{toc}{\contentsline {subsection}{\numberline {G.1.6}Test IC5: mesh LED}{129}\protected@file@percent }
\@writefile{lot}{\contentsline {table}{\numberline {G.6}{\ignorespaces Test mesh LED\relax }}{129}\protected@file@percent }
\newlabel{itc1}{{G.6}{129}}
\newlabel{itc1@cref}{{[table][6][7]G.6}{[1][129][]129}}
\@writefile{toc}{\contentsline {subsection}{\numberline {G.1.7}Test IC5: mesh UART}{130}\protected@file@percent }
\@writefile{lot}{\contentsline {table}{\numberline {G.7}{\ignorespaces Test mesh UART\relax }}{130}\protected@file@percent }
\newlabel{itc1}{{G.7}{130}}
\newlabel{itc1@cref}{{[table][7][7]G.7}{[1][130][]130}}
\@writefile{toc}{\contentsline {subsection}{\numberline {G.1.8}Test IC6: LED}{131}\protected@file@percent }
\@writefile{lot}{\contentsline {table}{\numberline {G.8}{\ignorespaces Test mesh LED\relax }}{131}\protected@file@percent }
\newlabel{itc1}{{G.8}{131}}
\newlabel{itc1@cref}{{[table][8][7]G.8}{[1][131][]131}}
\@writefile{toc}{\contentsline {chapter}{\numberline {H.}Unit test}{132}\protected@file@percent }
\@writefile{lof}{\addvspace {10pt}}
\@writefile{lot}{\addvspace {10pt}}
\@writefile{lof}{\contentsline {xchapter}{Unit test}{132}\protected@file@percent }
\@writefile{lot}{\contentsline {xchapter}{Unit test}{132}\protected@file@percent }
\newlabel{unittest}{{H}{132}}
\newlabel{unittest@cref}{{[chapter][8][]H}{[1][132][]132}}
\@writefile{toc}{\contentsline {section}{\numberline {H.1}Test LED}{132}\protected@file@percent }
\@writefile{lot}{\contentsline {table}{\numberline {H.1}{\ignorespaces Test output spanning Charge-pump\relax }}{132}\protected@file@percent }
\newlabel{utci}{{H.1}{132}}
\newlabel{utci@cref}{{[table][1][8]H.1}{[1][132][]132}}
\@writefile{toc}{\contentsline {section}{\numberline {H.2}Test stroom LED}{133}\protected@file@percent }
\@writefile{lot}{\contentsline {table}{\numberline {H.2}{\ignorespaces Test stroom LED\relax }}{133}\protected@file@percent }
\newlabel{utc2}{{H.2}{133}}
\newlabel{utc2@cref}{{[table][2][8]H.2}{[1][133][]133}}
\@writefile{toc}{\contentsline {section}{\numberline {H.3}Test UART zenden}{133}\protected@file@percent }
\@writefile{lot}{\contentsline {table}{\numberline {H.3}{\ignorespaces Test mesh LED\relax }}{133}\protected@file@percent }
\newlabel{itc1}{{H.3}{133}}
\newlabel{itc1@cref}{{[table][3][8]H.3}{[1][133][]133}}
\@writefile{toc}{\contentsline {chapter}{\numberline {I.}Testresultaten}{134}\protected@file@percent }
\@writefile{lof}{\addvspace {10pt}}
\@writefile{lot}{\addvspace {10pt}}
\@writefile{lof}{\contentsline {xchapter}{Testresultaten}{134}\protected@file@percent }
\@writefile{lot}{\contentsline {xchapter}{Testresultaten}{134}\protected@file@percent }
\@writefile{toc}{\contentsline {section}{\numberline {I.1}Unittest}{134}\protected@file@percent }
\newlabel{teststrled}{{I.1a}{134}}
\newlabel{teststrled@cref}{{[subfigure][1][9,1]I.1a}{[1][134][]134}}
\newlabel{sub@teststrled}{{a}{134}}
\newlabel{sub@teststrled@cref}{{[subfigure][1][9,1]I.1a}{[1][134][]134}}
\newlabel{bwstrled}{{I.1b}{134}}
\newlabel{bwstrled@cref}{{[subfigure][2][9,1]I.1b}{[1][134][]134}}
\newlabel{sub@bwstrled}{{b}{134}}
\newlabel{sub@bwstrled@cref}{{[subfigure][2][9,1]I.1b}{[1][134][]134}}
\@writefile{lof}{\contentsline {figure}{\numberline {I.1}{\ignorespaces Test stroom LED\relax }}{134}\protected@file@percent }
\newlabel{teststrled}{{I.2a}{135}}
\newlabel{teststrled@cref}{{[subfigure][1][9,2]I.2a}{[1][135][]135}}
\newlabel{sub@teststrled}{{a}{135}}
\newlabel{sub@teststrled@cref}{{[subfigure][1][9,2]I.2a}{[1][135][]135}}
\newlabel{bwstrled}{{I.2b}{135}}
\newlabel{bwstrled@cref}{{[subfigure][2][9,2]I.2b}{[1][135][]135}}
\newlabel{sub@bwstrled}{{b}{135}}
\newlabel{sub@bwstrled@cref}{{[subfigure][2][9,2]I.2b}{[1][135][]135}}
\@writefile{lof}{\contentsline {figure}{\numberline {I.2}{\ignorespaces Test spanning charge pump\relax }}{135}\protected@file@percent }
\newlabel{terauartunit}{{I.3a}{136}}
\newlabel{terauartunit@cref}{{[subfigure][1][9,3]I.3a}{[1][136][]136}}
\newlabel{sub@terauartunit}{{a}{136}}
\newlabel{sub@terauartunit@cref}{{[subfigure][1][9,3]I.3a}{[1][136][]136}}
\newlabel{unituart}{{I.3b}{136}}
\newlabel{unituart@cref}{{[subfigure][2][9,3]I.3b}{[1][136][]136}}
\newlabel{sub@unituart}{{b}{136}}
\newlabel{sub@unituart@cref}{{[subfigure][2][9,3]I.3b}{[1][136][]136}}
\newlabel{instuart}{{I.3c}{136}}
\newlabel{instuart@cref}{{[subfigure][3][9,3]I.3c}{[1][136][]136}}
\newlabel{sub@instuart}{{c}{136}}
\newlabel{sub@instuart@cref}{{[subfigure][3][9,3]I.3c}{[1][136][]136}}
\@writefile{lof}{\contentsline {figure}{\numberline {I.3}{\ignorespaces Test UART\relax }}{136}\protected@file@percent }
\newlabel{teststrled}{{I.4a}{137}}
\newlabel{teststrled@cref}{{[subfigure][1][9,4]I.4a}{[1][137][]137}}
\newlabel{sub@teststrled}{{a}{137}}
\newlabel{sub@teststrled@cref}{{[subfigure][1][9,4]I.4a}{[1][137][]137}}
\newlabel{bwstrled}{{I.4b}{137}}
\newlabel{bwstrled@cref}{{[subfigure][2][9,4]I.4b}{[1][137][]137}}
\newlabel{sub@bwstrled}{{b}{137}}
\newlabel{sub@bwstrled@cref}{{[subfigure][2][9,4]I.4b}{[1][137][]137}}
\@writefile{lof}{\contentsline {figure}{\numberline {I.4}{\ignorespaces Test ontvangen UART\relax }}{137}\protected@file@percent }
\@writefile{toc}{\contentsline {section}{\numberline {I.2}Integratietest}{138}\protected@file@percent }
\@writefile{toc}{\contentsline {subsection}{\numberline {I.2.1}Test rimpel}{138}\protected@file@percent }
\newlabel{testrimpelscope}{{I.5a}{138}}
\newlabel{testrimpelscope@cref}{{[subfigure][1][9,5]I.5a}{[1][138][]138}}
\newlabel{sub@testrimpelscope}{{a}{138}}
\newlabel{sub@testrimpelscope@cref}{{[subfigure][1][9,5]I.5a}{[1][138][]138}}
\newlabel{testrimpelfoto}{{I.5b}{138}}
\newlabel{testrimpelfoto@cref}{{[subfigure][2][9,5]I.5b}{[1][138][]138}}
\newlabel{sub@testrimpelfoto}{{b}{138}}
\newlabel{sub@testrimpelfoto@cref}{{[subfigure][2][9,5]I.5b}{[1][138][]138}}
\@writefile{lof}{\contentsline {figure}{\numberline {I.5}{\ignorespaces Test rimpelspanning voeding\relax }}{138}\protected@file@percent }
\newlabel{testrimpel}{{I.5}{138}}
\newlabel{testrimpel@cref}{{[figure][5][9]I.5}{[1][138][]138}}
\@writefile{toc}{\contentsline {subsection}{\numberline {I.2.2}Test mesh LED}{139}\protected@file@percent }
\newlabel{testrimpelfoto}{{I.6b}{139}}
\newlabel{testrimpelfoto@cref}{{[subfigure][2][9,6]I.6b}{[1][139][]139}}
\newlabel{sub@testrimpelfoto}{{b}{139}}
\newlabel{sub@testrimpelfoto@cref}{{[subfigure][2][9,6]I.6b}{[1][139][]139}}
\@writefile{lof}{\contentsline {figure}{\numberline {I.6}{\ignorespaces Test LED\relax }}{139}\protected@file@percent }
\newlabel{testrimpel}{{I.6}{139}}
\newlabel{testrimpel@cref}{{[figure][6][9]I.6}{[1][139][]139}}
\@writefile{toc}{\contentsline {subsection}{\numberline {I.2.3}Test mesh UART}{140}\protected@file@percent }
\newlabel{testrimpelfoto}{{I.7b}{140}}
\newlabel{testrimpelfoto@cref}{{[subfigure][2][9,7]I.7b}{[1][140][]140}}
\newlabel{sub@testrimpelfoto}{{b}{140}}
\newlabel{sub@testrimpelfoto@cref}{{[subfigure][2][9,7]I.7b}{[1][140][]140}}
\newlabel{testrimpelfoto}{{I.7c}{140}}
\newlabel{testrimpelfoto@cref}{{[subfigure][3][9,7]I.7c}{[1][140][]140}}
\newlabel{sub@testrimpelfoto}{{c}{140}}
\newlabel{sub@testrimpelfoto@cref}{{[subfigure][3][9,7]I.7c}{[1][140][]140}}
\@writefile{lof}{\contentsline {figure}{\numberline {I.7}{\ignorespaces Test UART\relax }}{140}\protected@file@percent }
\newlabel{testrimpel}{{I.7}{140}}
\newlabel{testrimpel@cref}{{[figure][7][9]I.7}{[1][140][]140}}
\@writefile{toc}{\contentsline {section}{\numberline {I.3}Acceptatietest}{141}\protected@file@percent }
\@writefile{toc}{\contentsline {subsection}{\numberline {I.3.1}Testcase 1.1 en testcase 1.2}{141}\protected@file@percent }
\@writefile{lof}{\contentsline {figure}{\numberline {I.8}{\ignorespaces Test LED\relax }}{141}\protected@file@percent }
\newlabel{testrimpel}{{I.8}{141}}
\newlabel{testrimpel@cref}{{[figure][8][9]I.8}{[1][141][]141}}
\@writefile{toc}{\contentsline {subsection}{\numberline {I.3.2}Testcase 2.1}{142}\protected@file@percent }
\newlabel{testrimpelfoto}{{I.9b}{142}}
\newlabel{testrimpelfoto@cref}{{[subfigure][2][9,9]I.9b}{[1][142][]142}}
\newlabel{sub@testrimpelfoto}{{b}{142}}
\newlabel{sub@testrimpelfoto@cref}{{[subfigure][2][9,9]I.9b}{[1][142][]142}}
\@writefile{lof}{\contentsline {figure}{\numberline {I.9}{\ignorespaces Test LED\relax }}{142}\protected@file@percent }
\newlabel{testrimpel}{{I.9}{142}}
\newlabel{testrimpel@cref}{{[figure][9][9]I.9}{[1][142][]142}}
\@writefile{toc}{\contentsline {section}{\numberline {I.4}Testcase 2.2}{143}\protected@file@percent }
\newlabel{testlongrange2}{{I.10a}{143}}
\newlabel{testlongrange2@cref}{{[subfigure][1][9,10]I.10a}{[1][143][]143}}
\newlabel{sub@testlongrange2}{{a}{143}}
\newlabel{sub@testlongrange2@cref}{{[subfigure][1][9,10]I.10a}{[1][143][]143}}
\@writefile{lof}{\contentsline {figure}{\numberline {I.10}{\ignorespaces Test afstand\relax }}{143}\protected@file@percent }
\newlabel{testlongrange1}{{I.10}{143}}
\newlabel{testlongrange1@cref}{{[figure][10][9]I.10}{[1][143][]143}}
\@writefile{toc}{\contentsline {section}{\numberline {I.5}Testcase 3.1}{144}\protected@file@percent }
\@writefile{toc}{\contentsline {section}{\numberline {I.6}Testcase 5.1}{144}\protected@file@percent }
\@writefile{toc}{\contentsline {chapter}{\numberline {J.}Bill Of Materials}{145}\protected@file@percent }
\@writefile{lof}{\addvspace {10pt}}
\@writefile{lot}{\addvspace {10pt}}
\@writefile{lof}{\contentsline {xchapter}{Bill Of Materials}{145}\protected@file@percent }
\@writefile{lot}{\contentsline {xchapter}{Bill Of Materials}{145}\protected@file@percent }
\@writefile{lof}{\contentsline {figure}{\numberline {J.1}{\ignorespaces BOM\relax }}{146}\protected@file@percent }
\newlabel{BOM}{{J.1}{146}}
\newlabel{BOM@cref}{{[figure][1][10]J.1}{[1][146][]146}}
\@writefile{toc}{\contentsline {chapter}{\numberline {K.}Handleiding BlueFarm}{147}\protected@file@percent }
\@writefile{lof}{\addvspace {10pt}}
\@writefile{lot}{\addvspace {10pt}}
\@writefile{lof}{\contentsline {xchapter}{Handleiding BlueFarm}{147}\protected@file@percent }
\@writefile{lot}{\contentsline {xchapter}{Handleiding BlueFarm}{147}\protected@file@percent }
\@writefile{toc}{\contentsline {section}{\numberline {K.1}Programmeren}{147}\protected@file@percent }
\@writefile{toc}{\contentsline {section}{\numberline {K.2}Provisioneren}{148}\protected@file@percent }
\@writefile{lof}{\contentsline {figure}{\numberline {K.1}{\ignorespaces Stappenplan provisioneren\relax }}{149}\protected@file@percent }
\newlabel{Stappenplan}{{K.1}{149}}
\newlabel{Stappenplan@cref}{{[figure][1][11]K.1}{[1][148][]149}}
\@writefile{lof}{\contentsline {figure}{\numberline {K.1}{\ignorespaces Stap 10\relax }}{149}\protected@file@percent }
\@writefile{toc}{\contentsline {section}{\numberline {K.3}Probleem oplossen}{150}\protected@file@percent }
\@writefile{toc}{\contentsline {chapter}{\numberline {L.}Competentieverantwoording}{151}\protected@file@percent }
\@writefile{lof}{\addvspace {10pt}}
\@writefile{lot}{\addvspace {10pt}}
\@writefile{lof}{\contentsline {xchapter}{Competentieverantwoording}{151}\protected@file@percent }
\@writefile{lot}{\contentsline {xchapter}{Competentieverantwoording}{151}\protected@file@percent }
\@writefile{toc}{\contentsline {section}{\numberline {L.1}Analyseren}{151}\protected@file@percent }
\@writefile{toc}{\contentsline {section}{\numberline {L.2}Ontwerpen}{152}\protected@file@percent }
\@writefile{toc}{\contentsline {section}{\numberline {L.3}Realiseren}{152}\protected@file@percent }
\@writefile{toc}{\contentsline {section}{\numberline {L.4}Beheren}{152}\protected@file@percent }
\@writefile{toc}{\contentsline {section}{\numberline {L.5}Managen}{152}\protected@file@percent }
\@writefile{toc}{\contentsline {section}{\numberline {L.6}Adviseren}{153}\protected@file@percent }
\@writefile{toc}{\contentsline {section}{\numberline {L.7}Onderzoeken}{153}\protected@file@percent }
\@writefile{toc}{\contentsline {section}{\numberline {L.8}Professionaliseren}{153}\protected@file@percent }
\@writefile{toc}{\contentsline {chapter}{\numberline {M.}Reflectie}{154}\protected@file@percent }
\@writefile{lof}{\addvspace {10pt}}
\@writefile{lot}{\addvspace {10pt}}
\@writefile{lof}{\contentsline {xchapter}{Reflectie}{154}\protected@file@percent }
\@writefile{lot}{\contentsline {xchapter}{Reflectie}{154}\protected@file@percent }
\@writefile{toc}{\contentsline {section}{\numberline {M.1}Analyseren}{154}\protected@file@percent }
\@writefile{toc}{\contentsline {section}{\numberline {M.2}Ontwerpen}{154}\protected@file@percent }
\@writefile{toc}{\contentsline {section}{\numberline {M.3}Realiseren}{154}\protected@file@percent }
\@writefile{toc}{\contentsline {section}{\numberline {M.4}Beheren}{155}\protected@file@percent }
\@writefile{toc}{\contentsline {section}{\numberline {M.5}Managen}{155}\protected@file@percent }
\@writefile{toc}{\contentsline {section}{\numberline {M.6}Adviseren}{155}\protected@file@percent }
\@writefile{toc}{\contentsline {section}{\numberline {M.7}Onderzoeken}{155}\protected@file@percent }
\@writefile{toc}{\contentsline {section}{\numberline {M.8}Professionaliseren}{155}\protected@file@percent }
\@writefile{toc}{\contentsline {chapter}{\numberline {N.}Beoordeling bedrijfsbegeleider}{156}\protected@file@percent }
\@writefile{lof}{\addvspace {10pt}}
\@writefile{lot}{\addvspace {10pt}}
\@writefile{lof}{\contentsline {xchapter}{Beoordeling bedrijfsbegeleider}{156}\protected@file@percent }
\@writefile{lot}{\contentsline {xchapter}{Beoordeling bedrijfsbegeleider}{156}\protected@file@percent }
\@writefile{toc}{\contentsline {chapter}{\numberline {O.}Code}{157}\protected@file@percent }
\@writefile{lof}{\addvspace {10pt}}
\@writefile{lot}{\addvspace {10pt}}
\@writefile{lof}{\contentsline {xchapter}{Code}{157}\protected@file@percent }
\@writefile{lot}{\contentsline {xchapter}{Code}{157}\protected@file@percent }
\@writefile{toc}{\contentsline {section}{\numberline {O.1}Main.c}{157}\protected@file@percent }
\@writefile{toc}{\contentsline {section}{\numberline {O.2}UART\_debug.c}{164}\protected@file@percent }
\newlabel{codeuart}{{O.2}{164}}
\newlabel{codeuart@cref}{{[section][2][15]O.2}{[1][164][]164}}
\bibstyle{apacite}
\bibdata{Referenties/Referenties,Referenties/Afstuderen}
\bibcite{Ali-rantala}{\citeauthoryear {Ali-rantala, Sydanheimo, Keskilammi{}\ \BBA{} Kivikoski}{Ali-rantala\ \BOthers {.}}{{\APACyear {{\bibnodate {}}}}}}
\APACbibcite{Ali-rantala}{\citeauthoryear {Ali-rantala, Sydanheimo, Keskilammi{}\ \BBA{} Kivikoski}{Ali-rantala\ \BOthers {.}}{{\APACyear {{\bibnodate {}}}}}}
\bibcite{zigbee}{\citeauthoryear {Alliance}{Alliance}{{\APACyear {2020}}}}
\APACbibcite{zigbee}{\citeauthoryear {Alliance}{Alliance}{{\APACyear {2020}}}}
\bibcite{meshfaq}{\citeauthoryear {Bluetooth}{Bluetooth}{{\APACyear {2020}}{\APACexlab {{\BCnt {1}}}}}}
\APACbibcite{meshfaq}{\citeauthoryear {Bluetooth}{Bluetooth}{{\APACyear {2020}}{\APACexlab {{\BCnt {1}}}}}}
\bibcite{blfees}{\citeauthoryear {Bluetooth}{Bluetooth}{{\APACyear {2020}}{\APACexlab {{\BCnt {2}}}}}}
\APACbibcite{blfees}{\citeauthoryear {Bluetooth}{Bluetooth}{{\APACyear {2020}}{\APACexlab {{\BCnt {2}}}}}}
\bibcite{btversions}{\citeauthoryear {Bluetooth}{Bluetooth}{{\APACyear {2020}}{\APACexlab {{\BCnt {3}}}}}}
\APACbibcite{btversions}{\citeauthoryear {Bluetooth}{Bluetooth}{{\APACyear {2020}}{\APACexlab {{\BCnt {3}}}}}}
\bibcite{btgatt}{\citeauthoryear {Bluetooth}{Bluetooth}{{\APACyear {2020}}{\APACexlab {{\BCnt {4}}}}}}
\APACbibcite{btgatt}{\citeauthoryear {Bluetooth}{Bluetooth}{{\APACyear {2020}}{\APACexlab {{\BCnt {4}}}}}}
\bibcite{codemeshlr}{\citeauthoryear {Bui}{Bui}{{\APACyear {2017}}}}
\APACbibcite{codemeshlr}{\citeauthoryear {Bui}{Bui}{{\APACyear {2017}}}}
\bibcite{tiboost}{\citeauthoryear {Caldwell\ \BBA{} Amidon}{Caldwell\ \BBA{} Amidon}{{\APACyear {2012}}}}
\APACbibcite{tiboost}{\citeauthoryear {Caldwell\ \BBA{} Amidon}{Caldwell\ \BBA{} Amidon}{{\APACyear {2012}}}}
\bibcite{Campbell1966}{\citeauthoryear {Campbell\ \BBA{} Gubisch}{Campbell\ \BBA{} Gubisch}{{\APACyear {1966}}}}
\APACbibcite{Campbell1966}{\citeauthoryear {Campbell\ \BBA{} Gubisch}{Campbell\ \BBA{} Gubisch}{{\APACyear {1966}}}}
\bibcite{cbs}{\citeauthoryear {CBS}{CBS}{{\APACyear {2019}}}}
\APACbibcite{cbs}{\citeauthoryear {CBS}{CBS}{{\APACyear {2019}}}}
\bibcite{Chruszczyk2017}{\citeauthoryear {Chruszczyk}{Chruszczyk}{{\APACyear {2017}}}}
\APACbibcite{Chruszczyk2017}{\citeauthoryear {Chruszczyk}{Chruszczyk}{{\APACyear {2017}}}}
\bibcite{boost}{\citeauthoryear {Cooper}{Cooper}{{\APACyear {2013}}}}
\APACbibcite{boost}{\citeauthoryear {Cooper}{Cooper}{{\APACyear {2013}}}}
\bibcite{DelaCruz2016}{\citeauthoryear {{Dela Cruz}, Parabuac{}\ \BBA{} Tiglao}{{Dela Cruz}\ \BOthers {.}}{{\APACyear {2016}}}}
\APACbibcite{DelaCruz2016}{\citeauthoryear {{Dela Cruz}, Parabuac{}\ \BBA{} Tiglao}{{Dela Cruz}\ \BOthers {.}}{{\APACyear {2016}}}}
\bibcite{Gomez2012}{\citeauthoryear {Gomez, Oller{}\ \BBA{} Paradells}{Gomez\ \BOthers {.}}{{\APACyear {2012}}}}
\APACbibcite{Gomez2012}{\citeauthoryear {Gomez, Oller{}\ \BBA{} Paradells}{Gomez\ \BOthers {.}}{{\APACyear {2012}}}}
\bibcite{hu2013}{\citeauthoryear {Hu, Fu, She{}\ \BBA{} Yao}{Hu\ \BOthers {.}}{{\APACyear {2013}}}}
\APACbibcite{hu2013}{\citeauthoryear {Hu, Fu, She{}\ \BBA{} Yao}{Hu\ \BOthers {.}}{{\APACyear {2013}}}}
\bibcite{ccled}{\citeauthoryear {Keim}{Keim}{{\APACyear {2016}}}}
\APACbibcite{ccled}{\citeauthoryear {Keim}{Keim}{{\APACyear {2016}}}}
\@writefile{toc}{\contentsline {section}{Literatuur}{166}\protected@file@percent }
\bibcite{lora}{\citeauthoryear {KPN}{KPN}{{\APACyear {2020}}}}
\APACbibcite{lora}{\citeauthoryear {KPN}{KPN}{{\APACyear {2020}}}}
\bibcite{Specification2018}{\citeauthoryear {Nordic}{Nordic}{{\APACyear {2018}}}}
\APACbibcite{Specification2018}{\citeauthoryear {Nordic}{Nordic}{{\APACyear {2018}}}}
\bibcite{los}{\citeauthoryear {Tablo}{Tablo}{{\APACyear {2018}}}}
\APACbibcite{los}{\citeauthoryear {Tablo}{Tablo}{{\APACyear {2018}}}}
\bibcite{starmesh}{\citeauthoryear {Techdifferences}{Techdifferences}{{\APACyear {2018}}}}
\APACbibcite{starmesh}{\citeauthoryear {Techdifferences}{Techdifferences}{{\APACyear {2018}}}}
\bibcite{Verma2013}{\citeauthoryear {Verma, Fakharzadeh{}\ \BBA{} Technologies}{Verma\ \BOthers {.}}{{\APACyear {2013}}}}
\APACbibcite{Verma2013}{\citeauthoryear {Verma, Fakharzadeh{}\ \BBA{} Technologies}{Verma\ \BOthers {.}}{{\APACyear {2013}}}}
\bibcite{topo}{\citeauthoryear {Wikipedia}{Wikipedia}{{\APACyear {2018}}}}
\APACbibcite{topo}{\citeauthoryear {Wikipedia}{Wikipedia}{{\APACyear {2018}}}}
\bibcite{Yaakop2017}{\citeauthoryear {Yaakop, Malik, {Bin Suboh}, Ramli{}\ \BBA{} Abu}{Yaakop\ \BOthers {.}}{{\APACyear {2017}}}}
\APACbibcite{Yaakop2017}{\citeauthoryear {Yaakop, Malik, {Bin Suboh}, Ramli{}\ \BBA{} Abu}{Yaakop\ \BOthers {.}}{{\APACyear {2017}}}}
\bibcite{Yourdon1979}{\citeauthoryear {Yourdon}{Yourdon}{{\APACyear {1979}}}}
\APACbibcite{Yourdon1979}{\citeauthoryear {Yourdon}{Yourdon}{{\APACyear {1979}}}}
\bibcite{Zhao2014}{\citeauthoryear {Zhao, Xiao, Markham, Trigoni{}\ \BBA{} Ren}{Zhao\ \BOthers {.}}{{\APACyear {2014}}}}
\APACbibcite{Zhao2014}{\citeauthoryear {Zhao, Xiao, Markham, Trigoni{}\ \BBA{} Ren}{Zhao\ \BOthers {.}}{{\APACyear {2014}}}}
\global\mtcsecondpartfalse
