\relax 
\@nameuse{bbl@beforestart}
\catcode `"\active 
\babel@aux{dutch}{}
\newlabel{hs:vb}{{}{6}}
\newlabel{hs:vb@cref}{{}{[1][6][]6}}
\@writefile{lot}{\contentsline {table}{\numberline {0.1}{\ignorespaces Versiehistorie\relax }}{6}\protected@file@percent }
\providecommand*\caption@xref[2]{\@setref\relax\@undefined{#1}}
\newlabel{tab:vb}{{0.1}{6}}
\newlabel{tab:vb@cref}{{[table][1][0]0.1}{[1][6][]6}}
\@writefile{toc}{\contentsline {chapter}{\numberline {1.}Inleiding}{8}\protected@file@percent }
\@writefile{lof}{\addvspace {10pt}}
\@writefile{lot}{\addvspace {10pt}}
\newlabel{hs:in}{{1}{8}}
\newlabel{hs:in@cref}{{[chapter][1][]1}{[1][8][]8}}
\@writefile{lof}{\contentsline {figure}{\numberline {1.1}{\ignorespaces Luiken voor in- en uitvoer van luchtstromen\relax }}{9}\protected@file@percent }
\newlabel{luik}{{1.1}{9}}
\newlabel{luik@cref}{{[figure][1][1]1.1}{[1][9][]9}}
\newlabel{im60}{{1.2a}{10}}
\newlabel{im60@cref}{{[subfigure][1][1,2]1.2a}{[1][10][]10}}
\newlabel{sub@im60}{{a}{10}}
\newlabel{sub@im60@cref}{{[subfigure][1][1,2]1.2a}{[1][10][]10}}
\newlabel{im125}{{1.2b}{10}}
\newlabel{im125@cref}{{[subfigure][2][1,2]1.2b}{[1][10][]10}}
\newlabel{sub@im125}{{b}{10}}
\newlabel{sub@im125@cref}{{[subfigure][2][1,2]1.2b}{[1][10][]10}}
\@writefile{lof}{\contentsline {figure}{\numberline {1.2}{\ignorespaces Motoren\relax }}{10}\protected@file@percent }
\@writefile{toc}{\contentsline {chapter}{Appendices}{11}\protected@file@percent }
\@writefile{toc}{\contentsline {chapter}{\numberline {A.}Onderzoek draadloze technologieën}{12}\protected@file@percent }
\@writefile{lof}{\addvspace {10pt}}
\@writefile{lot}{\addvspace {10pt}}
\@writefile{toc}{\contentsline {section}{\numberline {A.1}Inleiding}{12}\protected@file@percent }
\newlabel{stal1}{{A.1a}{13}}
\newlabel{stal1@cref}{{[subfigure][1][1,1]A.1a}{[1][13][]13}}
\newlabel{sub@stal1}{{a}{13}}
\newlabel{sub@stal1@cref}{{[subfigure][1][1,1]A.1a}{[1][13][]13}}
\newlabel{stal2}{{A.1b}{13}}
\newlabel{stal2@cref}{{[subfigure][2][1,1]A.1b}{[1][13][]13}}
\newlabel{sub@stal2}{{b}{13}}
\newlabel{sub@stal2@cref}{{[subfigure][2][1,1]A.1b}{[1][13][]13}}
\@writefile{lof}{\contentsline {figure}{\numberline {A.1}{\ignorespaces Mogelijke ophanging motor\relax }}{13}\protected@file@percent }
\citation{los}
\citation{topo}
\citation{meshfaq}
\citation{meshfaq}
\@writefile{toc}{\contentsline {section}{\numberline {A.2}Draadloze technologieën}{14}\protected@file@percent }
\@writefile{lof}{\contentsline {figure}{\numberline {A.2}{\ignorespaces Line Of Sight \relax }}{14}\protected@file@percent }
\newlabel{los}{{A.2}{14}}
\newlabel{los@cref}{{[figure][2][1]A.2}{[1][14][]14}}
\@writefile{toc}{\contentsline {subsection}{\numberline {A.2.1}Frequentie}{14}\protected@file@percent }
\citation{Verma2013}
\citation{Zhao2014}
\citation{DelaCruz2016}
\citation{starmesh}
\citation{zigbee}
\newlabel{star}{{A.3a}{15}}
\newlabel{star@cref}{{[subfigure][1][1,3]A.3a}{[1][15][]15}}
\newlabel{sub@star}{{a}{15}}
\newlabel{sub@star@cref}{{[subfigure][1][1,3]A.3a}{[1][15][]15}}
\newlabel{mesh}{{A.3b}{15}}
\newlabel{mesh@cref}{{[subfigure][2][1,3]A.3b}{[1][15][]15}}
\newlabel{sub@mesh}{{b}{15}}
\newlabel{sub@mesh@cref}{{[subfigure][2][1,3]A.3b}{[1][15][]15}}
\@writefile{lof}{\contentsline {figure}{\numberline {A.3}{\ignorespaces Twee verschillende netwerk configuraties\relax }}{15}\protected@file@percent }
\citation{Ali-rantala}
\citation{Chruszczyk2017}
\citation{lora}
\citation{blfees}
\@writefile{lot}{\contentsline {table}{\numberline {A.1}{\ignorespaces Overzicht draadloze verbindingen\relax }}{16}\protected@file@percent }
\newlabel{tbWrlss}{{A.1}{16}}
\newlabel{tbWrlss@cref}{{[table][1][1]A.1}{[1][16][]16}}
\bibstyle{apacite}
\bibdata{Referenties/Referenties}
\bibcite{Ali-rantala}{\citeauthoryear {Ali-rantala, Sydanheimo, Keskilammi{}\ \BBA{} Kivikoski}{Ali-rantala\ \BOthers {.}}{{\APACyear {{\bibnodate {}}}}}}
\APACbibcite{Ali-rantala}{\citeauthoryear {Ali-rantala, Sydanheimo, Keskilammi{}\ \BBA{} Kivikoski}{Ali-rantala\ \BOthers {.}}{{\APACyear {{\bibnodate {}}}}}}
\bibcite{zigbee}{\citeauthoryear {Alliance}{Alliance}{{\APACyear {2020}}}}
\APACbibcite{zigbee}{\citeauthoryear {Alliance}{Alliance}{{\APACyear {2020}}}}
\bibcite{meshfaq}{\citeauthoryear {Bluetooth}{Bluetooth}{{\APACyear {2020}}{\APACexlab {{\BCnt {1}}}}}}
\APACbibcite{meshfaq}{\citeauthoryear {Bluetooth}{Bluetooth}{{\APACyear {2020}}{\APACexlab {{\BCnt {1}}}}}}
\bibcite{blfees}{\citeauthoryear {Bluetooth}{Bluetooth}{{\APACyear {2020}}{\APACexlab {{\BCnt {2}}}}}}
\APACbibcite{blfees}{\citeauthoryear {Bluetooth}{Bluetooth}{{\APACyear {2020}}{\APACexlab {{\BCnt {2}}}}}}
\bibcite{Chruszczyk2017}{\citeauthoryear {Chruszczyk}{Chruszczyk}{{\APACyear {2017}}}}
\APACbibcite{Chruszczyk2017}{\citeauthoryear {Chruszczyk}{Chruszczyk}{{\APACyear {2017}}}}
\bibcite{DelaCruz2016}{\citeauthoryear {{Dela Cruz}, Parabuac{}\ \BBA{} Tiglao}{{Dela Cruz}\ \BOthers {.}}{{\APACyear {2016}}}}
\APACbibcite{DelaCruz2016}{\citeauthoryear {{Dela Cruz}, Parabuac{}\ \BBA{} Tiglao}{{Dela Cruz}\ \BOthers {.}}{{\APACyear {2016}}}}
\bibcite{lora}{\citeauthoryear {KPN}{KPN}{{\APACyear {2020}}}}
\APACbibcite{lora}{\citeauthoryear {KPN}{KPN}{{\APACyear {2020}}}}
\bibcite{los}{\citeauthoryear {Tablo}{Tablo}{{\APACyear {2018}}}}
\APACbibcite{los}{\citeauthoryear {Tablo}{Tablo}{{\APACyear {2018}}}}
\bibcite{starmesh}{\citeauthoryear {Techdifferences}{Techdifferences}{{\APACyear {2018}}}}
\APACbibcite{starmesh}{\citeauthoryear {Techdifferences}{Techdifferences}{{\APACyear {2018}}}}
\bibcite{Verma2013}{\citeauthoryear {Verma, Fakharzadeh{}\ \BBA{} Technologies}{Verma\ \BOthers {.}}{{\APACyear {2013}}}}
\APACbibcite{Verma2013}{\citeauthoryear {Verma, Fakharzadeh{}\ \BBA{} Technologies}{Verma\ \BOthers {.}}{{\APACyear {2013}}}}
\bibcite{topo}{\citeauthoryear {Wikipedia}{Wikipedia}{{\APACyear {2018}}}}
\APACbibcite{topo}{\citeauthoryear {Wikipedia}{Wikipedia}{{\APACyear {2018}}}}
\bibcite{wifichan}{\citeauthoryear {Wikipedia}{Wikipedia}{{\APACyear {2020}}}}
\APACbibcite{wifichan}{\citeauthoryear {Wikipedia}{Wikipedia}{{\APACyear {2020}}}}
\bibcite{Zhao2014}{\citeauthoryear {Zhao, Xiao, Markham, Trigoni{}\ \BBA{} Ren}{Zhao\ \BOthers {.}}{{\APACyear {2014}}}}
\APACbibcite{Zhao2014}{\citeauthoryear {Zhao, Xiao, Markham, Trigoni{}\ \BBA{} Ren}{Zhao\ \BOthers {.}}{{\APACyear {2014}}}}
\@writefile{toc}{\contentsline {section}{Literatuur}{18}\protected@file@percent }
