This is BibTeX, Version 0.99dThe top-level auxiliary file: Afstudeerverslag_AFS30_1.4.aux
The style file: apacite.bst
Database file #1: Referenties/Referenties.bib
Warning--entry type for "meshfaq" isn't style-file defined
--line 8 of file Referenties/Referenties.bib
Warning--entry type for "tiboost" isn't style-file defined
--line 15 of file Referenties/Referenties.bib
Warning--entry type for "boost" isn't style-file defined
--line 22 of file Referenties/Referenties.bib
Warning--entry type for "btgatt" isn't style-file defined
--line 29 of file Referenties/Referenties.bib
Warning--entry type for "ticap" isn't style-file defined
--line 36 of file Referenties/Referenties.bib
Warning--entry type for "codemeshlr" isn't style-file defined
--line 43 of file Referenties/Referenties.bib
Warning--entry type for "btversions" isn't style-file defined
--line 49 of file Referenties/Referenties.bib
Warning--entry type for "ccled" isn't style-file defined
--line 55 of file Referenties/Referenties.bib
Warning--entry type for "starmesh" isn't style-file defined
--line 63 of file Referenties/Referenties.bib
Warning--entry type for "zigbee" isn't style-file defined
--line 71 of file Referenties/Referenties.bib
Warning--entry type for "lora" isn't style-file defined
--line 79 of file Referenties/Referenties.bib
Warning--entry type for "blfees" isn't style-file defined
--line 86 of file Referenties/Referenties.bib
Warning--entry type for "los" isn't style-file defined
--line 96 of file Referenties/Referenties.bib
Warning--entry type for "topo" isn't style-file defined
--line 104 of file Referenties/Referenties.bib
Warning--entry type for "cbs" isn't style-file defined
--line 111 of file Referenties/Referenties.bib
Database file #2: Referenties/Afstuderen.bib
apacite.bst [2013/07/21 v6.03 APA bibliography style]
Warning--No journal in Ali-rantala
(There were 16 warnings)
