\relax 
\@nameuse{bbl@beforestart}
\catcode `"\active 
\babel@aux{dutch}{}
\@writefile{@@@}{\chapterbegin }
\@writefile{@@@}{\chapterbegin }
\@writefile{@@@}{\chapterbegin }
\@writefile{@@@}{\chapterbegin }
\@writefile{@@@}{\chapterbegin }
\newlabel{hs:vb}{{}{8}}
\newlabel{hs:vb@cref}{{}{[1][8][]8}}
\@writefile{lot}{\contentsline {table}{\numberline {0.1}{\ignorespaces Versiehistorie\relax }}{8}\protected@file@percent }
\providecommand*\caption@xref[2]{\@setref\relax\@undefined{#1}}
\newlabel{tab:vb}{{0.1}{8}}
\newlabel{tab:vb@cref}{{[table][1][0]0.1}{[1][8][]8}}
\@writefile{@@@}{\chapterbegin }
\@writefile{toc}{\contentsline {chapter}{\numberline {1.}Inleiding}{13}\protected@file@percent }
\@writefile{lof}{\addvspace {10pt}}
\@writefile{lot}{\addvspace {10pt}}
\@writefile{lof}{\contentsline {xchapter}{Inleiding}{13}\protected@file@percent }
\@writefile{lot}{\contentsline {xchapter}{Inleiding}{13}\protected@file@percent }
\newlabel{hs:in}{{1}{13}}
\newlabel{hs:in@cref}{{[chapter][1][]1}{[1][13][]13}}
\@writefile{toc}{\contentsline {section}{\numberline {1.1}Bedrijfsachtergrond}{13}\protected@file@percent }
\@writefile{lof}{\contentsline {figure}{\numberline {1.1}{\ignorespaces Luiken voor in- en uitvoer van luchtstromen\relax }}{14}\protected@file@percent }
\newlabel{luik}{{1.1}{14}}
\newlabel{luik@cref}{{[figure][1][1]1.1}{[1][13][]14}}
\newlabel{im60}{{1.2a}{15}}
\newlabel{im60@cref}{{[subfigure][1][1,2]1.2a}{[1][15][]15}}
\newlabel{sub@im60}{{a}{15}}
\newlabel{sub@im60@cref}{{[subfigure][1][1,2]1.2a}{[1][15][]15}}
\newlabel{im125}{{1.2b}{15}}
\newlabel{im125@cref}{{[subfigure][2][1,2]1.2b}{[1][15][]15}}
\newlabel{sub@im125}{{b}{15}}
\newlabel{sub@im125@cref}{{[subfigure][2][1,2]1.2b}{[1][15][]15}}
\@writefile{lof}{\contentsline {figure}{\numberline {1.2}{\ignorespaces Motoren\relax }}{15}\protected@file@percent }
\newlabel{im60p}{{1.3a}{16}}
\newlabel{im60p@cref}{{[subfigure][1][1,3]1.3a}{[1][15][]16}}
\newlabel{sub@im60p}{{a}{16}}
\newlabel{sub@im60p@cref}{{[subfigure][1][1,3]1.3a}{[1][15][]16}}
\newlabel{im125p}{{1.3b}{16}}
\newlabel{im125p@cref}{{[subfigure][2][1,3]1.3b}{[1][15][]16}}
\newlabel{sub@im125p}{{b}{16}}
\newlabel{sub@im125p@cref}{{[subfigure][2][1,3]1.3b}{[1][15][]16}}
\@writefile{lof}{\contentsline {figure}{\numberline {1.3}{\ignorespaces Printplaten die de motoren aansturen\relax }}{16}\protected@file@percent }
\@writefile{toc}{\contentsline {section}{\numberline {1.2}Probleemstelling}{16}\protected@file@percent }
\@writefile{toc}{\contentsline {section}{\numberline {1.3}Doelstelling}{17}\protected@file@percent }
\@writefile{lof}{\contentsline {figure}{\numberline {1.4}{\ignorespaces V-model\relax }}{17}\protected@file@percent }
\newlabel{vmodel}{{1.4}{17}}
\newlabel{vmodel@cref}{{[figure][4][1]1.4}{[1][17][]17}}
\citation{Yourdon1979}
\@writefile{toc}{\contentsline {chapter}{\numberline {2.}Requirements}{18}\protected@file@percent }
\@writefile{lof}{\addvspace {10pt}}
\@writefile{lot}{\addvspace {10pt}}
\@writefile{lof}{\contentsline {xchapter}{Requirements}{18}\protected@file@percent }
\@writefile{lot}{\contentsline {xchapter}{Requirements}{18}\protected@file@percent }
\newlabel{hs:h2}{{2}{18}}
\newlabel{hs:h2@cref}{{[chapter][2][]2}{[1][18][]18}}
\@writefile{toc}{\contentsline {section}{\numberline {2.1}Inleiding}{18}\protected@file@percent }
\newlabel{hs:h21}{{2.1}{18}}
\newlabel{hs:h21@cref}{{[section][1][2]2.1}{[1][18][]18}}
\@writefile{toc}{\contentsline {section}{\numberline {2.2}Algemene beschrijving}{18}\protected@file@percent }
\newlabel{hs:h22}{{2.2}{18}}
\newlabel{hs:h22@cref}{{[section][2][2]2.2}{[1][18][]18}}
\@writefile{toc}{\contentsline {section}{\numberline {2.3}Systeemcontext}{18}\protected@file@percent }
\newlabel{hs:h23}{{2.3}{18}}
\newlabel{hs:h23@cref}{{[section][3][2]2.3}{[1][18][]18}}
\@writefile{toc}{\contentsline {subsection}{\numberline {2.3.1}Systeemfuncties}{18}\protected@file@percent }
\newlabel{hs:h231}{{2.3.1}{18}}
\newlabel{hs:h231@cref}{{[subsection][1][2,3]2.3.1}{[1][18][]18}}
\@writefile{lof}{\contentsline {figure}{\numberline {2.1}{\ignorespaces Data Context Diagram\relax }}{19}\protected@file@percent }
\newlabel{DCD}{{2.1}{19}}
\newlabel{DCD@cref}{{[figure][1][2]2.1}{[1][19][]19}}
\@writefile{toc}{\contentsline {section}{\numberline {2.4}Systeemfuncties}{20}\protected@file@percent }
\newlabel{hs:h24}{{2.4}{20}}
\newlabel{hs:h24@cref}{{[section][4][2]2.4}{[1][20][]20}}
\@writefile{toc}{\contentsline {subsection}{\numberline {2.4.1}Draadloze data overdracht}{20}\protected@file@percent }
\newlabel{hs:h241}{{2.4.1}{20}}
\newlabel{hs:h241@cref}{{[subsection][1][2,4]2.4.1}{[1][20][]20}}
\@writefile{toc}{\contentsline {subsubsection}{Stimulus en response}{20}\protected@file@percent }
\newlabel{2411}{{2.4.1}{20}}
\newlabel{2411@cref}{{[subsection][1][2,4]2.4.1}{[1][20][]20}}
\@writefile{toc}{\contentsline {subsubsection}{Functionele klanteisen}{20}\protected@file@percent }
\newlabel{2411}{{2.4.1}{20}}
\newlabel{2411@cref}{{[subsection][1][2,4]2.4.1}{[1][20][]20}}
\@writefile{toc}{\contentsline {subsection}{\numberline {2.4.2}Uitlezen en opslag data}{21}\protected@file@percent }
\newlabel{hs:h242}{{2.4.2}{21}}
\newlabel{hs:h242@cref}{{[subsection][2][2,4]2.4.2}{[1][21][]21}}
\@writefile{toc}{\contentsline {subsubsection}{Stimulus en response}{21}\protected@file@percent }
\newlabel{2421}{{2.4.2}{21}}
\newlabel{2421@cref}{{[subsection][2][2,4]2.4.2}{[1][21][]21}}
\@writefile{toc}{\contentsline {subsubsection}{Functionele klanteisen}{21}\protected@file@percent }
\newlabel{2421}{{2.4.2}{21}}
\newlabel{2421@cref}{{[subsection][2][2,4]2.4.2}{[1][21][]21}}
\@writefile{toc}{\contentsline {subsection}{\numberline {2.4.3}Updaten systeem en bestaande module (Optioneel)}{22}\protected@file@percent }
\newlabel{hs:h243}{{2.4.3}{22}}
\newlabel{hs:h243@cref}{{[subsection][3][2,4]2.4.3}{[1][22][]22}}
\@writefile{toc}{\contentsline {subsubsection}{Stimulus en response}{22}\protected@file@percent }
\newlabel{2431}{{2.4.3}{22}}
\newlabel{2431@cref}{{[subsection][3][2,4]2.4.3}{[1][22][]22}}
\@writefile{toc}{\contentsline {subsubsection}{Functionele klanteisen}{22}\protected@file@percent }
\newlabel{2431}{{2.4.3}{22}}
\newlabel{2431@cref}{{[subsection][3][2,4]2.4.3}{[1][22][]22}}
\@writefile{toc}{\contentsline {section}{\numberline {2.5}Niet-functionele klanteisen}{22}\protected@file@percent }
\newlabel{hs:h25}{{2.5}{22}}
\newlabel{hs:h25@cref}{{[section][5][2]2.5}{[1][22][]22}}
\@writefile{toc}{\contentsline {chapter}{\numberline {3.}Architectuur}{23}\protected@file@percent }
\@writefile{lof}{\addvspace {10pt}}
\@writefile{lot}{\addvspace {10pt}}
\@writefile{lof}{\contentsline {xchapter}{Architectuur}{23}\protected@file@percent }
\@writefile{lot}{\contentsline {xchapter}{Architectuur}{23}\protected@file@percent }
\@writefile{toc}{\contentsline {section}{\numberline {3.1}Ontwerpbesluiten en randvoorwaarden}{23}\protected@file@percent }
\@writefile{toc}{\contentsline {section}{\numberline {3.2}Deelsystemen en koppelingen}{24}\protected@file@percent }
\@writefile{lof}{\contentsline {figure}{\numberline {3.1}{\ignorespaces Data Flow Diagram 0\relax }}{24}\protected@file@percent }
\newlabel{DFD0}{{3.1}{24}}
\newlabel{DFD0@cref}{{[figure][1][3]3.1}{[1][24][]24}}
\@writefile{toc}{\contentsline {section}{\numberline {3.3}Beschrijving deelsystemen}{25}\protected@file@percent }
\@writefile{lof}{\contentsline {figure}{\numberline {3.2}{\ignorespaces Architectuur Interconnect Diagram\relax }}{25}\protected@file@percent }
\newlabel{AID}{{3.2}{25}}
\newlabel{AID@cref}{{[figure][2][3]3.2}{[1][25][]25}}
\@writefile{toc}{\contentsline {section}{\numberline {3.4}Beschrijving interconnects}{26}\protected@file@percent }
\@writefile{toc}{\contentsline {subsection}{\numberline {3.4.1}Deelsysteem 1: Control Data}{27}\protected@file@percent }
\@writefile{lof}{\contentsline {figure}{\numberline {3.3}{\ignorespaces Data Flow Diagram 1\relax }}{27}\protected@file@percent }
\newlabel{DFD1}{{3.3}{27}}
\newlabel{DFD1@cref}{{[figure][3][3]3.3}{[1][27][]27}}
\@writefile{toc}{\contentsline {subsubsection}{Deelsysteem 1.1: Execute functions}{28}\protected@file@percent }
\@writefile{toc}{\contentsline {subsubsection}{Deelsysteem 1.2. Control Saved Data}{28}\protected@file@percent }
\@writefile{toc}{\contentsline {subsubsection}{Deelsysteem 1.3. Communicate Motor Control Unit}{28}\protected@file@percent }
\@writefile{toc}{\contentsline {subsection}{\numberline {3.4.2}Deelsysteem 2: Transceive Data}{29}\protected@file@percent }
\@writefile{toc}{\contentsline {subsection}{\numberline {3.4.3}Deelsysteem 3: Flash Light}{29}\protected@file@percent }
\@writefile{toc}{\contentsline {section}{\numberline {3.5}Traceerbaarheid klanteisen}{29}\protected@file@percent }
\@writefile{lot}{\contentsline {table}{\numberline {3.1}{\ignorespaces Traceertabel Requirements \relax }}{29}\protected@file@percent }
\newlabel{tab:tr}{{3.1}{29}}
\newlabel{tab:tr@cref}{{[table][1][3]3.1}{[1][29][]29}}
\@writefile{toc}{\contentsline {chapter}{\numberline {4.}Detailontwerp}{30}\protected@file@percent }
\@writefile{lof}{\addvspace {10pt}}
\@writefile{lot}{\addvspace {10pt}}
\@writefile{lof}{\contentsline {xchapter}{Detailontwerp}{30}\protected@file@percent }
\@writefile{lot}{\contentsline {xchapter}{Detailontwerp}{30}\protected@file@percent }
\@writefile{toc}{\contentsline {section}{\numberline {4.1}Deelsystemen 1 \& 2}{30}\protected@file@percent }
\@writefile{lot}{\contentsline {table}{\numberline {4.1}{\ignorespaces Keuze matrix Draadloze MCU (*Prijzen Mouser rond 03-03-2020)\relax }}{31}\protected@file@percent }
\newlabel{tabmcu}{{4.1}{31}}
\newlabel{tabmcu@cref}{{[table][1][4]4.1}{[1][31][]31}}
\@writefile{lof}{\contentsline {figure}{\numberline {4.1}{\ignorespaces BT840 Bluetooth module van Fanstel\relax }}{32}\protected@file@percent }
\newlabel{BT840}{{4.1}{32}}
\newlabel{BT840@cref}{{[figure][1][4]4.1}{[1][32][]32}}
\@writefile{lof}{\contentsline {figure}{\numberline {4.2}{\ignorespaces Een schermopname van een deel uit de datasheet van de BT840\relax }}{33}\protected@file@percent }
\newlabel{dsbt840}{{4.2}{33}}
\newlabel{dsbt840@cref}{{[figure][2][4]4.2}{[1][33][]33}}
\@writefile{lof}{\contentsline {figure}{\numberline {4.3}{\ignorespaces Ontwerp BT840 in Altium\relax }}{34}\protected@file@percent }
\newlabel{schbt840}{{4.3}{34}}
\newlabel{schbt840@cref}{{[figure][3][4]4.3}{[1][33][]34}}
\@writefile{toc}{\contentsline {section}{\numberline {4.2}Deelsysteem 1.2: Control saved data}{35}\protected@file@percent }
\@writefile{lof}{\contentsline {figure}{\numberline {4.4}{\ignorespaces Ontwerp MX25R6435FM2IH0 in Altium\relax }}{35}\protected@file@percent }
\newlabel{flash}{{4.4}{35}}
\newlabel{flash@cref}{{[figure][4][4]4.4}{[1][35][]35}}
\@writefile{lof}{\contentsline {figure}{\numberline {4.5}{\ignorespaces SPI transactie nRF52840\relax }}{36}\protected@file@percent }
\newlabel{spi}{{4.5}{36}}
\newlabel{spi@cref}{{[figure][5][4]4.5}{[1][35][]36}}
\@writefile{toc}{\contentsline {subsection}{\numberline {4.2.1}Software}{36}\protected@file@percent }
\@writefile{lof}{\contentsline {figure}{\numberline {4.6}{\ignorespaces Flowdiagram transmit\relax }}{37}\protected@file@percent }
\newlabel{spitx}{{4.6}{37}}
\newlabel{spitx@cref}{{[figure][6][4]4.6}{[1][37][]37}}
\@writefile{lof}{\contentsline {figure}{\numberline {4.7}{\ignorespaces Flowdiagram receive\relax }}{38}\protected@file@percent }
\newlabel{spirx}{{4.7}{38}}
\newlabel{spirx@cref}{{[figure][7][4]4.7}{[1][38][]38}}
\@writefile{lof}{\contentsline {figure}{\numberline {4.8}{\ignorespaces Indeling adressen flash geheugen\relax }}{38}\protected@file@percent }
\newlabel{spimem}{{4.8}{38}}
\newlabel{spimem@cref}{{[figure][8][4]4.8}{[1][38][]38}}
\@writefile{toc}{\contentsline {section}{\numberline {4.3}Deelsysteem 1.3: Communicate Motor Control Unit}{39}\protected@file@percent }
\newlabel{hs:43}{{4.3}{39}}
\newlabel{hs:43@cref}{{[section][3][4]4.3}{[1][39][]39}}
\@writefile{lof}{\contentsline {figure}{\numberline {4.9}{\ignorespaces Easydma nRF52840\relax }}{39}\protected@file@percent }
\newlabel{dma}{{4.9}{39}}
\newlabel{dma@cref}{{[figure][9][4]4.9}{[1][39][]39}}
\@writefile{toc}{\contentsline {subsection}{\numberline {4.3.1}TX}{40}\protected@file@percent }
\@writefile{lof}{\contentsline {figure}{\numberline {4.10}{\ignorespaces Zenden UART\relax }}{40}\protected@file@percent }
\newlabel{uarttx}{{4.10}{40}}
\newlabel{uarttx@cref}{{[figure][10][4]4.10}{[1][40][]40}}
\newlabel{frameformat}{{4.11a}{41}}
\newlabel{frameformat@cref}{{[subfigure][1][4,11]4.11a}{[1][41][]41}}
\newlabel{sub@frameformat}{{a}{41}}
\newlabel{sub@frameformat@cref}{{[subfigure][1][4,11]4.11a}{[1][41][]41}}
\newlabel{framecontent}{{4.11b}{41}}
\newlabel{framecontent@cref}{{[subfigure][2][4,11]4.11b}{[1][41][]41}}
\newlabel{sub@framecontent}{{b}{41}}
\newlabel{sub@framecontent@cref}{{[subfigure][2][4,11]4.11b}{[1][41][]41}}
\@writefile{lof}{\contentsline {figure}{\numberline {4.11}{\ignorespaces Inhoud commando\relax }}{41}\protected@file@percent }
\@writefile{lof}{\contentsline {figure}{\numberline {4.12}{\ignorespaces Communicatie UART\relax }}{41}\protected@file@percent }
\newlabel{uarttx}{{4.12}{41}}
\newlabel{uarttx@cref}{{[figure][12][4]4.12}{[1][41][]41}}
\@writefile{toc}{\contentsline {subsection}{\numberline {4.3.2}RX}{42}\protected@file@percent }
\@writefile{lof}{\contentsline {figure}{\numberline {4.13}{\ignorespaces Ontvangen UART\relax }}{42}\protected@file@percent }
\newlabel{uartrx}{{4.13}{42}}
\newlabel{uartrx@cref}{{[figure][13][4]4.13}{[1][42][]42}}
\@writefile{lof}{\contentsline {figure}{\numberline {4.14}{\ignorespaces Ontvangen UART Flowdiagram\relax }}{43}\protected@file@percent }
\newlabel{rxflow}{{4.14}{43}}
\newlabel{rxflow@cref}{{[figure][14][4]4.14}{[1][43][]43}}
\@writefile{toc}{\contentsline {section}{\numberline {4.4}Unit 2: Transceive data}{44}\protected@file@percent }
\@writefile{lof}{\contentsline {figure}{\numberline {4.15}{\ignorespaces Mesh models\relax }}{44}\protected@file@percent }
\newlabel{meshmodels}{{4.15}{44}}
\newlabel{meshmodels@cref}{{[figure][15][4]4.15}{[1][44][]44}}
\@writefile{lof}{\contentsline {figure}{\numberline {4.16}{\ignorespaces Rotary Switch\relax }}{45}\protected@file@percent }
\newlabel{rotaryswitch}{{4.16}{45}}
\newlabel{rotaryswitch@cref}{{[figure][16][4]4.16}{[1][45][]45}}
\@writefile{lof}{\contentsline {figure}{\numberline {4.17}{\ignorespaces Publish/subscribe\relax }}{46}\protected@file@percent }
\newlabel{publish/subscribe}{{4.17}{46}}
\newlabel{publish/subscribe@cref}{{[figure][17][4]4.17}{[1][46][]46}}
\@writefile{lof}{\contentsline {figure}{\numberline {4.18}{\ignorespaces Proxy server\relax }}{47}\protected@file@percent }
\newlabel{proxy}{{4.18}{47}}
\newlabel{proxy@cref}{{[figure][18][4]4.18}{[1][47][]47}}
\@writefile{lof}{\contentsline {figure}{\numberline {4.19}{\ignorespaces De \texttt  {generic\textunderscore level\textunderscore state\textunderscore set\textunderscore cb} functie\relax }}{48}\protected@file@percent }
\newlabel{switchcase}{{4.19}{48}}
\newlabel{switchcase@cref}{{[figure][19][4]4.19}{[1][48][]48}}
\@writefile{lof}{\contentsline {figure}{\numberline {4.20}{\ignorespaces Mesh app waarmee de nodes aangestuurd kunnen worden.\relax }}{49}\protected@file@percent }
\newlabel{levelcontrol}{{4.20}{49}}
\newlabel{levelcontrol@cref}{{[figure][20][4]4.20}{[1][49][]49}}
\citation{codemeshlr}
\@writefile{toc}{\contentsline {section}{\numberline {4.5}Unit 3: LED schakeling}{51}\protected@file@percent }
\@writefile{lot}{\contentsline {table}{\numberline {4.2}{\ignorespaces Keuzetabel LED\relax }}{51}\protected@file@percent }
\@writefile{lof}{\contentsline {figure}{\numberline {4.21}{\ignorespaces Ontwerp LED Altium\relax }}{52}\protected@file@percent }
\newlabel{ontwerpLED}{{4.21}{52}}
\newlabel{ontwerpLED@cref}{{[figure][21][4]4.21}{[1][52][]52}}
\@writefile{toc}{\contentsline {chapter}{\numberline {5.}Realisatie}{53}\protected@file@percent }
\@writefile{lof}{\addvspace {10pt}}
\@writefile{lot}{\addvspace {10pt}}
\@writefile{lof}{\contentsline {xchapter}{Realisatie}{53}\protected@file@percent }
\@writefile{lot}{\contentsline {xchapter}{Realisatie}{53}\protected@file@percent }
\@writefile{toc}{\contentsline {section}{\numberline {5.1}Realisatie Hardware}{53}\protected@file@percent }
\newlabel{PCB2DTOP}{{5.1a}{54}}
\newlabel{PCB2DTOP@cref}{{[subfigure][1][5,1]5.1a}{[1][54][]54}}
\newlabel{sub@PCB2DTOP}{{a}{54}}
\newlabel{sub@PCB2DTOP@cref}{{[subfigure][1][5,1]5.1a}{[1][54][]54}}
\newlabel{PCB2DBOT}{{5.1b}{54}}
\newlabel{PCB2DBOT@cref}{{[subfigure][2][5,1]5.1b}{[1][54][]54}}
\newlabel{sub@PCB2DBOT}{{b}{54}}
\newlabel{sub@PCB2DBOT@cref}{{[subfigure][2][5,1]5.1b}{[1][54][]54}}
\@writefile{lof}{\contentsline {figure}{\numberline {5.1}{\ignorespaces 2D tekeningen van de printplaten\relax }}{54}\protected@file@percent }
\newlabel{PCB3DTOP}{{5.2a}{55}}
\newlabel{PCB3DTOP@cref}{{[subfigure][1][5,2]5.2a}{[1][54][]55}}
\newlabel{sub@PCB3DTOP}{{a}{55}}
\newlabel{sub@PCB3DTOP@cref}{{[subfigure][1][5,2]5.2a}{[1][54][]55}}
\newlabel{PCB3DBOT}{{5.2b}{55}}
\newlabel{PCB3DBOT@cref}{{[subfigure][2][5,2]5.2b}{[1][54][]55}}
\newlabel{sub@PCB3DBOT}{{b}{55}}
\newlabel{sub@PCB3DBOT@cref}{{[subfigure][2][5,2]5.2b}{[1][54][]55}}
\@writefile{lof}{\contentsline {figure}{\numberline {5.2}{\ignorespaces 3D tekeningen van de printplaten\relax }}{55}\protected@file@percent }
\@writefile{toc}{\contentsline {section}{\numberline {5.2}Software}{56}\protected@file@percent }
\@writefile{toc}{\contentsline {section}{\numberline {5.3}Solderen}{57}\protected@file@percent }
\newlabel{PCBTOP}{{5.3a}{57}}
\newlabel{PCBTOP@cref}{{[subfigure][1][5,3]5.3a}{[1][57][]57}}
\newlabel{sub@PCBTOP}{{a}{57}}
\newlabel{sub@PCBTOP@cref}{{[subfigure][1][5,3]5.3a}{[1][57][]57}}
\newlabel{PCBBOT}{{5.3b}{57}}
\newlabel{PCBBOT@cref}{{[subfigure][2][5,3]5.3b}{[1][57][]57}}
\newlabel{sub@PCBBOT}{{b}{57}}
\newlabel{sub@PCBBOT@cref}{{[subfigure][2][5,3]5.3b}{[1][57][]57}}
\@writefile{lof}{\contentsline {figure}{\numberline {5.3}{\ignorespaces 2D tekeningen van de printplaten\relax }}{57}\protected@file@percent }
\@writefile{toc}{\contentsline {section}{\numberline {5.4}Componenten}{57}\protected@file@percent }
\@writefile{toc}{\contentsline {section}{\numberline {5.5}Program connector}{58}\protected@file@percent }
\newlabel{progont}{{5.4a}{58}}
\newlabel{progont@cref}{{[subfigure][1][5,4]5.4a}{[1][58][]58}}
\newlabel{sub@progont}{{a}{58}}
\newlabel{sub@progont@cref}{{[subfigure][1][5,4]5.4a}{[1][58][]58}}
\newlabel{progrea}{{5.4b}{58}}
\newlabel{progrea@cref}{{[subfigure][2][5,4]5.4b}{[1][58][]58}}
\newlabel{sub@progrea}{{b}{58}}
\newlabel{sub@progrea@cref}{{[subfigure][2][5,4]5.4b}{[1][58][]58}}
\@writefile{lof}{\contentsline {figure}{\numberline {5.4}{\ignorespaces Program connector\relax }}{58}\protected@file@percent }
\@writefile{toc}{\contentsline {chapter}{\numberline {6.}Conclusie}{59}\protected@file@percent }
\@writefile{lof}{\addvspace {10pt}}
\@writefile{lot}{\addvspace {10pt}}
\@writefile{lof}{\contentsline {xchapter}{Conclusie}{59}\protected@file@percent }
\@writefile{lot}{\contentsline {xchapter}{Conclusie}{59}\protected@file@percent }
\@writefile{toc}{\contentsline {chapter}{\numberline {7.}Aanbevelingen}{60}\protected@file@percent }
\@writefile{lof}{\addvspace {10pt}}
\@writefile{lot}{\addvspace {10pt}}
\@writefile{lof}{\contentsline {xchapter}{Aanbevelingen}{60}\protected@file@percent }
\@writefile{lot}{\contentsline {xchapter}{Aanbevelingen}{60}\protected@file@percent }
\@writefile{toc}{\contentsline {section}{\numberline {7.1}Module}{60}\protected@file@percent }
\@writefile{toc}{\contentsline {section}{\numberline {7.2}Plaatsing op IM60/IM125}{61}\protected@file@percent }
\@writefile{toc}{\contentsline {chapter}{Appendices}{62}\protected@file@percent }
\@writefile{toc}{\contentsline {chapter}{\numberline {A.}Onderzoek Bluetooth mesh}{63}\protected@file@percent }
\@writefile{lof}{\addvspace {10pt}}
\@writefile{lot}{\addvspace {10pt}}
\@writefile{lof}{\contentsline {xchapter}{Onderzoek Bluetooth mesh}{63}\protected@file@percent }
\@writefile{lot}{\contentsline {xchapter}{Onderzoek Bluetooth mesh}{63}\protected@file@percent }
\newlabel{ondmesh}{{A}{63}}
\newlabel{ondmesh@cref}{{[chapter][1][]A}{[1][63][]63}}
\citation{btversions}
\@writefile{toc}{\contentsline {section}{\numberline {A.1}Inleiding}{64}\protected@file@percent }
\@writefile{toc}{\contentsline {section}{\numberline {A.2}Bluetooth Low Energie}{64}\protected@file@percent }
\@writefile{lof}{\contentsline {figure}{\numberline {A.1}{\ignorespaces BLE stack\relax }}{64}\protected@file@percent }
\newlabel{blestack}{{A.1}{64}}
\newlabel{blestack@cref}{{[figure][1][1]A.1}{[1][64][]64}}
\citation{Gomez2012}
\@writefile{toc}{\contentsline {paragraph}{Physical layer}{65}\protected@file@percent }
\@writefile{lof}{\contentsline {figure}{\numberline {A.2}{\ignorespaces Fequentiespectrum\relax }}{65}\protected@file@percent }
\newlabel{freqhop}{{A.2}{65}}
\newlabel{freqhop@cref}{{[figure][2][1]A.2}{[1][65][]65}}
\@writefile{toc}{\contentsline {paragraph}{Link layer}{65}\protected@file@percent }
\@writefile{toc}{\contentsline {paragraph}{L2CAP}{65}\protected@file@percent }
\@writefile{toc}{\contentsline {paragraph}{GAP}{65}\protected@file@percent }
\citation{btgatt}
\@writefile{toc}{\contentsline {paragraph}{Attribute Protocol}{66}\protected@file@percent }
\@writefile{lof}{\contentsline {figure}{\numberline {A.3}{\ignorespaces Attribute structure\relax }}{66}\protected@file@percent }
\newlabel{attstruct}{{A.3}{66}}
\newlabel{attstruct@cref}{{[figure][3][1]A.3}{[1][66][]66}}
\@writefile{toc}{\contentsline {paragraph}{GATT}{67}\protected@file@percent }
\@writefile{toc}{\contentsline {section}{\numberline {A.3}Bluetooth mesh}{67}\protected@file@percent }
\@writefile{lof}{\contentsline {figure}{\numberline {A.4}{\ignorespaces Mesh layers\relax }}{67}\protected@file@percent }
\newlabel{meshlayer}{{A.4}{67}}
\newlabel{meshlayer@cref}{{[figure][4][1]A.4}{[1][67][]67}}
\@writefile{toc}{\contentsline {paragraph}{Bearer Layer}{68}\protected@file@percent }
\@writefile{toc}{\contentsline {paragraph}{Network Layer}{68}\protected@file@percent }
\@writefile{toc}{\contentsline {paragraph}{Lower Transport Layer}{68}\protected@file@percent }
\@writefile{toc}{\contentsline {paragraph}{Upper Transport Layer}{68}\protected@file@percent }
\@writefile{toc}{\contentsline {paragraph}{Acces Layer}{68}\protected@file@percent }
\@writefile{toc}{\contentsline {paragraph}{Foundation Model Layer}{68}\protected@file@percent }
\@writefile{toc}{\contentsline {paragraph}{Model layer}{68}\protected@file@percent }
\@writefile{lof}{\contentsline {figure}{\numberline {A.5}{\ignorespaces Mesh Netwerk\relax }}{69}\protected@file@percent }
\newlabel{meshnetwerk}{{A.5}{69}}
\newlabel{meshnetwerk@cref}{{[figure][5][1]A.5}{[1][69][]69}}
\@writefile{toc}{\contentsline {section}{\numberline {A.4}Test mesh}{70}\protected@file@percent }
\@writefile{lof}{\contentsline {figure}{\numberline {A.6}{\ignorespaces Mesh layers\relax }}{70}\protected@file@percent }
\newlabel{testmesh}{{A.6}{70}}
\newlabel{testmesh@cref}{{[figure][6][1]A.6}{[1][70][]70}}
\@writefile{toc}{\contentsline {section}{\numberline {A.5}Conclusie}{71}\protected@file@percent }
\citation{Specification2018}
\citation{Campbell1966}
\citation{ccled}
\@writefile{toc}{\contentsline {chapter}{\numberline {B.}Onderzoek LED}{72}\protected@file@percent }
\@writefile{lof}{\addvspace {10pt}}
\@writefile{lot}{\addvspace {10pt}}
\@writefile{lof}{\contentsline {xchapter}{Onderzoek LED}{72}\protected@file@percent }
\@writefile{lot}{\contentsline {xchapter}{Onderzoek LED}{72}\protected@file@percent }
\newlabel{ondled}{{B}{72}}
\newlabel{ondled@cref}{{[chapter][2][]B}{[1][72][]72}}
\@writefile{toc}{\contentsline {section}{\numberline {B.1}DC-DC conversie}{72}\protected@file@percent }
\@writefile{lof}{\contentsline {figure}{\numberline {B.1}{\ignorespaces LED Forward Current en Load\relax }}{73}\protected@file@percent }
\newlabel{ILED}{{B.1}{73}}
\newlabel{ILED@cref}{{[figure][1][2]B.1}{[1][72][]73}}
\@writefile{toc}{\contentsline {subsection}{\numberline {B.1.1}Charge pump}{73}\protected@file@percent }
\@writefile{lof}{\contentsline {figure}{\numberline {B.2}{\ignorespaces Charge pump\relax }}{73}\protected@file@percent }
\newlabel{VD}{{B.2}{73}}
\newlabel{VD@cref}{{[figure][2][2]B.2}{[1][72][]73}}
\citation{ticap}
\newlabel{eqvc2}{{B.2}{74}}
\newlabel{eqvc2@cref}{{[equation][2][2]B.2}{[1][74][]74}}
\newlabel{eqvc2}{{B.3}{74}}
\newlabel{eqvc2@cref}{{[equation][3][2]B.3}{[1][74][]74}}
\@writefile{toc}{\contentsline {subsubsection}{Simulatie en opbouw Charge pump}{75}\protected@file@percent }
\@writefile{lof}{\contentsline {figure}{\numberline {B.3}{\ignorespaces Chargepump in LT spice opgebouwd\relax }}{75}\protected@file@percent }
\newlabel{CPLT}{{B.3}{75}}
\newlabel{CPLT@cref}{{[figure][3][2]B.3}{[1][75][]75}}
\@writefile{lof}{\contentsline {figure}{\numberline {B.4}{\ignorespaces Vout in simulatie\relax }}{76}\protected@file@percent }
\newlabel{VOCPLT}{{B.4}{76}}
\newlabel{VOCPLT@cref}{{[figure][4][2]B.4}{[1][76][]76}}
\@writefile{lof}{\contentsline {figure}{\numberline {B.5}{\ignorespaces Vout in scope\relax }}{77}\protected@file@percent }
\newlabel{VOSLT}{{B.5}{77}}
\newlabel{VOSLT@cref}{{[figure][5][2]B.5}{[1][77][]77}}
\@writefile{lof}{\contentsline {figure}{\numberline {B.6}{\ignorespaces Rimpel in stroom aan voeding\relax }}{78}\protected@file@percent }
\newlabel{3v3rimpel}{{B.6}{78}}
\newlabel{3v3rimpel@cref}{{[figure][6][2]B.6}{[1][78][]78}}
\@writefile{toc}{\contentsline {subsubsection}{BOM charge pump}{79}\protected@file@percent }
\newlabel{BOM chargePUMP}{{\caption@xref {BOM chargePUMP}{ on input line 1198}}{79}}
\newlabel{BOM chargePUMP@cref}{{[subsection][1][2,1]B.1.1}{[1][79][]79}}
\citation{boost}
\@writefile{toc}{\contentsline {subsection}{\numberline {B.1.2}Boost Converter}{80}\protected@file@percent }
\newlabel{boost}{{B.1.2}{80}}
\newlabel{boost@cref}{{[subsection][2][2,1]B.1.2}{[1][80][]80}}
\@writefile{lof}{\contentsline {figure}{\numberline {B.7}{\ignorespaces Schema boost converter\relax }}{80}\protected@file@percent }
\newlabel{boost}{{B.7}{80}}
\newlabel{boost@cref}{{[figure][7][2]B.7}{[1][80][]80}}
\newlabel{ipk}{{B.14}{81}}
\newlabel{ipk@cref}{{[equation][14][2]B.14}{[1][81][]81}}
\citation{tiboost}
\@writefile{lof}{\contentsline {figure}{\numberline {B.8}{\ignorespaces LTspice boost converter simulatie\relax }}{82}\protected@file@percent }
\newlabel{boostsim}{{B.8}{82}}
\newlabel{boostsim@cref}{{[figure][8][2]B.8}{[1][82][]82}}
\@writefile{lof}{\contentsline {figure}{\numberline {B.9}{\ignorespaces LTspice output stroom V1\relax }}{82}\protected@file@percent }
\newlabel{v1sim}{{B.9}{82}}
\newlabel{v1sim@cref}{{[figure][9][2]B.9}{[1][82][]82}}
\@writefile{toc}{\contentsline {subsection}{\numberline {B.1.3}Schakelen LED}{83}\protected@file@percent }
\@writefile{toc}{\contentsline {subsubsection}{Schakelen met transistor}{83}\protected@file@percent }
\@writefile{lof}{\contentsline {figure}{\numberline {B.10}{\ignorespaces LED aangestuurd d.m.v. NPN\relax }}{83}\protected@file@percent }
\newlabel{LEDNPN}{{B.10}{83}}
\newlabel{LEDNPN@cref}{{[figure][10][2]B.10}{[1][83][]83}}
\newlabel{eqr3}{{B.17}{84}}
\newlabel{eqr3@cref}{{[equation][17][2]B.17}{[1][84][]84}}
\@writefile{toc}{\contentsline {subsection}{\numberline {B.1.4}Schakelen met FET}{85}\protected@file@percent }
\@writefile{lof}{\contentsline {figure}{\numberline {B.11}{\ignorespaces LED aangestuurd d.m.v. NMOS\relax }}{85}\protected@file@percent }
\newlabel{NMOSLED}{{B.11}{85}}
\newlabel{NMOSLED@cref}{{[figure][11][2]B.11}{[1][85][]85}}
\@writefile{toc}{\contentsline {section}{\numberline {B.2}Berekeningen gekozen FET}{86}\protected@file@percent }
\newlabel{berfet}{{B.2}{86}}
\newlabel{berfet@cref}{{[section][2][2]B.2}{[1][86][]86}}
\newlabel{eqfet}{{B.21}{86}}
\newlabel{eqfet@cref}{{[equation][21][2]B.21}{[1][86][]86}}
\@writefile{lof}{\contentsline {figure}{\numberline {B.12}{\ignorespaces Warmte weerstand\relax }}{87}\protected@file@percent }
\newlabel{pulse}{{B.12}{87}}
\newlabel{pulse@cref}{{[figure][12][2]B.12}{[1][87][]87}}
\@writefile{toc}{\contentsline {section}{\numberline {B.3}Conclusie}{87}\protected@file@percent }
\citation{cbs}
\@writefile{toc}{\contentsline {chapter}{\numberline {C.}Onderzoek draadloze technologieën}{88}\protected@file@percent }
\@writefile{lof}{\addvspace {10pt}}
\@writefile{lot}{\addvspace {10pt}}
\@writefile{lof}{\contentsline {xchapter}{Onderzoek draadloze technologieën}{88}\protected@file@percent }
\@writefile{lot}{\contentsline {xchapter}{Onderzoek draadloze technologieën}{88}\protected@file@percent }
\newlabel{onddr}{{C}{88}}
\newlabel{onddr@cref}{{[chapter][3][]C}{[1][88][]88}}
\@writefile{toc}{\contentsline {section}{\numberline {C.1}Inleiding}{88}\protected@file@percent }
\newlabel{stal1}{{C.1a}{89}}
\newlabel{stal1@cref}{{[subfigure][1][3,1]C.1a}{[1][89][]89}}
\newlabel{sub@stal1}{{a}{89}}
\newlabel{sub@stal1@cref}{{[subfigure][1][3,1]C.1a}{[1][89][]89}}
\newlabel{stal2}{{C.1b}{89}}
\newlabel{stal2@cref}{{[subfigure][2][3,1]C.1b}{[1][89][]89}}
\newlabel{sub@stal2}{{b}{89}}
\newlabel{sub@stal2@cref}{{[subfigure][2][3,1]C.1b}{[1][89][]89}}
\@writefile{lof}{\contentsline {figure}{\numberline {C.1}{\ignorespaces Mogelijke ophanging motor\relax }}{89}\protected@file@percent }
\citation{los}
\citation{topo}
\@writefile{toc}{\contentsline {section}{\numberline {C.2}Draadloze technologieën}{90}\protected@file@percent }
\@writefile{lof}{\contentsline {figure}{\numberline {C.2}{\ignorespaces Line Of Sight \relax }}{90}\protected@file@percent }
\newlabel{los}{{C.2}{90}}
\newlabel{los@cref}{{[figure][2][3]C.2}{[1][90][]90}}
\citation{Verma2013}
\citation{Zhao2014}
\citation{meshfaq}
\citation{meshfaq}
\citation{Yaakop2017}
\citation{zigbee}
\citation{Ali-rantala}
\citation{Chruszczyk2017}
\@writefile{toc}{\contentsline {subsection}{\numberline {C.2.1}Frequentie, bereik en maximale snelheid}{91}\protected@file@percent }
\citation{DelaCruz2016}
\citation{starmesh}
\citation{hu2013}
\@writefile{toc}{\contentsline {subsection}{\numberline {C.2.2}Topologie en gebruik smartphone}{92}\protected@file@percent }
\newlabel{star}{{C.3a}{92}}
\newlabel{star@cref}{{[subfigure][1][3,3]C.3a}{[1][92][]92}}
\newlabel{sub@star}{{a}{92}}
\newlabel{sub@star@cref}{{[subfigure][1][3,3]C.3a}{[1][92][]92}}
\newlabel{mesh}{{C.3b}{92}}
\newlabel{mesh@cref}{{[subfigure][2][3,3]C.3b}{[1][92][]92}}
\newlabel{sub@mesh}{{b}{92}}
\newlabel{sub@mesh@cref}{{[subfigure][2][3,3]C.3b}{[1][92][]92}}
\@writefile{lof}{\contentsline {figure}{\numberline {C.3}{\ignorespaces Twee verschillende netwerk configuraties\relax }}{92}\protected@file@percent }
\citation{blfees}
\citation{lora}
\citation{zigbee}
\@writefile{toc}{\contentsline {subsection}{\numberline {C.2.3}Kosten}{93}\protected@file@percent }
\@writefile{toc}{\contentsline {section}{\numberline {C.3}Conclusie}{94}\protected@file@percent }
\@writefile{lot}{\contentsline {table}{\numberline {C.1}{\ignorespaces Overzicht draadloze verbindingen\relax }}{94}\protected@file@percent }
\newlabel{tbWrlss}{{C.1}{94}}
\newlabel{tbWrlss@cref}{{[table][1][3]C.1}{[1][94][]94}}
\@writefile{toc}{\contentsline {chapter}{\numberline {D.}Plan Van Aanpak}{95}\protected@file@percent }
\@writefile{lof}{\addvspace {10pt}}
\@writefile{lot}{\addvspace {10pt}}
\@writefile{lof}{\contentsline {xchapter}{Plan Van Aanpak}{95}\protected@file@percent }
\@writefile{lot}{\contentsline {xchapter}{Plan Van Aanpak}{95}\protected@file@percent }
\newlabel{hs:vb}{{D}{95}}
\newlabel{hs:vb@cref}{{[chapter][4][]D}{[1][95][]95}}
\@writefile{lot}{\contentsline {table}{\numberline {D.1}{\ignorespaces Versiehistorie\relax }}{95}\protected@file@percent }
\newlabel{tab:vb}{{D.1}{95}}
\newlabel{tab:vb@cref}{{[table][1][4]D.1}{[1][95][]95}}
\@writefile{toc}{\contentsline {section}{\numberline {D.1}Achtergronden}{96}\protected@file@percent }
\newlabel{hs:h1}{{D.1}{96}}
\newlabel{hs:h1@cref}{{[section][1][4]D.1}{[1][96][]96}}
\newlabel{hs:h11}{{D.1}{96}}
\newlabel{hs:h11@cref}{{[section][1][4]D.1}{[1][96][]96}}
\newlabel{hs:h12}{{D.1}{96}}
\newlabel{hs:h12@cref}{{[section][1][4]D.1}{[1][96][]96}}
\newlabel{hs:h13}{{D.1}{96}}
\newlabel{hs:h13@cref}{{[section][1][4]D.1}{[1][96][]96}}
\@writefile{toc}{\contentsline {section}{\numberline {D.2}Projectresultaat}{96}\protected@file@percent }
\newlabel{hs:h2}{{D.2}{96}}
\newlabel{hs:h2@cref}{{[section][2][4]D.2}{[1][96][]96}}
\newlabel{hs:h21}{{D.2}{96}}
\newlabel{hs:h21@cref}{{[section][2][4]D.2}{[1][96][]96}}
\newlabel{hs:h22}{{D.2}{97}}
\newlabel{hs:h22@cref}{{[section][2][4]D.2}{[1][96][]97}}
\newlabel{hs:h3}{{D.2}{98}}
\newlabel{hs:h3@cref}{{[section][2][4]D.2}{[1][98][]98}}
\newlabel{hs:h31}{{D.2}{98}}
\newlabel{hs:h31@cref}{{[section][2][4]D.2}{[1][98][]98}}
\newlabel{hs:h32}{{D.2}{98}}
\newlabel{hs:h32@cref}{{[section][2][4]D.2}{[1][98][]98}}
\@writefile{toc}{\contentsline {section}{\numberline {D.4}Projectgrenzen en randvoorwaarden}{100}\protected@file@percent }
\newlabel{hs:h4}{{D.4}{100}}
\newlabel{hs:h4@cref}{{[section][4][4]D.4}{[1][100][]100}}
\newlabel{hs:h41}{{D.4}{100}}
\newlabel{hs:h41@cref}{{[section][4][4]D.4}{[1][100][]100}}
\newlabel{hs:h42}{{D.4}{100}}
\newlabel{hs:h42@cref}{{[section][4][4]D.4}{[1][100][]100}}
\@writefile{toc}{\contentsline {section}{\numberline {D.5}Tussenresultaten}{100}\protected@file@percent }
\newlabel{hs:h5}{{D.5}{100}}
\newlabel{hs:h5@cref}{{[section][5][4]D.5}{[1][100][]100}}
\newlabel{hs:h51}{{D.5}{100}}
\newlabel{hs:h51@cref}{{[section][5][4]D.5}{[1][100][]100}}
\newlabel{hs:h52}{{D.5}{100}}
\newlabel{hs:h52@cref}{{[section][5][4]D.5}{[1][100][]100}}
\@writefile{toc}{\contentsline {section}{\numberline {D.6}Kwaliteit}{101}\protected@file@percent }
\newlabel{hs:h6}{{D.6}{101}}
\newlabel{hs:h6@cref}{{[section][6][4]D.6}{[1][101][]101}}
\newlabel{hs:h61}{{D.6}{101}}
\newlabel{hs:h61@cref}{{[section][6][4]D.6}{[1][101][]101}}
\newlabel{hs:h62}{{D.6}{101}}
\newlabel{hs:h62@cref}{{[section][6][4]D.6}{[1][101][]101}}
\newlabel{hs:h63}{{D.6}{101}}
\newlabel{hs:h63@cref}{{[section][6][4]D.6}{[1][101][]101}}
\newlabel{hs:h64}{{D.6}{101}}
\newlabel{hs:h64@cref}{{[section][6][4]D.6}{[1][101][]101}}
\@writefile{toc}{\contentsline {section}{\numberline {D.7}Projectorganisatie}{102}\protected@file@percent }
\newlabel{hs:h7}{{D.7}{102}}
\newlabel{hs:h7@cref}{{[section][7][4]D.7}{[1][102][]102}}
\newlabel{hs:h71}{{D.7}{102}}
\newlabel{hs:h71@cref}{{[section][7][4]D.7}{[1][102][]102}}
\@writefile{lot}{\contentsline {table}{\numberline {D.2}{\ignorespaces Persoonlijke gegevens\relax }}{102}\protected@file@percent }
\newlabel{tab:pg}{{D.2}{102}}
\newlabel{tab:pg@cref}{{[table][2][4]D.2}{[1][102][]102}}
\newlabel{hs:h72}{{D.7}{102}}
\newlabel{hs:h72@cref}{{[section][7][4]D.7}{[1][102][]102}}
\newlabel{hs:h73}{{D.7}{102}}
\newlabel{hs:h73@cref}{{[section][7][4]D.7}{[1][102][]102}}
\newlabel{hs:h74}{{D.7}{102}}
\newlabel{hs:h74@cref}{{[section][7][4]D.7}{[1][102][]102}}
\@writefile{toc}{\contentsline {section}{\numberline {D.8}Planning}{103}\protected@file@percent }
\newlabel{hs:h8}{{D.8}{103}}
\newlabel{hs:h8@cref}{{[section][8][4]D.8}{[1][103][]103}}
\@writefile{lof}{\contentsline {figure}{\numberline {D.1}{\ignorespaces Planning deel 1\relax }}{104}\protected@file@percent }
\newlabel{planning}{{D.1}{104}}
\newlabel{planning@cref}{{[figure][1][4]D.1}{[1][103][]104}}
\@writefile{lof}{\contentsline {figure}{\numberline {D.2}{\ignorespaces Planning deel 2\relax }}{105}\protected@file@percent }
\@writefile{toc}{\contentsline {section}{\numberline {D.9}Kosten en baten}{106}\protected@file@percent }
\newlabel{hs:h9}{{D.9}{106}}
\newlabel{hs:h9@cref}{{[section][9][4]D.9}{[1][106][]106}}
\newlabel{hs:h91}{{D.9}{106}}
\newlabel{hs:h91@cref}{{[section][9][4]D.9}{[1][106][]106}}
\newlabel{hs:h92}{{D.9}{106}}
\newlabel{hs:h92@cref}{{[section][9][4]D.9}{[1][106][]106}}
\newlabel{hs:h93}{{D.9}{106}}
\newlabel{hs:h93@cref}{{[section][9][4]D.9}{[1][106][]106}}
\@writefile{toc}{\contentsline {section}{\numberline {D.10}Risico's}{106}\protected@file@percent }
\newlabel{hs:h10}{{D.10}{106}}
\newlabel{hs:h10@cref}{{[section][10][4]D.10}{[1][106][]106}}
\newlabel{hs:h101}{{D.10}{106}}
\newlabel{hs:h101@cref}{{[section][10][4]D.10}{[1][106][]106}}
\newlabel{hs:h102}{{D.10}{107}}
\newlabel{hs:h102@cref}{{[section][10][4]D.10}{[1][106][]107}}
\newlabel{hs:h103}{{D.10}{107}}
\newlabel{hs:h103@cref}{{[section][10][4]D.10}{[1][107][]107}}
\@writefile{lot}{\contentsline {table}{\numberline {D.3}{\ignorespaces Externe Risico's\relax }}{108}\protected@file@percent }
\newlabel{tab:ra}{{D.3}{108}}
\newlabel{tab:ra@cref}{{[table][3][4]D.3}{[1][107][]108}}
\@writefile{toc}{\contentsline {chapter}{\numberline {E.}Volledige keuze verantwoording draadloze microcontroller}{109}\protected@file@percent }
\@writefile{lof}{\addvspace {10pt}}
\@writefile{lot}{\addvspace {10pt}}
\@writefile{lof}{\contentsline {xchapter}{Volledige keuze verantwoording draadloze microcontroller}{109}\protected@file@percent }
\@writefile{lot}{\contentsline {xchapter}{Volledige keuze verantwoording draadloze microcontroller}{109}\protected@file@percent }
\newlabel{mcukeus}{{E}{109}}
\newlabel{mcukeus@cref}{{[chapter][5][]E}{[1][109][]109}}
\@writefile{toc}{\contentsline {paragraph}{Nordic}{109}\protected@file@percent }
\@writefile{toc}{\contentsline {paragraph}{ST}{109}\protected@file@percent }
\@writefile{toc}{\contentsline {paragraph}{NXP}{109}\protected@file@percent }
\@writefile{toc}{\contentsline {paragraph}{TI}{110}\protected@file@percent }
\@writefile{toc}{\contentsline {paragraph}{Silicon Labs}{110}\protected@file@percent }
\@writefile{toc}{\contentsline {paragraph}{Conclusie}{110}\protected@file@percent }
\@writefile{toc}{\contentsline {chapter}{\numberline {F.}Acceptatie test}{111}\protected@file@percent }
\@writefile{lof}{\addvspace {10pt}}
\@writefile{lot}{\addvspace {10pt}}
\@writefile{lof}{\contentsline {xchapter}{Acceptatie test}{111}\protected@file@percent }
\@writefile{lot}{\contentsline {xchapter}{Acceptatie test}{111}\protected@file@percent }
\newlabel{acctest}{{F}{111}}
\newlabel{acctest@cref}{{[chapter][6][]F}{[1][111][]111}}
\@writefile{toc}{\contentsline {section}{\numberline {F.1}Voorbereidingen acceptatietest}{111}\protected@file@percent }
\@writefile{toc}{\contentsline {subsection}{\numberline {F.1.1}Visuele testomgeving}{111}\protected@file@percent }
\@writefile{toc}{\contentsline {subsubsection}{Hardware}{111}\protected@file@percent }
\@writefile{toc}{\contentsline {subsubsection}{Software}{112}\protected@file@percent }
\@writefile{toc}{\contentsline {subsection}{\numberline {F.1.2}Testomgeving seriële verbinding}{112}\protected@file@percent }
\newlabel{to1}{{F.1.2}{112}}
\newlabel{to1@cref}{{[subsection][2][6,1]F.1.2}{[1][112][]112}}
\@writefile{toc}{\contentsline {subsubsection}{Hardware}{112}\protected@file@percent }
\@writefile{toc}{\contentsline {subsubsection}{Software}{112}\protected@file@percent }
\@writefile{toc}{\contentsline {subsubsection}{Overig}{112}\protected@file@percent }
\@writefile{toc}{\contentsline {subsection}{\numberline {F.1.3}Test mesh}{112}\protected@file@percent }
\newlabel{to2}{{F.1.3}{112}}
\newlabel{to2@cref}{{[subsection][3][6,1]F.1.3}{[1][112][]112}}
\@writefile{toc}{\contentsline {subsubsection}{Hardware}{112}\protected@file@percent }
\@writefile{toc}{\contentsline {subsubsection}{Software}{112}\protected@file@percent }
\@writefile{toc}{\contentsline {subsection}{\numberline {F.1.4}Test data opslag}{113}\protected@file@percent }
\newlabel{to3}{{F.1.4}{113}}
\newlabel{to3@cref}{{[subsection][4][6,1]F.1.4}{[1][113][]113}}
\@writefile{toc}{\contentsline {subsubsection}{Hardware}{113}\protected@file@percent }
\@writefile{toc}{\contentsline {subsubsection}{Software}{113}\protected@file@percent }
\@writefile{toc}{\contentsline {subsection}{\numberline {F.1.5}Test software update}{113}\protected@file@percent }
\newlabel{to4}{{F.1.5}{113}}
\newlabel{to4@cref}{{[subsection][5][6,1]F.1.5}{[1][113][]113}}
\@writefile{toc}{\contentsline {subsubsection}{Hardware}{113}\protected@file@percent }
\@writefile{toc}{\contentsline {section}{\numberline {F.2}Acceptatietestbeschrijvingen}{114}\protected@file@percent }
\@writefile{toc}{\contentsline {subsection}{\numberline {F.2.1}Test Bluetooth naar serieel}{114}\protected@file@percent }
\@writefile{toc}{\contentsline {subsubsection}{Testcase 1.1: Commando's io-net}{114}\protected@file@percent }
\@writefile{lot}{\contentsline {table}{\numberline {F.1}{\ignorespaces Testcase 1.1\relax }}{114}\protected@file@percent }
\newlabel{tc11}{{F.1}{114}}
\newlabel{tc11@cref}{{[table][1][6]F.1}{[1][114][]114}}
\@writefile{toc}{\contentsline {subsubsection}{Testcase 1.2: Draaien motor}{115}\protected@file@percent }
\@writefile{lot}{\contentsline {table}{\numberline {F.2}{\ignorespaces Testcase 1.2\relax }}{115}\protected@file@percent }
\newlabel{tcx}{{F.2}{115}}
\newlabel{tcx@cref}{{[table][2][6]F.2}{[1][115][]115}}
\@writefile{toc}{\contentsline {subsection}{\numberline {F.2.2}Test Visuele feedback}{116}\protected@file@percent }
\@writefile{toc}{\contentsline {subsubsection}{Testcase 2.1: Test LED}{116}\protected@file@percent }
\@writefile{lot}{\contentsline {table}{\numberline {F.3}{\ignorespaces Testcase 2.1\relax }}{116}\protected@file@percent }
\newlabel{tcx}{{F.3}{116}}
\newlabel{tcx@cref}{{[table][3][6]F.3}{[1][116][]116}}
\@writefile{toc}{\contentsline {subsubsection}{Testcase 2.2: Test maximale afstand}{117}\protected@file@percent }
\@writefile{lot}{\contentsline {table}{\numberline {F.4}{\ignorespaces Testcase 2.2\relax }}{117}\protected@file@percent }
\newlabel{tcx}{{F.4}{117}}
\newlabel{tcx@cref}{{[table][4][6]F.4}{[1][117][]117}}
\@writefile{toc}{\contentsline {subsection}{\numberline {F.2.3}Test opgeslagen data}{118}\protected@file@percent }
\@writefile{toc}{\contentsline {subsubsection}{Testcase 3.1: Test Opslag data}{118}\protected@file@percent }
\@writefile{lot}{\contentsline {table}{\numberline {F.5}{\ignorespaces Testcase 3.1\relax }}{118}\protected@file@percent }
\newlabel{tcx}{{F.5}{118}}
\newlabel{tcx@cref}{{[table][5][6]F.5}{[1][118][]118}}
\@writefile{toc}{\contentsline {subsection}{\numberline {F.2.4}Test software update}{118}\protected@file@percent }
\@writefile{lot}{\contentsline {table}{\numberline {F.6}{\ignorespaces Testcase 4.1\relax }}{118}\protected@file@percent }
\newlabel{tcx}{{F.6}{118}}
\newlabel{tcx@cref}{{[table][6][6]F.6}{[1][118][]118}}
\@writefile{toc}{\contentsline {subsection}{\numberline {F.2.5}Test RoHS}{119}\protected@file@percent }
\@writefile{lot}{\contentsline {table}{\numberline {F.7}{\ignorespaces Testcase 5.1\relax }}{119}\protected@file@percent }
\newlabel{tcx}{{F.7}{119}}
\newlabel{tcx@cref}{{[table][7][6]F.7}{[1][119][]119}}
\@writefile{toc}{\contentsline {section}{\numberline {F.3}Traceerbaarheid klanteisen}{120}\protected@file@percent }
\@writefile{lot}{\contentsline {table}{\numberline {F.8}{\ignorespaces Traceertabel Requirements \relax }}{120}\protected@file@percent }
\newlabel{tab:ta}{{F.8}{120}}
\newlabel{tab:ta@cref}{{[table][8][6]F.8}{[1][120][]120}}
\@writefile{toc}{\contentsline {chapter}{\numberline {G.}Integratietest}{121}\protected@file@percent }
\@writefile{lof}{\addvspace {10pt}}
\@writefile{lot}{\addvspace {10pt}}
\@writefile{lof}{\contentsline {xchapter}{Integratietest}{121}\protected@file@percent }
\@writefile{lot}{\contentsline {xchapter}{Integratietest}{121}\protected@file@percent }
\newlabel{inttest}{{G}{121}}
\newlabel{inttest@cref}{{[chapter][7][]G}{[1][121][]121}}
\@writefile{toc}{\contentsline {section}{\numberline {G.1}Testen}{121}\protected@file@percent }
\@writefile{toc}{\contentsline {subsection}{\numberline {G.1.1}Test IC1: zenden UART}{122}\protected@file@percent }
\@writefile{lot}{\contentsline {table}{\numberline {G.1}{\ignorespaces Test zenden UART\relax }}{122}\protected@file@percent }
\newlabel{itc1}{{G.1}{122}}
\newlabel{itc1@cref}{{[table][1][7]G.1}{[1][122][]122}}
\@writefile{toc}{\contentsline {subsection}{\numberline {G.1.2}Test IC1: ontvangen UART}{123}\protected@file@percent }
\@writefile{lot}{\contentsline {table}{\numberline {G.2}{\ignorespaces Test ontvangen UART\relax }}{123}\protected@file@percent }
\newlabel{itc1}{{G.2}{123}}
\newlabel{itc1@cref}{{[table][2][7]G.2}{[1][123][]123}}
\@writefile{toc}{\contentsline {subsection}{\numberline {G.1.3}Test IC2: Hardware software update}{124}\protected@file@percent }
\@writefile{lot}{\contentsline {table}{\numberline {G.3}{\ignorespaces Test verbinding program connector\relax }}{124}\protected@file@percent }
\newlabel{itc1}{{G.3}{124}}
\newlabel{itc1@cref}{{[table][3][7]G.3}{[1][124][]124}}
\@writefile{toc}{\contentsline {subsection}{\numberline {G.1.4}Test IC3: rimpel voeding}{125}\protected@file@percent }
\@writefile{lot}{\contentsline {table}{\numberline {G.4}{\ignorespaces Test rimpel voeding\relax }}{125}\protected@file@percent }
\newlabel{itc1}{{G.4}{125}}
\newlabel{itc1@cref}{{[table][4][7]G.4}{[1][125][]125}}
\@writefile{toc}{\contentsline {subsection}{\numberline {G.1.5}Test IC4: Extern Flash}{126}\protected@file@percent }
\@writefile{lot}{\contentsline {table}{\numberline {G.5}{\ignorespaces Test Extern Flash\relax }}{126}\protected@file@percent }
\newlabel{itc1}{{G.5}{126}}
\newlabel{itc1@cref}{{[table][5][7]G.5}{[1][126][]126}}
\@writefile{toc}{\contentsline {subsection}{\numberline {G.1.6}Test IC5: mesh LED}{127}\protected@file@percent }
\@writefile{lot}{\contentsline {table}{\numberline {G.6}{\ignorespaces Test mesh LED\relax }}{127}\protected@file@percent }
\newlabel{itc1}{{G.6}{127}}
\newlabel{itc1@cref}{{[table][6][7]G.6}{[1][127][]127}}
\@writefile{toc}{\contentsline {subsection}{\numberline {G.1.7}Test IC5: mesh UART}{128}\protected@file@percent }
\@writefile{lot}{\contentsline {table}{\numberline {G.7}{\ignorespaces Test mesh UART\relax }}{128}\protected@file@percent }
\newlabel{itc1}{{G.7}{128}}
\newlabel{itc1@cref}{{[table][7][7]G.7}{[1][128][]128}}
\@writefile{toc}{\contentsline {subsection}{\numberline {G.1.8}Test IC6: LED}{129}\protected@file@percent }
\@writefile{lot}{\contentsline {table}{\numberline {G.8}{\ignorespaces Test mesh LED\relax }}{129}\protected@file@percent }
\newlabel{itc1}{{G.8}{129}}
\newlabel{itc1@cref}{{[table][8][7]G.8}{[1][129][]129}}
\@writefile{toc}{\contentsline {chapter}{\numberline {H.}Unit test}{130}\protected@file@percent }
\@writefile{lof}{\addvspace {10pt}}
\@writefile{lot}{\addvspace {10pt}}
\@writefile{lof}{\contentsline {xchapter}{Unit test}{130}\protected@file@percent }
\@writefile{lot}{\contentsline {xchapter}{Unit test}{130}\protected@file@percent }
\newlabel{unittest}{{H}{130}}
\newlabel{unittest@cref}{{[chapter][8][]H}{[1][130][]130}}
\@writefile{toc}{\contentsline {section}{\numberline {H.1}Test LED}{130}\protected@file@percent }
\@writefile{lot}{\contentsline {table}{\numberline {H.1}{\ignorespaces Test output spanning Charge-pump\relax }}{130}\protected@file@percent }
\newlabel{utci}{{H.1}{130}}
\newlabel{utci@cref}{{[table][1][8]H.1}{[1][130][]130}}
\@writefile{toc}{\contentsline {section}{\numberline {H.2}Test stroom LED}{131}\protected@file@percent }
\@writefile{lot}{\contentsline {table}{\numberline {H.2}{\ignorespaces Test stroom LED\relax }}{131}\protected@file@percent }
\newlabel{utc2}{{H.2}{131}}
\newlabel{utc2@cref}{{[table][2][8]H.2}{[1][131][]131}}
\@writefile{toc}{\contentsline {section}{\numberline {H.3}Test UART zenden}{131}\protected@file@percent }
\@writefile{lot}{\contentsline {table}{\numberline {H.3}{\ignorespaces Test mesh LED\relax }}{131}\protected@file@percent }
\newlabel{itc1}{{H.3}{131}}
\newlabel{itc1@cref}{{[table][3][8]H.3}{[1][131][]131}}
\@writefile{toc}{\contentsline {chapter}{\numberline {I.}Testresultaten}{132}\protected@file@percent }
\@writefile{lof}{\addvspace {10pt}}
\@writefile{lot}{\addvspace {10pt}}
\@writefile{lof}{\contentsline {xchapter}{Testresultaten}{132}\protected@file@percent }
\@writefile{lot}{\contentsline {xchapter}{Testresultaten}{132}\protected@file@percent }
\@writefile{toc}{\contentsline {section}{\numberline {I.1}Unittest}{132}\protected@file@percent }
\newlabel{teststrled}{{I.1a}{132}}
\newlabel{teststrled@cref}{{[subfigure][1][9,1]I.1a}{[1][132][]132}}
\newlabel{sub@teststrled}{{a}{132}}
\newlabel{sub@teststrled@cref}{{[subfigure][1][9,1]I.1a}{[1][132][]132}}
\newlabel{bwstrled}{{I.1b}{132}}
\newlabel{bwstrled@cref}{{[subfigure][2][9,1]I.1b}{[1][132][]132}}
\newlabel{sub@bwstrled}{{b}{132}}
\newlabel{sub@bwstrled@cref}{{[subfigure][2][9,1]I.1b}{[1][132][]132}}
\@writefile{lof}{\contentsline {figure}{\numberline {I.1}{\ignorespaces Test stroom LED\relax }}{132}\protected@file@percent }
\newlabel{teststrled}{{I.2a}{133}}
\newlabel{teststrled@cref}{{[subfigure][1][9,2]I.2a}{[1][133][]133}}
\newlabel{sub@teststrled}{{a}{133}}
\newlabel{sub@teststrled@cref}{{[subfigure][1][9,2]I.2a}{[1][133][]133}}
\newlabel{bwstrled}{{I.2b}{133}}
\newlabel{bwstrled@cref}{{[subfigure][2][9,2]I.2b}{[1][133][]133}}
\newlabel{sub@bwstrled}{{b}{133}}
\newlabel{sub@bwstrled@cref}{{[subfigure][2][9,2]I.2b}{[1][133][]133}}
\@writefile{lof}{\contentsline {figure}{\numberline {I.2}{\ignorespaces Test spanning charge pump\relax }}{133}\protected@file@percent }
\newlabel{terauartunit}{{I.3a}{134}}
\newlabel{terauartunit@cref}{{[subfigure][1][9,3]I.3a}{[1][134][]134}}
\newlabel{sub@terauartunit}{{a}{134}}
\newlabel{sub@terauartunit@cref}{{[subfigure][1][9,3]I.3a}{[1][134][]134}}
\newlabel{unituart}{{I.3b}{134}}
\newlabel{unituart@cref}{{[subfigure][2][9,3]I.3b}{[1][134][]134}}
\newlabel{sub@unituart}{{b}{134}}
\newlabel{sub@unituart@cref}{{[subfigure][2][9,3]I.3b}{[1][134][]134}}
\newlabel{instuart}{{I.3c}{134}}
\newlabel{instuart@cref}{{[subfigure][3][9,3]I.3c}{[1][134][]134}}
\newlabel{sub@instuart}{{c}{134}}
\newlabel{sub@instuart@cref}{{[subfigure][3][9,3]I.3c}{[1][134][]134}}
\@writefile{lof}{\contentsline {figure}{\numberline {I.3}{\ignorespaces Test UART\relax }}{134}\protected@file@percent }
\newlabel{teststrled}{{I.4a}{135}}
\newlabel{teststrled@cref}{{[subfigure][1][9,4]I.4a}{[1][135][]135}}
\newlabel{sub@teststrled}{{a}{135}}
\newlabel{sub@teststrled@cref}{{[subfigure][1][9,4]I.4a}{[1][135][]135}}
\newlabel{bwstrled}{{I.4b}{135}}
\newlabel{bwstrled@cref}{{[subfigure][2][9,4]I.4b}{[1][135][]135}}
\newlabel{sub@bwstrled}{{b}{135}}
\newlabel{sub@bwstrled@cref}{{[subfigure][2][9,4]I.4b}{[1][135][]135}}
\@writefile{lof}{\contentsline {figure}{\numberline {I.4}{\ignorespaces Test ontvangen UART\relax }}{135}\protected@file@percent }
\@writefile{toc}{\contentsline {section}{\numberline {I.2}Integratietest}{136}\protected@file@percent }
\@writefile{toc}{\contentsline {subsection}{\numberline {I.2.1}Test rimpel}{136}\protected@file@percent }
\newlabel{testrimpelscope}{{I.5a}{136}}
\newlabel{testrimpelscope@cref}{{[subfigure][1][9,5]I.5a}{[1][136][]136}}
\newlabel{sub@testrimpelscope}{{a}{136}}
\newlabel{sub@testrimpelscope@cref}{{[subfigure][1][9,5]I.5a}{[1][136][]136}}
\newlabel{testrimpelfoto}{{I.5b}{136}}
\newlabel{testrimpelfoto@cref}{{[subfigure][2][9,5]I.5b}{[1][136][]136}}
\newlabel{sub@testrimpelfoto}{{b}{136}}
\newlabel{sub@testrimpelfoto@cref}{{[subfigure][2][9,5]I.5b}{[1][136][]136}}
\@writefile{lof}{\contentsline {figure}{\numberline {I.5}{\ignorespaces Test rimpelspanning voeding\relax }}{136}\protected@file@percent }
\newlabel{testrimpel}{{I.5}{136}}
\newlabel{testrimpel@cref}{{[figure][5][9]I.5}{[1][136][]136}}
\@writefile{toc}{\contentsline {subsection}{\numberline {I.2.2}Test mesh LED}{137}\protected@file@percent }
\newlabel{testrimpelfoto}{{I.6b}{137}}
\newlabel{testrimpelfoto@cref}{{[subfigure][2][9,6]I.6b}{[1][137][]137}}
\newlabel{sub@testrimpelfoto}{{b}{137}}
\newlabel{sub@testrimpelfoto@cref}{{[subfigure][2][9,6]I.6b}{[1][137][]137}}
\@writefile{lof}{\contentsline {figure}{\numberline {I.6}{\ignorespaces Test LED\relax }}{137}\protected@file@percent }
\newlabel{testrimpel}{{I.6}{137}}
\newlabel{testrimpel@cref}{{[figure][6][9]I.6}{[1][137][]137}}
\@writefile{toc}{\contentsline {subsection}{\numberline {I.2.3}Test mesh UART}{138}\protected@file@percent }
\newlabel{testrimpelfoto}{{I.7b}{138}}
\newlabel{testrimpelfoto@cref}{{[subfigure][2][9,7]I.7b}{[1][138][]138}}
\newlabel{sub@testrimpelfoto}{{b}{138}}
\newlabel{sub@testrimpelfoto@cref}{{[subfigure][2][9,7]I.7b}{[1][138][]138}}
\newlabel{testrimpelfoto}{{I.7c}{138}}
\newlabel{testrimpelfoto@cref}{{[subfigure][3][9,7]I.7c}{[1][138][]138}}
\newlabel{sub@testrimpelfoto}{{c}{138}}
\newlabel{sub@testrimpelfoto@cref}{{[subfigure][3][9,7]I.7c}{[1][138][]138}}
\@writefile{lof}{\contentsline {figure}{\numberline {I.7}{\ignorespaces Test UART\relax }}{138}\protected@file@percent }
\newlabel{testrimpel}{{I.7}{138}}
\newlabel{testrimpel@cref}{{[figure][7][9]I.7}{[1][138][]138}}
\@writefile{toc}{\contentsline {section}{\numberline {I.3}Acceptatietest}{139}\protected@file@percent }
\@writefile{toc}{\contentsline {subsection}{\numberline {I.3.1}Testcase 1.1 en testcase 1.2}{139}\protected@file@percent }
\@writefile{lof}{\contentsline {figure}{\numberline {I.8}{\ignorespaces Test LED\relax }}{139}\protected@file@percent }
\newlabel{testrimpel}{{I.8}{139}}
\newlabel{testrimpel@cref}{{[figure][8][9]I.8}{[1][139][]139}}
\@writefile{toc}{\contentsline {subsection}{\numberline {I.3.2}Testcase 2.1}{140}\protected@file@percent }
\newlabel{testrimpelfoto}{{I.9b}{140}}
\newlabel{testrimpelfoto@cref}{{[subfigure][2][9,9]I.9b}{[1][140][]140}}
\newlabel{sub@testrimpelfoto}{{b}{140}}
\newlabel{sub@testrimpelfoto@cref}{{[subfigure][2][9,9]I.9b}{[1][140][]140}}
\@writefile{lof}{\contentsline {figure}{\numberline {I.9}{\ignorespaces Test LED\relax }}{140}\protected@file@percent }
\newlabel{testrimpel}{{I.9}{140}}
\newlabel{testrimpel@cref}{{[figure][9][9]I.9}{[1][140][]140}}
\@writefile{toc}{\contentsline {section}{\numberline {I.4}Testcase 2.2}{141}\protected@file@percent }
\newlabel{testlongrange2}{{I.10a}{141}}
\newlabel{testlongrange2@cref}{{[subfigure][1][9,10]I.10a}{[1][141][]141}}
\newlabel{sub@testlongrange2}{{a}{141}}
\newlabel{sub@testlongrange2@cref}{{[subfigure][1][9,10]I.10a}{[1][141][]141}}
\@writefile{lof}{\contentsline {figure}{\numberline {I.10}{\ignorespaces Test afstand\relax }}{141}\protected@file@percent }
\newlabel{testlongrange1}{{I.10}{141}}
\newlabel{testlongrange1@cref}{{[figure][10][9]I.10}{[1][141][]141}}
\@writefile{toc}{\contentsline {section}{\numberline {I.5}Testcase 3.1}{142}\protected@file@percent }
\@writefile{toc}{\contentsline {section}{\numberline {I.6}Testcase 5.1}{142}\protected@file@percent }
\@writefile{toc}{\contentsline {chapter}{\numberline {J.}Bill Of Materials}{143}\protected@file@percent }
\@writefile{lof}{\addvspace {10pt}}
\@writefile{lot}{\addvspace {10pt}}
\@writefile{lof}{\contentsline {xchapter}{Bill Of Materials}{143}\protected@file@percent }
\@writefile{lot}{\contentsline {xchapter}{Bill Of Materials}{143}\protected@file@percent }
\@writefile{lof}{\contentsline {figure}{\numberline {J.1}{\ignorespaces BOM\relax }}{144}\protected@file@percent }
\newlabel{BOM}{{J.1}{144}}
\newlabel{BOM@cref}{{[figure][1][10]J.1}{[1][144][]144}}
\@writefile{toc}{\contentsline {chapter}{\numberline {K.}Handleiding BlueFarm}{145}\protected@file@percent }
\@writefile{lof}{\addvspace {10pt}}
\@writefile{lot}{\addvspace {10pt}}
\@writefile{lof}{\contentsline {xchapter}{Handleiding BlueFarm}{145}\protected@file@percent }
\@writefile{lot}{\contentsline {xchapter}{Handleiding BlueFarm}{145}\protected@file@percent }
\@writefile{toc}{\contentsline {section}{\numberline {K.1}Programmeren}{145}\protected@file@percent }
\@writefile{toc}{\contentsline {section}{\numberline {K.2}Provisioneren}{146}\protected@file@percent }
\@writefile{lof}{\contentsline {figure}{\numberline {K.1}{\ignorespaces Stappenplan provisioneren\relax }}{147}\protected@file@percent }
\newlabel{Stappenplan}{{K.1}{147}}
\newlabel{Stappenplan@cref}{{[figure][1][11]K.1}{[1][146][]147}}
\@writefile{lof}{\contentsline {figure}{\numberline {K.1}{\ignorespaces Stap 10\relax }}{147}\protected@file@percent }
\@writefile{toc}{\contentsline {section}{\numberline {K.3}Probleem oplossen}{148}\protected@file@percent }
\@writefile{toc}{\contentsline {chapter}{\numberline {L.}Competentieverantwoording}{149}\protected@file@percent }
\@writefile{lof}{\addvspace {10pt}}
\@writefile{lot}{\addvspace {10pt}}
\@writefile{lof}{\contentsline {xchapter}{Competentieverantwoording}{149}\protected@file@percent }
\@writefile{lot}{\contentsline {xchapter}{Competentieverantwoording}{149}\protected@file@percent }
\@writefile{toc}{\contentsline {section}{\numberline {L.1}Analyseren}{149}\protected@file@percent }
\@writefile{toc}{\contentsline {section}{\numberline {L.2}Ontwerpen}{150}\protected@file@percent }
\@writefile{toc}{\contentsline {section}{\numberline {L.3}Realiseren}{150}\protected@file@percent }
\@writefile{toc}{\contentsline {section}{\numberline {L.4}Beheren}{150}\protected@file@percent }
\@writefile{toc}{\contentsline {section}{\numberline {L.5}Managen}{150}\protected@file@percent }
\@writefile{toc}{\contentsline {section}{\numberline {L.6}Adviseren}{152}\protected@file@percent }
\@writefile{toc}{\contentsline {section}{\numberline {L.7}Onderzoeken}{152}\protected@file@percent }
\@writefile{toc}{\contentsline {section}{\numberline {L.8}Professionaliseren}{152}\protected@file@percent }
\@writefile{toc}{\contentsline {chapter}{\numberline {M.}Reflectie}{153}\protected@file@percent }
\@writefile{lof}{\addvspace {10pt}}
\@writefile{lot}{\addvspace {10pt}}
\@writefile{lof}{\contentsline {xchapter}{Reflectie}{153}\protected@file@percent }
\@writefile{lot}{\contentsline {xchapter}{Reflectie}{153}\protected@file@percent }
\@writefile{toc}{\contentsline {section}{\numberline {M.1}Analyseren}{153}\protected@file@percent }
\@writefile{toc}{\contentsline {section}{\numberline {M.2}Ontwerpen}{153}\protected@file@percent }
\@writefile{toc}{\contentsline {section}{\numberline {M.3}Realiseren}{153}\protected@file@percent }
\@writefile{toc}{\contentsline {section}{\numberline {M.4}Beheren}{153}\protected@file@percent }
\@writefile{toc}{\contentsline {section}{\numberline {M.5}Managen}{154}\protected@file@percent }
\@writefile{toc}{\contentsline {section}{\numberline {M.6}Adviseren}{154}\protected@file@percent }
\@writefile{toc}{\contentsline {section}{\numberline {M.7}Onderzoeken}{154}\protected@file@percent }
\@writefile{toc}{\contentsline {section}{\numberline {M.8}Professionaliseren}{154}\protected@file@percent }
\bibstyle{apacite}
\bibdata{Referenties/Referenties,Referenties/Afstuderen}
\bibcite{Ali-rantala}{\citeauthoryear {Ali-rantala, Sydanheimo, Keskilammi{}\ \BBA{} Kivikoski}{Ali-rantala\ \BOthers {.}}{{\APACyear {{\bibnodate {}}}}}}
\APACbibcite{Ali-rantala}{\citeauthoryear {Ali-rantala, Sydanheimo, Keskilammi{}\ \BBA{} Kivikoski}{Ali-rantala\ \BOthers {.}}{{\APACyear {{\bibnodate {}}}}}}
\bibcite{zigbee}{\citeauthoryear {Alliance}{Alliance}{{\APACyear {2020}}}}
\APACbibcite{zigbee}{\citeauthoryear {Alliance}{Alliance}{{\APACyear {2020}}}}
\bibcite{meshfaq}{\citeauthoryear {Bluetooth}{Bluetooth}{{\APACyear {2020}}{\APACexlab {{\BCnt {1}}}}}}
\APACbibcite{meshfaq}{\citeauthoryear {Bluetooth}{Bluetooth}{{\APACyear {2020}}{\APACexlab {{\BCnt {1}}}}}}
\bibcite{blfees}{\citeauthoryear {Bluetooth}{Bluetooth}{{\APACyear {2020}}{\APACexlab {{\BCnt {2}}}}}}
\APACbibcite{blfees}{\citeauthoryear {Bluetooth}{Bluetooth}{{\APACyear {2020}}{\APACexlab {{\BCnt {2}}}}}}
\bibcite{btversions}{\citeauthoryear {Bluetooth}{Bluetooth}{{\APACyear {2020}}{\APACexlab {{\BCnt {3}}}}}}
\APACbibcite{btversions}{\citeauthoryear {Bluetooth}{Bluetooth}{{\APACyear {2020}}{\APACexlab {{\BCnt {3}}}}}}
\bibcite{btgatt}{\citeauthoryear {Bluetooth}{Bluetooth}{{\APACyear {2020}}{\APACexlab {{\BCnt {4}}}}}}
\APACbibcite{btgatt}{\citeauthoryear {Bluetooth}{Bluetooth}{{\APACyear {2020}}{\APACexlab {{\BCnt {4}}}}}}
\bibcite{codemeshlr}{\citeauthoryear {Bui}{Bui}{{\APACyear {2017}}}}
\APACbibcite{codemeshlr}{\citeauthoryear {Bui}{Bui}{{\APACyear {2017}}}}
\bibcite{tiboost}{\citeauthoryear {Caldwell\ \BBA{} Amidon}{Caldwell\ \BBA{} Amidon}{{\APACyear {2012}}}}
\APACbibcite{tiboost}{\citeauthoryear {Caldwell\ \BBA{} Amidon}{Caldwell\ \BBA{} Amidon}{{\APACyear {2012}}}}
\bibcite{Campbell1966}{\citeauthoryear {Campbell\ \BBA{} Gubisch}{Campbell\ \BBA{} Gubisch}{{\APACyear {1966}}}}
\APACbibcite{Campbell1966}{\citeauthoryear {Campbell\ \BBA{} Gubisch}{Campbell\ \BBA{} Gubisch}{{\APACyear {1966}}}}
\bibcite{cbs}{\citeauthoryear {CBS}{CBS}{{\APACyear {2019}}}}
\APACbibcite{cbs}{\citeauthoryear {CBS}{CBS}{{\APACyear {2019}}}}
\bibcite{Chruszczyk2017}{\citeauthoryear {Chruszczyk}{Chruszczyk}{{\APACyear {2017}}}}
\APACbibcite{Chruszczyk2017}{\citeauthoryear {Chruszczyk}{Chruszczyk}{{\APACyear {2017}}}}
\bibcite{boost}{\citeauthoryear {Cooper}{Cooper}{{\APACyear {2013}}}}
\APACbibcite{boost}{\citeauthoryear {Cooper}{Cooper}{{\APACyear {2013}}}}
\bibcite{DelaCruz2016}{\citeauthoryear {{Dela Cruz}, Parabuac{}\ \BBA{} Tiglao}{{Dela Cruz}\ \BOthers {.}}{{\APACyear {2016}}}}
\APACbibcite{DelaCruz2016}{\citeauthoryear {{Dela Cruz}, Parabuac{}\ \BBA{} Tiglao}{{Dela Cruz}\ \BOthers {.}}{{\APACyear {2016}}}}
\bibcite{Gomez2012}{\citeauthoryear {Gomez, Oller{}\ \BBA{} Paradells}{Gomez\ \BOthers {.}}{{\APACyear {2012}}}}
\APACbibcite{Gomez2012}{\citeauthoryear {Gomez, Oller{}\ \BBA{} Paradells}{Gomez\ \BOthers {.}}{{\APACyear {2012}}}}
\bibcite{hu2013}{\citeauthoryear {Hu, Fu, She{}\ \BBA{} Yao}{Hu\ \BOthers {.}}{{\APACyear {2013}}}}
\APACbibcite{hu2013}{\citeauthoryear {Hu, Fu, She{}\ \BBA{} Yao}{Hu\ \BOthers {.}}{{\APACyear {2013}}}}
\bibcite{ccled}{\citeauthoryear {Keim}{Keim}{{\APACyear {2016}}}}
\APACbibcite{ccled}{\citeauthoryear {Keim}{Keim}{{\APACyear {2016}}}}
\@writefile{toc}{\contentsline {section}{Literatuur}{155}\protected@file@percent }
\bibcite{lora}{\citeauthoryear {KPN}{KPN}{{\APACyear {2020}}}}
\APACbibcite{lora}{\citeauthoryear {KPN}{KPN}{{\APACyear {2020}}}}
\bibcite{Specification2018}{\citeauthoryear {Nordic}{Nordic}{{\APACyear {2018}}}}
\APACbibcite{Specification2018}{\citeauthoryear {Nordic}{Nordic}{{\APACyear {2018}}}}
\bibcite{los}{\citeauthoryear {Tablo}{Tablo}{{\APACyear {2018}}}}
\APACbibcite{los}{\citeauthoryear {Tablo}{Tablo}{{\APACyear {2018}}}}
\bibcite{starmesh}{\citeauthoryear {Techdifferences}{Techdifferences}{{\APACyear {2018}}}}
\APACbibcite{starmesh}{\citeauthoryear {Techdifferences}{Techdifferences}{{\APACyear {2018}}}}
\bibcite{ticap}{\citeauthoryear {TI}{TI}{{\APACyear {2010}}}}
\APACbibcite{ticap}{\citeauthoryear {TI}{TI}{{\APACyear {2010}}}}
\bibcite{Verma2013}{\citeauthoryear {Verma, Fakharzadeh{}\ \BBA{} Technologies}{Verma\ \BOthers {.}}{{\APACyear {2013}}}}
\APACbibcite{Verma2013}{\citeauthoryear {Verma, Fakharzadeh{}\ \BBA{} Technologies}{Verma\ \BOthers {.}}{{\APACyear {2013}}}}
\bibcite{topo}{\citeauthoryear {Wikipedia}{Wikipedia}{{\APACyear {2018}}}}
\APACbibcite{topo}{\citeauthoryear {Wikipedia}{Wikipedia}{{\APACyear {2018}}}}
\bibcite{Yaakop2017}{\citeauthoryear {Yaakop, Malik, {Bin Suboh}, Ramli{}\ \BBA{} Abu}{Yaakop\ \BOthers {.}}{{\APACyear {2017}}}}
\APACbibcite{Yaakop2017}{\citeauthoryear {Yaakop, Malik, {Bin Suboh}, Ramli{}\ \BBA{} Abu}{Yaakop\ \BOthers {.}}{{\APACyear {2017}}}}
\bibcite{Yourdon1979}{\citeauthoryear {Yourdon}{Yourdon}{{\APACyear {1979}}}}
\APACbibcite{Yourdon1979}{\citeauthoryear {Yourdon}{Yourdon}{{\APACyear {1979}}}}
\bibcite{Zhao2014}{\citeauthoryear {Zhao, Xiao, Markham, Trigoni{}\ \BBA{} Ren}{Zhao\ \BOthers {.}}{{\APACyear {2014}}}}
\APACbibcite{Zhao2014}{\citeauthoryear {Zhao, Xiao, Markham, Trigoni{}\ \BBA{} Ren}{Zhao\ \BOthers {.}}{{\APACyear {2014}}}}
\global\mtcsecondpartfalse
