\relax 
\@nameuse{bbl@beforestart}
\catcode `"\active 
\babel@aux{dutch}{}
\@writefile{toc}{\contentsline {chapter}{\numberline {1.}Inleiding}{7}\protected@file@percent }
\@writefile{lof}{\addvspace {10pt}}
\@writefile{lot}{\addvspace {10pt}}
\providecommand*\caption@xref[2]{\@setref\relax\@undefined{#1}}
\newlabel{luik}{{\caption@xref {luik}{ on input line 121}}{8}}
\@writefile{lof}{\contentsline {figure}{\numberline {1.1}{\ignorespaces Luiken voor in- en uitvoer van luchtstromen\relax }}{8}\protected@file@percent }
\newlabel{luik}{{1.1}{8}}
\newlabel{im60}{{\caption@xref {im60}{ on input line 129}}{9}}
\newlabel{sub@im60}{{}{9}}
\newlabel{im60}{{1.2a}{9}}
\newlabel{sub@im60}{{a}{9}}
\newlabel{im125}{{\caption@xref {im125}{ on input line 135}}{9}}
\newlabel{sub@im125}{{a}{9}}
\newlabel{im125}{{1.2b}{9}}
\newlabel{sub@im125}{{b}{9}}
\@writefile{lof}{\contentsline {figure}{\numberline {1.2}{\ignorespaces Motoren\relax }}{9}\protected@file@percent }
