\relax 
\@nameuse{bbl@beforestart}
\catcode `"\active 
\babel@aux{dutch}{}
\@writefile{@@@}{\chapterbegin }
\@writefile{@@@}{\chapterbegin }
\@writefile{@@@}{\chapterbegin }
\@writefile{@@@}{\chapterbegin }
\@writefile{@@@}{\chapterbegin }
\newlabel{hs:vb}{{}{6}}
\newlabel{hs:vb@cref}{{}{[1][6][]6}}
\@writefile{lot}{\contentsline {table}{\numberline {0.1}{\ignorespaces Versiehistorie\relax }}{6}\protected@file@percent }
\providecommand*\caption@xref[2]{\@setref\relax\@undefined{#1}}
\newlabel{tab:vb}{{0.1}{6}}
\newlabel{tab:vb@cref}{{[table][1][0]0.1}{[1][6][]6}}
\@writefile{@@@}{\chapterbegin }
\@writefile{toc}{\contentsline {chapter}{\numberline {1.}Inleiding}{9}\protected@file@percent }
\@writefile{lof}{\addvspace {10pt}}
\@writefile{lot}{\addvspace {10pt}}
\@writefile{lof}{\contentsline {xchapter}{Inleiding}{9}\protected@file@percent }
\@writefile{lot}{\contentsline {xchapter}{Inleiding}{9}\protected@file@percent }
\newlabel{hs:in}{{1}{9}}
\newlabel{hs:in@cref}{{[chapter][1][]1}{[1][9][]9}}
\@writefile{toc}{\contentsline {section}{\numberline {1.1}Bedrijfsachtergrond}{9}\protected@file@percent }
\@writefile{lof}{\contentsline {figure}{\numberline {1.1}{\ignorespaces Luiken voor in- en uitvoer van luchtstromen\relax }}{10}\protected@file@percent }
\newlabel{luik}{{1.1}{10}}
\newlabel{luik@cref}{{[figure][1][1]1.1}{[1][9][]10}}
\newlabel{im60}{{1.2a}{11}}
\newlabel{im60@cref}{{[subfigure][1][1,2]1.2a}{[1][11][]11}}
\newlabel{sub@im60}{{a}{11}}
\newlabel{sub@im60@cref}{{[subfigure][1][1,2]1.2a}{[1][11][]11}}
\newlabel{im125}{{1.2b}{11}}
\newlabel{im125@cref}{{[subfigure][2][1,2]1.2b}{[1][11][]11}}
\newlabel{sub@im125}{{b}{11}}
\newlabel{sub@im125@cref}{{[subfigure][2][1,2]1.2b}{[1][11][]11}}
\@writefile{lof}{\contentsline {figure}{\numberline {1.2}{\ignorespaces Motoren\relax }}{11}\protected@file@percent }
\newlabel{im60p}{{1.3a}{12}}
\newlabel{im60p@cref}{{[subfigure][1][1,3]1.3a}{[1][11][]12}}
\newlabel{sub@im60p}{{a}{12}}
\newlabel{sub@im60p@cref}{{[subfigure][1][1,3]1.3a}{[1][11][]12}}
\newlabel{im125p}{{1.3b}{12}}
\newlabel{im125p@cref}{{[subfigure][2][1,3]1.3b}{[1][11][]12}}
\newlabel{sub@im125p}{{b}{12}}
\newlabel{sub@im125p@cref}{{[subfigure][2][1,3]1.3b}{[1][11][]12}}
\@writefile{lof}{\contentsline {figure}{\numberline {1.3}{\ignorespaces Printplaten die de motoren aansturen\relax }}{12}\protected@file@percent }
\@writefile{toc}{\contentsline {section}{\numberline {1.2}Probleemstelling}{12}\protected@file@percent }
\@writefile{toc}{\contentsline {section}{\numberline {1.3}Doelstelling}{13}\protected@file@percent }
\@writefile{lof}{\contentsline {figure}{\numberline {1.4}{\ignorespaces V-model\relax }}{13}\protected@file@percent }
\newlabel{vmodel}{{1.4}{13}}
\newlabel{vmodel@cref}{{[figure][4][1]1.4}{[1][13][]13}}
\citation{Yourdon1979}
\@writefile{toc}{\contentsline {chapter}{\numberline {2.}Requirements}{14}\protected@file@percent }
\@writefile{lof}{\addvspace {10pt}}
\@writefile{lot}{\addvspace {10pt}}
\@writefile{lof}{\contentsline {xchapter}{Requirements}{14}\protected@file@percent }
\@writefile{lot}{\contentsline {xchapter}{Requirements}{14}\protected@file@percent }
\newlabel{hs:h2}{{2}{14}}
\newlabel{hs:h2@cref}{{[chapter][2][]2}{[1][14][]14}}
\@writefile{toc}{\contentsline {section}{\numberline {2.1}Inleiding}{14}\protected@file@percent }
\newlabel{hs:h21}{{2.1}{14}}
\newlabel{hs:h21@cref}{{[section][1][2]2.1}{[1][14][]14}}
\@writefile{toc}{\contentsline {section}{\numberline {2.2}Algemene beschrijving}{14}\protected@file@percent }
\newlabel{hs:h22}{{2.2}{14}}
\newlabel{hs:h22@cref}{{[section][2][2]2.2}{[1][14][]14}}
\@writefile{toc}{\contentsline {section}{\numberline {2.3}Systeemcontext}{14}\protected@file@percent }
\newlabel{hs:h23}{{2.3}{14}}
\newlabel{hs:h23@cref}{{[section][3][2]2.3}{[1][14][]14}}
\@writefile{toc}{\contentsline {subsection}{\numberline {2.3.1}Systeemfuncties}{14}\protected@file@percent }
\newlabel{hs:h231}{{2.3.1}{14}}
\newlabel{hs:h231@cref}{{[subsection][1][2,3]2.3.1}{[1][14][]14}}
\@writefile{lof}{\contentsline {figure}{\numberline {2.1}{\ignorespaces Data Context Diagram\relax }}{15}\protected@file@percent }
\newlabel{DCD}{{2.1}{15}}
\newlabel{DCD@cref}{{[figure][1][2]2.1}{[1][15][]15}}
\@writefile{toc}{\contentsline {section}{\numberline {2.4}Systeemfuncties}{16}\protected@file@percent }
\newlabel{hs:h24}{{2.4}{16}}
\newlabel{hs:h24@cref}{{[section][4][2]2.4}{[1][16][]16}}
\@writefile{toc}{\contentsline {subsection}{\numberline {2.4.1}Draadloze data overdracht}{16}\protected@file@percent }
\newlabel{hs:h241}{{2.4.1}{16}}
\newlabel{hs:h241@cref}{{[subsection][1][2,4]2.4.1}{[1][16][]16}}
\@writefile{toc}{\contentsline {subsubsection}{Stimulus en response}{16}\protected@file@percent }
\newlabel{2411}{{2.4.1}{16}}
\newlabel{2411@cref}{{[subsection][1][2,4]2.4.1}{[1][16][]16}}
\@writefile{toc}{\contentsline {subsubsection}{Functionele klanteisen}{16}\protected@file@percent }
\newlabel{2411}{{2.4.1}{16}}
\newlabel{2411@cref}{{[subsection][1][2,4]2.4.1}{[1][16][]16}}
\@writefile{toc}{\contentsline {subsection}{\numberline {2.4.2}Uitlezen en opslag data}{17}\protected@file@percent }
\newlabel{hs:h242}{{2.4.2}{17}}
\newlabel{hs:h242@cref}{{[subsection][2][2,4]2.4.2}{[1][17][]17}}
\@writefile{toc}{\contentsline {subsubsection}{Stimulus en response}{17}\protected@file@percent }
\newlabel{2421}{{2.4.2}{17}}
\newlabel{2421@cref}{{[subsection][2][2,4]2.4.2}{[1][17][]17}}
\@writefile{toc}{\contentsline {subsubsection}{Functionele klanteisen}{17}\protected@file@percent }
\newlabel{2421}{{2.4.2}{17}}
\newlabel{2421@cref}{{[subsection][2][2,4]2.4.2}{[1][17][]17}}
\@writefile{toc}{\contentsline {subsection}{\numberline {2.4.3}Updaten systeem en bestaande module (Optioneel)}{18}\protected@file@percent }
\newlabel{hs:h243}{{2.4.3}{18}}
\newlabel{hs:h243@cref}{{[subsection][3][2,4]2.4.3}{[1][18][]18}}
\@writefile{toc}{\contentsline {subsubsection}{Stimulus en response}{18}\protected@file@percent }
\newlabel{2431}{{2.4.3}{18}}
\newlabel{2431@cref}{{[subsection][3][2,4]2.4.3}{[1][18][]18}}
\@writefile{toc}{\contentsline {subsubsection}{Functionele klanteisen}{18}\protected@file@percent }
\newlabel{2431}{{2.4.3}{18}}
\newlabel{2431@cref}{{[subsection][3][2,4]2.4.3}{[1][18][]18}}
\@writefile{toc}{\contentsline {section}{\numberline {2.5}Niet-functionele klanteisen}{18}\protected@file@percent }
\newlabel{hs:h25}{{2.5}{18}}
\newlabel{hs:h25@cref}{{[section][5][2]2.5}{[1][18][]18}}
\@writefile{toc}{\contentsline {chapter}{\numberline {3.}Architectuur}{19}\protected@file@percent }
\@writefile{lof}{\addvspace {10pt}}
\@writefile{lot}{\addvspace {10pt}}
\@writefile{lof}{\contentsline {xchapter}{Architectuur}{19}\protected@file@percent }
\@writefile{lot}{\contentsline {xchapter}{Architectuur}{19}\protected@file@percent }
\@writefile{toc}{\contentsline {section}{\numberline {3.1}Ontwerpbesluiten}{19}\protected@file@percent }
\@writefile{toc}{\contentsline {section}{\numberline {3.2}Deelsystemen en koppelingen}{20}\protected@file@percent }
\@writefile{lof}{\contentsline {figure}{\numberline {3.1}{\ignorespaces Data Flow Diagram 0\relax }}{20}\protected@file@percent }
\newlabel{DFD0}{{3.1}{20}}
\newlabel{DFD0@cref}{{[figure][1][3]3.1}{[1][20][]20}}
\@writefile{toc}{\contentsline {section}{\numberline {3.3}Beschrijving deelsystemen}{21}\protected@file@percent }
\@writefile{lof}{\contentsline {figure}{\numberline {3.2}{\ignorespaces Architectuur Interconnect Diagram\relax }}{21}\protected@file@percent }
\newlabel{AID}{{3.2}{21}}
\newlabel{AID@cref}{{[figure][2][3]3.2}{[1][21][]21}}
\@writefile{toc}{\contentsline {subsection}{\numberline {3.3.1}Deelsysteem 1: Control Data}{22}\protected@file@percent }
\@writefile{lof}{\contentsline {figure}{\numberline {3.3}{\ignorespaces Data Flow Diagram 1\relax }}{22}\protected@file@percent }
\newlabel{DFD1}{{3.3}{22}}
\newlabel{DFD1@cref}{{[figure][3][3]3.3}{[1][22][]22}}
\@writefile{toc}{\contentsline {subsubsection}{Deelsysteem 1.1: Execute functions}{23}\protected@file@percent }
\@writefile{toc}{\contentsline {subsubsection}{Deelsysteem 1.2. Control Saved Data}{23}\protected@file@percent }
\@writefile{toc}{\contentsline {subsubsection}{Deelsysteem 1.3. Communicate Motor Control Unit}{23}\protected@file@percent }
\@writefile{toc}{\contentsline {subsection}{\numberline {3.3.2}Deelsysteem 2: Transeive Data}{24}\protected@file@percent }
\@writefile{toc}{\contentsline {subsection}{\numberline {3.3.3}Deelsysteem 3: Flash Light}{24}\protected@file@percent }
\@writefile{toc}{\contentsline {section}{\numberline {3.4}Beschrijving interconnects}{24}\protected@file@percent }
\@writefile{toc}{\contentsline {section}{\numberline {3.5}Traceerbaarheid klanteisen}{25}\protected@file@percent }
\@writefile{lot}{\contentsline {table}{\numberline {3.1}{\ignorespaces Traceertabel Requirements \relax }}{25}\protected@file@percent }
\newlabel{tab:tr}{{3.1}{25}}
\newlabel{tab:tr@cref}{{[table][1][3]3.1}{[1][25][]25}}
\@writefile{toc}{\contentsline {chapter}{\numberline {4.}Detailontwerp}{26}\protected@file@percent }
\@writefile{lof}{\addvspace {10pt}}
\@writefile{lot}{\addvspace {10pt}}
\@writefile{lof}{\contentsline {xchapter}{Detailontwerp}{26}\protected@file@percent }
\@writefile{lot}{\contentsline {xchapter}{Detailontwerp}{26}\protected@file@percent }
\@writefile{toc}{\contentsline {subsection}{\numberline {4.0.1}Deelsystemen 1 \& 2}{26}\protected@file@percent }
\@writefile{toc}{\contentsline {subsubsection}{Hardware deelsystemen 1 \& 2}{26}\protected@file@percent }
\@writefile{toc}{\contentsline {paragraph}{Nordic}{26}\protected@file@percent }
\@writefile{toc}{\contentsline {paragraph}{ST}{26}\protected@file@percent }
\@writefile{toc}{\contentsline {paragraph}{NXP}{27}\protected@file@percent }
\@writefile{toc}{\contentsline {paragraph}{TI}{27}\protected@file@percent }
\@writefile{toc}{\contentsline {paragraph}{Silicon Labs}{27}\protected@file@percent }
\@writefile{toc}{\contentsline {paragraph}{Conclusie}{27}\protected@file@percent }
\@writefile{lot}{\contentsline {table}{\numberline {4.1}{\ignorespaces Keuze matrix Draadloze MCU (*Prijzen Mouser rond 03-03-2020)\relax }}{28}\protected@file@percent }
\newlabel{tabmcu}{{4.1}{28}}
\newlabel{tabmcu@cref}{{[table][1][4]4.1}{[1][28][]28}}
\@writefile{toc}{\contentsline {subsubsection}{Software deelsysteem 1}{29}\protected@file@percent }
\@writefile{toc}{\contentsline {subsubsection}{Software deelsysteem 2}{29}\protected@file@percent }
\@writefile{toc}{\contentsline {chapter}{Appendices}{30}\protected@file@percent }
\@writefile{toc}{\contentsline {chapter}{\numberline {A.}Onderzoek LED}{31}\protected@file@percent }
\@writefile{lof}{\addvspace {10pt}}
\@writefile{lot}{\addvspace {10pt}}
\@writefile{lof}{\contentsline {xchapter}{Onderzoek LED}{31}\protected@file@percent }
\@writefile{lot}{\contentsline {xchapter}{Onderzoek LED}{31}\protected@file@percent }
\citation{cbs}
\@writefile{toc}{\contentsline {chapter}{\numberline {B.}Onderzoek draadloze technologieën}{32}\protected@file@percent }
\@writefile{lof}{\addvspace {10pt}}
\@writefile{lot}{\addvspace {10pt}}
\@writefile{lof}{\contentsline {xchapter}{Onderzoek draadloze technologieën}{32}\protected@file@percent }
\@writefile{lot}{\contentsline {xchapter}{Onderzoek draadloze technologieën}{32}\protected@file@percent }
\newlabel{onddr}{{B}{32}}
\newlabel{onddr@cref}{{[chapter][2][]B}{[1][32][]32}}
\@writefile{toc}{\contentsline {section}{\numberline {B.1}Inleiding}{32}\protected@file@percent }
\newlabel{stal1}{{B.1a}{33}}
\newlabel{stal1@cref}{{[subfigure][1][2,1]B.1a}{[1][33][]33}}
\newlabel{sub@stal1}{{a}{33}}
\newlabel{sub@stal1@cref}{{[subfigure][1][2,1]B.1a}{[1][33][]33}}
\newlabel{stal2}{{B.1b}{33}}
\newlabel{stal2@cref}{{[subfigure][2][2,1]B.1b}{[1][33][]33}}
\newlabel{sub@stal2}{{b}{33}}
\newlabel{sub@stal2@cref}{{[subfigure][2][2,1]B.1b}{[1][33][]33}}
\@writefile{lof}{\contentsline {figure}{\numberline {B.1}{\ignorespaces Mogelijke ophanging motor\relax }}{33}\protected@file@percent }
\citation{los}
\citation{topo}
\@writefile{toc}{\contentsline {section}{\numberline {B.2}Draadloze technologieën}{34}\protected@file@percent }
\@writefile{lof}{\contentsline {figure}{\numberline {B.2}{\ignorespaces Line Of Sight \relax }}{34}\protected@file@percent }
\newlabel{los}{{B.2}{34}}
\newlabel{los@cref}{{[figure][2][2]B.2}{[1][34][]34}}
\citation{Verma2013}
\citation{Zhao2014}
\citation{meshfaq}
\citation{meshfaq}
\citation{Yaakop2017}
\citation{zigbee}
\citation{Ali-rantala}
\citation{Chruszczyk2017}
\@writefile{toc}{\contentsline {subsection}{\numberline {B.2.1}Frequentie, bereik en maximale snelheid}{35}\protected@file@percent }
\citation{DelaCruz2016}
\citation{starmesh}
\citation{hu2013}
\@writefile{toc}{\contentsline {subsection}{\numberline {B.2.2}Topologie en gebruik smartphone}{36}\protected@file@percent }
\newlabel{star}{{B.3a}{36}}
\newlabel{star@cref}{{[subfigure][1][2,3]B.3a}{[1][36][]36}}
\newlabel{sub@star}{{a}{36}}
\newlabel{sub@star@cref}{{[subfigure][1][2,3]B.3a}{[1][36][]36}}
\newlabel{mesh}{{B.3b}{36}}
\newlabel{mesh@cref}{{[subfigure][2][2,3]B.3b}{[1][36][]36}}
\newlabel{sub@mesh}{{b}{36}}
\newlabel{sub@mesh@cref}{{[subfigure][2][2,3]B.3b}{[1][36][]36}}
\@writefile{lof}{\contentsline {figure}{\numberline {B.3}{\ignorespaces Twee verschillende netwerk configuraties\relax }}{36}\protected@file@percent }
\citation{blfees}
\citation{lora}
\citation{zigbee}
\@writefile{toc}{\contentsline {subsection}{\numberline {B.2.3}Kosten}{37}\protected@file@percent }
\@writefile{toc}{\contentsline {section}{\numberline {B.3}Conclusie}{38}\protected@file@percent }
\@writefile{lot}{\contentsline {table}{\numberline {B.1}{\ignorespaces Overzicht draadloze verbindingen\relax }}{38}\protected@file@percent }
\newlabel{tbWrlss}{{B.1}{38}}
\newlabel{tbWrlss@cref}{{[table][1][2]B.1}{[1][38][]38}}
\@writefile{toc}{\contentsline {chapter}{\numberline {C.}Plan Van Aanpak}{39}\protected@file@percent }
\@writefile{lof}{\addvspace {10pt}}
\@writefile{lot}{\addvspace {10pt}}
\@writefile{lof}{\contentsline {xchapter}{Plan Van Aanpak}{39}\protected@file@percent }
\@writefile{lot}{\contentsline {xchapter}{Plan Van Aanpak}{39}\protected@file@percent }
\newlabel{hs:vb}{{C}{39}}
\newlabel{hs:vb@cref}{{[chapter][3][]C}{[1][39][]39}}
\@writefile{lot}{\contentsline {table}{\numberline {C.1}{\ignorespaces Versiehistorie\relax }}{39}\protected@file@percent }
\newlabel{tab:vb}{{C.1}{39}}
\newlabel{tab:vb@cref}{{[table][1][3]C.1}{[1][39][]39}}
\@writefile{toc}{\contentsline {section}{\numberline {C.1}Achtergronden}{40}\protected@file@percent }
\newlabel{hs:h1}{{C.1}{40}}
\newlabel{hs:h1@cref}{{[section][1][3]C.1}{[1][40][]40}}
\newlabel{hs:h11}{{C.1}{40}}
\newlabel{hs:h11@cref}{{[section][1][3]C.1}{[1][40][]40}}
\newlabel{hs:h12}{{C.1}{40}}
\newlabel{hs:h12@cref}{{[section][1][3]C.1}{[1][40][]40}}
\newlabel{hs:h13}{{C.1}{40}}
\newlabel{hs:h13@cref}{{[section][1][3]C.1}{[1][40][]40}}
\@writefile{toc}{\contentsline {section}{\numberline {C.2}Projectresultaat}{40}\protected@file@percent }
\newlabel{hs:h2}{{C.2}{40}}
\newlabel{hs:h2@cref}{{[section][2][3]C.2}{[1][40][]40}}
\newlabel{hs:h21}{{C.2}{40}}
\newlabel{hs:h21@cref}{{[section][2][3]C.2}{[1][40][]40}}
\newlabel{hs:h22}{{C.2}{41}}
\newlabel{hs:h22@cref}{{[section][2][3]C.2}{[1][40][]41}}
\newlabel{hs:h3}{{C.2}{42}}
\newlabel{hs:h3@cref}{{[section][2][3]C.2}{[1][42][]42}}
\newlabel{hs:h31}{{C.2}{42}}
\newlabel{hs:h31@cref}{{[section][2][3]C.2}{[1][42][]42}}
\newlabel{hs:h32}{{C.2}{42}}
\newlabel{hs:h32@cref}{{[section][2][3]C.2}{[1][42][]42}}
\@writefile{toc}{\contentsline {section}{\numberline {C.4}Projectgrenzen en randvoorwaarden}{44}\protected@file@percent }
\newlabel{hs:h4}{{C.4}{44}}
\newlabel{hs:h4@cref}{{[section][4][3]C.4}{[1][44][]44}}
\newlabel{hs:h41}{{C.4}{44}}
\newlabel{hs:h41@cref}{{[section][4][3]C.4}{[1][44][]44}}
\newlabel{hs:h42}{{C.4}{44}}
\newlabel{hs:h42@cref}{{[section][4][3]C.4}{[1][44][]44}}
\@writefile{toc}{\contentsline {section}{\numberline {C.5}Tussenresultaten}{44}\protected@file@percent }
\newlabel{hs:h5}{{C.5}{44}}
\newlabel{hs:h5@cref}{{[section][5][3]C.5}{[1][44][]44}}
\newlabel{hs:h51}{{C.5}{44}}
\newlabel{hs:h51@cref}{{[section][5][3]C.5}{[1][44][]44}}
\newlabel{hs:h52}{{C.5}{44}}
\newlabel{hs:h52@cref}{{[section][5][3]C.5}{[1][44][]44}}
\@writefile{toc}{\contentsline {section}{\numberline {C.6}Kwaliteit}{45}\protected@file@percent }
\newlabel{hs:h6}{{C.6}{45}}
\newlabel{hs:h6@cref}{{[section][6][3]C.6}{[1][45][]45}}
\newlabel{hs:h61}{{C.6}{45}}
\newlabel{hs:h61@cref}{{[section][6][3]C.6}{[1][45][]45}}
\newlabel{hs:h62}{{C.6}{45}}
\newlabel{hs:h62@cref}{{[section][6][3]C.6}{[1][45][]45}}
\newlabel{hs:h63}{{C.6}{45}}
\newlabel{hs:h63@cref}{{[section][6][3]C.6}{[1][45][]45}}
\newlabel{hs:h64}{{C.6}{45}}
\newlabel{hs:h64@cref}{{[section][6][3]C.6}{[1][45][]45}}
\@writefile{toc}{\contentsline {section}{\numberline {C.7}Projectorganisatie}{46}\protected@file@percent }
\newlabel{hs:h7}{{C.7}{46}}
\newlabel{hs:h7@cref}{{[section][7][3]C.7}{[1][46][]46}}
\newlabel{hs:h71}{{C.7}{46}}
\newlabel{hs:h71@cref}{{[section][7][3]C.7}{[1][46][]46}}
\@writefile{lot}{\contentsline {table}{\numberline {C.2}{\ignorespaces Persoonlijke gegevens\relax }}{46}\protected@file@percent }
\newlabel{tab:pg}{{C.2}{46}}
\newlabel{tab:pg@cref}{{[table][2][3]C.2}{[1][46][]46}}
\newlabel{hs:h72}{{C.7}{46}}
\newlabel{hs:h72@cref}{{[section][7][3]C.7}{[1][46][]46}}
\newlabel{hs:h73}{{C.7}{46}}
\newlabel{hs:h73@cref}{{[section][7][3]C.7}{[1][46][]46}}
\newlabel{hs:h74}{{C.7}{46}}
\newlabel{hs:h74@cref}{{[section][7][3]C.7}{[1][46][]46}}
\@writefile{toc}{\contentsline {section}{\numberline {C.8}Planning}{48}\protected@file@percent }
\newlabel{hs:h8}{{C.8}{48}}
\newlabel{hs:h8@cref}{{[section][8][3]C.8}{[1][48][]48}}
\@writefile{toc}{\contentsline {section}{\numberline {C.9}Kosten en baten}{49}\protected@file@percent }
\newlabel{hs:h9}{{C.9}{49}}
\newlabel{hs:h9@cref}{{[section][9][3]C.9}{[1][49][]49}}
\newlabel{hs:h91}{{C.9}{49}}
\newlabel{hs:h91@cref}{{[section][9][3]C.9}{[1][49][]49}}
\newlabel{hs:h92}{{C.9}{49}}
\newlabel{hs:h92@cref}{{[section][9][3]C.9}{[1][49][]49}}
\newlabel{hs:h93}{{C.9}{49}}
\newlabel{hs:h93@cref}{{[section][9][3]C.9}{[1][49][]49}}
\@writefile{toc}{\contentsline {section}{\numberline {C.10}Risico's}{49}\protected@file@percent }
\newlabel{hs:h10}{{C.10}{49}}
\newlabel{hs:h10@cref}{{[section][10][3]C.10}{[1][49][]49}}
\newlabel{hs:h101}{{C.10}{49}}
\newlabel{hs:h101@cref}{{[section][10][3]C.10}{[1][49][]49}}
\newlabel{hs:h102}{{C.10}{50}}
\newlabel{hs:h102@cref}{{[section][10][3]C.10}{[1][49][]50}}
\newlabel{hs:h103}{{C.10}{50}}
\newlabel{hs:h103@cref}{{[section][10][3]C.10}{[1][50][]50}}
\@writefile{lot}{\contentsline {table}{\numberline {C.3}{\ignorespaces Externe Risico's\relax }}{51}\protected@file@percent }
\newlabel{tab:ra}{{C.3}{51}}
\newlabel{tab:ra@cref}{{[table][3][3]C.3}{[1][50][]51}}
\@writefile{lof}{\contentsline {figure}{\numberline {C.1}{\ignorespaces Planning deel 1\relax }}{53}\protected@file@percent }
\newlabel{planning}{{C.1}{53}}
\newlabel{planning@cref}{{[figure][1][3]C.1}{[1][48][]53}}
\@writefile{lof}{\contentsline {figure}{\numberline {C.2}{\ignorespaces Planning deel 2\relax }}{54}\protected@file@percent }
\@writefile{toc}{\contentsline {chapter}{\numberline {D.}Acceptatie test}{55}\protected@file@percent }
\@writefile{lof}{\addvspace {10pt}}
\@writefile{lot}{\addvspace {10pt}}
\@writefile{lof}{\contentsline {xchapter}{Acceptatie test}{55}\protected@file@percent }
\@writefile{lot}{\contentsline {xchapter}{Acceptatie test}{55}\protected@file@percent }
\newlabel{acctest}{{D}{55}}
\newlabel{acctest@cref}{{[chapter][4][]D}{[1][55][]55}}
\@writefile{toc}{\contentsline {section}{\numberline {D.1}Voorbereidingen acceptatietest}{55}\protected@file@percent }
\@writefile{toc}{\contentsline {subsection}{\numberline {D.1.1}Visuele testomgeving}{55}\protected@file@percent }
\@writefile{toc}{\contentsline {subsubsection}{Hardware}{55}\protected@file@percent }
\@writefile{toc}{\contentsline {subsubsection}{Software}{56}\protected@file@percent }
\@writefile{toc}{\contentsline {subsection}{\numberline {D.1.2}Testomgeving seriële verbinding}{56}\protected@file@percent }
\newlabel{to1}{{D.1.2}{56}}
\newlabel{to1@cref}{{[subsection][2][4,1]D.1.2}{[1][56][]56}}
\@writefile{toc}{\contentsline {subsubsection}{Hardware}{56}\protected@file@percent }
\@writefile{toc}{\contentsline {subsubsection}{Software}{56}\protected@file@percent }
\@writefile{toc}{\contentsline {subsubsection}{Overig}{56}\protected@file@percent }
\@writefile{toc}{\contentsline {subsection}{\numberline {D.1.3}Test mesh}{56}\protected@file@percent }
\newlabel{to2}{{D.1.3}{56}}
\newlabel{to2@cref}{{[subsection][3][4,1]D.1.3}{[1][56][]56}}
\@writefile{toc}{\contentsline {subsubsection}{Hardware}{56}\protected@file@percent }
\@writefile{toc}{\contentsline {subsubsection}{Software}{56}\protected@file@percent }
\@writefile{toc}{\contentsline {subsection}{\numberline {D.1.4}Test data opslag}{57}\protected@file@percent }
\newlabel{to3}{{D.1.4}{57}}
\newlabel{to3@cref}{{[subsection][4][4,1]D.1.4}{[1][57][]57}}
\@writefile{toc}{\contentsline {subsubsection}{Hardware}{57}\protected@file@percent }
\@writefile{toc}{\contentsline {subsubsection}{Software}{57}\protected@file@percent }
\@writefile{toc}{\contentsline {subsection}{\numberline {D.1.5}Test software update}{57}\protected@file@percent }
\newlabel{to4}{{D.1.5}{57}}
\newlabel{to4@cref}{{[subsection][5][4,1]D.1.5}{[1][57][]57}}
\@writefile{toc}{\contentsline {subsubsection}{Hardware}{57}\protected@file@percent }
\@writefile{toc}{\contentsline {section}{\numberline {D.2}Acceptatietestbeschrijvingen}{58}\protected@file@percent }
\@writefile{toc}{\contentsline {subsection}{\numberline {D.2.1}Test Bluetooth naar serieel}{58}\protected@file@percent }
\@writefile{toc}{\contentsline {subsubsection}{Testcase 1.1: Commando's io-net}{58}\protected@file@percent }
\@writefile{lot}{\contentsline {table}{\numberline {D.1}{\ignorespaces Testcase 1.1\relax }}{58}\protected@file@percent }
\newlabel{tc11}{{D.1}{58}}
\newlabel{tc11@cref}{{[table][1][4]D.1}{[1][58][]58}}
\@writefile{toc}{\contentsline {subsubsection}{Testcase 1.2: Draaien motor}{59}\protected@file@percent }
\@writefile{lot}{\contentsline {table}{\numberline {D.2}{\ignorespaces Testcase 1.2\relax }}{59}\protected@file@percent }
\newlabel{tcx}{{D.2}{59}}
\newlabel{tcx@cref}{{[table][2][4]D.2}{[1][59][]59}}
\@writefile{toc}{\contentsline {subsection}{\numberline {D.2.2}Test Visuele feedback}{60}\protected@file@percent }
\@writefile{toc}{\contentsline {subsubsection}{Testcase 2.1: Test LED}{60}\protected@file@percent }
\@writefile{lot}{\contentsline {table}{\numberline {D.3}{\ignorespaces Testcase 2.1\relax }}{60}\protected@file@percent }
\newlabel{tcx}{{D.3}{60}}
\newlabel{tcx@cref}{{[table][3][4]D.3}{[1][60][]60}}
\@writefile{toc}{\contentsline {subsubsection}{Testcase 2.2: Test maximale afstand}{60}\protected@file@percent }
\@writefile{lot}{\contentsline {table}{\numberline {D.4}{\ignorespaces Testcase 2.2\relax }}{61}\protected@file@percent }
\newlabel{tcx}{{D.4}{61}}
\newlabel{tcx@cref}{{[table][4][4]D.4}{[1][60][]61}}
\@writefile{toc}{\contentsline {subsection}{\numberline {D.2.3}Test opgeslagen data}{61}\protected@file@percent }
\@writefile{toc}{\contentsline {subsubsection}{Testcase 3.1: Test Opslag data}{61}\protected@file@percent }
\@writefile{lot}{\contentsline {table}{\numberline {D.5}{\ignorespaces Testcase 3.1\relax }}{61}\protected@file@percent }
\newlabel{tcx}{{D.5}{61}}
\newlabel{tcx@cref}{{[table][5][4]D.5}{[1][61][]61}}
\@writefile{toc}{\contentsline {subsection}{\numberline {D.2.4}Test software update}{62}\protected@file@percent }
\@writefile{lot}{\contentsline {table}{\numberline {D.6}{\ignorespaces Testcase 4.1\relax }}{62}\protected@file@percent }
\newlabel{tcx}{{D.6}{62}}
\newlabel{tcx@cref}{{[table][6][4]D.6}{[1][62][]62}}
\@writefile{toc}{\contentsline {section}{\numberline {D.3}Traceerbaarheid klanteisen}{62}\protected@file@percent }
\@writefile{lot}{\contentsline {table}{\numberline {D.7}{\ignorespaces Traceertabel Requirements \relax }}{62}\protected@file@percent }
\newlabel{tab:ta}{{D.7}{62}}
\newlabel{tab:ta@cref}{{[table][7][4]D.7}{[1][62][]62}}
\bibstyle{apacite}
\bibdata{Referenties/Referenties,Referenties/Afstuderen}
\bibcite{Ali-rantala}{\citeauthoryear {Ali-rantala, Sydanheimo, Keskilammi{}\ \BBA{} Kivikoski}{Ali-rantala\ \BOthers {.}}{{\APACyear {{\bibnodate {}}}}}}
\APACbibcite{Ali-rantala}{\citeauthoryear {Ali-rantala, Sydanheimo, Keskilammi{}\ \BBA{} Kivikoski}{Ali-rantala\ \BOthers {.}}{{\APACyear {{\bibnodate {}}}}}}
\bibcite{zigbee}{\citeauthoryear {Alliance}{Alliance}{{\APACyear {2020}}}}
\APACbibcite{zigbee}{\citeauthoryear {Alliance}{Alliance}{{\APACyear {2020}}}}
\bibcite{meshfaq}{\citeauthoryear {Bluetooth}{Bluetooth}{{\APACyear {2020}}{\APACexlab {{\BCnt {1}}}}}}
\APACbibcite{meshfaq}{\citeauthoryear {Bluetooth}{Bluetooth}{{\APACyear {2020}}{\APACexlab {{\BCnt {1}}}}}}
\bibcite{blfees}{\citeauthoryear {Bluetooth}{Bluetooth}{{\APACyear {2020}}{\APACexlab {{\BCnt {2}}}}}}
\APACbibcite{blfees}{\citeauthoryear {Bluetooth}{Bluetooth}{{\APACyear {2020}}{\APACexlab {{\BCnt {2}}}}}}
\bibcite{Campbell1966}{\citeauthoryear {Campbell\ \BBA{} Gubisch}{Campbell\ \BBA{} Gubisch}{{\APACyear {1966}}}}
\APACbibcite{Campbell1966}{\citeauthoryear {Campbell\ \BBA{} Gubisch}{Campbell\ \BBA{} Gubisch}{{\APACyear {1966}}}}
\bibcite{cbs}{\citeauthoryear {CBS}{CBS}{{\APACyear {2019}}}}
\APACbibcite{cbs}{\citeauthoryear {CBS}{CBS}{{\APACyear {2019}}}}
\bibcite{Chruszczyk2017}{\citeauthoryear {Chruszczyk}{Chruszczyk}{{\APACyear {2017}}}}
\APACbibcite{Chruszczyk2017}{\citeauthoryear {Chruszczyk}{Chruszczyk}{{\APACyear {2017}}}}
\bibcite{DelaCruz2016}{\citeauthoryear {{Dela Cruz}, Parabuac{}\ \BBA{} Tiglao}{{Dela Cruz}\ \BOthers {.}}{{\APACyear {2016}}}}
\APACbibcite{DelaCruz2016}{\citeauthoryear {{Dela Cruz}, Parabuac{}\ \BBA{} Tiglao}{{Dela Cruz}\ \BOthers {.}}{{\APACyear {2016}}}}
\bibcite{hu2013}{\citeauthoryear {Hu, Fu, She{}\ \BBA{} Yao}{Hu\ \BOthers {.}}{{\APACyear {2013}}}}
\APACbibcite{hu2013}{\citeauthoryear {Hu, Fu, She{}\ \BBA{} Yao}{Hu\ \BOthers {.}}{{\APACyear {2013}}}}
\bibcite{lora}{\citeauthoryear {KPN}{KPN}{{\APACyear {2020}}}}
\APACbibcite{lora}{\citeauthoryear {KPN}{KPN}{{\APACyear {2020}}}}
\bibcite{Specification2018}{\citeauthoryear {Nordic}{Nordic}{{\APACyear {2018}}}}
\APACbibcite{Specification2018}{\citeauthoryear {Nordic}{Nordic}{{\APACyear {2018}}}}
\bibcite{los}{\citeauthoryear {Tablo}{Tablo}{{\APACyear {2018}}}}
\APACbibcite{los}{\citeauthoryear {Tablo}{Tablo}{{\APACyear {2018}}}}
\bibcite{starmesh}{\citeauthoryear {Techdifferences}{Techdifferences}{{\APACyear {2018}}}}
\APACbibcite{starmesh}{\citeauthoryear {Techdifferences}{Techdifferences}{{\APACyear {2018}}}}
\bibcite{Verma2013}{\citeauthoryear {Verma, Fakharzadeh{}\ \BBA{} Technologies}{Verma\ \BOthers {.}}{{\APACyear {2013}}}}
\APACbibcite{Verma2013}{\citeauthoryear {Verma, Fakharzadeh{}\ \BBA{} Technologies}{Verma\ \BOthers {.}}{{\APACyear {2013}}}}
\bibcite{topo}{\citeauthoryear {Wikipedia}{Wikipedia}{{\APACyear {2018}}}}
\APACbibcite{topo}{\citeauthoryear {Wikipedia}{Wikipedia}{{\APACyear {2018}}}}
\bibcite{Yaakop2017}{\citeauthoryear {Yaakop, Malik, {Bin Suboh}, Ramli{}\ \BBA{} Abu}{Yaakop\ \BOthers {.}}{{\APACyear {2017}}}}
\APACbibcite{Yaakop2017}{\citeauthoryear {Yaakop, Malik, {Bin Suboh}, Ramli{}\ \BBA{} Abu}{Yaakop\ \BOthers {.}}{{\APACyear {2017}}}}
\@writefile{toc}{\contentsline {section}{Literatuur}{63}\protected@file@percent }
\bibcite{Yourdon1979}{\citeauthoryear {Yourdon}{Yourdon}{{\APACyear {1979}}}}
\APACbibcite{Yourdon1979}{\citeauthoryear {Yourdon}{Yourdon}{{\APACyear {1979}}}}
\bibcite{Zhao2014}{\citeauthoryear {Zhao, Xiao, Markham, Trigoni{}\ \BBA{} Ren}{Zhao\ \BOthers {.}}{{\APACyear {2014}}}}
\APACbibcite{Zhao2014}{\citeauthoryear {Zhao, Xiao, Markham, Trigoni{}\ \BBA{} Ren}{Zhao\ \BOthers {.}}{{\APACyear {2014}}}}
\global\mtcsecondpartfalse
