\relax 
\@nameuse{bbl@beforestart}
\catcode `"\active 
\babel@aux{dutch}{}
\@writefile{@@@}{\chapterbegin }
\@writefile{@@@}{\chapterbegin }
\@writefile{@@@}{\chapterbegin }
\@writefile{@@@}{\chapterbegin }
\@writefile{@@@}{\chapterbegin }
\newlabel{hs:vb}{{}{6}}
\newlabel{hs:vb@cref}{{}{[1][6][]6}}
\@writefile{lot}{\contentsline {table}{\numberline {0.1}{\ignorespaces Versiehistorie\relax }}{6}\protected@file@percent }
\providecommand*\caption@xref[2]{\@setref\relax\@undefined{#1}}
\newlabel{tab:vb}{{0.1}{6}}
\newlabel{tab:vb@cref}{{[table][1][0]0.1}{[1][6][]6}}
\@writefile{@@@}{\chapterbegin }
\@writefile{toc}{\contentsline {chapter}{\numberline {1.}Inleiding}{9}\protected@file@percent }
\@writefile{lof}{\addvspace {10pt}}
\@writefile{lot}{\addvspace {10pt}}
\@writefile{lof}{\contentsline {xchapter}{Inleiding}{9}\protected@file@percent }
\@writefile{lot}{\contentsline {xchapter}{Inleiding}{9}\protected@file@percent }
\newlabel{hs:in}{{1}{9}}
\newlabel{hs:in@cref}{{[chapter][1][]1}{[1][9][]9}}
\@writefile{toc}{\contentsline {section}{\numberline {1.1}Bedrijfsachtergrond}{9}\protected@file@percent }
\@writefile{lof}{\contentsline {figure}{\numberline {1.1}{\ignorespaces Luiken voor in- en uitvoer van luchtstromen\relax }}{10}\protected@file@percent }
\newlabel{luik}{{1.1}{10}}
\newlabel{luik@cref}{{[figure][1][1]1.1}{[1][9][]10}}
\newlabel{im60}{{1.2a}{11}}
\newlabel{im60@cref}{{[subfigure][1][1,2]1.2a}{[1][11][]11}}
\newlabel{sub@im60}{{a}{11}}
\newlabel{sub@im60@cref}{{[subfigure][1][1,2]1.2a}{[1][11][]11}}
\newlabel{im125}{{1.2b}{11}}
\newlabel{im125@cref}{{[subfigure][2][1,2]1.2b}{[1][11][]11}}
\newlabel{sub@im125}{{b}{11}}
\newlabel{sub@im125@cref}{{[subfigure][2][1,2]1.2b}{[1][11][]11}}
\@writefile{lof}{\contentsline {figure}{\numberline {1.2}{\ignorespaces Motoren\relax }}{11}\protected@file@percent }
\newlabel{im60p}{{1.3a}{12}}
\newlabel{im60p@cref}{{[subfigure][1][1,3]1.3a}{[1][11][]12}}
\newlabel{sub@im60p}{{a}{12}}
\newlabel{sub@im60p@cref}{{[subfigure][1][1,3]1.3a}{[1][11][]12}}
\newlabel{im125p}{{1.3b}{12}}
\newlabel{im125p@cref}{{[subfigure][2][1,3]1.3b}{[1][11][]12}}
\newlabel{sub@im125p}{{b}{12}}
\newlabel{sub@im125p@cref}{{[subfigure][2][1,3]1.3b}{[1][11][]12}}
\@writefile{lof}{\contentsline {figure}{\numberline {1.3}{\ignorespaces Printplaten die de motoren aansturen\relax }}{12}\protected@file@percent }
\@writefile{toc}{\contentsline {section}{\numberline {1.2}Probleemstelling}{12}\protected@file@percent }
\@writefile{toc}{\contentsline {section}{\numberline {1.3}Doelstelling}{13}\protected@file@percent }
\@writefile{lof}{\contentsline {figure}{\numberline {1.4}{\ignorespaces V-model\relax }}{13}\protected@file@percent }
\newlabel{vmodel}{{1.4}{13}}
\newlabel{vmodel@cref}{{[figure][4][1]1.4}{[1][13][]13}}
\citation{Yourdon1979}
\@writefile{toc}{\contentsline {chapter}{\numberline {2.}Requirements}{14}\protected@file@percent }
\@writefile{lof}{\addvspace {10pt}}
\@writefile{lot}{\addvspace {10pt}}
\@writefile{lof}{\contentsline {xchapter}{Requirements}{14}\protected@file@percent }
\@writefile{lot}{\contentsline {xchapter}{Requirements}{14}\protected@file@percent }
\newlabel{hs:h2}{{2}{14}}
\newlabel{hs:h2@cref}{{[chapter][2][]2}{[1][14][]14}}
\@writefile{toc}{\contentsline {section}{\numberline {2.1}Inleiding}{14}\protected@file@percent }
\newlabel{hs:h21}{{2.1}{14}}
\newlabel{hs:h21@cref}{{[section][1][2]2.1}{[1][14][]14}}
\@writefile{toc}{\contentsline {section}{\numberline {2.2}Algemene beschrijving}{14}\protected@file@percent }
\newlabel{hs:h22}{{2.2}{14}}
\newlabel{hs:h22@cref}{{[section][2][2]2.2}{[1][14][]14}}
\@writefile{toc}{\contentsline {section}{\numberline {2.3}Systeemcontext}{14}\protected@file@percent }
\newlabel{hs:h23}{{2.3}{14}}
\newlabel{hs:h23@cref}{{[section][3][2]2.3}{[1][14][]14}}
\@writefile{toc}{\contentsline {subsection}{\numberline {2.3.1}Systeemfuncties}{14}\protected@file@percent }
\newlabel{hs:h231}{{2.3.1}{14}}
\newlabel{hs:h231@cref}{{[subsection][1][2,3]2.3.1}{[1][14][]14}}
\@writefile{lof}{\contentsline {figure}{\numberline {2.1}{\ignorespaces Data Context Diagram\relax }}{15}\protected@file@percent }
\newlabel{DCD}{{2.1}{15}}
\newlabel{DCD@cref}{{[figure][1][2]2.1}{[1][15][]15}}
\@writefile{toc}{\contentsline {section}{\numberline {2.4}Systeemfuncties}{16}\protected@file@percent }
\newlabel{hs:h24}{{2.4}{16}}
\newlabel{hs:h24@cref}{{[section][4][2]2.4}{[1][16][]16}}
\@writefile{toc}{\contentsline {subsection}{\numberline {2.4.1}Draadloze data overdracht}{16}\protected@file@percent }
\newlabel{hs:h241}{{2.4.1}{16}}
\newlabel{hs:h241@cref}{{[subsection][1][2,4]2.4.1}{[1][16][]16}}
\@writefile{toc}{\contentsline {subsubsection}{Stimulus en response}{16}\protected@file@percent }
\newlabel{2411}{{2.4.1}{16}}
\newlabel{2411@cref}{{[subsection][1][2,4]2.4.1}{[1][16][]16}}
\@writefile{toc}{\contentsline {subsubsection}{Functionele klanteisen}{16}\protected@file@percent }
\newlabel{2411}{{2.4.1}{16}}
\newlabel{2411@cref}{{[subsection][1][2,4]2.4.1}{[1][16][]16}}
\@writefile{toc}{\contentsline {subsection}{\numberline {2.4.2}Uitlezen en opslag data}{17}\protected@file@percent }
\newlabel{hs:h242}{{2.4.2}{17}}
\newlabel{hs:h242@cref}{{[subsection][2][2,4]2.4.2}{[1][17][]17}}
\@writefile{toc}{\contentsline {subsubsection}{Stimulus en response}{17}\protected@file@percent }
\newlabel{2421}{{2.4.2}{17}}
\newlabel{2421@cref}{{[subsection][2][2,4]2.4.2}{[1][17][]17}}
\@writefile{toc}{\contentsline {subsubsection}{Functionele klanteisen}{17}\protected@file@percent }
\newlabel{2421}{{2.4.2}{17}}
\newlabel{2421@cref}{{[subsection][2][2,4]2.4.2}{[1][17][]17}}
\@writefile{toc}{\contentsline {subsection}{\numberline {2.4.3}Updaten systeem en bestaande module (Optioneel)}{18}\protected@file@percent }
\newlabel{hs:h243}{{2.4.3}{18}}
\newlabel{hs:h243@cref}{{[subsection][3][2,4]2.4.3}{[1][18][]18}}
\@writefile{toc}{\contentsline {subsubsection}{Stimulus en response}{18}\protected@file@percent }
\newlabel{2431}{{2.4.3}{18}}
\newlabel{2431@cref}{{[subsection][3][2,4]2.4.3}{[1][18][]18}}
\@writefile{toc}{\contentsline {subsubsection}{Functionele klanteisen}{18}\protected@file@percent }
\newlabel{2431}{{2.4.3}{18}}
\newlabel{2431@cref}{{[subsection][3][2,4]2.4.3}{[1][18][]18}}
\@writefile{toc}{\contentsline {section}{\numberline {2.5}Niet-functionele klanteisen}{18}\protected@file@percent }
\newlabel{hs:h25}{{2.5}{18}}
\newlabel{hs:h25@cref}{{[section][5][2]2.5}{[1][18][]18}}
\@writefile{toc}{\contentsline {chapter}{\numberline {3.}Architectuur}{19}\protected@file@percent }
\@writefile{lof}{\addvspace {10pt}}
\@writefile{lot}{\addvspace {10pt}}
\@writefile{lof}{\contentsline {xchapter}{Architectuur}{19}\protected@file@percent }
\@writefile{lot}{\contentsline {xchapter}{Architectuur}{19}\protected@file@percent }
\@writefile{lof}{\contentsline {figure}{\numberline {3.1}{\ignorespaces Data Context Diagram\relax }}{19}\protected@file@percent }
\newlabel{DFD0}{{3.1}{19}}
\newlabel{DFD0@cref}{{[figure][1][3]3.1}{[1][19][]19}}
\@writefile{lot}{\contentsline {table}{\numberline {3.1}{\ignorespaces Keuze matrix Draadloze MCU\relax }}{20}\protected@file@percent }
\newlabel{tabmcu}{{3.1}{20}}
\newlabel{tabmcu@cref}{{[table][1][3]3.1}{[1][20][]20}}
\@writefile{toc}{\contentsline {chapter}{Appendices}{21}\protected@file@percent }
\citation{cbs}
\@writefile{toc}{\contentsline {chapter}{\numberline {A.}Onderzoek draadloze technologieën}{22}\protected@file@percent }
\@writefile{lof}{\addvspace {10pt}}
\@writefile{lot}{\addvspace {10pt}}
\@writefile{lof}{\contentsline {xchapter}{Onderzoek draadloze technologieën}{22}\protected@file@percent }
\@writefile{lot}{\contentsline {xchapter}{Onderzoek draadloze technologieën}{22}\protected@file@percent }
\@writefile{toc}{\contentsline {section}{\numberline {A.1}Inleiding}{22}\protected@file@percent }
\newlabel{stal1}{{A.1a}{23}}
\newlabel{stal1@cref}{{[subfigure][1][1,1]A.1a}{[1][23][]23}}
\newlabel{sub@stal1}{{a}{23}}
\newlabel{sub@stal1@cref}{{[subfigure][1][1,1]A.1a}{[1][23][]23}}
\newlabel{stal2}{{A.1b}{23}}
\newlabel{stal2@cref}{{[subfigure][2][1,1]A.1b}{[1][23][]23}}
\newlabel{sub@stal2}{{b}{23}}
\newlabel{sub@stal2@cref}{{[subfigure][2][1,1]A.1b}{[1][23][]23}}
\@writefile{lof}{\contentsline {figure}{\numberline {A.1}{\ignorespaces Mogelijke ophanging motor\relax }}{23}\protected@file@percent }
\citation{los}
\citation{topo}
\@writefile{toc}{\contentsline {section}{\numberline {A.2}Draadloze technologieën}{24}\protected@file@percent }
\@writefile{lof}{\contentsline {figure}{\numberline {A.2}{\ignorespaces Line Of Sight \relax }}{24}\protected@file@percent }
\newlabel{los}{{A.2}{24}}
\newlabel{los@cref}{{[figure][2][1]A.2}{[1][24][]24}}
\citation{Verma2013}
\citation{Zhao2014}
\citation{meshfaq}
\citation{meshfaq}
\citation{Yaakop2017}
\citation{zigbee}
\citation{Ali-rantala}
\citation{Chruszczyk2017}
\@writefile{toc}{\contentsline {subsection}{\numberline {A.2.1}Frequentie, bereik en maximale snelheid}{25}\protected@file@percent }
\citation{DelaCruz2016}
\citation{starmesh}
\citation{hu2013}
\@writefile{toc}{\contentsline {subsection}{\numberline {A.2.2}Topologie en gebruik smartphone}{26}\protected@file@percent }
\newlabel{star}{{A.3a}{26}}
\newlabel{star@cref}{{[subfigure][1][1,3]A.3a}{[1][26][]26}}
\newlabel{sub@star}{{a}{26}}
\newlabel{sub@star@cref}{{[subfigure][1][1,3]A.3a}{[1][26][]26}}
\newlabel{mesh}{{A.3b}{26}}
\newlabel{mesh@cref}{{[subfigure][2][1,3]A.3b}{[1][26][]26}}
\newlabel{sub@mesh}{{b}{26}}
\newlabel{sub@mesh@cref}{{[subfigure][2][1,3]A.3b}{[1][26][]26}}
\@writefile{lof}{\contentsline {figure}{\numberline {A.3}{\ignorespaces Twee verschillende netwerk configuraties\relax }}{26}\protected@file@percent }
\citation{blfees}
\citation{lora}
\citation{zigbee}
\@writefile{toc}{\contentsline {subsection}{\numberline {A.2.3}Kosten}{27}\protected@file@percent }
\@writefile{toc}{\contentsline {section}{\numberline {A.3}Conclusie}{28}\protected@file@percent }
\@writefile{lot}{\contentsline {table}{\numberline {A.1}{\ignorespaces Overzicht draadloze verbindingen\relax }}{28}\protected@file@percent }
\newlabel{tbWrlss}{{A.1}{28}}
\newlabel{tbWrlss@cref}{{[table][1][1]A.1}{[1][28][]28}}
\@writefile{toc}{\contentsline {chapter}{\numberline {B.}Plan Van Aanpak}{29}\protected@file@percent }
\@writefile{lof}{\addvspace {10pt}}
\@writefile{lot}{\addvspace {10pt}}
\@writefile{lof}{\contentsline {xchapter}{Plan Van Aanpak}{29}\protected@file@percent }
\@writefile{lot}{\contentsline {xchapter}{Plan Van Aanpak}{29}\protected@file@percent }
\newlabel{hs:vb}{{B}{29}}
\newlabel{hs:vb@cref}{{[chapter][2][]B}{[1][29][]29}}
\@writefile{lot}{\contentsline {table}{\numberline {B.1}{\ignorespaces Versiehistorie\relax }}{29}\protected@file@percent }
\newlabel{tab:vb}{{B.1}{29}}
\newlabel{tab:vb@cref}{{[table][1][2]B.1}{[1][29][]29}}
\@writefile{toc}{\contentsline {section}{\numberline {B.1}Achtergronden}{31}\protected@file@percent }
\newlabel{hs:h1}{{B.1}{31}}
\newlabel{hs:h1@cref}{{[section][1][2]B.1}{[1][31][]31}}
\@writefile{toc}{\contentsline {subsection}{\numberline {B.1.1}De opdrachtgever}{31}\protected@file@percent }
\newlabel{hs:h11}{{B.1.1}{31}}
\newlabel{hs:h11@cref}{{[subsection][1][2,1]B.1.1}{[1][31][]31}}
\@writefile{toc}{\contentsline {subsection}{\numberline {B.1.2}De opdrachtnemers}{31}\protected@file@percent }
\newlabel{hs:h12}{{B.1.2}{31}}
\newlabel{hs:h12@cref}{{[subsection][2][2,1]B.1.2}{[1][31][]31}}
\@writefile{toc}{\contentsline {subsection}{\numberline {B.1.3}Aanleiding}{31}\protected@file@percent }
\newlabel{hs:h13}{{B.1.3}{31}}
\newlabel{hs:h13@cref}{{[subsection][3][2,1]B.1.3}{[1][31][]31}}
\@writefile{toc}{\contentsline {section}{\numberline {B.2}Projectresultaat}{31}\protected@file@percent }
\newlabel{hs:h2}{{B.2}{31}}
\newlabel{hs:h2@cref}{{[section][2][2]B.2}{[1][31][]31}}
\@writefile{toc}{\contentsline {subsection}{\numberline {B.2.1}Doelstelling}{31}\protected@file@percent }
\newlabel{hs:h21}{{B.2.1}{31}}
\newlabel{hs:h21@cref}{{[subsection][1][2,2]B.2.1}{[1][31][]31}}
\@writefile{toc}{\contentsline {subsection}{\numberline {B.2.2}Resultaat}{31}\protected@file@percent }
\newlabel{hs:h22}{{B.2.2}{31}}
\newlabel{hs:h22@cref}{{[subsection][2][2,2]B.2.2}{[1][31][]31}}
\@writefile{toc}{\contentsline {section}{\numberline {B.3}Projectactiviteiten}{32}\protected@file@percent }
\newlabel{hs:h3}{{B.3}{32}}
\newlabel{hs:h3@cref}{{[section][3][2]B.3}{[1][32][]32}}
\@writefile{toc}{\contentsline {subsection}{\numberline {B.3.1}Projectmanagement}{32}\protected@file@percent }
\newlabel{hs:h31}{{B.3.1}{32}}
\newlabel{hs:h31@cref}{{[subsection][1][2,3]B.3.1}{[1][32][]32}}
\@writefile{toc}{\contentsline {subsection}{\numberline {B.3.2}Projectmanagement}{32}\protected@file@percent }
\newlabel{hs:h32}{{B.3.2}{32}}
\newlabel{hs:h32@cref}{{[subsection][2][2,3]B.3.2}{[1][32][]32}}
\@writefile{toc}{\contentsline {section}{\numberline {B.4}Projectgrenzen en randvoorwaarden}{34}\protected@file@percent }
\newlabel{hs:h4}{{B.4}{34}}
\newlabel{hs:h4@cref}{{[section][4][2]B.4}{[1][34][]34}}
\@writefile{toc}{\contentsline {subsection}{\numberline {B.4.1}Projectomvang}{34}\protected@file@percent }
\newlabel{hs:h41}{{B.4.1}{34}}
\newlabel{hs:h41@cref}{{[subsection][1][2,4]B.4.1}{[1][34][]34}}
\@writefile{toc}{\contentsline {subsection}{\numberline {B.4.2}Randvoorwaarden}{34}\protected@file@percent }
\newlabel{hs:h42}{{B.4.2}{34}}
\newlabel{hs:h42@cref}{{[subsection][2][2,4]B.4.2}{[1][34][]34}}
\@writefile{toc}{\contentsline {section}{\numberline {B.5}Tussenresultaten}{34}\protected@file@percent }
\newlabel{hs:h5}{{B.5}{34}}
\newlabel{hs:h5@cref}{{[section][5][2]B.5}{[1][34][]34}}
\@writefile{toc}{\contentsline {subsection}{\numberline {B.5.1}Tussenresultaten in documentvorm: }{34}\protected@file@percent }
\newlabel{hs:h51}{{B.5.1}{34}}
\newlabel{hs:h51@cref}{{[subsection][1][2,5]B.5.1}{[1][34][]34}}
\@writefile{toc}{\contentsline {subsection}{\numberline {B.5.2}Tussenresultaten in de vorm van een deelsysteem }{34}\protected@file@percent }
\newlabel{hs:h52}{{B.5.2}{34}}
\newlabel{hs:h52@cref}{{[subsection][2][2,5]B.5.2}{[1][34][]34}}
\@writefile{toc}{\contentsline {section}{\numberline {B.6}Kwaliteit}{35}\protected@file@percent }
\newlabel{hs:h6}{{B.6}{35}}
\newlabel{hs:h6@cref}{{[section][6][2]B.6}{[1][35][]35}}
\@writefile{toc}{\contentsline {subsection}{\numberline {B.6.1}Kwaliteitsbewaking eindproduct}{35}\protected@file@percent }
\newlabel{hs:h61}{{B.6.1}{35}}
\newlabel{hs:h61@cref}{{[subsection][1][2,6]B.6.1}{[1][35][]35}}
\@writefile{toc}{\contentsline {subsection}{\numberline {B.6.2}Tussenresultaten}{35}\protected@file@percent }
\newlabel{hs:h62}{{B.6.2}{35}}
\newlabel{hs:h62@cref}{{[subsection][2][2,6]B.6.2}{[1][35][]35}}
\@writefile{toc}{\contentsline {subsection}{\numberline {B.6.3}Documenten}{35}\protected@file@percent }
\newlabel{hs:h63}{{B.6.3}{35}}
\newlabel{hs:h63@cref}{{[subsection][3][2,6]B.6.3}{[1][35][]35}}
\@writefile{toc}{\contentsline {subsection}{\numberline {B.6.4}Afwijkingen}{35}\protected@file@percent }
\newlabel{hs:h64}{{B.6.4}{35}}
\newlabel{hs:h64@cref}{{[subsection][4][2,6]B.6.4}{[1][35][]35}}
\@writefile{toc}{\contentsline {section}{\numberline {B.7}Projectorganisatie}{36}\protected@file@percent }
\newlabel{hs:h7}{{B.7}{36}}
\newlabel{hs:h7@cref}{{[section][7][2]B.7}{[1][36][]36}}
\@writefile{toc}{\contentsline {subsection}{\numberline {B.7.1}Rolverdeling met persoonlijke gegevens}{36}\protected@file@percent }
\newlabel{hs:h71}{{B.7.1}{36}}
\newlabel{hs:h71@cref}{{[subsection][1][2,7]B.7.1}{[1][36][]36}}
\@writefile{lot}{\contentsline {table}{\numberline {B.2}{\ignorespaces Persoonlijke gegevens\relax }}{36}\protected@file@percent }
\newlabel{tab:pg}{{B.2}{36}}
\newlabel{tab:pg@cref}{{[table][2][2]B.2}{[1][36][]36}}
\@writefile{toc}{\contentsline {subsection}{\numberline {B.7.2}Functieomschrijving}{36}\protected@file@percent }
\newlabel{hs:h72}{{B.7.2}{36}}
\newlabel{hs:h72@cref}{{[subsection][2][2,7]B.7.2}{[1][36][]36}}
\@writefile{toc}{\contentsline {subsection}{\numberline {B.7.3}Informatie}{36}\protected@file@percent }
\newlabel{hs:h73}{{B.7.3}{36}}
\newlabel{hs:h73@cref}{{[subsection][3][2,7]B.7.3}{[1][36][]36}}
\@writefile{toc}{\contentsline {subsection}{\numberline {B.7.4}Coördinatie}{36}\protected@file@percent }
\newlabel{hs:h74}{{B.7.4}{36}}
\newlabel{hs:h74@cref}{{[subsection][4][2,7]B.7.4}{[1][36][]36}}
\@writefile{toc}{\contentsline {section}{\numberline {B.8}Planning}{37}\protected@file@percent }
\newlabel{hs:h8}{{B.8}{37}}
\newlabel{hs:h8@cref}{{[section][8][2]B.8}{[1][37][]37}}
\@writefile{lof}{\contentsline {figure}{\numberline {B.1}{\ignorespaces Planning deel 1\relax }}{38}\protected@file@percent }
\newlabel{planning}{{B.1}{38}}
\newlabel{planning@cref}{{[figure][1][2]B.1}{[1][37][]38}}
\@writefile{lof}{\contentsline {figure}{\numberline {B.2}{\ignorespaces Planning deel 2\relax }}{39}\protected@file@percent }
\@writefile{toc}{\contentsline {section}{\numberline {B.9}Kosten en baten}{40}\protected@file@percent }
\newlabel{hs:h9}{{B.9}{40}}
\newlabel{hs:h9@cref}{{[section][9][2]B.9}{[1][40][]40}}
\@writefile{toc}{\contentsline {subsection}{\numberline {B.9.1}Kosten voor hulpmiddelen}{40}\protected@file@percent }
\newlabel{hs:h91}{{B.9.1}{40}}
\newlabel{hs:h91@cref}{{[subsection][1][2,9]B.9.1}{[1][40][]40}}
\@writefile{toc}{\contentsline {subsection}{\numberline {B.9.2}Arbeidskosten uitgedrukt in werktijd}{40}\protected@file@percent }
\newlabel{hs:h92}{{B.9.2}{40}}
\newlabel{hs:h92@cref}{{[subsection][2][2,9]B.9.2}{[1][40][]40}}
\@writefile{toc}{\contentsline {subsection}{\numberline {B.9.3}Baten}{40}\protected@file@percent }
\newlabel{hs:h93}{{B.9.3}{40}}
\newlabel{hs:h93@cref}{{[subsection][3][2,9]B.9.3}{[1][40][]40}}
\@writefile{toc}{\contentsline {section}{\numberline {B.10}Risico's}{40}\protected@file@percent }
\newlabel{hs:h10}{{B.10}{40}}
\newlabel{hs:h10@cref}{{[section][10][2]B.10}{[1][40][]40}}
\@writefile{toc}{\contentsline {subsection}{\numberline {B.10.1}Interne risico’s}{40}\protected@file@percent }
\newlabel{hs:h101}{{B.10.1}{40}}
\newlabel{hs:h101@cref}{{[subsection][1][2,10]B.10.1}{[1][40][]40}}
\@writefile{toc}{\contentsline {subsection}{\numberline {B.10.2}Externe risico’s}{40}\protected@file@percent }
\newlabel{hs:h102}{{B.10.2}{40}}
\newlabel{hs:h102@cref}{{[subsection][2][2,10]B.10.2}{[1][40][]40}}
\@writefile{toc}{\contentsline {subsection}{\numberline {B.10.3}Externe risico’s}{41}\protected@file@percent }
\newlabel{hs:h103}{{B.10.3}{41}}
\newlabel{hs:h103@cref}{{[subsection][3][2,10]B.10.3}{[1][41][]41}}
\@writefile{lot}{\contentsline {table}{\numberline {B.3}{\ignorespaces Externe Risico's\relax }}{42}\protected@file@percent }
\newlabel{tab:ra}{{B.3}{42}}
\newlabel{tab:ra@cref}{{[table][3][2]B.3}{[1][41][]42}}
\@writefile{toc}{\contentsline {chapter}{\numberline {C.}Acceptatie test}{43}\protected@file@percent }
\@writefile{lof}{\addvspace {10pt}}
\@writefile{lot}{\addvspace {10pt}}
\@writefile{lof}{\contentsline {xchapter}{Acceptatie test}{43}\protected@file@percent }
\@writefile{lot}{\contentsline {xchapter}{Acceptatie test}{43}\protected@file@percent }
\newlabel{acctest}{{C}{43}}
\newlabel{acctest@cref}{{[chapter][3][]C}{[1][43][]43}}
\@writefile{toc}{\contentsline {section}{\numberline {C.1}Voorbereidingen acceptatietest}{43}\protected@file@percent }
\@writefile{toc}{\contentsline {subsection}{\numberline {C.1.1}Visuele testomgeving}{43}\protected@file@percent }
\@writefile{toc}{\contentsline {subsubsection}{Hardware}{43}\protected@file@percent }
\@writefile{toc}{\contentsline {subsubsection}{Software}{43}\protected@file@percent }
\@writefile{toc}{\contentsline {subsection}{\numberline {C.1.2}Testomgeving seriële verbinding}{44}\protected@file@percent }
\newlabel{to1}{{C.1.2}{44}}
\newlabel{to1@cref}{{[subsection][2][3,1]C.1.2}{[1][43][]44}}
\@writefile{toc}{\contentsline {subsubsection}{Hardware}{44}\protected@file@percent }
\@writefile{toc}{\contentsline {subsubsection}{Software}{44}\protected@file@percent }
\@writefile{toc}{\contentsline {subsubsection}{Overig}{44}\protected@file@percent }
\@writefile{toc}{\contentsline {subsection}{\numberline {C.1.3}Test mesh}{44}\protected@file@percent }
\@writefile{toc}{\contentsline {subsubsection}{Hardware}{44}\protected@file@percent }
\@writefile{toc}{\contentsline {subsubsection}{Software}{44}\protected@file@percent }
\@writefile{toc}{\contentsline {section}{\numberline {C.2}Acceptatietestbeschrijvingen}{45}\protected@file@percent }
\@writefile{toc}{\contentsline {subsection}{\numberline {C.2.1}Test Bluetooth naar serieel}{45}\protected@file@percent }
\@writefile{toc}{\contentsline {subsubsection}{Testcase 1.1: commando's}{45}\protected@file@percent }
\@writefile{lot}{\contentsline {table}{\numberline {C.1}{\ignorespaces Testcase 1.1\relax }}{45}\protected@file@percent }
\newlabel{tc11}{{C.1}{45}}
\newlabel{tc11@cref}{{[table][1][3]C.1}{[1][45][]45}}
\@writefile{lot}{\contentsline {table}{\numberline {C.2}{\ignorespaces Testcase 1.1\relax }}{45}\protected@file@percent }
\newlabel{tcx}{{C.2}{45}}
\newlabel{tcx@cref}{{[table][2][3]C.2}{[1][45][]45}}
\bibstyle{apacite}
\bibdata{Referenties/Referenties}
\bibcite{Ali-rantala}{\citeauthoryear {Ali-rantala, Sydanheimo, Keskilammi{}\ \BBA{} Kivikoski}{Ali-rantala\ \BOthers {.}}{{\APACyear {{\bibnodate {}}}}}}
\APACbibcite{Ali-rantala}{\citeauthoryear {Ali-rantala, Sydanheimo, Keskilammi{}\ \BBA{} Kivikoski}{Ali-rantala\ \BOthers {.}}{{\APACyear {{\bibnodate {}}}}}}
\bibcite{zigbee}{\citeauthoryear {Alliance}{Alliance}{{\APACyear {2020}}}}
\APACbibcite{zigbee}{\citeauthoryear {Alliance}{Alliance}{{\APACyear {2020}}}}
\bibcite{meshfaq}{\citeauthoryear {Bluetooth}{Bluetooth}{{\APACyear {2020}}{\APACexlab {{\BCnt {1}}}}}}
\APACbibcite{meshfaq}{\citeauthoryear {Bluetooth}{Bluetooth}{{\APACyear {2020}}{\APACexlab {{\BCnt {1}}}}}}
\bibcite{blfees}{\citeauthoryear {Bluetooth}{Bluetooth}{{\APACyear {2020}}{\APACexlab {{\BCnt {2}}}}}}
\APACbibcite{blfees}{\citeauthoryear {Bluetooth}{Bluetooth}{{\APACyear {2020}}{\APACexlab {{\BCnt {2}}}}}}
\bibcite{cbs}{\citeauthoryear {CBS}{CBS}{{\APACyear {2019}}}}
\APACbibcite{cbs}{\citeauthoryear {CBS}{CBS}{{\APACyear {2019}}}}
\bibcite{Chruszczyk2017}{\citeauthoryear {Chruszczyk}{Chruszczyk}{{\APACyear {2017}}}}
\APACbibcite{Chruszczyk2017}{\citeauthoryear {Chruszczyk}{Chruszczyk}{{\APACyear {2017}}}}
\bibcite{DelaCruz2016}{\citeauthoryear {{Dela Cruz}, Parabuac{}\ \BBA{} Tiglao}{{Dela Cruz}\ \BOthers {.}}{{\APACyear {2016}}}}
\APACbibcite{DelaCruz2016}{\citeauthoryear {{Dela Cruz}, Parabuac{}\ \BBA{} Tiglao}{{Dela Cruz}\ \BOthers {.}}{{\APACyear {2016}}}}
\bibcite{hu2013}{\citeauthoryear {Hu, Fu, She{}\ \BBA{} Yao}{Hu\ \BOthers {.}}{{\APACyear {2013}}}}
\APACbibcite{hu2013}{\citeauthoryear {Hu, Fu, She{}\ \BBA{} Yao}{Hu\ \BOthers {.}}{{\APACyear {2013}}}}
\bibcite{lora}{\citeauthoryear {KPN}{KPN}{{\APACyear {2020}}}}
\APACbibcite{lora}{\citeauthoryear {KPN}{KPN}{{\APACyear {2020}}}}
\bibcite{los}{\citeauthoryear {Tablo}{Tablo}{{\APACyear {2018}}}}
\APACbibcite{los}{\citeauthoryear {Tablo}{Tablo}{{\APACyear {2018}}}}
\bibcite{starmesh}{\citeauthoryear {Techdifferences}{Techdifferences}{{\APACyear {2018}}}}
\APACbibcite{starmesh}{\citeauthoryear {Techdifferences}{Techdifferences}{{\APACyear {2018}}}}
\bibcite{Verma2013}{\citeauthoryear {Verma, Fakharzadeh{}\ \BBA{} Technologies}{Verma\ \BOthers {.}}{{\APACyear {2013}}}}
\APACbibcite{Verma2013}{\citeauthoryear {Verma, Fakharzadeh{}\ \BBA{} Technologies}{Verma\ \BOthers {.}}{{\APACyear {2013}}}}
\bibcite{topo}{\citeauthoryear {Wikipedia}{Wikipedia}{{\APACyear {2018}}}}
\APACbibcite{topo}{\citeauthoryear {Wikipedia}{Wikipedia}{{\APACyear {2018}}}}
\bibcite{Yaakop2017}{\citeauthoryear {Yaakop, Malik, {Bin Suboh}, Ramli{}\ \BBA{} Abu}{Yaakop\ \BOthers {.}}{{\APACyear {2017}}}}
\APACbibcite{Yaakop2017}{\citeauthoryear {Yaakop, Malik, {Bin Suboh}, Ramli{}\ \BBA{} Abu}{Yaakop\ \BOthers {.}}{{\APACyear {2017}}}}
\bibcite{Yourdon1979}{\citeauthoryear {Yourdon}{Yourdon}{{\APACyear {1979}}}}
\APACbibcite{Yourdon1979}{\citeauthoryear {Yourdon}{Yourdon}{{\APACyear {1979}}}}
\@writefile{toc}{\contentsline {section}{Literatuur}{46}\protected@file@percent }
\bibcite{Zhao2014}{\citeauthoryear {Zhao, Xiao, Markham, Trigoni{}\ \BBA{} Ren}{Zhao\ \BOthers {.}}{{\APACyear {2014}}}}
\APACbibcite{Zhao2014}{\citeauthoryear {Zhao, Xiao, Markham, Trigoni{}\ \BBA{} Ren}{Zhao\ \BOthers {.}}{{\APACyear {2014}}}}
\global\mtcsecondpartfalse
