\relax 
\@nameuse{bbl@beforestart}
\catcode `"\active 
\babel@aux{dutch}{}
\@writefile{@@@}{\chapterbegin }
\@writefile{@@@}{\chapterbegin }
\@writefile{@@@}{\chapterbegin }
\@writefile{@@@}{\chapterbegin }
\@writefile{@@@}{\chapterbegin }
\newlabel{hs:vb}{{}{6}}
\newlabel{hs:vb@cref}{{}{[1][6][]6}}
\@writefile{lot}{\contentsline {table}{\numberline {0.1}{\ignorespaces Versiehistorie\relax }}{6}\protected@file@percent }
\providecommand*\caption@xref[2]{\@setref\relax\@undefined{#1}}
\newlabel{tab:vb}{{0.1}{6}}
\newlabel{tab:vb@cref}{{[table][1][0]0.1}{[1][6][]6}}
\@writefile{@@@}{\chapterbegin }
\@writefile{toc}{\contentsline {chapter}{\numberline {1.}Inleiding}{10}\protected@file@percent }
\@writefile{lof}{\addvspace {10pt}}
\@writefile{lot}{\addvspace {10pt}}
\@writefile{lof}{\contentsline {xchapter}{Inleiding}{10}\protected@file@percent }
\@writefile{lot}{\contentsline {xchapter}{Inleiding}{10}\protected@file@percent }
\newlabel{hs:in}{{1}{10}}
\newlabel{hs:in@cref}{{[chapter][1][]1}{[1][10][]10}}
\@writefile{toc}{\contentsline {section}{\numberline {1.1}Bedrijfsachtergrond}{10}\protected@file@percent }
\@writefile{lof}{\contentsline {figure}{\numberline {1.1}{\ignorespaces Luiken voor in- en uitvoer van luchtstromen\relax }}{11}\protected@file@percent }
\newlabel{luik}{{1.1}{11}}
\newlabel{luik@cref}{{[figure][1][1]1.1}{[1][10][]11}}
\newlabel{im60}{{1.2a}{12}}
\newlabel{im60@cref}{{[subfigure][1][1,2]1.2a}{[1][12][]12}}
\newlabel{sub@im60}{{a}{12}}
\newlabel{sub@im60@cref}{{[subfigure][1][1,2]1.2a}{[1][12][]12}}
\newlabel{im125}{{1.2b}{12}}
\newlabel{im125@cref}{{[subfigure][2][1,2]1.2b}{[1][12][]12}}
\newlabel{sub@im125}{{b}{12}}
\newlabel{sub@im125@cref}{{[subfigure][2][1,2]1.2b}{[1][12][]12}}
\@writefile{lof}{\contentsline {figure}{\numberline {1.2}{\ignorespaces Motoren\relax }}{12}\protected@file@percent }
\newlabel{im60p}{{1.3a}{13}}
\newlabel{im60p@cref}{{[subfigure][1][1,3]1.3a}{[1][12][]13}}
\newlabel{sub@im60p}{{a}{13}}
\newlabel{sub@im60p@cref}{{[subfigure][1][1,3]1.3a}{[1][12][]13}}
\newlabel{im125p}{{1.3b}{13}}
\newlabel{im125p@cref}{{[subfigure][2][1,3]1.3b}{[1][12][]13}}
\newlabel{sub@im125p}{{b}{13}}
\newlabel{sub@im125p@cref}{{[subfigure][2][1,3]1.3b}{[1][12][]13}}
\@writefile{lof}{\contentsline {figure}{\numberline {1.3}{\ignorespaces Printplaten die de motoren aansturen\relax }}{13}\protected@file@percent }
\@writefile{toc}{\contentsline {section}{\numberline {1.2}Probleemstelling}{13}\protected@file@percent }
\@writefile{toc}{\contentsline {section}{\numberline {1.3}Doelstelling}{14}\protected@file@percent }
\@writefile{lof}{\contentsline {figure}{\numberline {1.4}{\ignorespaces V-model\relax }}{14}\protected@file@percent }
\newlabel{vmodel}{{1.4}{14}}
\newlabel{vmodel@cref}{{[figure][4][1]1.4}{[1][14][]14}}
\citation{Yourdon1979}
\@writefile{toc}{\contentsline {chapter}{\numberline {2.}Requirements}{15}\protected@file@percent }
\@writefile{lof}{\addvspace {10pt}}
\@writefile{lot}{\addvspace {10pt}}
\@writefile{lof}{\contentsline {xchapter}{Requirements}{15}\protected@file@percent }
\@writefile{lot}{\contentsline {xchapter}{Requirements}{15}\protected@file@percent }
\newlabel{hs:h2}{{2}{15}}
\newlabel{hs:h2@cref}{{[chapter][2][]2}{[1][15][]15}}
\@writefile{toc}{\contentsline {section}{\numberline {2.1}Inleiding}{15}\protected@file@percent }
\newlabel{hs:h21}{{2.1}{15}}
\newlabel{hs:h21@cref}{{[section][1][2]2.1}{[1][15][]15}}
\@writefile{toc}{\contentsline {section}{\numberline {2.2}Algemene beschrijving}{15}\protected@file@percent }
\newlabel{hs:h22}{{2.2}{15}}
\newlabel{hs:h22@cref}{{[section][2][2]2.2}{[1][15][]15}}
\@writefile{toc}{\contentsline {section}{\numberline {2.3}Systeemcontext}{15}\protected@file@percent }
\newlabel{hs:h23}{{2.3}{15}}
\newlabel{hs:h23@cref}{{[section][3][2]2.3}{[1][15][]15}}
\@writefile{toc}{\contentsline {subsection}{\numberline {2.3.1}Systeemfuncties}{15}\protected@file@percent }
\newlabel{hs:h231}{{2.3.1}{15}}
\newlabel{hs:h231@cref}{{[subsection][1][2,3]2.3.1}{[1][15][]15}}
\@writefile{lof}{\contentsline {figure}{\numberline {2.1}{\ignorespaces Data Context Diagram\relax }}{16}\protected@file@percent }
\newlabel{DCD}{{2.1}{16}}
\newlabel{DCD@cref}{{[figure][1][2]2.1}{[1][16][]16}}
\@writefile{toc}{\contentsline {section}{\numberline {2.4}Systeemfuncties}{17}\protected@file@percent }
\newlabel{hs:h24}{{2.4}{17}}
\newlabel{hs:h24@cref}{{[section][4][2]2.4}{[1][17][]17}}
\@writefile{toc}{\contentsline {subsection}{\numberline {2.4.1}Draadloze data overdracht}{17}\protected@file@percent }
\newlabel{hs:h241}{{2.4.1}{17}}
\newlabel{hs:h241@cref}{{[subsection][1][2,4]2.4.1}{[1][17][]17}}
\@writefile{toc}{\contentsline {subsubsection}{Stimulus en response}{17}\protected@file@percent }
\newlabel{2411}{{2.4.1}{17}}
\newlabel{2411@cref}{{[subsection][1][2,4]2.4.1}{[1][17][]17}}
\@writefile{toc}{\contentsline {subsubsection}{Functionele klanteisen}{17}\protected@file@percent }
\newlabel{2411}{{2.4.1}{17}}
\newlabel{2411@cref}{{[subsection][1][2,4]2.4.1}{[1][17][]17}}
\@writefile{toc}{\contentsline {subsection}{\numberline {2.4.2}Uitlezen en opslag data}{18}\protected@file@percent }
\newlabel{hs:h242}{{2.4.2}{18}}
\newlabel{hs:h242@cref}{{[subsection][2][2,4]2.4.2}{[1][18][]18}}
\@writefile{toc}{\contentsline {subsubsection}{Stimulus en response}{18}\protected@file@percent }
\newlabel{2421}{{2.4.2}{18}}
\newlabel{2421@cref}{{[subsection][2][2,4]2.4.2}{[1][18][]18}}
\@writefile{toc}{\contentsline {subsubsection}{Functionele klanteisen}{18}\protected@file@percent }
\newlabel{2421}{{2.4.2}{18}}
\newlabel{2421@cref}{{[subsection][2][2,4]2.4.2}{[1][18][]18}}
\@writefile{toc}{\contentsline {subsection}{\numberline {2.4.3}Updaten systeem en bestaande module (Optioneel)}{19}\protected@file@percent }
\newlabel{hs:h243}{{2.4.3}{19}}
\newlabel{hs:h243@cref}{{[subsection][3][2,4]2.4.3}{[1][19][]19}}
\@writefile{toc}{\contentsline {subsubsection}{Stimulus en response}{19}\protected@file@percent }
\newlabel{2431}{{2.4.3}{19}}
\newlabel{2431@cref}{{[subsection][3][2,4]2.4.3}{[1][19][]19}}
\@writefile{toc}{\contentsline {subsubsection}{Functionele klanteisen}{19}\protected@file@percent }
\newlabel{2431}{{2.4.3}{19}}
\newlabel{2431@cref}{{[subsection][3][2,4]2.4.3}{[1][19][]19}}
\@writefile{toc}{\contentsline {section}{\numberline {2.5}Niet-functionele klanteisen}{19}\protected@file@percent }
\newlabel{hs:h25}{{2.5}{19}}
\newlabel{hs:h25@cref}{{[section][5][2]2.5}{[1][19][]19}}
\@writefile{toc}{\contentsline {chapter}{\numberline {3.}Architectuur}{20}\protected@file@percent }
\@writefile{lof}{\addvspace {10pt}}
\@writefile{lot}{\addvspace {10pt}}
\@writefile{lof}{\contentsline {xchapter}{Architectuur}{20}\protected@file@percent }
\@writefile{lot}{\contentsline {xchapter}{Architectuur}{20}\protected@file@percent }
\@writefile{toc}{\contentsline {section}{\numberline {3.1}Ontwerpbesluiten}{20}\protected@file@percent }
\@writefile{toc}{\contentsline {section}{\numberline {3.2}Deelsystemen en koppelingen}{21}\protected@file@percent }
\@writefile{lof}{\contentsline {figure}{\numberline {3.1}{\ignorespaces Data Flow Diagram 0\relax }}{21}\protected@file@percent }
\newlabel{DFD0}{{3.1}{21}}
\newlabel{DFD0@cref}{{[figure][1][3]3.1}{[1][21][]21}}
\@writefile{toc}{\contentsline {section}{\numberline {3.3}Beschrijving deelsystemen}{22}\protected@file@percent }
\@writefile{lof}{\contentsline {figure}{\numberline {3.2}{\ignorespaces Architectuur Interconnect Diagram\relax }}{22}\protected@file@percent }
\newlabel{AID}{{3.2}{22}}
\newlabel{AID@cref}{{[figure][2][3]3.2}{[1][22][]22}}
\@writefile{toc}{\contentsline {section}{\numberline {3.4}Beschrijving interconnects}{23}\protected@file@percent }
\@writefile{toc}{\contentsline {subsection}{\numberline {3.4.1}Deelsysteem 1: Control Data}{24}\protected@file@percent }
\@writefile{lof}{\contentsline {figure}{\numberline {3.3}{\ignorespaces Data Flow Diagram 1\relax }}{24}\protected@file@percent }
\newlabel{DFD1}{{3.3}{24}}
\newlabel{DFD1@cref}{{[figure][3][3]3.3}{[1][24][]24}}
\@writefile{toc}{\contentsline {subsubsection}{Deelsysteem 1.1: Execute functions}{25}\protected@file@percent }
\@writefile{toc}{\contentsline {subsubsection}{Deelsysteem 1.2. Control Saved Data}{25}\protected@file@percent }
\@writefile{toc}{\contentsline {subsubsection}{Deelsysteem 1.3. Communicate Motor Control Unit}{25}\protected@file@percent }
\@writefile{toc}{\contentsline {subsection}{\numberline {3.4.2}Deelsysteem 2: Transceive Data}{26}\protected@file@percent }
\@writefile{toc}{\contentsline {subsection}{\numberline {3.4.3}Deelsysteem 3: Flash Light}{26}\protected@file@percent }
\@writefile{toc}{\contentsline {section}{\numberline {3.5}Traceerbaarheid klanteisen}{26}\protected@file@percent }
\@writefile{lot}{\contentsline {table}{\numberline {3.1}{\ignorespaces Traceertabel Requirements \relax }}{26}\protected@file@percent }
\newlabel{tab:tr}{{3.1}{26}}
\newlabel{tab:tr@cref}{{[table][1][3]3.1}{[1][26][]26}}
\@writefile{toc}{\contentsline {chapter}{\numberline {4.}Detailontwerp}{27}\protected@file@percent }
\@writefile{lof}{\addvspace {10pt}}
\@writefile{lot}{\addvspace {10pt}}
\@writefile{lof}{\contentsline {xchapter}{Detailontwerp}{27}\protected@file@percent }
\@writefile{lot}{\contentsline {xchapter}{Detailontwerp}{27}\protected@file@percent }
\@writefile{toc}{\contentsline {section}{\numberline {4.1}Deelsystemen 1 \& 2}{27}\protected@file@percent }
\@writefile{toc}{\contentsline {paragraph}{Nordic}{27}\protected@file@percent }
\@writefile{toc}{\contentsline {paragraph}{ST}{27}\protected@file@percent }
\@writefile{toc}{\contentsline {paragraph}{NXP}{28}\protected@file@percent }
\@writefile{toc}{\contentsline {paragraph}{TI}{28}\protected@file@percent }
\@writefile{toc}{\contentsline {paragraph}{Silicon Labs}{28}\protected@file@percent }
\@writefile{toc}{\contentsline {paragraph}{Conclusie}{28}\protected@file@percent }
\@writefile{lot}{\contentsline {table}{\numberline {4.1}{\ignorespaces Keuze matrix Draadloze MCU (*Prijzen Mouser rond 03-03-2020)\relax }}{29}\protected@file@percent }
\newlabel{tabmcu}{{4.1}{29}}
\newlabel{tabmcu@cref}{{[table][1][4]4.1}{[1][29][]29}}
\@writefile{lof}{\contentsline {figure}{\numberline {4.1}{\ignorespaces BT840 Bluetooth module van Fanstel\relax }}{30}\protected@file@percent }
\newlabel{BT840}{{4.1}{30}}
\newlabel{BT840@cref}{{[figure][1][4]4.1}{[1][30][]30}}
\@writefile{lof}{\contentsline {figure}{\numberline {4.2}{\ignorespaces Een schermopname van een deel uit de datasheet van de BT840\relax }}{31}\protected@file@percent }
\newlabel{dsbt840}{{4.2}{31}}
\newlabel{dsbt840@cref}{{[figure][2][4]4.2}{[1][31][]31}}
\@writefile{lof}{\contentsline {figure}{\numberline {4.3}{\ignorespaces Ontwerp BT840 in Altium\relax }}{32}\protected@file@percent }
\newlabel{schbt840}{{4.3}{32}}
\newlabel{schbt840@cref}{{[figure][3][4]4.3}{[1][31][]32}}
\@writefile{toc}{\contentsline {section}{\numberline {4.2}Deelsysteem 1.2: Control saved data}{33}\protected@file@percent }
\@writefile{lof}{\contentsline {figure}{\numberline {4.4}{\ignorespaces Ontwerp MX25R6435FM2IH0 in Altium\relax }}{33}\protected@file@percent }
\newlabel{flash}{{4.4}{33}}
\newlabel{flash@cref}{{[figure][4][4]4.4}{[1][33][]33}}
\@writefile{lof}{\contentsline {figure}{\numberline {4.5}{\ignorespaces SPI transactie nRF52840\relax }}{34}\protected@file@percent }
\newlabel{spi}{{4.5}{34}}
\newlabel{spi@cref}{{[figure][5][4]4.5}{[1][33][]34}}
\@writefile{toc}{\contentsline {subsection}{\numberline {4.2.1}Software}{34}\protected@file@percent }
\@writefile{lof}{\contentsline {figure}{\numberline {4.6}{\ignorespaces Flowdiagram transmit\relax }}{35}\protected@file@percent }
\newlabel{spitx}{{4.6}{35}}
\newlabel{spitx@cref}{{[figure][6][4]4.6}{[1][35][]35}}
\@writefile{lof}{\contentsline {figure}{\numberline {4.7}{\ignorespaces Flowdiagram receive\relax }}{36}\protected@file@percent }
\newlabel{spirx}{{4.7}{36}}
\newlabel{spirx@cref}{{[figure][7][4]4.7}{[1][36][]36}}
\@writefile{lof}{\contentsline {figure}{\numberline {4.8}{\ignorespaces Indeling adressen flash geheugen\relax }}{36}\protected@file@percent }
\newlabel{spimem}{{4.8}{36}}
\newlabel{spimem@cref}{{[figure][8][4]4.8}{[1][36][]36}}
\@writefile{toc}{\contentsline {section}{\numberline {4.3}Deelsysteem 1.3: Communicate Motor Control Unit}{37}\protected@file@percent }
\@writefile{lof}{\contentsline {figure}{\numberline {4.9}{\ignorespaces Easydma nRF52840\relax }}{37}\protected@file@percent }
\newlabel{dma}{{4.9}{37}}
\newlabel{dma@cref}{{[figure][9][4]4.9}{[1][37][]37}}
\@writefile{toc}{\contentsline {subsection}{\numberline {4.3.1}TX}{38}\protected@file@percent }
\@writefile{lof}{\contentsline {figure}{\numberline {4.10}{\ignorespaces Zenden UART\relax }}{38}\protected@file@percent }
\newlabel{uarttx}{{4.10}{38}}
\newlabel{uarttx@cref}{{[figure][10][4]4.10}{[1][38][]38}}
\@writefile{toc}{\contentsline {subsection}{\numberline {4.3.2}RX}{39}\protected@file@percent }
\@writefile{toc}{\contentsline {subsubsection}{Software deelsysteem 1}{40}\protected@file@percent }
\@writefile{toc}{\contentsline {subsubsection}{Software deelsysteem 2}{40}\protected@file@percent }
\@writefile{toc}{\contentsline {section}{\numberline {4.4}Unit 2: Transceive data}{41}\protected@file@percent }
\@writefile{lof}{\contentsline {figure}{\numberline {4.11}{\ignorespaces Mesh models\relax }}{41}\protected@file@percent }
\newlabel{meshmodels}{{4.11}{41}}
\newlabel{meshmodels@cref}{{[figure][11][4]4.11}{[1][41][]41}}
\@writefile{lof}{\contentsline {figure}{\numberline {4.12}{\ignorespaces Rotary Switch\relax }}{42}\protected@file@percent }
\newlabel{rotaryswitch}{{4.12}{42}}
\newlabel{rotaryswitch@cref}{{[figure][12][4]4.12}{[1][42][]42}}
\@writefile{lof}{\contentsline {figure}{\numberline {4.13}{\ignorespaces Publish/subscribe\relax }}{43}\protected@file@percent }
\newlabel{publish/subscribe}{{4.13}{43}}
\newlabel{publish/subscribe@cref}{{[figure][13][4]4.13}{[1][43][]43}}
\@writefile{lof}{\contentsline {figure}{\numberline {4.14}{\ignorespaces Proxy server\relax }}{44}\protected@file@percent }
\newlabel{proxy}{{4.14}{44}}
\newlabel{proxy@cref}{{[figure][14][4]4.14}{[1][44][]44}}
\@writefile{lof}{\contentsline {figure}{\numberline {4.15}{\ignorespaces De \texttt  {generic\textunderscore level\textunderscore state\textunderscore set\textunderscore cb} functie\relax }}{45}\protected@file@percent }
\newlabel{switchcase}{{4.15}{45}}
\newlabel{switchcase@cref}{{[figure][15][4]4.15}{[1][45][]45}}
\@writefile{lof}{\contentsline {figure}{\numberline {4.16}{\ignorespaces Mesh app waarmee de nodes aangestuurd kunnen worden.\relax }}{46}\protected@file@percent }
\newlabel{levelcontrol}{{4.16}{46}}
\newlabel{levelcontrol@cref}{{[figure][16][4]4.16}{[1][46][]46}}
\@writefile{toc}{\contentsline {section}{\numberline {4.5}Unit 3: LED schakeling}{47}\protected@file@percent }
\@writefile{lof}{\contentsline {figure}{\numberline {4.17}{\ignorespaces Ontwerp LED Altium\relax }}{48}\protected@file@percent }
\newlabel{ontwerpLED}{{4.17}{48}}
\newlabel{ontwerpLED@cref}{{[figure][17][4]4.17}{[1][48][]48}}
\newlabel{eqfet}{{4.1}{48}}
\newlabel{eqfet@cref}{{[equation][1][4]4.1}{[1][48][]48}}
\@writefile{lof}{\contentsline {figure}{\numberline {4.18}{\ignorespaces Warmte weerstand $Rds_{ON}$\relax }}{49}\protected@file@percent }
\newlabel{pulse}{{4.18}{49}}
\newlabel{pulse@cref}{{[figure][18][4]4.18}{[1][49][]49}}
\@writefile{toc}{\contentsline {chapter}{\numberline {5.}Realisatie}{50}\protected@file@percent }
\@writefile{lof}{\addvspace {10pt}}
\@writefile{lot}{\addvspace {10pt}}
\@writefile{lof}{\contentsline {xchapter}{Realisatie}{50}\protected@file@percent }
\@writefile{lot}{\contentsline {xchapter}{Realisatie}{50}\protected@file@percent }
\@writefile{toc}{\contentsline {section}{\numberline {5.1}Realisatie Hardware}{50}\protected@file@percent }
\newlabel{PCB2DTOP}{{5.1a}{51}}
\newlabel{PCB2DTOP@cref}{{[subfigure][1][5,1]5.1a}{[1][51][]51}}
\newlabel{sub@PCB2DTOP}{{a}{51}}
\newlabel{sub@PCB2DTOP@cref}{{[subfigure][1][5,1]5.1a}{[1][51][]51}}
\newlabel{PCB2DBOT}{{5.1b}{51}}
\newlabel{PCB2DBOT@cref}{{[subfigure][2][5,1]5.1b}{[1][51][]51}}
\newlabel{sub@PCB2DBOT}{{b}{51}}
\newlabel{sub@PCB2DBOT@cref}{{[subfigure][2][5,1]5.1b}{[1][51][]51}}
\@writefile{lof}{\contentsline {figure}{\numberline {5.1}{\ignorespaces 2D tekeningen van de printplaten\relax }}{51}\protected@file@percent }
\newlabel{PCB3DTOP}{{5.2a}{52}}
\newlabel{PCB3DTOP@cref}{{[subfigure][1][5,2]5.2a}{[1][51][]52}}
\newlabel{sub@PCB3DTOP}{{a}{52}}
\newlabel{sub@PCB3DTOP@cref}{{[subfigure][1][5,2]5.2a}{[1][51][]52}}
\newlabel{PCB3DBOT}{{5.2b}{52}}
\newlabel{PCB3DBOT@cref}{{[subfigure][2][5,2]5.2b}{[1][51][]52}}
\newlabel{sub@PCB3DBOT}{{b}{52}}
\newlabel{sub@PCB3DBOT@cref}{{[subfigure][2][5,2]5.2b}{[1][51][]52}}
\@writefile{lof}{\contentsline {figure}{\numberline {5.2}{\ignorespaces 3D tekeningen van de printplaten\relax }}{52}\protected@file@percent }
\@writefile{toc}{\contentsline {section}{\numberline {5.2}Componenten}{53}\protected@file@percent }
\@writefile{toc}{\contentsline {section}{\numberline {5.3}Program connector}{54}\protected@file@percent }
\newlabel{progont}{{5.3a}{54}}
\newlabel{progont@cref}{{[subfigure][1][5,3]5.3a}{[1][54][]54}}
\newlabel{sub@progont}{{a}{54}}
\newlabel{sub@progont@cref}{{[subfigure][1][5,3]5.3a}{[1][54][]54}}
\newlabel{progrea}{{5.3b}{54}}
\newlabel{progrea@cref}{{[subfigure][2][5,3]5.3b}{[1][54][]54}}
\newlabel{sub@progrea}{{b}{54}}
\newlabel{sub@progrea@cref}{{[subfigure][2][5,3]5.3b}{[1][54][]54}}
\@writefile{lof}{\contentsline {figure}{\numberline {5.3}{\ignorespaces Program connector\relax }}{54}\protected@file@percent }
\@writefile{toc}{\contentsline {section}{\numberline {5.4}Software}{55}\protected@file@percent }
\@writefile{toc}{\contentsline {chapter}{\numberline {6.}Conclusie}{56}\protected@file@percent }
\@writefile{lof}{\addvspace {10pt}}
\@writefile{lot}{\addvspace {10pt}}
\@writefile{lof}{\contentsline {xchapter}{Conclusie}{56}\protected@file@percent }
\@writefile{lot}{\contentsline {xchapter}{Conclusie}{56}\protected@file@percent }
\@writefile{toc}{\contentsline {chapter}{Appendices}{57}\protected@file@percent }
\@writefile{toc}{\contentsline {chapter}{\numberline {A.}Onderzoek Bluetooth mesh}{58}\protected@file@percent }
\@writefile{lof}{\addvspace {10pt}}
\@writefile{lot}{\addvspace {10pt}}
\@writefile{lof}{\contentsline {xchapter}{Onderzoek Bluetooth mesh}{58}\protected@file@percent }
\@writefile{lot}{\contentsline {xchapter}{Onderzoek Bluetooth mesh}{58}\protected@file@percent }
\newlabel{ondmesh}{{A}{58}}
\newlabel{ondmesh@cref}{{[chapter][1][]A}{[1][58][]58}}
\@writefile{toc}{\contentsline {section}{\numberline {A.1}Inleiding}{59}\protected@file@percent }
\@writefile{toc}{\contentsline {section}{\numberline {A.2}Bleutooth Low Energie}{59}\protected@file@percent }
\@writefile{lof}{\contentsline {figure}{\numberline {A.1}{\ignorespaces BLE stack\relax }}{59}\protected@file@percent }
\newlabel{blestack}{{A.1}{59}}
\newlabel{blestack@cref}{{[figure][1][1]A.1}{[1][59][]59}}
\@writefile{toc}{\contentsline {paragraph}{Physical layer}{60}\protected@file@percent }
\@writefile{lof}{\contentsline {figure}{\numberline {A.2}{\ignorespaces Fequentiespectrum\relax }}{60}\protected@file@percent }
\newlabel{freqhop}{{A.2}{60}}
\newlabel{freqhop@cref}{{[figure][2][1]A.2}{[1][60][]60}}
\@writefile{toc}{\contentsline {paragraph}{Link layer}{60}\protected@file@percent }
\@writefile{toc}{\contentsline {paragraph}{L2CAP}{60}\protected@file@percent }
\@writefile{toc}{\contentsline {paragraph}{GAP}{60}\protected@file@percent }
\@writefile{toc}{\contentsline {paragraph}{Attribute Protocol}{61}\protected@file@percent }
\@writefile{lof}{\contentsline {figure}{\numberline {A.3}{\ignorespaces Attribute structure\relax }}{61}\protected@file@percent }
\newlabel{attstruct}{{A.3}{61}}
\newlabel{attstruct@cref}{{[figure][3][1]A.3}{[1][61][]61}}
\@writefile{toc}{\contentsline {paragraph}{GATT}{62}\protected@file@percent }
\@writefile{toc}{\contentsline {section}{\numberline {A.3}Bluetooth mesh}{62}\protected@file@percent }
\@writefile{lof}{\contentsline {figure}{\numberline {A.4}{\ignorespaces Mesh layers\relax }}{62}\protected@file@percent }
\newlabel{meshlayer}{{A.4}{62}}
\newlabel{meshlayer@cref}{{[figure][4][1]A.4}{[1][62][]62}}
\@writefile{toc}{\contentsline {paragraph}{Bearer Layer}{63}\protected@file@percent }
\@writefile{toc}{\contentsline {paragraph}{Network Layer}{63}\protected@file@percent }
\@writefile{toc}{\contentsline {paragraph}{Lower Transport Layer}{63}\protected@file@percent }
\@writefile{toc}{\contentsline {paragraph}{Upper Transport Layer}{63}\protected@file@percent }
\@writefile{toc}{\contentsline {paragraph}{Acces Layer}{63}\protected@file@percent }
\@writefile{toc}{\contentsline {paragraph}{Foundation Model Layer}{63}\protected@file@percent }
\@writefile{toc}{\contentsline {paragraph}{Model layer}{63}\protected@file@percent }
\@writefile{lof}{\contentsline {figure}{\numberline {A.5}{\ignorespaces Mesh Netwerk\relax }}{64}\protected@file@percent }
\newlabel{meshnetwerk}{{A.5}{64}}
\newlabel{meshnetwerk@cref}{{[figure][5][1]A.5}{[1][64][]64}}
\@writefile{toc}{\contentsline {section}{\numberline {A.4}Test mesh}{65}\protected@file@percent }
\@writefile{lof}{\contentsline {figure}{\numberline {A.6}{\ignorespaces Mesh layers\relax }}{65}\protected@file@percent }
\newlabel{testmesh}{{A.6}{65}}
\newlabel{testmesh@cref}{{[figure][6][1]A.6}{[1][65][]65}}
\@writefile{toc}{\contentsline {section}{\numberline {A.5}Conclusie}{66}\protected@file@percent }
\citation{Specification2018}
\citation{Campbell1966}
\@writefile{toc}{\contentsline {chapter}{\numberline {B.}Onderzoek LED}{67}\protected@file@percent }
\@writefile{lof}{\addvspace {10pt}}
\@writefile{lot}{\addvspace {10pt}}
\@writefile{lof}{\contentsline {xchapter}{Onderzoek LED}{67}\protected@file@percent }
\@writefile{lot}{\contentsline {xchapter}{Onderzoek LED}{67}\protected@file@percent }
\newlabel{ondled}{{B}{67}}
\newlabel{ondled@cref}{{[chapter][2][]B}{[1][67][]67}}
\@writefile{toc}{\contentsline {section}{\numberline {B.1}DC-DC conversie}{67}\protected@file@percent }
\@writefile{lof}{\contentsline {figure}{\numberline {B.1}{\ignorespaces LED Forward Current en Load https://www.allaboutcircuits.com/technical-articles/the-basics-behind-constant-current-led-drive-circuitry/\relax }}{68}\protected@file@percent }
\newlabel{ILED}{{B.1}{68}}
\newlabel{ILED@cref}{{[figure][1][2]B.1}{[1][67][]68}}
\@writefile{toc}{\contentsline {subsection}{\numberline {B.1.1}Charge pump}{68}\protected@file@percent }
\@writefile{lof}{\contentsline {figure}{\numberline {B.2}{\ignorespaces Charge pump\relax }}{68}\protected@file@percent }
\newlabel{VD}{{B.2}{68}}
\newlabel{VD@cref}{{[figure][2][2]B.2}{[1][67][]68}}
\newlabel{eqvc2}{{B.2}{69}}
\newlabel{eqvc2@cref}{{[equation][2][2]B.2}{[1][69][]69}}
\newlabel{eqvc2}{{B.3}{69}}
\newlabel{eqvc2@cref}{{[equation][3][2]B.3}{[1][69][]69}}
\@writefile{toc}{\contentsline {subsubsection}{Simulatie en opbouw Charge pump}{70}\protected@file@percent }
\@writefile{lof}{\contentsline {figure}{\numberline {B.3}{\ignorespaces Chargepump in LT spice opgebouwd\relax }}{70}\protected@file@percent }
\newlabel{CPLT}{{B.3}{70}}
\newlabel{CPLT@cref}{{[figure][3][2]B.3}{[1][70][]70}}
\@writefile{lof}{\contentsline {figure}{\numberline {B.4}{\ignorespaces Vout in simulatie\relax }}{71}\protected@file@percent }
\newlabel{VOCPLT}{{B.4}{71}}
\newlabel{VOCPLT@cref}{{[figure][4][2]B.4}{[1][71][]71}}
\@writefile{lof}{\contentsline {figure}{\numberline {B.5}{\ignorespaces Vout in scope\relax }}{72}\protected@file@percent }
\newlabel{VOSLT}{{B.5}{72}}
\newlabel{VOSLT@cref}{{[figure][5][2]B.5}{[1][72][]72}}
\@writefile{lof}{\contentsline {figure}{\numberline {B.6}{\ignorespaces Rimpel in stroom aan voeding\relax }}{73}\protected@file@percent }
\newlabel{3v3rimpel}{{B.6}{73}}
\newlabel{3v3rimpel@cref}{{[figure][6][2]B.6}{[1][73][]73}}
\@writefile{toc}{\contentsline {subsubsection}{BOM charge pump}{74}\protected@file@percent }
\newlabel{BOM chargePUMP}{{\caption@xref {BOM chargePUMP}{ on input line 1089}}{74}}
\newlabel{BOM chargePUMP@cref}{{[subsection][1][2,1]B.1.1}{[1][74][]74}}
\@writefile{toc}{\contentsline {subsection}{\numberline {B.1.2}Boost Converter}{75}\protected@file@percent }
\@writefile{lof}{\contentsline {figure}{\numberline {B.7}{\ignorespaces Schema boost converter\relax }}{75}\protected@file@percent }
\newlabel{LEDNPN}{{B.7}{75}}
\newlabel{LEDNPN@cref}{{[figure][7][2]B.7}{[1][75][]75}}
\newlabel{ipk}{{B.14}{76}}
\newlabel{ipk@cref}{{[equation][14][2]B.14}{[1][76][]76}}
\@writefile{lof}{\contentsline {figure}{\numberline {B.8}{\ignorespaces LTspice boost converter simulatie\relax }}{77}\protected@file@percent }
\newlabel{boostsim}{{B.8}{77}}
\newlabel{boostsim@cref}{{[figure][8][2]B.8}{[1][77][]77}}
\@writefile{lof}{\contentsline {figure}{\numberline {B.9}{\ignorespaces LTspice output stroom V1\relax }}{77}\protected@file@percent }
\newlabel{v1sim}{{B.9}{77}}
\newlabel{v1sim@cref}{{[figure][9][2]B.9}{[1][77][]77}}
\@writefile{lof}{\contentsline {figure}{\numberline {B.10}{\ignorespaces LTspice output stroom en spanning R1\relax }}{78}\protected@file@percent }
\newlabel{R1sim}{{B.10}{78}}
\newlabel{R1sim@cref}{{[figure][10][2]B.10}{[1][78][]78}}
\@writefile{toc}{\contentsline {subsection}{\numberline {B.1.3}Schakelen LED}{79}\protected@file@percent }
\@writefile{toc}{\contentsline {subsubsection}{Schakelen met transistor}{79}\protected@file@percent }
\@writefile{lof}{\contentsline {figure}{\numberline {B.11}{\ignorespaces LED aangestuurd d.m.v. NPN\relax }}{79}\protected@file@percent }
\newlabel{LEDNPN}{{B.11}{79}}
\newlabel{LEDNPN@cref}{{[figure][11][2]B.11}{[1][79][]79}}
\newlabel{eqr3}{{B.17}{80}}
\newlabel{eqr3@cref}{{[equation][17][2]B.17}{[1][80][]80}}
\@writefile{toc}{\contentsline {subsection}{\numberline {B.1.4}Schakelen met FET}{81}\protected@file@percent }
\@writefile{lof}{\contentsline {figure}{\numberline {B.12}{\ignorespaces LED aangestuurd d.m.v. NMOS\relax }}{81}\protected@file@percent }
\newlabel{NMOSLED}{{B.12}{81}}
\newlabel{NMOSLED@cref}{{[figure][12][2]B.12}{[1][81][]81}}
\@writefile{toc}{\contentsline {section}{\numberline {B.2}Conclusie}{82}\protected@file@percent }
\citation{cbs}
\@writefile{toc}{\contentsline {chapter}{\numberline {C.}Onderzoek draadloze technologieën}{83}\protected@file@percent }
\@writefile{lof}{\addvspace {10pt}}
\@writefile{lot}{\addvspace {10pt}}
\@writefile{lof}{\contentsline {xchapter}{Onderzoek draadloze technologieën}{83}\protected@file@percent }
\@writefile{lot}{\contentsline {xchapter}{Onderzoek draadloze technologieën}{83}\protected@file@percent }
\newlabel{onddr}{{C}{83}}
\newlabel{onddr@cref}{{[chapter][3][]C}{[1][83][]83}}
\@writefile{toc}{\contentsline {section}{\numberline {C.1}Inleiding}{83}\protected@file@percent }
\newlabel{stal1}{{C.1a}{84}}
\newlabel{stal1@cref}{{[subfigure][1][3,1]C.1a}{[1][84][]84}}
\newlabel{sub@stal1}{{a}{84}}
\newlabel{sub@stal1@cref}{{[subfigure][1][3,1]C.1a}{[1][84][]84}}
\newlabel{stal2}{{C.1b}{84}}
\newlabel{stal2@cref}{{[subfigure][2][3,1]C.1b}{[1][84][]84}}
\newlabel{sub@stal2}{{b}{84}}
\newlabel{sub@stal2@cref}{{[subfigure][2][3,1]C.1b}{[1][84][]84}}
\@writefile{lof}{\contentsline {figure}{\numberline {C.1}{\ignorespaces Mogelijke ophanging motor\relax }}{84}\protected@file@percent }
\citation{los}
\citation{topo}
\@writefile{toc}{\contentsline {section}{\numberline {C.2}Draadloze technologieën}{85}\protected@file@percent }
\@writefile{lof}{\contentsline {figure}{\numberline {C.2}{\ignorespaces Line Of Sight \relax }}{85}\protected@file@percent }
\newlabel{los}{{C.2}{85}}
\newlabel{los@cref}{{[figure][2][3]C.2}{[1][85][]85}}
\citation{Verma2013}
\citation{Zhao2014}
\citation{meshfaq}
\citation{meshfaq}
\citation{Yaakop2017}
\citation{zigbee}
\citation{Ali-rantala}
\citation{Chruszczyk2017}
\@writefile{toc}{\contentsline {subsection}{\numberline {C.2.1}Frequentie, bereik en maximale snelheid}{86}\protected@file@percent }
\citation{DelaCruz2016}
\citation{starmesh}
\citation{hu2013}
\@writefile{toc}{\contentsline {subsection}{\numberline {C.2.2}Topologie en gebruik smartphone}{87}\protected@file@percent }
\newlabel{star}{{C.3a}{87}}
\newlabel{star@cref}{{[subfigure][1][3,3]C.3a}{[1][87][]87}}
\newlabel{sub@star}{{a}{87}}
\newlabel{sub@star@cref}{{[subfigure][1][3,3]C.3a}{[1][87][]87}}
\newlabel{mesh}{{C.3b}{87}}
\newlabel{mesh@cref}{{[subfigure][2][3,3]C.3b}{[1][87][]87}}
\newlabel{sub@mesh}{{b}{87}}
\newlabel{sub@mesh@cref}{{[subfigure][2][3,3]C.3b}{[1][87][]87}}
\@writefile{lof}{\contentsline {figure}{\numberline {C.3}{\ignorespaces Twee verschillende netwerk configuraties\relax }}{87}\protected@file@percent }
\citation{blfees}
\citation{lora}
\citation{zigbee}
\@writefile{toc}{\contentsline {subsection}{\numberline {C.2.3}Kosten}{88}\protected@file@percent }
\@writefile{toc}{\contentsline {section}{\numberline {C.3}Conclusie}{89}\protected@file@percent }
\@writefile{lot}{\contentsline {table}{\numberline {C.1}{\ignorespaces Overzicht draadloze verbindingen\relax }}{89}\protected@file@percent }
\newlabel{tbWrlss}{{C.1}{89}}
\newlabel{tbWrlss@cref}{{[table][1][3]C.1}{[1][89][]89}}
\@writefile{toc}{\contentsline {chapter}{\numberline {D.}Plan Van Aanpak}{90}\protected@file@percent }
\@writefile{lof}{\addvspace {10pt}}
\@writefile{lot}{\addvspace {10pt}}
\@writefile{lof}{\contentsline {xchapter}{Plan Van Aanpak}{90}\protected@file@percent }
\@writefile{lot}{\contentsline {xchapter}{Plan Van Aanpak}{90}\protected@file@percent }
\newlabel{hs:vb}{{D}{90}}
\newlabel{hs:vb@cref}{{[chapter][4][]D}{[1][90][]90}}
\@writefile{lot}{\contentsline {table}{\numberline {D.1}{\ignorespaces Versiehistorie\relax }}{90}\protected@file@percent }
\newlabel{tab:vb}{{D.1}{90}}
\newlabel{tab:vb@cref}{{[table][1][4]D.1}{[1][90][]90}}
\@writefile{toc}{\contentsline {section}{\numberline {D.1}Achtergronden}{91}\protected@file@percent }
\newlabel{hs:h1}{{D.1}{91}}
\newlabel{hs:h1@cref}{{[section][1][4]D.1}{[1][91][]91}}
\newlabel{hs:h11}{{D.1}{91}}
\newlabel{hs:h11@cref}{{[section][1][4]D.1}{[1][91][]91}}
\newlabel{hs:h12}{{D.1}{91}}
\newlabel{hs:h12@cref}{{[section][1][4]D.1}{[1][91][]91}}
\newlabel{hs:h13}{{D.1}{91}}
\newlabel{hs:h13@cref}{{[section][1][4]D.1}{[1][91][]91}}
\@writefile{toc}{\contentsline {section}{\numberline {D.2}Projectresultaat}{91}\protected@file@percent }
\newlabel{hs:h2}{{D.2}{91}}
\newlabel{hs:h2@cref}{{[section][2][4]D.2}{[1][91][]91}}
\newlabel{hs:h21}{{D.2}{91}}
\newlabel{hs:h21@cref}{{[section][2][4]D.2}{[1][91][]91}}
\newlabel{hs:h22}{{D.2}{92}}
\newlabel{hs:h22@cref}{{[section][2][4]D.2}{[1][91][]92}}
\newlabel{hs:h3}{{D.2}{93}}
\newlabel{hs:h3@cref}{{[section][2][4]D.2}{[1][93][]93}}
\newlabel{hs:h31}{{D.2}{93}}
\newlabel{hs:h31@cref}{{[section][2][4]D.2}{[1][93][]93}}
\newlabel{hs:h32}{{D.2}{93}}
\newlabel{hs:h32@cref}{{[section][2][4]D.2}{[1][93][]93}}
\@writefile{toc}{\contentsline {section}{\numberline {D.4}Projectgrenzen en randvoorwaarden}{95}\protected@file@percent }
\newlabel{hs:h4}{{D.4}{95}}
\newlabel{hs:h4@cref}{{[section][4][4]D.4}{[1][95][]95}}
\newlabel{hs:h41}{{D.4}{95}}
\newlabel{hs:h41@cref}{{[section][4][4]D.4}{[1][95][]95}}
\newlabel{hs:h42}{{D.4}{95}}
\newlabel{hs:h42@cref}{{[section][4][4]D.4}{[1][95][]95}}
\@writefile{toc}{\contentsline {section}{\numberline {D.5}Tussenresultaten}{95}\protected@file@percent }
\newlabel{hs:h5}{{D.5}{95}}
\newlabel{hs:h5@cref}{{[section][5][4]D.5}{[1][95][]95}}
\newlabel{hs:h51}{{D.5}{95}}
\newlabel{hs:h51@cref}{{[section][5][4]D.5}{[1][95][]95}}
\newlabel{hs:h52}{{D.5}{95}}
\newlabel{hs:h52@cref}{{[section][5][4]D.5}{[1][95][]95}}
\@writefile{toc}{\contentsline {section}{\numberline {D.6}Kwaliteit}{96}\protected@file@percent }
\newlabel{hs:h6}{{D.6}{96}}
\newlabel{hs:h6@cref}{{[section][6][4]D.6}{[1][96][]96}}
\newlabel{hs:h61}{{D.6}{96}}
\newlabel{hs:h61@cref}{{[section][6][4]D.6}{[1][96][]96}}
\newlabel{hs:h62}{{D.6}{96}}
\newlabel{hs:h62@cref}{{[section][6][4]D.6}{[1][96][]96}}
\newlabel{hs:h63}{{D.6}{96}}
\newlabel{hs:h63@cref}{{[section][6][4]D.6}{[1][96][]96}}
\newlabel{hs:h64}{{D.6}{96}}
\newlabel{hs:h64@cref}{{[section][6][4]D.6}{[1][96][]96}}
\@writefile{toc}{\contentsline {section}{\numberline {D.7}Projectorganisatie}{97}\protected@file@percent }
\newlabel{hs:h7}{{D.7}{97}}
\newlabel{hs:h7@cref}{{[section][7][4]D.7}{[1][97][]97}}
\newlabel{hs:h71}{{D.7}{97}}
\newlabel{hs:h71@cref}{{[section][7][4]D.7}{[1][97][]97}}
\@writefile{lot}{\contentsline {table}{\numberline {D.2}{\ignorespaces Persoonlijke gegevens\relax }}{97}\protected@file@percent }
\newlabel{tab:pg}{{D.2}{97}}
\newlabel{tab:pg@cref}{{[table][2][4]D.2}{[1][97][]97}}
\newlabel{hs:h72}{{D.7}{97}}
\newlabel{hs:h72@cref}{{[section][7][4]D.7}{[1][97][]97}}
\newlabel{hs:h73}{{D.7}{97}}
\newlabel{hs:h73@cref}{{[section][7][4]D.7}{[1][97][]97}}
\newlabel{hs:h74}{{D.7}{97}}
\newlabel{hs:h74@cref}{{[section][7][4]D.7}{[1][97][]97}}
\@writefile{toc}{\contentsline {section}{\numberline {D.8}Planning}{99}\protected@file@percent }
\newlabel{hs:h8}{{D.8}{99}}
\newlabel{hs:h8@cref}{{[section][8][4]D.8}{[1][99][]99}}
\@writefile{toc}{\contentsline {section}{\numberline {D.9}Kosten en baten}{100}\protected@file@percent }
\newlabel{hs:h9}{{D.9}{100}}
\newlabel{hs:h9@cref}{{[section][9][4]D.9}{[1][100][]100}}
\newlabel{hs:h91}{{D.9}{100}}
\newlabel{hs:h91@cref}{{[section][9][4]D.9}{[1][100][]100}}
\newlabel{hs:h92}{{D.9}{100}}
\newlabel{hs:h92@cref}{{[section][9][4]D.9}{[1][100][]100}}
\newlabel{hs:h93}{{D.9}{100}}
\newlabel{hs:h93@cref}{{[section][9][4]D.9}{[1][100][]100}}
\@writefile{toc}{\contentsline {section}{\numberline {D.10}Risico's}{100}\protected@file@percent }
\newlabel{hs:h10}{{D.10}{100}}
\newlabel{hs:h10@cref}{{[section][10][4]D.10}{[1][100][]100}}
\newlabel{hs:h101}{{D.10}{100}}
\newlabel{hs:h101@cref}{{[section][10][4]D.10}{[1][100][]100}}
\newlabel{hs:h102}{{D.10}{101}}
\newlabel{hs:h102@cref}{{[section][10][4]D.10}{[1][100][]101}}
\newlabel{hs:h103}{{D.10}{101}}
\newlabel{hs:h103@cref}{{[section][10][4]D.10}{[1][101][]101}}
\@writefile{lot}{\contentsline {table}{\numberline {D.3}{\ignorespaces Externe Risico's\relax }}{102}\protected@file@percent }
\newlabel{tab:ra}{{D.3}{102}}
\newlabel{tab:ra@cref}{{[table][3][4]D.3}{[1][101][]102}}
\@writefile{lof}{\contentsline {figure}{\numberline {D.1}{\ignorespaces Planning deel 1\relax }}{104}\protected@file@percent }
\newlabel{planning}{{D.1}{104}}
\newlabel{planning@cref}{{[figure][1][4]D.1}{[1][99][]104}}
\@writefile{lof}{\contentsline {figure}{\numberline {D.2}{\ignorespaces Planning deel 2\relax }}{105}\protected@file@percent }
\@writefile{toc}{\contentsline {chapter}{\numberline {E.}Acceptatie test}{106}\protected@file@percent }
\@writefile{lof}{\addvspace {10pt}}
\@writefile{lot}{\addvspace {10pt}}
\@writefile{lof}{\contentsline {xchapter}{Acceptatie test}{106}\protected@file@percent }
\@writefile{lot}{\contentsline {xchapter}{Acceptatie test}{106}\protected@file@percent }
\newlabel{acctest}{{E}{106}}
\newlabel{acctest@cref}{{[chapter][5][]E}{[1][106][]106}}
\@writefile{toc}{\contentsline {section}{\numberline {E.1}Voorbereidingen acceptatietest}{106}\protected@file@percent }
\@writefile{toc}{\contentsline {subsection}{\numberline {E.1.1}Visuele testomgeving}{106}\protected@file@percent }
\@writefile{toc}{\contentsline {subsubsection}{Hardware}{106}\protected@file@percent }
\@writefile{toc}{\contentsline {subsubsection}{Software}{107}\protected@file@percent }
\@writefile{toc}{\contentsline {subsection}{\numberline {E.1.2}Testomgeving seriële verbinding}{107}\protected@file@percent }
\newlabel{to1}{{E.1.2}{107}}
\newlabel{to1@cref}{{[subsection][2][5,1]E.1.2}{[1][107][]107}}
\@writefile{toc}{\contentsline {subsubsection}{Hardware}{107}\protected@file@percent }
\@writefile{toc}{\contentsline {subsubsection}{Software}{107}\protected@file@percent }
\@writefile{toc}{\contentsline {subsubsection}{Overig}{107}\protected@file@percent }
\@writefile{toc}{\contentsline {subsection}{\numberline {E.1.3}Test mesh}{107}\protected@file@percent }
\newlabel{to2}{{E.1.3}{107}}
\newlabel{to2@cref}{{[subsection][3][5,1]E.1.3}{[1][107][]107}}
\@writefile{toc}{\contentsline {subsubsection}{Hardware}{107}\protected@file@percent }
\@writefile{toc}{\contentsline {subsubsection}{Software}{107}\protected@file@percent }
\@writefile{toc}{\contentsline {subsection}{\numberline {E.1.4}Test data opslag}{108}\protected@file@percent }
\newlabel{to3}{{E.1.4}{108}}
\newlabel{to3@cref}{{[subsection][4][5,1]E.1.4}{[1][108][]108}}
\@writefile{toc}{\contentsline {subsubsection}{Hardware}{108}\protected@file@percent }
\@writefile{toc}{\contentsline {subsubsection}{Software}{108}\protected@file@percent }
\@writefile{toc}{\contentsline {subsection}{\numberline {E.1.5}Test software update}{108}\protected@file@percent }
\newlabel{to4}{{E.1.5}{108}}
\newlabel{to4@cref}{{[subsection][5][5,1]E.1.5}{[1][108][]108}}
\@writefile{toc}{\contentsline {subsubsection}{Hardware}{108}\protected@file@percent }
\@writefile{toc}{\contentsline {section}{\numberline {E.2}Acceptatietestbeschrijvingen}{109}\protected@file@percent }
\@writefile{toc}{\contentsline {subsection}{\numberline {E.2.1}Test Bluetooth naar serieel}{109}\protected@file@percent }
\@writefile{toc}{\contentsline {subsubsection}{Testcase 1.1: Commando's io-net}{109}\protected@file@percent }
\@writefile{lot}{\contentsline {table}{\numberline {E.1}{\ignorespaces Testcase 1.1\relax }}{109}\protected@file@percent }
\newlabel{tc11}{{E.1}{109}}
\newlabel{tc11@cref}{{[table][1][5]E.1}{[1][109][]109}}
\@writefile{toc}{\contentsline {subsubsection}{Testcase 1.2: Draaien motor}{110}\protected@file@percent }
\@writefile{lot}{\contentsline {table}{\numberline {E.2}{\ignorespaces Testcase 1.2\relax }}{110}\protected@file@percent }
\newlabel{tcx}{{E.2}{110}}
\newlabel{tcx@cref}{{[table][2][5]E.2}{[1][110][]110}}
\@writefile{toc}{\contentsline {subsection}{\numberline {E.2.2}Test Visuele feedback}{111}\protected@file@percent }
\@writefile{toc}{\contentsline {subsubsection}{Testcase 2.1: Test LED}{111}\protected@file@percent }
\@writefile{lot}{\contentsline {table}{\numberline {E.3}{\ignorespaces Testcase 2.1\relax }}{111}\protected@file@percent }
\newlabel{tcx}{{E.3}{111}}
\newlabel{tcx@cref}{{[table][3][5]E.3}{[1][111][]111}}
\@writefile{toc}{\contentsline {subsubsection}{Testcase 2.2: Test maximale afstand}{111}\protected@file@percent }
\@writefile{lot}{\contentsline {table}{\numberline {E.4}{\ignorespaces Testcase 2.2\relax }}{112}\protected@file@percent }
\newlabel{tcx}{{E.4}{112}}
\newlabel{tcx@cref}{{[table][4][5]E.4}{[1][111][]112}}
\@writefile{toc}{\contentsline {subsection}{\numberline {E.2.3}Test opgeslagen data}{112}\protected@file@percent }
\@writefile{toc}{\contentsline {subsubsection}{Testcase 3.1: Test Opslag data}{112}\protected@file@percent }
\@writefile{lot}{\contentsline {table}{\numberline {E.5}{\ignorespaces Testcase 3.1\relax }}{112}\protected@file@percent }
\newlabel{tcx}{{E.5}{112}}
\newlabel{tcx@cref}{{[table][5][5]E.5}{[1][112][]112}}
\@writefile{toc}{\contentsline {subsection}{\numberline {E.2.4}Test software update}{113}\protected@file@percent }
\@writefile{lot}{\contentsline {table}{\numberline {E.6}{\ignorespaces Testcase 4.1\relax }}{113}\protected@file@percent }
\newlabel{tcx}{{E.6}{113}}
\newlabel{tcx@cref}{{[table][6][5]E.6}{[1][113][]113}}
\@writefile{toc}{\contentsline {section}{\numberline {E.3}Traceerbaarheid klanteisen}{113}\protected@file@percent }
\@writefile{lot}{\contentsline {table}{\numberline {E.7}{\ignorespaces Traceertabel Requirements \relax }}{113}\protected@file@percent }
\newlabel{tab:ta}{{E.7}{113}}
\newlabel{tab:ta@cref}{{[table][7][5]E.7}{[1][113][]113}}
\@writefile{toc}{\contentsline {chapter}{\numberline {F.}Integratietest}{114}\protected@file@percent }
\@writefile{lof}{\addvspace {10pt}}
\@writefile{lot}{\addvspace {10pt}}
\@writefile{lof}{\contentsline {xchapter}{Integratietest}{114}\protected@file@percent }
\@writefile{lot}{\contentsline {xchapter}{Integratietest}{114}\protected@file@percent }
\newlabel{inttest}{{F}{114}}
\newlabel{inttest@cref}{{[chapter][6][]F}{[1][114][]114}}
\@writefile{toc}{\contentsline {section}{\numberline {F.1}Testen}{114}\protected@file@percent }
\@writefile{toc}{\contentsline {subsection}{\numberline {F.1.1}Test IC1: zenden UART}{115}\protected@file@percent }
\@writefile{lot}{\contentsline {table}{\numberline {F.1}{\ignorespaces Test zenden UART\relax }}{115}\protected@file@percent }
\newlabel{itc1}{{F.1}{115}}
\newlabel{itc1@cref}{{[table][1][6]F.1}{[1][115][]115}}
\@writefile{toc}{\contentsline {subsection}{\numberline {F.1.2}Test IC1: ontvangen UART}{116}\protected@file@percent }
\@writefile{lot}{\contentsline {table}{\numberline {F.2}{\ignorespaces Test ontvangen UART\relax }}{116}\protected@file@percent }
\newlabel{itc1}{{F.2}{116}}
\newlabel{itc1@cref}{{[table][2][6]F.2}{[1][116][]116}}
\@writefile{toc}{\contentsline {subsection}{\numberline {F.1.3}Test IC2: De microcontroller is verbonden met program/debug punten van Motor Control Unit}{117}\protected@file@percent }
\@writefile{lot}{\contentsline {table}{\numberline {F.3}{\ignorespaces Test verbinding program connector\relax }}{117}\protected@file@percent }
\newlabel{itc1}{{F.3}{117}}
\newlabel{itc1@cref}{{[table][3][6]F.3}{[1][117][]117}}
\@writefile{toc}{\contentsline {subsection}{\numberline {F.1.4}Test IC3: rimpel voeding}{118}\protected@file@percent }
\@writefile{lot}{\contentsline {table}{\numberline {F.4}{\ignorespaces Test rimpel voeding\relax }}{118}\protected@file@percent }
\newlabel{itc1}{{F.4}{118}}
\newlabel{itc1@cref}{{[table][4][6]F.4}{[1][118][]118}}
\@writefile{toc}{\contentsline {subsection}{\numberline {F.1.5}Test IC4: Extern Flash}{119}\protected@file@percent }
\@writefile{lot}{\contentsline {table}{\numberline {F.5}{\ignorespaces Test Extern Flash\relax }}{119}\protected@file@percent }
\newlabel{itc1}{{F.5}{119}}
\newlabel{itc1@cref}{{[table][5][6]F.5}{[1][119][]119}}
\@writefile{toc}{\contentsline {subsection}{\numberline {F.1.6}Test IC5: mesh LED}{120}\protected@file@percent }
\@writefile{lot}{\contentsline {table}{\numberline {F.6}{\ignorespaces Test mesh LED\relax }}{120}\protected@file@percent }
\newlabel{itc1}{{F.6}{120}}
\newlabel{itc1@cref}{{[table][6][6]F.6}{[1][120][]120}}
\@writefile{toc}{\contentsline {subsection}{\numberline {F.1.7}Test IC5: mesh UART}{121}\protected@file@percent }
\@writefile{lot}{\contentsline {table}{\numberline {F.7}{\ignorespaces Test mesh LED\relax }}{121}\protected@file@percent }
\newlabel{itc1}{{F.7}{121}}
\newlabel{itc1@cref}{{[table][7][6]F.7}{[1][121][]121}}
\@writefile{toc}{\contentsline {subsection}{\numberline {F.1.8}Test IC6: LED}{122}\protected@file@percent }
\@writefile{lot}{\contentsline {table}{\numberline {F.8}{\ignorespaces Test mesh LED\relax }}{122}\protected@file@percent }
\newlabel{itc1}{{F.8}{122}}
\newlabel{itc1@cref}{{[table][8][6]F.8}{[1][122][]122}}
\@writefile{lot}{\contentsline {table}{\numberline {F.9}{\ignorespaces Testcase 4.1\relax }}{123}\protected@file@percent }
\newlabel{itcx}{{F.9}{123}}
\newlabel{itcx@cref}{{[table][9][6]F.9}{[1][123][]123}}
\@writefile{toc}{\contentsline {chapter}{\numberline {G.}Unit test}{124}\protected@file@percent }
\@writefile{lof}{\addvspace {10pt}}
\@writefile{lot}{\addvspace {10pt}}
\@writefile{lof}{\contentsline {xchapter}{Unit test}{124}\protected@file@percent }
\@writefile{lot}{\contentsline {xchapter}{Unit test}{124}\protected@file@percent }
\@writefile{toc}{\contentsline {section}{\numberline {G.1}Test LED}{124}\protected@file@percent }
\@writefile{lot}{\contentsline {table}{\numberline {G.1}{\ignorespaces Test output spanning Charge-pump\relax }}{124}\protected@file@percent }
\newlabel{utci}{{G.1}{124}}
\newlabel{utci@cref}{{[table][1][7]G.1}{[1][124][]124}}
\@writefile{toc}{\contentsline {section}{\numberline {G.2}Test stroom LED}{125}\protected@file@percent }
\@writefile{lot}{\contentsline {table}{\numberline {G.2}{\ignorespaces Test stroom LED\relax }}{125}\protected@file@percent }
\newlabel{utc2}{{G.2}{125}}
\newlabel{utc2@cref}{{[table][2][7]G.2}{[1][125][]125}}
\@writefile{toc}{\contentsline {section}{\numberline {G.3}Test UART zenden}{125}\protected@file@percent }
\@writefile{lot}{\contentsline {table}{\numberline {G.3}{\ignorespaces Test mesh LED\relax }}{125}\protected@file@percent }
\newlabel{itc1}{{G.3}{125}}
\newlabel{itc1@cref}{{[table][3][7]G.3}{[1][125][]125}}
\@writefile{toc}{\contentsline {chapter}{\numberline {H.}Testresultaten}{126}\protected@file@percent }
\@writefile{lof}{\addvspace {10pt}}
\@writefile{lot}{\addvspace {10pt}}
\@writefile{lof}{\contentsline {xchapter}{Testresultaten}{126}\protected@file@percent }
\@writefile{lot}{\contentsline {xchapter}{Testresultaten}{126}\protected@file@percent }
\@writefile{toc}{\contentsline {section}{\numberline {H.1}Unittest}{126}\protected@file@percent }
\newlabel{teststrled}{{H.1a}{126}}
\newlabel{teststrled@cref}{{[subfigure][1][8,1]H.1a}{[1][126][]126}}
\newlabel{sub@teststrled}{{a}{126}}
\newlabel{sub@teststrled@cref}{{[subfigure][1][8,1]H.1a}{[1][126][]126}}
\newlabel{bwstrled}{{H.1b}{126}}
\newlabel{bwstrled@cref}{{[subfigure][2][8,1]H.1b}{[1][126][]126}}
\newlabel{sub@bwstrled}{{b}{126}}
\newlabel{sub@bwstrled@cref}{{[subfigure][2][8,1]H.1b}{[1][126][]126}}
\@writefile{lof}{\contentsline {figure}{\numberline {H.1}{\ignorespaces Test stroom LED\relax }}{126}\protected@file@percent }
\newlabel{teststrled}{{H.2a}{127}}
\newlabel{teststrled@cref}{{[subfigure][1][8,2]H.2a}{[1][127][]127}}
\newlabel{sub@teststrled}{{a}{127}}
\newlabel{sub@teststrled@cref}{{[subfigure][1][8,2]H.2a}{[1][127][]127}}
\newlabel{bwstrled}{{H.2b}{127}}
\newlabel{bwstrled@cref}{{[subfigure][2][8,2]H.2b}{[1][127][]127}}
\newlabel{sub@bwstrled}{{b}{127}}
\newlabel{sub@bwstrled@cref}{{[subfigure][2][8,2]H.2b}{[1][127][]127}}
\@writefile{lof}{\contentsline {figure}{\numberline {H.2}{\ignorespaces Test spanning charge pump\relax }}{127}\protected@file@percent }
\newlabel{terauartunit}{{H.3a}{128}}
\newlabel{terauartunit@cref}{{[subfigure][1][8,3]H.3a}{[1][128][]128}}
\newlabel{sub@terauartunit}{{a}{128}}
\newlabel{sub@terauartunit@cref}{{[subfigure][1][8,3]H.3a}{[1][128][]128}}
\newlabel{unituart}{{H.3b}{128}}
\newlabel{unituart@cref}{{[subfigure][2][8,3]H.3b}{[1][128][]128}}
\newlabel{sub@unituart}{{b}{128}}
\newlabel{sub@unituart@cref}{{[subfigure][2][8,3]H.3b}{[1][128][]128}}
\newlabel{instuart}{{H.3c}{128}}
\newlabel{instuart@cref}{{[subfigure][3][8,3]H.3c}{[1][128][]128}}
\newlabel{sub@instuart}{{c}{128}}
\newlabel{sub@instuart@cref}{{[subfigure][3][8,3]H.3c}{[1][128][]128}}
\@writefile{lof}{\contentsline {figure}{\numberline {H.3}{\ignorespaces Test UART\relax }}{128}\protected@file@percent }
\@writefile{toc}{\contentsline {section}{\numberline {H.2}Integratietest}{129}\protected@file@percent }
\@writefile{toc}{\contentsline {subsection}{\numberline {H.2.1}Test 1}{129}\protected@file@percent }
\newlabel{testrimpelscope}{{H.4a}{129}}
\newlabel{testrimpelscope@cref}{{[subfigure][1][8,4]H.4a}{[1][129][]129}}
\newlabel{sub@testrimpelscope}{{a}{129}}
\newlabel{sub@testrimpelscope@cref}{{[subfigure][1][8,4]H.4a}{[1][129][]129}}
\newlabel{testrimpelfoto}{{H.4b}{129}}
\newlabel{testrimpelfoto@cref}{{[subfigure][2][8,4]H.4b}{[1][129][]129}}
\newlabel{sub@testrimpelfoto}{{b}{129}}
\newlabel{sub@testrimpelfoto@cref}{{[subfigure][2][8,4]H.4b}{[1][129][]129}}
\@writefile{lof}{\contentsline {figure}{\numberline {H.4}{\ignorespaces Test rimpelspanning voeding\relax }}{129}\protected@file@percent }
\newlabel{testrimpel}{{H.4}{129}}
\newlabel{testrimpel@cref}{{[figure][4][8]H.4}{[1][129][]129}}
\@writefile{toc}{\contentsline {subsection}{\numberline {H.2.2}Test 2}{130}\protected@file@percent }
\bibstyle{apacite}
\bibdata{Referenties/Referenties,Referenties/Afstuderen}
\global\mtcsecondpartfalse
