\relax 
\@nameuse{bbl@beforestart}
\catcode `"\active 
\babel@aux{dutch}{}
\@writefile{@@@}{\chapterbegin }
\@writefile{@@@}{\chapterbegin }
\@writefile{@@@}{\chapterbegin }
\@writefile{@@@}{\chapterbegin }
\@writefile{@@@}{\chapterbegin }
\newlabel{hs:vb}{{}{6}}
\newlabel{hs:vb@cref}{{}{[1][6][]6}}
\@writefile{lot}{\contentsline {table}{\numberline {0.1}{\ignorespaces Versiehistorie\relax }}{6}\protected@file@percent }
\providecommand*\caption@xref[2]{\@setref\relax\@undefined{#1}}
\newlabel{tab:vb}{{0.1}{6}}
\newlabel{tab:vb@cref}{{[table][1][0]0.1}{[1][6][]6}}
\@writefile{@@@}{\chapterbegin }
\@writefile{toc}{\contentsline {chapter}{\numberline {1.}Inleiding}{11}\protected@file@percent }
\@writefile{lof}{\addvspace {10pt}}
\@writefile{lot}{\addvspace {10pt}}
\@writefile{lof}{\contentsline {xchapter}{Inleiding}{11}\protected@file@percent }
\@writefile{lot}{\contentsline {xchapter}{Inleiding}{11}\protected@file@percent }
\newlabel{hs:in}{{1}{11}}
\newlabel{hs:in@cref}{{[chapter][1][]1}{[1][11][]11}}
\@writefile{toc}{\contentsline {section}{\numberline {1.1}Bedrijfsachtergrond}{11}\protected@file@percent }
\newlabel{smdcds}{{1.1a}{11}}
\newlabel{smdcds@cref}{{[subfigure][1][1,1]1.1a}{[1][11][]11}}
\newlabel{sub@smdcds}{{a}{11}}
\newlabel{sub@smdcds@cref}{{[subfigure][1][1,1]1.1a}{[1][11][]11}}
\newlabel{tkim60}{{1.1b}{11}}
\newlabel{tkim60@cref}{{[subfigure][2][1,1]1.1b}{[1][11][]11}}
\newlabel{sub@tkim60}{{b}{11}}
\newlabel{sub@tkim60@cref}{{[subfigure][2][1,1]1.1b}{[1][11][]11}}
\@writefile{lof}{\contentsline {figure}{\numberline {1.1}{\ignorespaces CDS electronics\relax }}{11}\protected@file@percent }
\@writefile{toc}{\contentsline {section}{\numberline {1.2}De klant}{11}\protected@file@percent }
\@writefile{lof}{\contentsline {figure}{\numberline {1.2}{\ignorespaces Luiken voor in- en uitvoer van luchtstromen\relax }}{12}\protected@file@percent }
\newlabel{luik}{{1.2}{12}}
\newlabel{luik@cref}{{[figure][2][1]1.2}{[1][11][]12}}
\newlabel{im60}{{1.3a}{12}}
\newlabel{im60@cref}{{[subfigure][1][1,3]1.3a}{[1][12][]12}}
\newlabel{sub@im60}{{a}{12}}
\newlabel{sub@im60@cref}{{[subfigure][1][1,3]1.3a}{[1][12][]12}}
\newlabel{im125}{{1.3b}{12}}
\newlabel{im125@cref}{{[subfigure][2][1,3]1.3b}{[1][12][]12}}
\newlabel{sub@im125}{{b}{12}}
\newlabel{sub@im125@cref}{{[subfigure][2][1,3]1.3b}{[1][12][]12}}
\@writefile{lof}{\contentsline {figure}{\numberline {1.3}{\ignorespaces Motoren\relax }}{12}\protected@file@percent }
\newlabel{im60p}{{1.4a}{13}}
\newlabel{im60p@cref}{{[subfigure][1][1,4]1.4a}{[1][13][]13}}
\newlabel{sub@im60p}{{a}{13}}
\newlabel{sub@im60p@cref}{{[subfigure][1][1,4]1.4a}{[1][13][]13}}
\newlabel{im125p}{{1.4b}{13}}
\newlabel{im125p@cref}{{[subfigure][2][1,4]1.4b}{[1][13][]13}}
\newlabel{sub@im125p}{{b}{13}}
\newlabel{sub@im125p@cref}{{[subfigure][2][1,4]1.4b}{[1][13][]13}}
\@writefile{lof}{\contentsline {figure}{\numberline {1.4}{\ignorespaces Printplaten die de motoren aansturen\relax }}{13}\protected@file@percent }
\@writefile{toc}{\contentsline {section}{\numberline {1.3}Probleemstelling}{14}\protected@file@percent }
\newlabel{stal1}{{1.5a}{14}}
\newlabel{stal1@cref}{{[subfigure][1][1,5]1.5a}{[1][14][]14}}
\newlabel{sub@stal1}{{a}{14}}
\newlabel{sub@stal1@cref}{{[subfigure][1][1,5]1.5a}{[1][14][]14}}
\newlabel{stal2}{{1.5b}{14}}
\newlabel{stal2@cref}{{[subfigure][2][1,5]1.5b}{[1][14][]14}}
\newlabel{sub@stal2}{{b}{14}}
\newlabel{sub@stal2@cref}{{[subfigure][2][1,5]1.5b}{[1][14][]14}}
\newlabel{stal2}{{1.5c}{14}}
\newlabel{stal2@cref}{{[subfigure][3][1,5]1.5c}{[1][14][]14}}
\newlabel{sub@stal2}{{c}{14}}
\newlabel{sub@stal2@cref}{{[subfigure][3][1,5]1.5c}{[1][14][]14}}
\@writefile{lof}{\contentsline {figure}{\numberline {1.5}{\ignorespaces Mogelijke ophanging motor\relax }}{14}\protected@file@percent }
\newlabel{stallensoorten}{{1.5}{14}}
\newlabel{stallensoorten@cref}{{[figure][5][1]1.5}{[1][14][]14}}
\@writefile{toc}{\contentsline {section}{\numberline {1.4}Doelstelling}{14}\protected@file@percent }
\citation{topo}
\@writefile{lof}{\contentsline {figure}{\numberline {1.6}{\ignorespaces Indirect bereik van het netwerk\relax }}{15}\protected@file@percent }
\newlabel{multihop}{{1.6}{15}}
\newlabel{multihop@cref}{{[figure][6][1]1.6}{[1][15][]15}}
\newlabel{star}{{1.7a}{16}}
\newlabel{star@cref}{{[subfigure][1][1,7]1.7a}{[1][15][]16}}
\newlabel{sub@star}{{a}{16}}
\newlabel{sub@star@cref}{{[subfigure][1][1,7]1.7a}{[1][15][]16}}
\newlabel{mesh2}{{1.7b}{16}}
\newlabel{mesh2@cref}{{[subfigure][2][1,7]1.7b}{[1][15][]16}}
\newlabel{sub@mesh2}{{b}{16}}
\newlabel{sub@mesh2@cref}{{[subfigure][2][1,7]1.7b}{[1][15][]16}}
\@writefile{lof}{\contentsline {figure}{\numberline {1.7}{\ignorespaces Twee verschillende netwerktopologiën\relax }}{16}\protected@file@percent }
\@writefile{toc}{\contentsline {chapter}{\numberline {2.}Requirements}{17}\protected@file@percent }
\@writefile{lof}{\addvspace {10pt}}
\@writefile{lot}{\addvspace {10pt}}
\@writefile{lof}{\contentsline {xchapter}{Requirements}{17}\protected@file@percent }
\@writefile{lot}{\contentsline {xchapter}{Requirements}{17}\protected@file@percent }
\newlabel{hs:h2}{{2}{17}}
\newlabel{hs:h2@cref}{{[chapter][2][]2}{[1][17][]17}}
\@writefile{toc}{\contentsline {section}{\numberline {2.1}Systeemcontext}{17}\protected@file@percent }
\@writefile{lof}{\contentsline {figure}{\numberline {2.1}{\ignorespaces Data Context Diagram\relax }}{17}\protected@file@percent }
\newlabel{DCD}{{2.1}{17}}
\newlabel{DCD@cref}{{[figure][1][2]2.1}{[1][17][]17}}
\@writefile{toc}{\contentsline {section}{\numberline {2.2}Functionele Systeemeisen}{18}\protected@file@percent }
\newlabel{hs:h24}{{2.2}{18}}
\newlabel{hs:h24@cref}{{[section][2][2]2.2}{[1][18][]18}}
\@writefile{toc}{\contentsline {subsection}{\numberline {2.2.1}Communicatie Bluetooth }{18}\protected@file@percent }
\newlabel{hs:h241}{{2.2.1}{18}}
\newlabel{hs:h241@cref}{{[subsection][1][2,2]2.2.1}{[1][18][]18}}
\@writefile{toc}{\contentsline {subsubsection}{Stimulus en response}{18}\protected@file@percent }
\newlabel{2411}{{2.2.1}{18}}
\newlabel{2411@cref}{{[subsection][1][2,2]2.2.1}{[1][18][]18}}
\@writefile{toc}{\contentsline {subsubsection}{Functionele klanteisen}{18}\protected@file@percent }
\newlabel{2411}{{2.2.1}{18}}
\newlabel{2411@cref}{{[subsection][1][2,2]2.2.1}{[1][18][]18}}
\@writefile{toc}{\contentsline {subsection}{\numberline {2.2.2}Communicatie met IM60/IM125}{19}\protected@file@percent }
\newlabel{hs:h242}{{2.2.2}{19}}
\newlabel{hs:h242@cref}{{[subsection][2][2,2]2.2.2}{[1][19][]19}}
\@writefile{lof}{\contentsline {figure}{\numberline {2.2}{\ignorespaces Schema STM32 en 14 polige connector\relax }}{19}\protected@file@percent }
\newlabel{STM32}{{2.2}{19}}
\newlabel{STM32@cref}{{[figure][2][2]2.2}{[1][19][]19}}
\@writefile{toc}{\contentsline {subsubsection}{Stimulus en response}{19}\protected@file@percent }
\newlabel{2421}{{2.2.2}{19}}
\newlabel{2421@cref}{{[subsection][2][2,2]2.2.2}{[1][19][]19}}
\@writefile{toc}{\contentsline {subsubsection}{Functionele klanteisen}{19}\protected@file@percent }
\newlabel{2421}{{2.2.2}{19}}
\newlabel{2421@cref}{{[subsection][2][2,2]2.2.2}{[1][19][]19}}
\@writefile{toc}{\contentsline {subsection}{\numberline {2.2.3}Opslaan data}{20}\protected@file@percent }
\newlabel{hs:h243}{{2.2.3}{20}}
\newlabel{hs:h243@cref}{{[subsection][3][2,2]2.2.3}{[1][20][]20}}
\@writefile{toc}{\contentsline {subsubsection}{Stimulus en response}{20}\protected@file@percent }
\newlabel{2431}{{2.2.3}{20}}
\newlabel{2431@cref}{{[subsection][3][2,2]2.2.3}{[1][20][]20}}
\@writefile{toc}{\contentsline {subsubsection}{Functionele klanteisen}{20}\protected@file@percent }
\newlabel{2431}{{2.2.3}{20}}
\newlabel{2431@cref}{{[subsection][3][2,2]2.2.3}{[1][20][]20}}
\@writefile{toc}{\contentsline {subsection}{\numberline {2.2.4}Identificeren systeem}{20}\protected@file@percent }
\newlabel{hs:h243}{{2.2.4}{20}}
\newlabel{hs:h243@cref}{{[subsection][4][2,2]2.2.4}{[1][20][]20}}
\@writefile{toc}{\contentsline {subsubsection}{Stimulus en response}{20}\protected@file@percent }
\newlabel{2431}{{2.2.4}{20}}
\newlabel{2431@cref}{{[subsection][4][2,2]2.2.4}{[1][20][]20}}
\@writefile{toc}{\contentsline {subsubsection}{Functionele klanteisen}{20}\protected@file@percent }
\newlabel{2431}{{2.2.4}{20}}
\newlabel{2431@cref}{{[subsection][4][2,2]2.2.4}{[1][20][]20}}
\@writefile{toc}{\contentsline {section}{\numberline {2.3}Niet-functionele klanteisen}{20}\protected@file@percent }
\newlabel{hs:h25}{{2.3}{20}}
\newlabel{hs:h25@cref}{{[section][3][2]2.3}{[1][20][]20}}
\@writefile{toc}{\contentsline {chapter}{\numberline {3.}Architectuur}{21}\protected@file@percent }
\@writefile{lof}{\addvspace {10pt}}
\@writefile{lot}{\addvspace {10pt}}
\@writefile{lof}{\contentsline {xchapter}{Architectuur}{21}\protected@file@percent }
\@writefile{lot}{\contentsline {xchapter}{Architectuur}{21}\protected@file@percent }
\@writefile{lof}{\contentsline {figure}{\numberline {3.1}{\ignorespaces Data Flow Diagram 0 (DFD0)\relax }}{21}\protected@file@percent }
\newlabel{DFD0}{{3.1}{21}}
\newlabel{DFD0@cref}{{[figure][1][3]3.1}{[1][21][]21}}
\@writefile{lof}{\contentsline {figure}{\numberline {3.2}{\ignorespaces Data Flow Diagram 1 (DFD1)\relax }}{21}\protected@file@percent }
\newlabel{DFD1}{{3.2}{21}}
\newlabel{DFD1@cref}{{[figure][2][3]3.2}{[1][21][]21}}
\@writefile{lof}{\contentsline {figure}{\numberline {3.3}{\ignorespaces Architectuur Context Diagram (ACD)\relax }}{22}\protected@file@percent }
\newlabel{ACD}{{3.3}{22}}
\newlabel{ACD@cref}{{[figure][3][3]3.3}{[1][22][]22}}
\@writefile{lof}{\contentsline {figure}{\numberline {3.4}{\ignorespaces Architectuur Interconnect Diagram (AID)\relax }}{22}\protected@file@percent }
\newlabel{AID}{{3.4}{22}}
\newlabel{AID@cref}{{[figure][4][3]3.4}{[1][22][]22}}
\@writefile{toc}{\contentsline {section}{\numberline {3.1}Ontwerpbesluiten}{23}\protected@file@percent }
\@writefile{toc}{\contentsline {section}{\numberline {3.2}Deelsysteem 1: Control mesh}{23}\protected@file@percent }
\@writefile{lot}{\contentsline {table}{\numberline {3.1}{\ignorespaces Overzicht draadloze verbindingen\relax }}{23}\protected@file@percent }
\newlabel{keusdraadloos}{{3.1}{23}}
\newlabel{keusdraadloos@cref}{{[table][1][3]3.1}{[1][23][]23}}
\@writefile{lot}{\contentsline {table}{\numberline {3.2}{\ignorespaces Keuzetabel mesh model\relax }}{24}\protected@file@percent }
\newlabel{Meshmodel}{{3.2}{24}}
\newlabel{Meshmodel@cref}{{[table][2][3]3.2}{[1][24][]24}}
\@writefile{toc}{\contentsline {section}{\numberline {3.3}Identificeren Systeem}{24}\protected@file@percent }
\@writefile{lot}{\contentsline {table}{\numberline {3.3}{\ignorespaces Keuzetabel flits LED\relax }}{24}\protected@file@percent }
\newlabel{pulsemaken}{{3.3}{24}}
\newlabel{pulsemaken@cref}{{[table][3][3]3.3}{[1][24][]24}}
\@writefile{lot}{\contentsline {table}{\numberline {3.4}{\ignorespaces Keuzetabel PWM\relax }}{25}\protected@file@percent }
\newlabel{PWMgenereren}{{3.4}{25}}
\newlabel{PWMgenereren@cref}{{[table][4][3]3.4}{[1][25][]25}}
\@writefile{toc}{\contentsline {section}{\numberline {3.4}Opslaan gegevens}{25}\protected@file@percent }
\@writefile{lot}{\contentsline {table}{\numberline {3.5}{\ignorespaces Keuzetabel opslaan gegevens\relax }}{25}\protected@file@percent }
\newlabel{opslaandata}{{3.5}{25}}
\newlabel{opslaandata@cref}{{[table][5][3]3.5}{[1][25][]25}}
\@writefile{toc}{\contentsline {chapter}{\numberline {4.}Detailontwerp}{26}\protected@file@percent }
\@writefile{lof}{\addvspace {10pt}}
\@writefile{lot}{\addvspace {10pt}}
\@writefile{lof}{\contentsline {xchapter}{Detailontwerp}{26}\protected@file@percent }
\@writefile{lot}{\contentsline {xchapter}{Detailontwerp}{26}\protected@file@percent }
\@writefile{lof}{\contentsline {figure}{\numberline {4.1}{\ignorespaces Architectuur Interconnect Diagram\relax }}{26}\protected@file@percent }
\newlabel{AID}{{4.1}{26}}
\newlabel{AID@cref}{{[figure][1][4]4.1}{[1][26][]26}}
\@writefile{lot}{\contentsline {table}{\numberline {4.1}{\ignorespaces Traceertabel Requirements \relax }}{27}\protected@file@percent }
\newlabel{tab:tr}{{4.1}{27}}
\newlabel{tab:tr@cref}{{[table][1][4]4.1}{[1][27][]27}}
\@writefile{toc}{\contentsline {section}{\numberline {4.1}Module}{28}\protected@file@percent }
\@writefile{lof}{\contentsline {figure}{\numberline {4.2}{\ignorespaces Module met microcontroller en software functies\relax }}{28}\protected@file@percent }
\newlabel{moduleopbouw}{{4.2}{28}}
\newlabel{moduleopbouw@cref}{{[figure][2][4]4.2}{[1][28][]28}}
\newlabel{stal1}{{4.3a}{28}}
\newlabel{stal1@cref}{{[subfigure][1][4,3]4.3a}{[1][28][]28}}
\newlabel{sub@stal1}{{a}{28}}
\newlabel{sub@stal1@cref}{{[subfigure][1][4,3]4.3a}{[1][28][]28}}
\newlabel{stal2}{{4.3b}{28}}
\newlabel{stal2@cref}{{[subfigure][2][4,3]4.3b}{[1][28][]28}}
\newlabel{sub@stal2}{{b}{28}}
\newlabel{sub@stal2@cref}{{[subfigure][2][4,3]4.3b}{[1][28][]28}}
\newlabel{stal2}{{4.3c}{28}}
\newlabel{stal2@cref}{{[subfigure][3][4,3]4.3c}{[1][28][]28}}
\newlabel{sub@stal2}{{c}{28}}
\newlabel{sub@stal2@cref}{{[subfigure][3][4,3]4.3c}{[1][28][]28}}
\@writefile{lof}{\contentsline {figure}{\numberline {4.3}{\ignorespaces VNA test\relax }}{28}\protected@file@percent }
\newlabel{VNAteston}{{4.3}{28}}
\newlabel{VNAteston@cref}{{[figure][3][4]4.3}{[1][28][]28}}
\@writefile{toc}{\contentsline {subsubsection}{Return Loss}{29}\protected@file@percent }
\newlabel{BT840}{{4.4a}{29}}
\newlabel{BT840@cref}{{[subfigure][1][4,4]4.4a}{[1][29][]29}}
\newlabel{sub@BT840}{{a}{29}}
\newlabel{sub@BT840@cref}{{[subfigure][1][4,4]4.4a}{[1][29][]29}}
\newlabel{BT840F}{{4.4b}{29}}
\newlabel{BT840F@cref}{{[subfigure][2][4,4]4.4b}{[1][29][]29}}
\newlabel{sub@BT840F}{{b}{29}}
\newlabel{sub@BT840F@cref}{{[subfigure][2][4,4]4.4b}{[1][29][]29}}
\@writefile{lof}{\contentsline {figure}{\numberline {4.4}{\ignorespaces Modules\relax }}{29}\protected@file@percent }
\newlabel{modules}{{4.4}{29}}
\newlabel{modules@cref}{{[figure][4][4]4.4}{[1][29][]29}}
\@writefile{lof}{\contentsline {figure}{\numberline {4.5}{\ignorespaces Plot s-parameters matlab\relax }}{29}\protected@file@percent }
\newlabel{matplotall}{{4.5}{29}}
\newlabel{matplotall@cref}{{[figure][5][4]4.5}{[1][29][]29}}
\@writefile{toc}{\contentsline {subsection}{\numberline {4.1.1}Microcontroller}{30}\protected@file@percent }
\@writefile{lot}{\contentsline {table}{\numberline {4.2}{\ignorespaces Keuze matrix Draadloze $\mu C$ (*Prijzen Mouser rond 03-03-2020)\relax }}{30}\protected@file@percent }
\newlabel{tabmcu}{{4.2}{30}}
\newlabel{tabmcu@cref}{{[table][2][4]4.2}{[1][30][]30}}
\@writefile{toc}{\contentsline {subsection}{\numberline {4.1.2}Unit 1.2: UART IM60/IM125}{31}\protected@file@percent }
\newlabel{hs:43}{{4.1.2}{31}}
\newlabel{hs:43@cref}{{[subsection][2][4,1]4.1.2}{[1][31][]31}}
\@writefile{lof}{\contentsline {figure}{\numberline {4.6}{\ignorespaces Easydma nRF52840\relax }}{31}\protected@file@percent }
\newlabel{dma}{{4.6}{31}}
\newlabel{dma@cref}{{[figure][6][4]4.6}{[1][31][]31}}
\@writefile{toc}{\contentsline {subsubsection}{TX}{32}\protected@file@percent }
\@writefile{lof}{\contentsline {figure}{\numberline {4.7}{\ignorespaces Zenden UART\relax }}{32}\protected@file@percent }
\newlabel{uarttx}{{4.7}{32}}
\newlabel{uarttx@cref}{{[figure][7][4]4.7}{[1][32][]32}}
\newlabel{frameformat}{{4.8a}{33}}
\newlabel{frameformat@cref}{{[subfigure][1][4,8]4.8a}{[1][33][]33}}
\newlabel{sub@frameformat}{{a}{33}}
\newlabel{sub@frameformat@cref}{{[subfigure][1][4,8]4.8a}{[1][33][]33}}
\newlabel{framecontent}{{4.8b}{33}}
\newlabel{framecontent@cref}{{[subfigure][2][4,8]4.8b}{[1][33][]33}}
\newlabel{sub@framecontent}{{b}{33}}
\newlabel{sub@framecontent@cref}{{[subfigure][2][4,8]4.8b}{[1][33][]33}}
\@writefile{lof}{\contentsline {figure}{\numberline {4.8}{\ignorespaces Inhoud commando\relax }}{33}\protected@file@percent }
\@writefile{lof}{\contentsline {figure}{\numberline {4.9}{\ignorespaces Communicatie UART\relax }}{33}\protected@file@percent }
\newlabel{uarttx}{{4.9}{33}}
\newlabel{uarttx@cref}{{[figure][9][4]4.9}{[1][33][]33}}
\@writefile{toc}{\contentsline {subsubsection}{RX}{34}\protected@file@percent }
\@writefile{lof}{\contentsline {figure}{\numberline {4.10}{\ignorespaces Bytestroom die binnenkomt in de RXBuffer van het Easy DMA UART\relax }}{34}\protected@file@percent }
\newlabel{uartrx}{{4.10}{34}}
\newlabel{uartrx@cref}{{[figure][10][4]4.10}{[1][34][]34}}
\@writefile{lof}{\contentsline {figure}{\numberline {4.11}{\ignorespaces Ontvangen UART Flowdiagram\relax }}{35}\protected@file@percent }
\newlabel{rxflow}{{4.11}{35}}
\newlabel{rxflow@cref}{{[figure][11][4]4.11}{[1][35][]35}}
\citation{Introduction2017}
\@writefile{toc}{\contentsline {subsection}{\numberline {4.1.3}Unit 1.3: Bluetooth 5.0 mesh}{36}\protected@file@percent }
\@writefile{toc}{\contentsline {subsubsection}{Node}{36}\protected@file@percent }
\@writefile{lof}{\contentsline {figure}{\numberline {4.12}{\ignorespaces Opbouw node\relax }}{36}\protected@file@percent }
\newlabel{nodestruct}{{4.12}{36}}
\newlabel{nodestruct@cref}{{[figure][12][4]4.12}{[1][36][]36}}
\@writefile{toc}{\contentsline {subsubsection}{Model}{37}\protected@file@percent }
\@writefile{lof}{\contentsline {figure}{\numberline {4.13}{\ignorespaces Client en server\relax }}{37}\protected@file@percent }
\newlabel{clientserver}{{4.13}{37}}
\newlabel{clientserver@cref}{{[figure][13][4]4.13}{[1][37][]37}}
\@writefile{toc}{\contentsline {subsection}{\numberline {4.1.4}Unit 1.4: Proxy server}{38}\protected@file@percent }
\newlabel{nodeproxy}{{4.14a}{38}}
\newlabel{nodeproxy@cref}{{[subfigure][1][4,14]4.14a}{[1][38][]38}}
\newlabel{sub@nodeproxy}{{a}{38}}
\newlabel{sub@nodeproxy@cref}{{[subfigure][1][4,14]4.14a}{[1][38][]38}}
\newlabel{stalgatt}{{4.14b}{38}}
\newlabel{stalgatt@cref}{{[subfigure][2][4,14]4.14b}{[1][38][]38}}
\newlabel{sub@stalgatt}{{b}{38}}
\newlabel{sub@stalgatt@cref}{{[subfigure][2][4,14]4.14b}{[1][38][]38}}
\@writefile{lof}{\contentsline {figure}{\numberline {4.14}{\ignorespaces De stal met mesh nodes\relax }}{38}\protected@file@percent }
\citation{codemeshlr}
\@writefile{toc}{\contentsline {subsection}{\numberline {4.1.5}Unit 1.5: Long Range}{39}\protected@file@percent }
\@writefile{lof}{\contentsline {figure}{\numberline {4.15}{\ignorespaces BLE pakket\relax }}{39}\protected@file@percent }
\newlabel{blepakket}{{4.15}{39}}
\newlabel{blepakket@cref}{{[figure][15][4]4.15}{[1][39][]39}}
\@writefile{lol}{\contentsline {lstlisting}{\numberline {4.1}Radio mode veranderen}{39}\protected@file@percent }
\@writefile{lol}{\contentsline {lstlisting}{\numberline {4.2}Preamble langer maken}{39}\protected@file@percent }
\@writefile{toc}{\contentsline {section}{\numberline {4.2}Unit 2: Opslaan data}{40}\protected@file@percent }
\@writefile{lot}{\contentsline {table}{\numberline {4.3}{\ignorespaces Keuzetabel opslag\relax }}{40}\protected@file@percent }
\newlabel{Memory}{{4.3}{40}}
\newlabel{Memory@cref}{{[table][3][4]4.3}{[1][40][]40}}
\@writefile{lof}{\contentsline {figure}{\numberline {4.16}{\ignorespaces MX25R6435FM2IH0 in Altium\relax }}{40}\protected@file@percent }
\newlabel{flash}{{4.16}{40}}
\newlabel{flash@cref}{{[figure][16][4]4.16}{[1][40][]40}}
\@writefile{lof}{\contentsline {figure}{\numberline {4.17}{\ignorespaces SPI transactie nRF52840\relax }}{41}\protected@file@percent }
\newlabel{spi}{{4.17}{41}}
\newlabel{spi@cref}{{[figure][17][4]4.17}{[1][40][]41}}
\@writefile{toc}{\contentsline {subsection}{\numberline {4.2.1}Software}{41}\protected@file@percent }
\newlabel{spitx}{{4.18a}{42}}
\newlabel{spitx@cref}{{[subfigure][1][4,18]4.18a}{[1][42][]42}}
\newlabel{sub@spitx}{{a}{42}}
\newlabel{sub@spitx@cref}{{[subfigure][1][4,18]4.18a}{[1][42][]42}}
\newlabel{spirx}{{4.18b}{42}}
\newlabel{spirx@cref}{{[subfigure][2][4,18]4.18b}{[1][42][]42}}
\newlabel{sub@spirx}{{b}{42}}
\newlabel{sub@spirx@cref}{{[subfigure][2][4,18]4.18b}{[1][42][]42}}
\@writefile{lof}{\contentsline {figure}{\numberline {4.18}{\ignorespaces SPI communicatie\relax }}{42}\protected@file@percent }
\newlabel{flashindeling}{{4.19a}{43}}
\newlabel{flashindeling@cref}{{[subfigure][1][4,19]4.19a}{[1][43][]43}}
\newlabel{sub@flashindeling}{{a}{43}}
\newlabel{sub@flashindeling@cref}{{[subfigure][1][4,19]4.19a}{[1][43][]43}}
\newlabel{flowchartschrijven}{{4.19b}{43}}
\newlabel{flowchartschrijven@cref}{{[subfigure][2][4,19]4.19b}{[1][43][]43}}
\newlabel{sub@flowchartschrijven}{{b}{43}}
\newlabel{sub@flowchartschrijven@cref}{{[subfigure][2][4,19]4.19b}{[1][43][]43}}
\@writefile{lof}{\contentsline {figure}{\numberline {4.19}{\ignorespaces Datasheet\relax }}{43}\protected@file@percent }
\citation{Pylarinos2003}
\@writefile{toc}{\contentsline {section}{\numberline {4.3}Unit3: LED schakeling}{44}\protected@file@percent }
\@writefile{lof}{\contentsline {figure}{\numberline {4.20}{\ignorespaces Principe Charge Pump\relax }}{44}\protected@file@percent }
\newlabel{prcp}{{4.20}{44}}
\newlabel{prcp@cref}{{[figure][20][4]4.20}{[1][44][]44}}
\@writefile{toc}{\contentsline {subsubsection}{Componentkeuze}{44}\protected@file@percent }
\@writefile{lot}{\contentsline {table}{\numberline {4.4}{\ignorespaces Keuzetabel schakel element\relax }}{44}\protected@file@percent }
\newlabel{schakel}{{4.4}{44}}
\newlabel{schakel@cref}{{[table][4][4]4.4}{[1][44][]44}}
\citation{Campbell1966}
\@writefile{lot}{\contentsline {table}{\numberline {4.5}{\ignorespaces Keuzetabel Schakelen LED\relax }}{45}\protected@file@percent }
\newlabel{schakelled}{{4.5}{45}}
\newlabel{schakelled@cref}{{[table][5][4]4.5}{[1][45][]45}}
\@writefile{lot}{\contentsline {table}{\numberline {4.6}{\ignorespaces Keuzetabel Condensator\relax }}{45}\protected@file@percent }
\newlabel{schakelled}{{4.6}{45}}
\newlabel{schakelled@cref}{{[table][6][4]4.6}{[1][45][]45}}
\citation{Palumbo2010}
\citation{Dickson1976}
\@writefile{lot}{\contentsline {table}{\numberline {4.7}{\ignorespaces Keuzetabel LED\relax }}{46}\protected@file@percent }
\@writefile{toc}{\contentsline {subsubsection}{Berekeningen charge pump}{46}\protected@file@percent }
\@writefile{lof}{\contentsline {figure}{\numberline {4.21}{\ignorespaces Charge pump\relax }}{46}\protected@file@percent }
\newlabel{schemacp}{{4.21}{46}}
\newlabel{schemacp@cref}{{[figure][21][4]4.21}{[1][46][]46}}
\newlabel{eqvout}{{4.1}{46}}
\newlabel{eqvout@cref}{{[equation][1][4]4.1}{[1][46][]46}}
\@writefile{lof}{\contentsline {figure}{\numberline {4.22}{\ignorespaces Charge pump met schakel gedeelte\relax }}{47}\protected@file@percent }
\newlabel{schemacpschakel}{{4.22}{47}}
\newlabel{schemacpschakel@cref}{{[figure][22][4]4.22}{[1][47][]47}}
\@writefile{lof}{\contentsline {figure}{\numberline {4.23}{\ignorespaces Het sluiten van de van de verbinding als er spanning op de gate van de Nmos aangeboden wordt\relax }}{48}\protected@file@percent }
\newlabel{maasschema}{{4.23}{48}}
\newlabel{maasschema@cref}{{[figure][23][4]4.23}{[1][47][]48}}
\newlabel{eqmaasc}{{4.3}{48}}
\newlabel{eqmaasc@cref}{{[equation][3][4]4.3}{[1][48][]48}}
\@writefile{toc}{\contentsline {subsubsection}{Simulatie}{50}\protected@file@percent }
\@writefile{lof}{\contentsline {figure}{\numberline {4.24}{\ignorespaces Simulatie spanning op LED\relax }}{50}\protected@file@percent }
\newlabel{schemacpschakellt}{{4.24}{50}}
\newlabel{schemacpschakellt@cref}{{[figure][24][4]4.24}{[1][50][]50}}
\@writefile{lof}{\contentsline {figure}{\numberline {4.25}{\ignorespaces Simulatie stroom door LED bij pulse\relax }}{50}\protected@file@percent }
\newlabel{simIled}{{4.25}{50}}
\newlabel{simIled@cref}{{[figure][25][4]4.25}{[1][50][]50}}
\@writefile{lof}{\contentsline {figure}{\numberline {4.26}{\ignorespaces Charge pump in LT-Spice\relax }}{51}\protected@file@percent }
\newlabel{similed}{{4.26}{51}}
\newlabel{similed@cref}{{[figure][26][4]4.26}{[1][51][]51}}
\@writefile{toc}{\contentsline {chapter}{\numberline {5.}Testresultaten}{52}\protected@file@percent }
\@writefile{lof}{\addvspace {10pt}}
\@writefile{lot}{\addvspace {10pt}}
\@writefile{lof}{\contentsline {xchapter}{Testresultaten}{52}\protected@file@percent }
\@writefile{lot}{\contentsline {xchapter}{Testresultaten}{52}\protected@file@percent }
\@writefile{lot}{\contentsline {table}{\numberline {5.1}{\ignorespaces Traceertabel Requirements \relax }}{52}\protected@file@percent }
\newlabel{tab:rg}{{5.1}{52}}
\newlabel{tab:rg@cref}{{[table][1][5]5.1}{[1][52][]52}}
\@writefile{toc}{\contentsline {section}{\numberline {5.1}Test tussen smartphone en node}{52}\protected@file@percent }
\@writefile{lot}{\contentsline {table}{\numberline {5.2}{\ignorespaces Tabel maximaal bereik smartphone\relax }}{52}\protected@file@percent }
\newlabel{rssisp}{{5.2}{52}}
\newlabel{rssisp@cref}{{[table][2][5]5.2}{[1][52][]52}}
\@writefile{toc}{\contentsline {section}{\numberline {5.2}Test doorsturen berichten}{53}\protected@file@percent }
\@writefile{lof}{\contentsline {figure}{\numberline {5.1}{\ignorespaces Schematische weergave nodes in stal \relax }}{53}\protected@file@percent }
\newlabel{nodesstal}{{5.1}{53}}
\newlabel{nodesstal@cref}{{[figure][1][5]5.1}{[1][53][]53}}
\@writefile{toc}{\contentsline {section}{\numberline {5.3}Test bereik tussen nodes}{54}\protected@file@percent }
\newlabel{im60ontvangen}{{5.2a}{54}}
\newlabel{im60ontvangen@cref}{{[subfigure][1][5,2]5.2a}{[1][54][]54}}
\newlabel{sub@im60ontvangen}{{a}{54}}
\newlabel{sub@im60ontvangen@cref}{{[subfigure][1][5,2]5.2a}{[1][54][]54}}
\newlabel{im60zenden}{{5.2b}{54}}
\newlabel{im60zenden@cref}{{[subfigure][2][5,2]5.2b}{[1][54][]54}}
\newlabel{sub@im60zenden}{{b}{54}}
\newlabel{sub@im60zenden@cref}{{[subfigure][2][5,2]5.2b}{[1][54][]54}}
\@writefile{lof}{\contentsline {figure}{\numberline {5.2}{\ignorespaces Twee nodes in behuizing op IM60\relax }}{54}\protected@file@percent }
\@writefile{lot}{\contentsline {table}{\numberline {5.3}{\ignorespaces Bereik tussen twee nodes vanuit meerdere hoeken\relax }}{54}\protected@file@percent }
\@writefile{toc}{\contentsline {section}{\numberline {5.4}Smartphone aansturing UART}{55}\protected@file@percent }
\@writefile{lol}{\contentsline {lstlisting}{\numberline {5.1}Testcode Fancom}{55}\protected@file@percent }
\@writefile{lof}{\contentsline {figure}{\numberline {5.3}{\ignorespaces Test communicatie UART\relax }}{55}\protected@file@percent }
\newlabel{testcomuart}{{5.3}{55}}
\newlabel{testcomuart@cref}{{[figure][3][5]5.3}{[1][55][]55}}
\@writefile{toc}{\contentsline {section}{\numberline {5.5}Extern geheugen}{56}\protected@file@percent }
\@writefile{lol}{\contentsline {lstlisting}{\numberline {5.2}SPI code testen}{56}\protected@file@percent }
\@writefile{lof}{\contentsline {figure}{\numberline {5.4}{\ignorespaces Test communicatie SPI\relax }}{56}\protected@file@percent }
\newlabel{spischrijven}{{5.4}{56}}
\newlabel{spischrijven@cref}{{[figure][4][5]5.4}{[1][56][]56}}
\newlabel{spitest}{{5.5a}{56}}
\newlabel{spitest@cref}{{[subfigure][1][5,5]5.5a}{[1][56][]56}}
\newlabel{sub@spitest}{{a}{56}}
\newlabel{sub@spitest@cref}{{[subfigure][1][5,5]5.5a}{[1][56][]56}}
\newlabel{spilezen}{{5.5b}{56}}
\newlabel{spilezen@cref}{{[subfigure][2][5,5]5.5b}{[1][56][]56}}
\newlabel{sub@spilezen}{{b}{56}}
\newlabel{sub@spilezen@cref}{{[subfigure][2][5,5]5.5b}{[1][56][]56}}
\@writefile{lof}{\contentsline {figure}{\numberline {5.5}{\ignorespaces Twee nodes in behuizing op IM60\relax }}{56}\protected@file@percent }
\@writefile{toc}{\contentsline {chapter}{\numberline {6.}Conclusie}{57}\protected@file@percent }
\@writefile{lof}{\addvspace {10pt}}
\@writefile{lot}{\addvspace {10pt}}
\@writefile{lof}{\contentsline {xchapter}{Conclusie}{57}\protected@file@percent }
\@writefile{lot}{\contentsline {xchapter}{Conclusie}{57}\protected@file@percent }
\@writefile{toc}{\contentsline {chapter}{\numberline {7.}Aanbevelingen}{58}\protected@file@percent }
\@writefile{lof}{\addvspace {10pt}}
\@writefile{lot}{\addvspace {10pt}}
\@writefile{lof}{\contentsline {xchapter}{Aanbevelingen}{58}\protected@file@percent }
\@writefile{lot}{\contentsline {xchapter}{Aanbevelingen}{58}\protected@file@percent }
\@writefile{toc}{\contentsline {section}{\numberline {7.1}Plaatsing op IM60/IM125}{58}\protected@file@percent }
\@writefile{toc}{\contentsline {chapter}{Appendices}{59}\protected@file@percent }
\citation{cbs}
\@writefile{toc}{\contentsline {chapter}{\numberline {A.}Onderzoek draadloze technologieën}{60}\protected@file@percent }
\@writefile{lof}{\addvspace {10pt}}
\@writefile{lot}{\addvspace {10pt}}
\@writefile{lof}{\contentsline {xchapter}{Onderzoek draadloze technologieën}{60}\protected@file@percent }
\@writefile{lot}{\contentsline {xchapter}{Onderzoek draadloze technologieën}{60}\protected@file@percent }
\newlabel{onddr}{{A}{60}}
\newlabel{onddr@cref}{{[chapter][1][]A}{[1][60][]60}}
\@writefile{toc}{\contentsline {section}{\numberline {A.1}Inleiding}{60}\protected@file@percent }
\newlabel{stal1}{{A.1a}{61}}
\newlabel{stal1@cref}{{[subfigure][1][1,1]A.1a}{[1][61][]61}}
\newlabel{sub@stal1}{{a}{61}}
\newlabel{sub@stal1@cref}{{[subfigure][1][1,1]A.1a}{[1][61][]61}}
\newlabel{stal2}{{A.1b}{61}}
\newlabel{stal2@cref}{{[subfigure][2][1,1]A.1b}{[1][61][]61}}
\newlabel{sub@stal2}{{b}{61}}
\newlabel{sub@stal2@cref}{{[subfigure][2][1,1]A.1b}{[1][61][]61}}
\@writefile{lof}{\contentsline {figure}{\numberline {A.1}{\ignorespaces Mogelijke ophanging motor\relax }}{61}\protected@file@percent }
\citation{los}
\citation{topo}
\@writefile{toc}{\contentsline {section}{\numberline {A.2}Draadloze technologieën}{62}\protected@file@percent }
\@writefile{lof}{\contentsline {figure}{\numberline {A.2}{\ignorespaces Line Of Sight \relax }}{62}\protected@file@percent }
\newlabel{los}{{A.2}{62}}
\newlabel{los@cref}{{[figure][2][1]A.2}{[1][62][]62}}
\citation{Verma2013}
\citation{Zhao2014}
\citation{meshfaq}
\citation{meshfaq}
\citation{Yaakop2017}
\citation{zigbee}
\citation{Ali-rantala}
\citation{Chruszczyk2017}
\@writefile{toc}{\contentsline {subsection}{\numberline {A.2.1}Frequentie, bereik en maximale snelheid}{63}\protected@file@percent }
\citation{DelaCruz2016}
\citation{starmesh}
\citation{hu2013}
\citation{blfees}
\citation{lora}
\@writefile{toc}{\contentsline {subsection}{\numberline {A.2.2}Topologie en gebruik smartphone}{64}\protected@file@percent }
\newlabel{star}{{A.3a}{64}}
\newlabel{star@cref}{{[subfigure][1][1,3]A.3a}{[1][64][]64}}
\newlabel{sub@star}{{a}{64}}
\newlabel{sub@star@cref}{{[subfigure][1][1,3]A.3a}{[1][64][]64}}
\newlabel{mesh}{{A.3b}{64}}
\newlabel{mesh@cref}{{[subfigure][2][1,3]A.3b}{[1][64][]64}}
\newlabel{sub@mesh}{{b}{64}}
\newlabel{sub@mesh@cref}{{[subfigure][2][1,3]A.3b}{[1][64][]64}}
\@writefile{lof}{\contentsline {figure}{\numberline {A.3}{\ignorespaces Twee verschillende netwerk configuraties\relax }}{64}\protected@file@percent }
\@writefile{toc}{\contentsline {subsection}{\numberline {A.2.3}Kosten}{64}\protected@file@percent }
\citation{zigbee}
\@writefile{toc}{\contentsline {section}{\numberline {A.3}Conclusie}{66}\protected@file@percent }
\@writefile{lot}{\contentsline {table}{\numberline {A.1}{\ignorespaces Overzicht draadloze verbindingen\relax }}{66}\protected@file@percent }
\newlabel{tbWrlss}{{A.1}{66}}
\newlabel{tbWrlss@cref}{{[table][1][1]A.1}{[1][66][]66}}
\@writefile{toc}{\contentsline {chapter}{\numberline {B.}Onderzoek Bluetooth mesh}{67}\protected@file@percent }
\@writefile{lof}{\addvspace {10pt}}
\@writefile{lot}{\addvspace {10pt}}
\@writefile{lof}{\contentsline {xchapter}{Onderzoek Bluetooth mesh}{67}\protected@file@percent }
\@writefile{lot}{\contentsline {xchapter}{Onderzoek Bluetooth mesh}{67}\protected@file@percent }
\newlabel{ondmesh}{{B}{67}}
\newlabel{ondmesh@cref}{{[chapter][2][]B}{[1][67][]67}}
\citation{btversions}
\@writefile{toc}{\contentsline {section}{\numberline {B.1}Inleiding}{68}\protected@file@percent }
\@writefile{toc}{\contentsline {section}{\numberline {B.2}Bluetooth Low Energie}{68}\protected@file@percent }
\@writefile{lof}{\contentsline {figure}{\numberline {B.1}{\ignorespaces BLE stack\relax }}{68}\protected@file@percent }
\newlabel{blestack}{{B.1}{68}}
\newlabel{blestack@cref}{{[figure][1][2]B.1}{[1][68][]68}}
\citation{Gomez2012}
\citation{btgatt}
\@writefile{toc}{\contentsline {paragraph}{Physical layer}{69}\protected@file@percent }
\@writefile{lof}{\contentsline {figure}{\numberline {B.2}{\ignorespaces Fequentiespectrum\relax }}{69}\protected@file@percent }
\newlabel{freqhop}{{B.2}{69}}
\newlabel{freqhop@cref}{{[figure][2][2]B.2}{[1][69][]69}}
\@writefile{toc}{\contentsline {paragraph}{Link layer}{69}\protected@file@percent }
\@writefile{toc}{\contentsline {paragraph}{L2CAP}{69}\protected@file@percent }
\@writefile{toc}{\contentsline {paragraph}{GAP}{69}\protected@file@percent }
\@writefile{toc}{\contentsline {paragraph}{Attribute Protocol}{69}\protected@file@percent }
\@writefile{lof}{\contentsline {figure}{\numberline {B.3}{\ignorespaces Attribute structure\relax }}{70}\protected@file@percent }
\newlabel{attstruct}{{B.3}{70}}
\newlabel{attstruct@cref}{{[figure][3][2]B.3}{[1][70][]70}}
\@writefile{toc}{\contentsline {paragraph}{GATT}{71}\protected@file@percent }
\@writefile{toc}{\contentsline {section}{\numberline {B.3}Bluetooth mesh}{71}\protected@file@percent }
\@writefile{lof}{\contentsline {figure}{\numberline {B.4}{\ignorespaces Mesh layers\relax }}{71}\protected@file@percent }
\newlabel{meshlayer}{{B.4}{71}}
\newlabel{meshlayer@cref}{{[figure][4][2]B.4}{[1][71][]71}}
\@writefile{toc}{\contentsline {paragraph}{Bearer Layer}{72}\protected@file@percent }
\@writefile{toc}{\contentsline {paragraph}{Network Layer}{72}\protected@file@percent }
\@writefile{toc}{\contentsline {paragraph}{Lower Transport Layer}{72}\protected@file@percent }
\@writefile{toc}{\contentsline {paragraph}{Upper Transport Layer}{72}\protected@file@percent }
\@writefile{toc}{\contentsline {paragraph}{Acces Layer}{72}\protected@file@percent }
\@writefile{toc}{\contentsline {paragraph}{Foundation Model Layer}{72}\protected@file@percent }
\@writefile{toc}{\contentsline {paragraph}{Model layer}{72}\protected@file@percent }
\@writefile{lof}{\contentsline {figure}{\numberline {B.5}{\ignorespaces Mesh Netwerk\relax }}{73}\protected@file@percent }
\newlabel{meshnetwerk}{{B.5}{73}}
\newlabel{meshnetwerk@cref}{{[figure][5][2]B.5}{[1][73][]73}}
\@writefile{toc}{\contentsline {section}{\numberline {B.4}Test mesh}{73}\protected@file@percent }
\@writefile{lof}{\contentsline {figure}{\numberline {B.6}{\ignorespaces Mesh layers\relax }}{74}\protected@file@percent }
\newlabel{testmesh}{{B.6}{74}}
\newlabel{testmesh@cref}{{[figure][6][2]B.6}{[1][73][]74}}
\@writefile{toc}{\contentsline {section}{\numberline {B.5}Conclusie}{74}\protected@file@percent }
\citation{Specification2018}
\citation{Campbell1966}
\citation{ccled}
\@writefile{toc}{\contentsline {chapter}{\numberline {C.}Onderzoek LED}{75}\protected@file@percent }
\@writefile{lof}{\addvspace {10pt}}
\@writefile{lot}{\addvspace {10pt}}
\@writefile{lof}{\contentsline {xchapter}{Onderzoek LED}{75}\protected@file@percent }
\@writefile{lot}{\contentsline {xchapter}{Onderzoek LED}{75}\protected@file@percent }
\newlabel{ondled}{{C}{75}}
\newlabel{ondled@cref}{{[chapter][3][]C}{[1][75][]75}}
\@writefile{lof}{\contentsline {figure}{\numberline {C.1}{\ignorespaces LED Forward Current en Load\relax }}{75}\protected@file@percent }
\newlabel{ILED}{{C.1}{75}}
\newlabel{ILED@cref}{{[figure][1][3]C.1}{[1][75][]75}}
\@writefile{toc}{\contentsline {section}{\numberline {C.1}DC-DC conversie}{76}\protected@file@percent }
\@writefile{toc}{\contentsline {subsection}{\numberline {C.1.1}Charge pump}{76}\protected@file@percent }
\@writefile{lof}{\contentsline {figure}{\numberline {C.2}{\ignorespaces Charge pump\relax }}{76}\protected@file@percent }
\newlabel{VD}{{C.2}{76}}
\newlabel{VD@cref}{{[figure][2][3]C.2}{[1][76][]76}}
\newlabel{eqvc2}{{C.2}{76}}
\newlabel{eqvc2@cref}{{[equation][2][3]C.2}{[1][76][]76}}
\newlabel{eqvc2}{{C.3}{76}}
\newlabel{eqvc2@cref}{{[equation][3][3]C.3}{[1][76][]76}}
\@writefile{toc}{\contentsline {subsubsection}{Simulatie en opbouw Charge pump}{77}\protected@file@percent }
\@writefile{lof}{\contentsline {figure}{\numberline {C.3}{\ignorespaces Chargepump in LT spice opgebouwd\relax }}{78}\protected@file@percent }
\newlabel{CPLT}{{C.3}{78}}
\newlabel{CPLT@cref}{{[figure][3][3]C.3}{[1][77][]78}}
\@writefile{lof}{\contentsline {figure}{\numberline {C.4}{\ignorespaces Vout in simulatie\relax }}{79}\protected@file@percent }
\newlabel{VOCPLT}{{C.4}{79}}
\newlabel{VOCPLT@cref}{{[figure][4][3]C.4}{[1][78][]79}}
\@writefile{lof}{\contentsline {figure}{\numberline {C.5}{\ignorespaces Vout in scope\relax }}{80}\protected@file@percent }
\newlabel{VOSLT}{{C.5}{80}}
\newlabel{VOSLT@cref}{{[figure][5][3]C.5}{[1][79][]80}}
\@writefile{lof}{\contentsline {figure}{\numberline {C.6}{\ignorespaces Rimpel in stroom aan voeding\relax }}{80}\protected@file@percent }
\newlabel{3v3rimpel}{{C.6}{80}}
\newlabel{3v3rimpel@cref}{{[figure][6][3]C.6}{[1][80][]80}}
\@writefile{toc}{\contentsline {subsubsection}{BOM charge pump}{81}\protected@file@percent }
\newlabel{BOM chargePUMP}{{\caption@xref {BOM chargePUMP}{ on input line 1861}}{81}}
\newlabel{BOM chargePUMP@cref}{{[subsection][1][3,1]C.1.1}{[1][81][]81}}
\citation{boost}
\@writefile{toc}{\contentsline {subsection}{\numberline {C.1.2}Boost Converter}{82}\protected@file@percent }
\newlabel{boost}{{C.1.2}{82}}
\newlabel{boost@cref}{{[subsection][2][3,1]C.1.2}{[1][82][]82}}
\@writefile{lof}{\contentsline {figure}{\numberline {C.7}{\ignorespaces Schema boost converter\relax }}{82}\protected@file@percent }
\newlabel{boost}{{C.7}{82}}
\newlabel{boost@cref}{{[figure][7][3]C.7}{[1][82][]82}}
\newlabel{ipk}{{C.18}{83}}
\newlabel{ipk@cref}{{[equation][18][3]C.18}{[1][83][]83}}
\citation{tiboost}
\@writefile{lof}{\contentsline {figure}{\numberline {C.8}{\ignorespaces LTspice boost converter simulatie\relax }}{84}\protected@file@percent }
\newlabel{boostsim}{{C.8}{84}}
\newlabel{boostsim@cref}{{[figure][8][3]C.8}{[1][84][]84}}
\@writefile{lof}{\contentsline {figure}{\numberline {C.9}{\ignorespaces LTspice output stroom V1\relax }}{84}\protected@file@percent }
\newlabel{v1sim}{{C.9}{84}}
\newlabel{v1sim@cref}{{[figure][9][3]C.9}{[1][84][]84}}
\@writefile{toc}{\contentsline {subsection}{\numberline {C.1.3}Schakelen LED}{85}\protected@file@percent }
\@writefile{toc}{\contentsline {subsubsection}{Schakelen met transistor}{85}\protected@file@percent }
\@writefile{lof}{\contentsline {figure}{\numberline {C.10}{\ignorespaces LED aangestuurd d.m.v. NPN\relax }}{85}\protected@file@percent }
\newlabel{LEDNPN}{{C.10}{85}}
\newlabel{LEDNPN@cref}{{[figure][10][3]C.10}{[1][85][]85}}
\newlabel{eqr3}{{C.21}{86}}
\newlabel{eqr3@cref}{{[equation][21][3]C.21}{[1][86][]86}}
\@writefile{toc}{\contentsline {subsection}{\numberline {C.1.4}Schakelen met FET}{87}\protected@file@percent }
\@writefile{lof}{\contentsline {figure}{\numberline {C.11}{\ignorespaces LED aangestuurd d.m.v. NMOS\relax }}{87}\protected@file@percent }
\newlabel{NMOSLED}{{C.11}{87}}
\newlabel{NMOSLED@cref}{{[figure][11][3]C.11}{[1][87][]87}}
\@writefile{toc}{\contentsline {section}{\numberline {C.2}Berekeningen gekozen FET}{88}\protected@file@percent }
\newlabel{berfet}{{C.2}{88}}
\newlabel{berfet@cref}{{[section][2][3]C.2}{[1][88][]88}}
\newlabel{eqfet}{{C.25}{88}}
\newlabel{eqfet@cref}{{[equation][25][3]C.25}{[1][88][]88}}
\@writefile{lof}{\contentsline {figure}{\numberline {C.12}{\ignorespaces Warmte weerstand\relax }}{89}\protected@file@percent }
\newlabel{pulse}{{C.12}{89}}
\newlabel{pulse@cref}{{[figure][12][3]C.12}{[1][89][]89}}
\@writefile{toc}{\contentsline {section}{\numberline {C.3}Conclusie}{89}\protected@file@percent }
\@writefile{toc}{\contentsline {chapter}{\numberline {D.}Data Dictionary}{90}\protected@file@percent }
\@writefile{lof}{\addvspace {10pt}}
\@writefile{lot}{\addvspace {10pt}}
\@writefile{lof}{\contentsline {xchapter}{Data Dictionary}{90}\protected@file@percent }
\@writefile{lot}{\contentsline {xchapter}{Data Dictionary}{90}\protected@file@percent }
\@writefile{toc}{\contentsline {chapter}{\numberline {E.}VNA antenne testen}{91}\protected@file@percent }
\@writefile{lof}{\addvspace {10pt}}
\@writefile{lot}{\addvspace {10pt}}
\@writefile{lof}{\contentsline {xchapter}{VNA antenne testen}{91}\protected@file@percent }
\@writefile{lot}{\contentsline {xchapter}{VNA antenne testen}{91}\protected@file@percent }
\newlabel{VNAvol}{{E}{91}}
\newlabel{VNAvol@cref}{{[chapter][5][]E}{[1][91][]91}}
\@writefile{lof}{\contentsline {figure}{\numberline {E.1}{\ignorespaces Meetresultaten BT840 in behuizing\relax }}{91}\protected@file@percent }
\newlabel{d}{{E.1}{91}}
\newlabel{d@cref}{{[figure][1][5]E.1}{[1][91][]91}}
\@writefile{lof}{\contentsline {figure}{\numberline {E.2}{\ignorespaces Meetresultaten BT840 in behuizing\relax }}{92}\protected@file@percent }
\newlabel{BT840VNABH}{{E.2}{92}}
\newlabel{BT840VNABH@cref}{{[figure][2][5]E.2}{[1][92][]92}}
\@writefile{lof}{\contentsline {figure}{\numberline {E.3}{\ignorespaces smith-chart BT840F in behuizing\relax }}{93}\protected@file@percent }
\newlabel{pulse}{{E.3}{93}}
\newlabel{pulse@cref}{{[figure][3][5]E.3}{[1][93][]93}}
\@writefile{toc}{\contentsline {chapter}{\numberline {F.}Plan Van Aanpak}{94}\protected@file@percent }
\@writefile{lof}{\addvspace {10pt}}
\@writefile{lot}{\addvspace {10pt}}
\@writefile{lof}{\contentsline {xchapter}{Plan Van Aanpak}{94}\protected@file@percent }
\@writefile{lot}{\contentsline {xchapter}{Plan Van Aanpak}{94}\protected@file@percent }
\newlabel{hs:vb}{{F}{94}}
\newlabel{hs:vb@cref}{{[chapter][6][]F}{[1][94][]94}}
\@writefile{lot}{\contentsline {table}{\numberline {F.1}{\ignorespaces Versiehistorie\relax }}{94}\protected@file@percent }
\newlabel{tab:vb}{{F.1}{94}}
\newlabel{tab:vb@cref}{{[table][1][6]F.1}{[1][94][]94}}
\@writefile{toc}{\contentsline {section}{\numberline {F.1}Achtergronden}{95}\protected@file@percent }
\newlabel{hs:h1}{{F.1}{95}}
\newlabel{hs:h1@cref}{{[section][1][6]F.1}{[1][95][]95}}
\newlabel{hs:h11}{{F.1}{95}}
\newlabel{hs:h11@cref}{{[section][1][6]F.1}{[1][95][]95}}
\newlabel{hs:h12}{{F.1}{95}}
\newlabel{hs:h12@cref}{{[section][1][6]F.1}{[1][95][]95}}
\newlabel{hs:h13}{{F.1}{95}}
\newlabel{hs:h13@cref}{{[section][1][6]F.1}{[1][95][]95}}
\@writefile{toc}{\contentsline {section}{\numberline {F.2}Projectresultaat}{95}\protected@file@percent }
\newlabel{hs:h2}{{F.2}{95}}
\newlabel{hs:h2@cref}{{[section][2][6]F.2}{[1][95][]95}}
\newlabel{hs:h21}{{F.2}{95}}
\newlabel{hs:h21@cref}{{[section][2][6]F.2}{[1][95][]95}}
\newlabel{hs:h22}{{F.2}{95}}
\newlabel{hs:h22@cref}{{[section][2][6]F.2}{[1][95][]95}}
\newlabel{hs:h3}{{F.2}{96}}
\newlabel{hs:h3@cref}{{[section][2][6]F.2}{[1][96][]96}}
\newlabel{hs:h31}{{F.2}{96}}
\newlabel{hs:h31@cref}{{[section][2][6]F.2}{[1][96][]96}}
\newlabel{hs:h32}{{F.2}{96}}
\newlabel{hs:h32@cref}{{[section][2][6]F.2}{[1][96][]96}}
\@writefile{lof}{\contentsline {figure}{\numberline {F.1}{\ignorespaces V-model\relax }}{97}\protected@file@percent }
\newlabel{wrap-fig:1}{{F.1}{97}}
\newlabel{wrap-fig:1@cref}{{[figure][1][6]F.1}{[1][97][]97}}
\@writefile{toc}{\contentsline {section}{\numberline {F.4}Projectgrenzen en randvoorwaarden}{98}\protected@file@percent }
\newlabel{hs:h4}{{F.4}{98}}
\newlabel{hs:h4@cref}{{[section][4][6]F.4}{[1][98][]98}}
\newlabel{hs:h41}{{F.4}{98}}
\newlabel{hs:h41@cref}{{[section][4][6]F.4}{[1][98][]98}}
\newlabel{hs:h42}{{F.4}{98}}
\newlabel{hs:h42@cref}{{[section][4][6]F.4}{[1][98][]98}}
\@writefile{toc}{\contentsline {section}{\numberline {F.5}Tussenresultaten}{98}\protected@file@percent }
\newlabel{hs:h5}{{F.5}{98}}
\newlabel{hs:h5@cref}{{[section][5][6]F.5}{[1][98][]98}}
\newlabel{hs:h51}{{F.5}{98}}
\newlabel{hs:h51@cref}{{[section][5][6]F.5}{[1][98][]98}}
\newlabel{hs:h52}{{F.5}{98}}
\newlabel{hs:h52@cref}{{[section][5][6]F.5}{[1][98][]98}}
\@writefile{toc}{\contentsline {section}{\numberline {F.6}Kwaliteit}{99}\protected@file@percent }
\newlabel{hs:h6}{{F.6}{99}}
\newlabel{hs:h6@cref}{{[section][6][6]F.6}{[1][99][]99}}
\newlabel{hs:h61}{{F.6}{99}}
\newlabel{hs:h61@cref}{{[section][6][6]F.6}{[1][99][]99}}
\newlabel{hs:h62}{{F.6}{99}}
\newlabel{hs:h62@cref}{{[section][6][6]F.6}{[1][99][]99}}
\newlabel{hs:h63}{{F.6}{99}}
\newlabel{hs:h63@cref}{{[section][6][6]F.6}{[1][99][]99}}
\newlabel{hs:h64}{{F.6}{99}}
\newlabel{hs:h64@cref}{{[section][6][6]F.6}{[1][99][]99}}
\@writefile{toc}{\contentsline {section}{\numberline {F.7}Projectorganisatie}{100}\protected@file@percent }
\newlabel{hs:h7}{{F.7}{100}}
\newlabel{hs:h7@cref}{{[section][7][6]F.7}{[1][100][]100}}
\newlabel{hs:h71}{{F.7}{100}}
\newlabel{hs:h71@cref}{{[section][7][6]F.7}{[1][100][]100}}
\@writefile{lot}{\contentsline {table}{\numberline {F.2}{\ignorespaces Persoonlijke gegevens\relax }}{100}\protected@file@percent }
\newlabel{tab:pg}{{F.2}{100}}
\newlabel{tab:pg@cref}{{[table][2][6]F.2}{[1][100][]100}}
\newlabel{hs:h72}{{F.7}{100}}
\newlabel{hs:h72@cref}{{[section][7][6]F.7}{[1][100][]100}}
\newlabel{hs:h73}{{F.7}{100}}
\newlabel{hs:h73@cref}{{[section][7][6]F.7}{[1][100][]100}}
\newlabel{hs:h74}{{F.7}{100}}
\newlabel{hs:h74@cref}{{[section][7][6]F.7}{[1][100][]100}}
\@writefile{toc}{\contentsline {section}{\numberline {F.8}Planning}{100}\protected@file@percent }
\newlabel{hs:h8}{{F.8}{100}}
\newlabel{hs:h8@cref}{{[section][8][6]F.8}{[1][100][]100}}
\@writefile{lof}{\contentsline {figure}{\numberline {F.2}{\ignorespaces Planning deel 1\relax }}{101}\protected@file@percent }
\newlabel{planning}{{F.2}{101}}
\newlabel{planning@cref}{{[figure][2][6]F.2}{[1][100][]101}}
\@writefile{lof}{\contentsline {figure}{\numberline {F.3}{\ignorespaces Planning deel 2\relax }}{102}\protected@file@percent }
\@writefile{toc}{\contentsline {section}{\numberline {F.9}Kosten en baten}{103}\protected@file@percent }
\newlabel{hs:h9}{{F.9}{103}}
\newlabel{hs:h9@cref}{{[section][9][6]F.9}{[1][103][]103}}
\newlabel{hs:h91}{{F.9}{103}}
\newlabel{hs:h91@cref}{{[section][9][6]F.9}{[1][103][]103}}
\newlabel{hs:h92}{{F.9}{103}}
\newlabel{hs:h92@cref}{{[section][9][6]F.9}{[1][103][]103}}
\newlabel{hs:h93}{{F.9}{103}}
\newlabel{hs:h93@cref}{{[section][9][6]F.9}{[1][103][]103}}
\@writefile{toc}{\contentsline {section}{\numberline {F.10}Risico's}{103}\protected@file@percent }
\newlabel{hs:h10}{{F.10}{103}}
\newlabel{hs:h10@cref}{{[section][10][6]F.10}{[1][103][]103}}
\newlabel{hs:h101}{{F.10}{103}}
\newlabel{hs:h101@cref}{{[section][10][6]F.10}{[1][103][]103}}
\newlabel{hs:h102}{{F.10}{103}}
\newlabel{hs:h102@cref}{{[section][10][6]F.10}{[1][103][]103}}
\newlabel{hs:h103}{{F.10}{103}}
\newlabel{hs:h103@cref}{{[section][10][6]F.10}{[1][103][]103}}
\@writefile{lot}{\contentsline {table}{\numberline {F.3}{\ignorespaces Externe Risico's\relax }}{104}\protected@file@percent }
\newlabel{tab:ra}{{F.3}{104}}
\newlabel{tab:ra@cref}{{[table][3][6]F.3}{[1][103][]104}}
\@writefile{toc}{\contentsline {chapter}{\numberline {G.}Tekeningen PCB en solderen}{105}\protected@file@percent }
\@writefile{lof}{\addvspace {10pt}}
\@writefile{lot}{\addvspace {10pt}}
\@writefile{lof}{\contentsline {xchapter}{Tekeningen PCB en solderen}{105}\protected@file@percent }
\@writefile{lot}{\contentsline {xchapter}{Tekeningen PCB en solderen}{105}\protected@file@percent }
\@writefile{toc}{\contentsline {section}{\numberline {G.1}Realisatie Hardware}{105}\protected@file@percent }
\newlabel{PCB2DTOP}{{G.1a}{106}}
\newlabel{PCB2DTOP@cref}{{[subfigure][1][7,1]G.1a}{[1][106][]106}}
\newlabel{sub@PCB2DTOP}{{a}{106}}
\newlabel{sub@PCB2DTOP@cref}{{[subfigure][1][7,1]G.1a}{[1][106][]106}}
\newlabel{PCB2DBOT}{{G.1b}{106}}
\newlabel{PCB2DBOT@cref}{{[subfigure][2][7,1]G.1b}{[1][106][]106}}
\newlabel{sub@PCB2DBOT}{{b}{106}}
\newlabel{sub@PCB2DBOT@cref}{{[subfigure][2][7,1]G.1b}{[1][106][]106}}
\@writefile{lof}{\contentsline {figure}{\numberline {G.1}{\ignorespaces 2D tekeningen van de printplaten\relax }}{106}\protected@file@percent }
\newlabel{PCB3DTOP}{{G.2a}{107}}
\newlabel{PCB3DTOP@cref}{{[subfigure][1][7,2]G.2a}{[1][106][]107}}
\newlabel{sub@PCB3DTOP}{{a}{107}}
\newlabel{sub@PCB3DTOP@cref}{{[subfigure][1][7,2]G.2a}{[1][106][]107}}
\newlabel{PCB3DBOT}{{G.2b}{107}}
\newlabel{PCB3DBOT@cref}{{[subfigure][2][7,2]G.2b}{[1][106][]107}}
\newlabel{sub@PCB3DBOT}{{b}{107}}
\newlabel{sub@PCB3DBOT@cref}{{[subfigure][2][7,2]G.2b}{[1][106][]107}}
\@writefile{lof}{\contentsline {figure}{\numberline {G.2}{\ignorespaces 3D tekeningen van de printplaten\relax }}{107}\protected@file@percent }
\@writefile{toc}{\contentsline {section}{\numberline {G.2}Software}{108}\protected@file@percent }
\@writefile{toc}{\contentsline {section}{\numberline {G.3}Solderen}{109}\protected@file@percent }
\newlabel{PCBTOP}{{G.3a}{109}}
\newlabel{PCBTOP@cref}{{[subfigure][1][7,3]G.3a}{[1][109][]109}}
\newlabel{sub@PCBTOP}{{a}{109}}
\newlabel{sub@PCBTOP@cref}{{[subfigure][1][7,3]G.3a}{[1][109][]109}}
\newlabel{PCBBOT}{{G.3b}{109}}
\newlabel{PCBBOT@cref}{{[subfigure][2][7,3]G.3b}{[1][109][]109}}
\newlabel{sub@PCBBOT}{{b}{109}}
\newlabel{sub@PCBBOT@cref}{{[subfigure][2][7,3]G.3b}{[1][109][]109}}
\@writefile{lof}{\contentsline {figure}{\numberline {G.3}{\ignorespaces 2D tekeningen van de printplaten\relax }}{109}\protected@file@percent }
\@writefile{toc}{\contentsline {section}{\numberline {G.4}Componenten}{109}\protected@file@percent }
\@writefile{toc}{\contentsline {section}{\numberline {G.5}Program connector}{110}\protected@file@percent }
\newlabel{progont}{{G.4a}{110}}
\newlabel{progont@cref}{{[subfigure][1][7,4]G.4a}{[1][110][]110}}
\newlabel{sub@progont}{{a}{110}}
\newlabel{sub@progont@cref}{{[subfigure][1][7,4]G.4a}{[1][110][]110}}
\newlabel{progrea}{{G.4b}{110}}
\newlabel{progrea@cref}{{[subfigure][2][7,4]G.4b}{[1][110][]110}}
\newlabel{sub@progrea}{{b}{110}}
\newlabel{sub@progrea@cref}{{[subfigure][2][7,4]G.4b}{[1][110][]110}}
\@writefile{lof}{\contentsline {figure}{\numberline {G.4}{\ignorespaces Program connector\relax }}{110}\protected@file@percent }
\@writefile{toc}{\contentsline {chapter}{\numberline {H.}Acceptatie test}{111}\protected@file@percent }
\@writefile{lof}{\addvspace {10pt}}
\@writefile{lot}{\addvspace {10pt}}
\@writefile{lof}{\contentsline {xchapter}{Acceptatie test}{111}\protected@file@percent }
\@writefile{lot}{\contentsline {xchapter}{Acceptatie test}{111}\protected@file@percent }
\newlabel{acctest}{{H}{111}}
\newlabel{acctest@cref}{{[chapter][8][]H}{[1][111][]111}}
\@writefile{toc}{\contentsline {section}{\numberline {H.1}Voorbereidingen acceptatietest}{111}\protected@file@percent }
\@writefile{toc}{\contentsline {subsection}{\numberline {H.1.1}Visuele testomgeving}{111}\protected@file@percent }
\@writefile{toc}{\contentsline {subsubsection}{Hardware}{111}\protected@file@percent }
\@writefile{toc}{\contentsline {subsubsection}{Software}{111}\protected@file@percent }
\@writefile{toc}{\contentsline {subsection}{\numberline {H.1.2}Testomgeving seriële verbinding}{111}\protected@file@percent }
\newlabel{to1}{{H.1.2}{111}}
\newlabel{to1@cref}{{[subsection][2][8,1]H.1.2}{[1][111][]111}}
\@writefile{toc}{\contentsline {subsubsection}{Hardware}{111}\protected@file@percent }
\@writefile{toc}{\contentsline {subsubsection}{Software}{112}\protected@file@percent }
\@writefile{toc}{\contentsline {subsubsection}{Overig}{112}\protected@file@percent }
\@writefile{toc}{\contentsline {subsection}{\numberline {H.1.3}Test mesh}{112}\protected@file@percent }
\newlabel{to2}{{H.1.3}{112}}
\newlabel{to2@cref}{{[subsection][3][8,1]H.1.3}{[1][112][]112}}
\@writefile{toc}{\contentsline {subsubsection}{Hardware}{112}\protected@file@percent }
\@writefile{toc}{\contentsline {subsubsection}{Software}{112}\protected@file@percent }
\@writefile{toc}{\contentsline {subsection}{\numberline {H.1.4}Test data opslag}{112}\protected@file@percent }
\newlabel{to3}{{H.1.4}{112}}
\newlabel{to3@cref}{{[subsection][4][8,1]H.1.4}{[1][112][]112}}
\@writefile{toc}{\contentsline {subsubsection}{Hardware}{112}\protected@file@percent }
\@writefile{toc}{\contentsline {subsubsection}{Software}{112}\protected@file@percent }
\@writefile{toc}{\contentsline {subsection}{\numberline {H.1.5}Test software update}{112}\protected@file@percent }
\newlabel{to4}{{H.1.5}{112}}
\newlabel{to4@cref}{{[subsection][5][8,1]H.1.5}{[1][112][]112}}
\@writefile{toc}{\contentsline {subsubsection}{Hardware}{112}\protected@file@percent }
\@writefile{toc}{\contentsline {section}{\numberline {H.2}Acceptatietestbeschrijvingen}{113}\protected@file@percent }
\@writefile{toc}{\contentsline {subsection}{\numberline {H.2.1}Test Bluetooth naar serieel}{113}\protected@file@percent }
\@writefile{toc}{\contentsline {subsubsection}{Testcase 1.1: Commando's }{113}\protected@file@percent }
\@writefile{lot}{\contentsline {table}{\numberline {H.1}{\ignorespaces Testcase 1.1\relax }}{113}\protected@file@percent }
\newlabel{tc11}{{H.1}{113}}
\newlabel{tc11@cref}{{[table][1][8]H.1}{[1][113][]113}}
\@writefile{toc}{\contentsline {subsubsection}{Testcase 1.2: Draaien motor}{114}\protected@file@percent }
\@writefile{lot}{\contentsline {table}{\numberline {H.2}{\ignorespaces Testcase 1.2\relax }}{114}\protected@file@percent }
\newlabel{tcx}{{H.2}{114}}
\newlabel{tcx@cref}{{[table][2][8]H.2}{[1][114][]114}}
\@writefile{toc}{\contentsline {subsection}{\numberline {H.2.2}Test Visuele feedback}{114}\protected@file@percent }
\@writefile{toc}{\contentsline {subsubsection}{Testcase 2.1: Test LED}{114}\protected@file@percent }
\@writefile{lot}{\contentsline {table}{\numberline {H.3}{\ignorespaces Testcase 2.1\relax }}{114}\protected@file@percent }
\newlabel{tcx}{{H.3}{114}}
\newlabel{tcx@cref}{{[table][3][8]H.3}{[1][114][]114}}
\@writefile{toc}{\contentsline {subsection}{\numberline {H.2.3}Testen Draadloze verbinding}{115}\protected@file@percent }
\@writefile{toc}{\contentsline {subsubsection}{Testcase 3.1: Test maximale afstand tussen nodes}{115}\protected@file@percent }
\@writefile{lot}{\contentsline {table}{\numberline {H.4}{\ignorespaces Testcase 3.1\relax }}{115}\protected@file@percent }
\newlabel{tcx}{{H.4}{115}}
\newlabel{tcx@cref}{{[table][4][8]H.4}{[1][115][]115}}
\@writefile{toc}{\contentsline {subsubsection}{Testcase 3.2: Verbinding tussen smartphone en node}{116}\protected@file@percent }
\@writefile{lot}{\contentsline {table}{\numberline {H.5}{\ignorespaces Testcase 3.2\relax }}{116}\protected@file@percent }
\newlabel{tcx}{{H.5}{116}}
\newlabel{tcx@cref}{{[table][5][8]H.5}{[1][116][]116}}
\@writefile{toc}{\contentsline {subsubsection}{Testcase 3.3: Doorsturen proxy}{116}\protected@file@percent }
\@writefile{lot}{\contentsline {table}{\numberline {H.6}{\ignorespaces Testcase 3.3\relax }}{116}\protected@file@percent }
\newlabel{tcx}{{H.6}{116}}
\newlabel{tcx@cref}{{[table][6][8]H.6}{[1][116][]116}}
\@writefile{toc}{\contentsline {subsubsection}{Testcase 3.4: Doorsturen mesh}{117}\protected@file@percent }
\@writefile{lot}{\contentsline {table}{\numberline {H.7}{\ignorespaces Testcase 3.4\relax }}{117}\protected@file@percent }
\newlabel{tcx}{{H.7}{117}}
\newlabel{tcx@cref}{{[table][7][8]H.7}{[1][117][]117}}
\@writefile{toc}{\contentsline {subsubsection}{Testcase 3.5: Sturen diagnostische data}{117}\protected@file@percent }
\@writefile{lot}{\contentsline {table}{\numberline {H.8}{\ignorespaces Testcase 3.5\relax }}{117}\protected@file@percent }
\newlabel{tcx}{{H.8}{117}}
\newlabel{tcx@cref}{{[table][8][8]H.8}{[1][117][]117}}
\@writefile{toc}{\contentsline {subsubsection}{Testcase 3.6: Identificeren systeem}{118}\protected@file@percent }
\@writefile{lot}{\contentsline {table}{\numberline {H.9}{\ignorespaces Testcase 3.6\relax }}{118}\protected@file@percent }
\newlabel{tcx}{{H.9}{118}}
\newlabel{tcx@cref}{{[table][9][8]H.9}{[1][118][]118}}
\@writefile{toc}{\contentsline {subsection}{\numberline {H.2.4}Test opgeslagen data}{119}\protected@file@percent }
\@writefile{toc}{\contentsline {subsubsection}{Testcase 4.1: Test Opslag data}{119}\protected@file@percent }
\@writefile{lot}{\contentsline {table}{\numberline {H.10}{\ignorespaces Testcase 4.1\relax }}{119}\protected@file@percent }
\newlabel{tcx}{{H.10}{119}}
\newlabel{tcx@cref}{{[table][10][8]H.10}{[1][119][]119}}
\@writefile{toc}{\contentsline {subsection}{\numberline {H.2.5}Test RoHS}{119}\protected@file@percent }
\@writefile{lot}{\contentsline {table}{\numberline {H.11}{\ignorespaces Testcase 6.1\relax }}{119}\protected@file@percent }
\newlabel{tcx}{{H.11}{119}}
\newlabel{tcx@cref}{{[table][11][8]H.11}{[1][119][]119}}
\@writefile{toc}{\contentsline {section}{\numberline {H.3}Traceerbaarheid klanteisen}{120}\protected@file@percent }
\@writefile{lot}{\contentsline {table}{\numberline {H.12}{\ignorespaces Traceertabel Requirements \relax }}{120}\protected@file@percent }
\newlabel{tab:ta}{{H.12}{120}}
\newlabel{tab:ta@cref}{{[table][12][8]H.12}{[1][120][]120}}
\@writefile{toc}{\contentsline {chapter}{\numberline {I.}Integratietest}{121}\protected@file@percent }
\@writefile{lof}{\addvspace {10pt}}
\@writefile{lot}{\addvspace {10pt}}
\@writefile{lof}{\contentsline {xchapter}{Integratietest}{121}\protected@file@percent }
\@writefile{lot}{\contentsline {xchapter}{Integratietest}{121}\protected@file@percent }
\newlabel{inttest}{{I}{121}}
\newlabel{inttest@cref}{{[chapter][9][]I}{[1][121][]121}}
\@writefile{toc}{\contentsline {section}{\numberline {I.1}Testen}{121}\protected@file@percent }
\@writefile{toc}{\contentsline {subsection}{\numberline {I.1.1}Test IC1: zenden UART}{122}\protected@file@percent }
\@writefile{lot}{\contentsline {table}{\numberline {I.1}{\ignorespaces Test zenden UART\relax }}{122}\protected@file@percent }
\newlabel{itc1}{{I.1}{122}}
\newlabel{itc1@cref}{{[table][1][9]I.1}{[1][122][]122}}
\@writefile{toc}{\contentsline {subsection}{\numberline {I.1.2}Test IC1: ontvangen UART}{122}\protected@file@percent }
\@writefile{lot}{\contentsline {table}{\numberline {I.2}{\ignorespaces Test ontvangen UART\relax }}{122}\protected@file@percent }
\newlabel{itc1}{{I.2}{122}}
\newlabel{itc1@cref}{{[table][2][9]I.2}{[1][122][]122}}
\@writefile{toc}{\contentsline {subsection}{\numberline {I.1.3}Test IC2: Hardware software update}{123}\protected@file@percent }
\@writefile{lot}{\contentsline {table}{\numberline {I.3}{\ignorespaces Test verbinding program connector\relax }}{123}\protected@file@percent }
\newlabel{itc1}{{I.3}{123}}
\newlabel{itc1@cref}{{[table][3][9]I.3}{[1][123][]123}}
\@writefile{toc}{\contentsline {subsection}{\numberline {I.1.4}Test IC3: rimpel voeding}{123}\protected@file@percent }
\@writefile{lot}{\contentsline {table}{\numberline {I.4}{\ignorespaces Test rimpel voeding\relax }}{123}\protected@file@percent }
\newlabel{itc1}{{I.4}{123}}
\newlabel{itc1@cref}{{[table][4][9]I.4}{[1][123][]123}}
\@writefile{toc}{\contentsline {subsection}{\numberline {I.1.5}Test IC4: Extern Flash}{124}\protected@file@percent }
\@writefile{lot}{\contentsline {table}{\numberline {I.5}{\ignorespaces Test Extern Flash\relax }}{124}\protected@file@percent }
\newlabel{itc1}{{I.5}{124}}
\newlabel{itc1@cref}{{[table][5][9]I.5}{[1][124][]124}}
\@writefile{toc}{\contentsline {subsection}{\numberline {I.1.6}Test IC5: mesh LED}{124}\protected@file@percent }
\@writefile{lot}{\contentsline {table}{\numberline {I.6}{\ignorespaces Test mesh LED\relax }}{124}\protected@file@percent }
\newlabel{itc1}{{I.6}{124}}
\newlabel{itc1@cref}{{[table][6][9]I.6}{[1][124][]124}}
\@writefile{toc}{\contentsline {subsection}{\numberline {I.1.7}Test IC5: mesh UART}{125}\protected@file@percent }
\@writefile{lot}{\contentsline {table}{\numberline {I.7}{\ignorespaces Test mesh UART\relax }}{125}\protected@file@percent }
\newlabel{itc1}{{I.7}{125}}
\newlabel{itc1@cref}{{[table][7][9]I.7}{[1][125][]125}}
\@writefile{toc}{\contentsline {subsection}{\numberline {I.1.8}Test IC6: LED}{125}\protected@file@percent }
\@writefile{lot}{\contentsline {table}{\numberline {I.8}{\ignorespaces Test mesh LED\relax }}{125}\protected@file@percent }
\newlabel{itc1}{{I.8}{125}}
\newlabel{itc1@cref}{{[table][8][9]I.8}{[1][125][]125}}
\@writefile{toc}{\contentsline {chapter}{\numberline {J.}Unit test}{126}\protected@file@percent }
\@writefile{lof}{\addvspace {10pt}}
\@writefile{lot}{\addvspace {10pt}}
\@writefile{lof}{\contentsline {xchapter}{Unit test}{126}\protected@file@percent }
\@writefile{lot}{\contentsline {xchapter}{Unit test}{126}\protected@file@percent }
\newlabel{unittest}{{J}{126}}
\newlabel{unittest@cref}{{[chapter][10][]J}{[1][126][]126}}
\@writefile{toc}{\contentsline {section}{\numberline {J.1}Test LED}{126}\protected@file@percent }
\@writefile{lot}{\contentsline {table}{\numberline {J.1}{\ignorespaces Test output spanning Charge-pump\relax }}{126}\protected@file@percent }
\newlabel{utci}{{J.1}{126}}
\newlabel{utci@cref}{{[table][1][10]J.1}{[1][126][]126}}
\@writefile{toc}{\contentsline {section}{\numberline {J.2}Test stroom LED}{127}\protected@file@percent }
\@writefile{lot}{\contentsline {table}{\numberline {J.2}{\ignorespaces Test stroom LED\relax }}{127}\protected@file@percent }
\newlabel{utc2}{{J.2}{127}}
\newlabel{utc2@cref}{{[table][2][10]J.2}{[1][127][]127}}
\@writefile{toc}{\contentsline {section}{\numberline {J.3}Test UART zenden}{127}\protected@file@percent }
\@writefile{lot}{\contentsline {table}{\numberline {J.3}{\ignorespaces Test mesh LED\relax }}{127}\protected@file@percent }
\newlabel{itc1}{{J.3}{127}}
\newlabel{itc1@cref}{{[table][3][10]J.3}{[1][127][]127}}
\@writefile{toc}{\contentsline {chapter}{\numberline {K.}Testresultaten}{128}\protected@file@percent }
\@writefile{lof}{\addvspace {10pt}}
\@writefile{lot}{\addvspace {10pt}}
\@writefile{lof}{\contentsline {xchapter}{Testresultaten}{128}\protected@file@percent }
\@writefile{lot}{\contentsline {xchapter}{Testresultaten}{128}\protected@file@percent }
\newlabel{testres}{{K}{128}}
\newlabel{testres@cref}{{[chapter][11][]K}{[1][128][]128}}
\@writefile{toc}{\contentsline {section}{\numberline {K.1}Unittest}{128}\protected@file@percent }
\newlabel{teststrled}{{K.1a}{128}}
\newlabel{teststrled@cref}{{[subfigure][1][11,1]K.1a}{[1][128][]128}}
\newlabel{sub@teststrled}{{a}{128}}
\newlabel{sub@teststrled@cref}{{[subfigure][1][11,1]K.1a}{[1][128][]128}}
\newlabel{bwstrled}{{K.1b}{128}}
\newlabel{bwstrled@cref}{{[subfigure][2][11,1]K.1b}{[1][128][]128}}
\newlabel{sub@bwstrled}{{b}{128}}
\newlabel{sub@bwstrled@cref}{{[subfigure][2][11,1]K.1b}{[1][128][]128}}
\@writefile{lof}{\contentsline {figure}{\numberline {K.1}{\ignorespaces Test stroom LED\relax }}{128}\protected@file@percent }
\newlabel{teststrled}{{K.2a}{129}}
\newlabel{teststrled@cref}{{[subfigure][1][11,2]K.2a}{[1][129][]129}}
\newlabel{sub@teststrled}{{a}{129}}
\newlabel{sub@teststrled@cref}{{[subfigure][1][11,2]K.2a}{[1][129][]129}}
\newlabel{bwstrled}{{K.2b}{129}}
\newlabel{bwstrled@cref}{{[subfigure][2][11,2]K.2b}{[1][129][]129}}
\newlabel{sub@bwstrled}{{b}{129}}
\newlabel{sub@bwstrled@cref}{{[subfigure][2][11,2]K.2b}{[1][129][]129}}
\@writefile{lof}{\contentsline {figure}{\numberline {K.2}{\ignorespaces Test spanning charge pump\relax }}{129}\protected@file@percent }
\newlabel{terauartunit}{{K.3a}{130}}
\newlabel{terauartunit@cref}{{[subfigure][1][11,3]K.3a}{[1][130][]130}}
\newlabel{sub@terauartunit}{{a}{130}}
\newlabel{sub@terauartunit@cref}{{[subfigure][1][11,3]K.3a}{[1][130][]130}}
\newlabel{unituart}{{K.3b}{130}}
\newlabel{unituart@cref}{{[subfigure][2][11,3]K.3b}{[1][130][]130}}
\newlabel{sub@unituart}{{b}{130}}
\newlabel{sub@unituart@cref}{{[subfigure][2][11,3]K.3b}{[1][130][]130}}
\newlabel{instuart}{{K.3c}{130}}
\newlabel{instuart@cref}{{[subfigure][3][11,3]K.3c}{[1][130][]130}}
\newlabel{sub@instuart}{{c}{130}}
\newlabel{sub@instuart@cref}{{[subfigure][3][11,3]K.3c}{[1][130][]130}}
\@writefile{lof}{\contentsline {figure}{\numberline {K.3}{\ignorespaces Test UART\relax }}{130}\protected@file@percent }
\newlabel{teststrled}{{K.4a}{131}}
\newlabel{teststrled@cref}{{[subfigure][1][11,4]K.4a}{[1][131][]131}}
\newlabel{sub@teststrled}{{a}{131}}
\newlabel{sub@teststrled@cref}{{[subfigure][1][11,4]K.4a}{[1][131][]131}}
\newlabel{bwstrled}{{K.4b}{131}}
\newlabel{bwstrled@cref}{{[subfigure][2][11,4]K.4b}{[1][131][]131}}
\newlabel{sub@bwstrled}{{b}{131}}
\newlabel{sub@bwstrled@cref}{{[subfigure][2][11,4]K.4b}{[1][131][]131}}
\@writefile{lof}{\contentsline {figure}{\numberline {K.4}{\ignorespaces Test ontvangen UART\relax }}{131}\protected@file@percent }
\@writefile{toc}{\contentsline {section}{\numberline {K.2}Integratietest}{132}\protected@file@percent }
\@writefile{toc}{\contentsline {subsection}{\numberline {K.2.1}Test rimpel}{132}\protected@file@percent }
\newlabel{testrimpelscope}{{K.5a}{132}}
\newlabel{testrimpelscope@cref}{{[subfigure][1][11,5]K.5a}{[1][132][]132}}
\newlabel{sub@testrimpelscope}{{a}{132}}
\newlabel{sub@testrimpelscope@cref}{{[subfigure][1][11,5]K.5a}{[1][132][]132}}
\newlabel{testrimpelfoto}{{K.5b}{132}}
\newlabel{testrimpelfoto@cref}{{[subfigure][2][11,5]K.5b}{[1][132][]132}}
\newlabel{sub@testrimpelfoto}{{b}{132}}
\newlabel{sub@testrimpelfoto@cref}{{[subfigure][2][11,5]K.5b}{[1][132][]132}}
\@writefile{lof}{\contentsline {figure}{\numberline {K.5}{\ignorespaces Test rimpelspanning voeding\relax }}{132}\protected@file@percent }
\newlabel{testrimpel}{{K.5}{132}}
\newlabel{testrimpel@cref}{{[figure][5][11]K.5}{[1][132][]132}}
\@writefile{toc}{\contentsline {subsection}{\numberline {K.2.2}Test mesh LED}{133}\protected@file@percent }
\newlabel{testrimpelfoto}{{K.6b}{133}}
\newlabel{testrimpelfoto@cref}{{[subfigure][2][11,6]K.6b}{[1][133][]133}}
\newlabel{sub@testrimpelfoto}{{b}{133}}
\newlabel{sub@testrimpelfoto@cref}{{[subfigure][2][11,6]K.6b}{[1][133][]133}}
\@writefile{lof}{\contentsline {figure}{\numberline {K.6}{\ignorespaces Test LED\relax }}{133}\protected@file@percent }
\newlabel{testrimpel}{{K.6}{133}}
\newlabel{testrimpel@cref}{{[figure][6][11]K.6}{[1][133][]133}}
\@writefile{toc}{\contentsline {subsection}{\numberline {K.2.3}Test mesh UART}{134}\protected@file@percent }
\newlabel{testrimpelfoto}{{K.7b}{134}}
\newlabel{testrimpelfoto@cref}{{[subfigure][2][11,7]K.7b}{[1][134][]134}}
\newlabel{sub@testrimpelfoto}{{b}{134}}
\newlabel{sub@testrimpelfoto@cref}{{[subfigure][2][11,7]K.7b}{[1][134][]134}}
\newlabel{testrimpelfoto}{{K.7c}{134}}
\newlabel{testrimpelfoto@cref}{{[subfigure][3][11,7]K.7c}{[1][134][]134}}
\newlabel{sub@testrimpelfoto}{{c}{134}}
\newlabel{sub@testrimpelfoto@cref}{{[subfigure][3][11,7]K.7c}{[1][134][]134}}
\@writefile{lof}{\contentsline {figure}{\numberline {K.7}{\ignorespaces Test UART\relax }}{134}\protected@file@percent }
\newlabel{testrimpel}{{K.7}{134}}
\newlabel{testrimpel@cref}{{[figure][7][11]K.7}{[1][134][]134}}
\@writefile{toc}{\contentsline {section}{\numberline {K.3}Acceptatietest}{135}\protected@file@percent }
\@writefile{toc}{\contentsline {subsection}{\numberline {K.3.1}Testcase 1.1 en testcase 1.2}{135}\protected@file@percent }
\@writefile{lof}{\contentsline {figure}{\numberline {K.8}{\ignorespaces Test LED\relax }}{135}\protected@file@percent }
\newlabel{testrimpel}{{K.8}{135}}
\newlabel{testrimpel@cref}{{[figure][8][11]K.8}{[1][135][]135}}
\@writefile{toc}{\contentsline {subsection}{\numberline {K.3.2}Testcase 2.1}{136}\protected@file@percent }
\newlabel{testrimpelfoto}{{K.9b}{136}}
\newlabel{testrimpelfoto@cref}{{[subfigure][2][11,9]K.9b}{[1][136][]136}}
\newlabel{sub@testrimpelfoto}{{b}{136}}
\newlabel{sub@testrimpelfoto@cref}{{[subfigure][2][11,9]K.9b}{[1][136][]136}}
\@writefile{lof}{\contentsline {figure}{\numberline {K.9}{\ignorespaces Test LED\relax }}{136}\protected@file@percent }
\newlabel{testrimpel}{{K.9}{136}}
\newlabel{testrimpel@cref}{{[figure][9][11]K.9}{[1][136][]136}}
\@writefile{toc}{\contentsline {section}{\numberline {K.4}Testcase 2.2}{137}\protected@file@percent }
\newlabel{testlongrange2}{{K.10a}{137}}
\newlabel{testlongrange2@cref}{{[subfigure][1][11,10]K.10a}{[1][137][]137}}
\newlabel{sub@testlongrange2}{{a}{137}}
\newlabel{sub@testlongrange2@cref}{{[subfigure][1][11,10]K.10a}{[1][137][]137}}
\@writefile{lof}{\contentsline {figure}{\numberline {K.10}{\ignorespaces Test afstand\relax }}{137}\protected@file@percent }
\newlabel{testlongrange1}{{K.10}{137}}
\newlabel{testlongrange1@cref}{{[figure][10][11]K.10}{[1][137][]137}}
\@writefile{toc}{\contentsline {section}{\numberline {K.5}Testcase 3.1}{138}\protected@file@percent }
\@writefile{toc}{\contentsline {section}{\numberline {K.6}Testcase 5.1}{138}\protected@file@percent }
\@writefile{toc}{\contentsline {chapter}{\numberline {L.}Bill Of Materials}{139}\protected@file@percent }
\@writefile{lof}{\addvspace {10pt}}
\@writefile{lot}{\addvspace {10pt}}
\@writefile{lof}{\contentsline {xchapter}{Bill Of Materials}{139}\protected@file@percent }
\@writefile{lot}{\contentsline {xchapter}{Bill Of Materials}{139}\protected@file@percent }
\@writefile{lof}{\contentsline {figure}{\numberline {L.1}{\ignorespaces BOM\relax }}{140}\protected@file@percent }
\newlabel{BOM}{{L.1}{140}}
\newlabel{BOM@cref}{{[figure][1][12]L.1}{[1][140][]140}}
\@writefile{toc}{\contentsline {chapter}{\numberline {M.}Handleiding BlueFarm}{141}\protected@file@percent }
\@writefile{lof}{\addvspace {10pt}}
\@writefile{lot}{\addvspace {10pt}}
\@writefile{lof}{\contentsline {xchapter}{Handleiding BlueFarm}{141}\protected@file@percent }
\@writefile{lot}{\contentsline {xchapter}{Handleiding BlueFarm}{141}\protected@file@percent }
\@writefile{toc}{\contentsline {section}{\numberline {M.1}Programmeren}{141}\protected@file@percent }
\@writefile{toc}{\contentsline {section}{\numberline {M.2}Provisioneren}{142}\protected@file@percent }
\@writefile{lof}{\contentsline {figure}{\numberline {M.1}{\ignorespaces Stappenplan provisioneren\relax }}{143}\protected@file@percent }
\newlabel{Stappenplan}{{M.1}{143}}
\newlabel{Stappenplan@cref}{{[figure][1][13]M.1}{[1][142][]143}}
\@writefile{lof}{\contentsline {figure}{\numberline {M.1}{\ignorespaces Stap 10\relax }}{143}\protected@file@percent }
\@writefile{toc}{\contentsline {section}{\numberline {M.3}Probleem oplossen}{144}\protected@file@percent }
\@writefile{toc}{\contentsline {chapter}{\numberline {N.}Competentieverantwoording}{145}\protected@file@percent }
\@writefile{lof}{\addvspace {10pt}}
\@writefile{lot}{\addvspace {10pt}}
\@writefile{lof}{\contentsline {xchapter}{Competentieverantwoording}{145}\protected@file@percent }
\@writefile{lot}{\contentsline {xchapter}{Competentieverantwoording}{145}\protected@file@percent }
\@writefile{toc}{\contentsline {section}{\numberline {N.1}Analyseren}{145}\protected@file@percent }
\@writefile{toc}{\contentsline {section}{\numberline {N.2}Ontwerpen}{146}\protected@file@percent }
\@writefile{toc}{\contentsline {section}{\numberline {N.3}Realiseren}{146}\protected@file@percent }
\@writefile{toc}{\contentsline {section}{\numberline {N.4}Beheren}{146}\protected@file@percent }
\@writefile{toc}{\contentsline {section}{\numberline {N.5}Managen}{146}\protected@file@percent }
\@writefile{toc}{\contentsline {section}{\numberline {N.6}Adviseren}{146}\protected@file@percent }
\@writefile{toc}{\contentsline {section}{\numberline {N.7}Onderzoeken}{147}\protected@file@percent }
\@writefile{toc}{\contentsline {section}{\numberline {N.8}Professionaliseren}{147}\protected@file@percent }
\@writefile{toc}{\contentsline {chapter}{\numberline {O.}Reflectie}{148}\protected@file@percent }
\@writefile{lof}{\addvspace {10pt}}
\@writefile{lot}{\addvspace {10pt}}
\@writefile{lof}{\contentsline {xchapter}{Reflectie}{148}\protected@file@percent }
\@writefile{lot}{\contentsline {xchapter}{Reflectie}{148}\protected@file@percent }
\@writefile{toc}{\contentsline {section}{\numberline {O.1}Analyseren}{148}\protected@file@percent }
\@writefile{toc}{\contentsline {section}{\numberline {O.2}Ontwerpen}{148}\protected@file@percent }
\@writefile{toc}{\contentsline {section}{\numberline {O.3}Realiseren}{148}\protected@file@percent }
\@writefile{toc}{\contentsline {section}{\numberline {O.4}Beheren}{148}\protected@file@percent }
\@writefile{toc}{\contentsline {section}{\numberline {O.5}Managen}{148}\protected@file@percent }
\@writefile{toc}{\contentsline {section}{\numberline {O.6}Adviseren}{149}\protected@file@percent }
\@writefile{toc}{\contentsline {section}{\numberline {O.7}Onderzoeken}{149}\protected@file@percent }
\@writefile{toc}{\contentsline {section}{\numberline {O.8}Professionaliseren}{149}\protected@file@percent }
\@writefile{toc}{\contentsline {chapter}{\numberline {P.}Beoordeling bedrijfsbegeleider}{150}\protected@file@percent }
\@writefile{lof}{\addvspace {10pt}}
\@writefile{lot}{\addvspace {10pt}}
\@writefile{lof}{\contentsline {xchapter}{Beoordeling bedrijfsbegeleider}{150}\protected@file@percent }
\@writefile{lot}{\contentsline {xchapter}{Beoordeling bedrijfsbegeleider}{150}\protected@file@percent }
\@writefile{toc}{\contentsline {chapter}{\numberline {Q.}Code}{151}\protected@file@percent }
\@writefile{lof}{\addvspace {10pt}}
\@writefile{lot}{\addvspace {10pt}}
\@writefile{lof}{\contentsline {xchapter}{Code}{151}\protected@file@percent }
\@writefile{lot}{\contentsline {xchapter}{Code}{151}\protected@file@percent }
\@writefile{toc}{\contentsline {section}{\numberline {Q.1}Main.c}{151}\protected@file@percent }
\@writefile{toc}{\contentsline {section}{\numberline {Q.2}UART\_debug.c}{157}\protected@file@percent }
\newlabel{codeuart}{{Q.2}{157}}
\newlabel{codeuart@cref}{{[section][2][17]Q.2}{[1][157][]157}}
\@writefile{toc}{\contentsline {section}{\numberline {Q.3}SPI\_Flash.c}{158}\protected@file@percent }
\newlabel{codeSPI}{{Q.3}{158}}
\newlabel{codeSPI@cref}{{[section][3][17]Q.3}{[1][158][]158}}
\bibstyle{apacite}
\bibdata{Referenties/Referenties,Referenties/Afstuderen}
\global\mtcsecondpartfalse
