\relax 
\@nameuse{bbl@beforestart}
\catcode `"\active 
\babel@aux{dutch}{}
\newlabel{hs:vb}{{}{6}}
\newlabel{hs:vb@cref}{{}{[1][6][]6}}
\@writefile{lot}{\contentsline {table}{\numberline {0.1}{\ignorespaces Versiehistorie\relax }}{6}\protected@file@percent }
\providecommand*\caption@xref[2]{\@setref\relax\@undefined{#1}}
\newlabel{tab:vb}{{0.1}{6}}
\newlabel{tab:vb@cref}{{[table][1][0]0.1}{[1][6][]6}}
\@writefile{toc}{\contentsline {chapter}{\numberline {1.}Inleiding}{8}\protected@file@percent }
\@writefile{lof}{\addvspace {10pt}}
\@writefile{lot}{\addvspace {10pt}}
\newlabel{hs:in}{{1}{8}}
\newlabel{hs:in@cref}{{[chapter][1][]1}{[1][8][]8}}
\@writefile{toc}{\contentsline {section}{\numberline {1.1}Bedrijfsachtergrond}{8}\protected@file@percent }
\@writefile{lof}{\contentsline {figure}{\numberline {1.1}{\ignorespaces Luiken voor in- en uitvoer van luchtstromen\relax }}{9}\protected@file@percent }
\newlabel{luik}{{1.1}{9}}
\newlabel{luik@cref}{{[figure][1][1]1.1}{[1][9][]9}}
\newlabel{im60}{{1.2a}{10}}
\newlabel{im60@cref}{{[subfigure][1][1,2]1.2a}{[1][10][]10}}
\newlabel{sub@im60}{{a}{10}}
\newlabel{sub@im60@cref}{{[subfigure][1][1,2]1.2a}{[1][10][]10}}
\newlabel{im125}{{1.2b}{10}}
\newlabel{im125@cref}{{[subfigure][2][1,2]1.2b}{[1][10][]10}}
\newlabel{sub@im125}{{b}{10}}
\newlabel{sub@im125@cref}{{[subfigure][2][1,2]1.2b}{[1][10][]10}}
\@writefile{lof}{\contentsline {figure}{\numberline {1.2}{\ignorespaces Motoren\relax }}{10}\protected@file@percent }
\@writefile{toc}{\contentsline {section}{\numberline {1.2}Probleemstelling}{10}\protected@file@percent }
\@writefile{toc}{\contentsline {section}{\numberline {1.3}Doelstelling}{11}\protected@file@percent }
\@writefile{lof}{\contentsline {figure}{\numberline {1.3}{\ignorespaces V-model\relax }}{11}\protected@file@percent }
\newlabel{vmodel}{{1.3}{11}}
\newlabel{vmodel@cref}{{[figure][3][1]1.3}{[1][11][]11}}
\@writefile{toc}{\contentsline {chapter}{\numberline {2.}Requirements}{12}\protected@file@percent }
\@writefile{lof}{\addvspace {10pt}}
\@writefile{lot}{\addvspace {10pt}}
\newlabel{hs:h2}{{2}{12}}
\newlabel{hs:h2@cref}{{[chapter][2][]2}{[1][12][]12}}
\@writefile{toc}{\contentsline {section}{\numberline {2.1}Inleiding}{12}\protected@file@percent }
\newlabel{hs:h21}{{2.1}{12}}
\newlabel{hs:h21@cref}{{[section][1][2]2.1}{[1][12][]12}}
\@writefile{toc}{\contentsline {section}{\numberline {2.2}Algemene beschrijving}{12}\protected@file@percent }
\newlabel{hs:h22}{{2.2}{12}}
\newlabel{hs:h22@cref}{{[section][2][2]2.2}{[1][12][]12}}
\@writefile{toc}{\contentsline {section}{\numberline {2.3}Systeemcontext}{12}\protected@file@percent }
\newlabel{hs:h23}{{2.3}{12}}
\newlabel{hs:h23@cref}{{[section][3][2]2.3}{[1][12][]12}}
\@writefile{toc}{\contentsline {subsection}{\numberline {2.3.1}Systeemfuncties}{12}\protected@file@percent }
\newlabel{hs:h231}{{2.3.1}{12}}
\newlabel{hs:h231@cref}{{[subsection][1][2,3]2.3.1}{[1][12][]12}}
\@writefile{lof}{\contentsline {figure}{\numberline {2.1}{\ignorespaces Data Context Diagram\relax }}{13}\protected@file@percent }
\newlabel{DCD}{{2.1}{13}}
\newlabel{DCD@cref}{{[figure][1][2]2.1}{[1][13][]13}}
\@writefile{toc}{\contentsline {section}{\numberline {2.4}Systeemfuncties}{14}\protected@file@percent }
\newlabel{hs:h24}{{2.4}{14}}
\newlabel{hs:h24@cref}{{[section][4][2]2.4}{[1][14][]14}}
\@writefile{toc}{\contentsline {subsection}{\numberline {2.4.1}Draadloze data overdracht}{14}\protected@file@percent }
\newlabel{hs:h241}{{2.4.1}{14}}
\newlabel{hs:h241@cref}{{[subsection][1][2,4]2.4.1}{[1][14][]14}}
\@writefile{toc}{\contentsline {subsubsection}{Stimulus en response}{14}\protected@file@percent }
\newlabel{2411}{{2.4.1}{14}}
\newlabel{2411@cref}{{[subsection][1][2,4]2.4.1}{[1][14][]14}}
\@writefile{toc}{\contentsline {subsubsection}{Functionele klanteisen}{14}\protected@file@percent }
\newlabel{2411}{{2.4.1}{14}}
\newlabel{2411@cref}{{[subsection][1][2,4]2.4.1}{[1][14][]14}}
\@writefile{toc}{\contentsline {subsection}{\numberline {2.4.2}Uitlezen en opslag data}{15}\protected@file@percent }
\newlabel{hs:h242}{{2.4.2}{15}}
\newlabel{hs:h242@cref}{{[subsection][2][2,4]2.4.2}{[1][15][]15}}
\@writefile{toc}{\contentsline {subsubsection}{Stimulus en response}{15}\protected@file@percent }
\newlabel{2421}{{2.4.2}{15}}
\newlabel{2421@cref}{{[subsection][2][2,4]2.4.2}{[1][15][]15}}
\@writefile{toc}{\contentsline {subsubsection}{Functionele klanteisen}{15}\protected@file@percent }
\newlabel{2421}{{2.4.2}{15}}
\newlabel{2421@cref}{{[subsection][2][2,4]2.4.2}{[1][15][]15}}
\@writefile{toc}{\contentsline {subsection}{\numberline {2.4.3}Updaten systeem en bestaande module (Optioneel)}{16}\protected@file@percent }
\newlabel{hs:h243}{{2.4.3}{16}}
\newlabel{hs:h243@cref}{{[subsection][3][2,4]2.4.3}{[1][16][]16}}
\@writefile{toc}{\contentsline {subsubsection}{Stimulus en response}{16}\protected@file@percent }
\newlabel{2431}{{2.4.3}{16}}
\newlabel{2431@cref}{{[subsection][3][2,4]2.4.3}{[1][16][]16}}
\@writefile{toc}{\contentsline {subsubsection}{Functionele klanteisen}{16}\protected@file@percent }
\newlabel{2431}{{2.4.3}{16}}
\newlabel{2431@cref}{{[subsection][3][2,4]2.4.3}{[1][16][]16}}
\@writefile{toc}{\contentsline {section}{\numberline {2.5}Niet-functionele klanteisen}{16}\protected@file@percent }
\newlabel{hs:h25}{{2.5}{16}}
\newlabel{hs:h25@cref}{{[section][5][2]2.5}{[1][16][]16}}
\@writefile{toc}{\contentsline {chapter}{\numberline {3.}Architectuur}{17}\protected@file@percent }
\@writefile{lof}{\addvspace {10pt}}
\@writefile{lot}{\addvspace {10pt}}
\@writefile{lof}{\contentsline {figure}{\numberline {3.1}{\ignorespaces Data Context Diagram\relax }}{17}\protected@file@percent }
\newlabel{DFD0}{{3.1}{17}}
\newlabel{DFD0@cref}{{[figure][1][3]3.1}{[1][17][]17}}
\@writefile{toc}{\contentsline {chapter}{Appendices}{18}\protected@file@percent }
\citation{cbs}
\@writefile{toc}{\contentsline {chapter}{\numberline {A.}Onderzoek draadloze technologieën}{19}\protected@file@percent }
\@writefile{lof}{\addvspace {10pt}}
\@writefile{lot}{\addvspace {10pt}}
\@writefile{toc}{\contentsline {section}{\numberline {A.1}Inleiding}{19}\protected@file@percent }
\newlabel{stal1}{{A.1a}{20}}
\newlabel{stal1@cref}{{[subfigure][1][1,1]A.1a}{[1][20][]20}}
\newlabel{sub@stal1}{{a}{20}}
\newlabel{sub@stal1@cref}{{[subfigure][1][1,1]A.1a}{[1][20][]20}}
\newlabel{stal2}{{A.1b}{20}}
\newlabel{stal2@cref}{{[subfigure][2][1,1]A.1b}{[1][20][]20}}
\newlabel{sub@stal2}{{b}{20}}
\newlabel{sub@stal2@cref}{{[subfigure][2][1,1]A.1b}{[1][20][]20}}
\@writefile{lof}{\contentsline {figure}{\numberline {A.1}{\ignorespaces Mogelijke ophanging motor\relax }}{20}\protected@file@percent }
\citation{los}
\citation{topo}
\@writefile{toc}{\contentsline {section}{\numberline {A.2}Draadloze technologieën}{21}\protected@file@percent }
\@writefile{lof}{\contentsline {figure}{\numberline {A.2}{\ignorespaces Line Of Sight \relax }}{21}\protected@file@percent }
\newlabel{los}{{A.2}{21}}
\newlabel{los@cref}{{[figure][2][1]A.2}{[1][21][]21}}
\citation{Verma2013}
\citation{Zhao2014}
\citation{meshfaq}
\citation{meshfaq}
\citation{Yaakop2017}
\citation{zigbee}
\citation{Ali-rantala}
\citation{Chruszczyk2017}
\@writefile{toc}{\contentsline {subsection}{\numberline {A.2.1}Frequentie, bereik en maximale snelheid}{22}\protected@file@percent }
\citation{DelaCruz2016}
\citation{starmesh}
\citation{hu2013}
\@writefile{toc}{\contentsline {subsection}{\numberline {A.2.2}Topologie en gebruik smartphone}{23}\protected@file@percent }
\newlabel{star}{{A.3a}{23}}
\newlabel{star@cref}{{[subfigure][1][1,3]A.3a}{[1][23][]23}}
\newlabel{sub@star}{{a}{23}}
\newlabel{sub@star@cref}{{[subfigure][1][1,3]A.3a}{[1][23][]23}}
\newlabel{mesh}{{A.3b}{23}}
\newlabel{mesh@cref}{{[subfigure][2][1,3]A.3b}{[1][23][]23}}
\newlabel{sub@mesh}{{b}{23}}
\newlabel{sub@mesh@cref}{{[subfigure][2][1,3]A.3b}{[1][23][]23}}
\@writefile{lof}{\contentsline {figure}{\numberline {A.3}{\ignorespaces Twee verschillende netwerk configuraties\relax }}{23}\protected@file@percent }
\citation{blfees}
\citation{lora}
\citation{zigbee}
\@writefile{toc}{\contentsline {subsection}{\numberline {A.2.3}Kosten}{24}\protected@file@percent }
\@writefile{toc}{\contentsline {subsection}{\numberline {A.2.4}Conclusie}{25}\protected@file@percent }
\@writefile{lot}{\contentsline {table}{\numberline {A.1}{\ignorespaces Overzicht draadloze verbindingen\relax }}{25}\protected@file@percent }
\newlabel{tbWrlss}{{A.1}{25}}
\newlabel{tbWrlss@cref}{{[table][1][1]A.1}{[1][25][]25}}
\bibstyle{apacite}
\bibdata{Referenties/Referenties}
\bibcite{Ali-rantala}{\citeauthoryear {Ali-rantala, Sydanheimo, Keskilammi{}\ \BBA{} Kivikoski}{Ali-rantala\ \BOthers {.}}{{\APACyear {{\bibnodate {}}}}}}
\APACbibcite{Ali-rantala}{\citeauthoryear {Ali-rantala, Sydanheimo, Keskilammi{}\ \BBA{} Kivikoski}{Ali-rantala\ \BOthers {.}}{{\APACyear {{\bibnodate {}}}}}}
\bibcite{zigbee}{\citeauthoryear {Alliance}{Alliance}{{\APACyear {2020}}}}
\APACbibcite{zigbee}{\citeauthoryear {Alliance}{Alliance}{{\APACyear {2020}}}}
\bibcite{meshfaq}{\citeauthoryear {Bluetooth}{Bluetooth}{{\APACyear {2020}}{\APACexlab {{\BCnt {1}}}}}}
\APACbibcite{meshfaq}{\citeauthoryear {Bluetooth}{Bluetooth}{{\APACyear {2020}}{\APACexlab {{\BCnt {1}}}}}}
\bibcite{blfees}{\citeauthoryear {Bluetooth}{Bluetooth}{{\APACyear {2020}}{\APACexlab {{\BCnt {2}}}}}}
\APACbibcite{blfees}{\citeauthoryear {Bluetooth}{Bluetooth}{{\APACyear {2020}}{\APACexlab {{\BCnt {2}}}}}}
\bibcite{cbs}{\citeauthoryear {CBS}{CBS}{{\APACyear {2019}}}}
\APACbibcite{cbs}{\citeauthoryear {CBS}{CBS}{{\APACyear {2019}}}}
\bibcite{Chruszczyk2017}{\citeauthoryear {Chruszczyk}{Chruszczyk}{{\APACyear {2017}}}}
\APACbibcite{Chruszczyk2017}{\citeauthoryear {Chruszczyk}{Chruszczyk}{{\APACyear {2017}}}}
\bibcite{DelaCruz2016}{\citeauthoryear {{Dela Cruz}, Parabuac{}\ \BBA{} Tiglao}{{Dela Cruz}\ \BOthers {.}}{{\APACyear {2016}}}}
\APACbibcite{DelaCruz2016}{\citeauthoryear {{Dela Cruz}, Parabuac{}\ \BBA{} Tiglao}{{Dela Cruz}\ \BOthers {.}}{{\APACyear {2016}}}}
\bibcite{hu2013}{\citeauthoryear {Hu, Fu, She{}\ \BBA{} Yao}{Hu\ \BOthers {.}}{{\APACyear {2013}}}}
\APACbibcite{hu2013}{\citeauthoryear {Hu, Fu, She{}\ \BBA{} Yao}{Hu\ \BOthers {.}}{{\APACyear {2013}}}}
\bibcite{lora}{\citeauthoryear {KPN}{KPN}{{\APACyear {2020}}}}
\APACbibcite{lora}{\citeauthoryear {KPN}{KPN}{{\APACyear {2020}}}}
\bibcite{los}{\citeauthoryear {Tablo}{Tablo}{{\APACyear {2018}}}}
\APACbibcite{los}{\citeauthoryear {Tablo}{Tablo}{{\APACyear {2018}}}}
\bibcite{starmesh}{\citeauthoryear {Techdifferences}{Techdifferences}{{\APACyear {2018}}}}
\APACbibcite{starmesh}{\citeauthoryear {Techdifferences}{Techdifferences}{{\APACyear {2018}}}}
\bibcite{Verma2013}{\citeauthoryear {Verma, Fakharzadeh{}\ \BBA{} Technologies}{Verma\ \BOthers {.}}{{\APACyear {2013}}}}
\APACbibcite{Verma2013}{\citeauthoryear {Verma, Fakharzadeh{}\ \BBA{} Technologies}{Verma\ \BOthers {.}}{{\APACyear {2013}}}}
\bibcite{topo}{\citeauthoryear {Wikipedia}{Wikipedia}{{\APACyear {2018}}}}
\APACbibcite{topo}{\citeauthoryear {Wikipedia}{Wikipedia}{{\APACyear {2018}}}}
\bibcite{Yaakop2017}{\citeauthoryear {Yaakop, Malik, {Bin Suboh}, Ramli{}\ \BBA{} Abu}{Yaakop\ \BOthers {.}}{{\APACyear {2017}}}}
\APACbibcite{Yaakop2017}{\citeauthoryear {Yaakop, Malik, {Bin Suboh}, Ramli{}\ \BBA{} Abu}{Yaakop\ \BOthers {.}}{{\APACyear {2017}}}}
\bibcite{Zhao2014}{\citeauthoryear {Zhao, Xiao, Markham, Trigoni{}\ \BBA{} Ren}{Zhao\ \BOthers {.}}{{\APACyear {2014}}}}
\APACbibcite{Zhao2014}{\citeauthoryear {Zhao, Xiao, Markham, Trigoni{}\ \BBA{} Ren}{Zhao\ \BOthers {.}}{{\APACyear {2014}}}}
\@writefile{toc}{\contentsline {section}{Literatuur}{26}\protected@file@percent }
