\relax 
\@nameuse{bbl@beforestart}
\catcode `"\active 
\babel@aux{dutch}{}
\@writefile{@@@}{\chapterbegin }
\@writefile{@@@}{\chapterbegin }
\@writefile{@@@}{\chapterbegin }
\@writefile{@@@}{\chapterbegin }
\@writefile{@@@}{\chapterbegin }
\newlabel{hs:vb}{{}{6}}
\newlabel{hs:vb@cref}{{}{[1][6][]6}}
\@writefile{lot}{\contentsline {table}{\numberline {0.1}{\ignorespaces Versiehistorie\relax }}{6}\protected@file@percent }
\providecommand*\caption@xref[2]{\@setref\relax\@undefined{#1}}
\newlabel{tab:vb}{{0.1}{6}}
\newlabel{tab:vb@cref}{{[table][1][0]0.1}{[1][6][]6}}
\@writefile{@@@}{\chapterbegin }
\@writefile{toc}{\contentsline {chapter}{\numberline {1.}Inleiding}{9}\protected@file@percent }
\@writefile{lof}{\addvspace {10pt}}
\@writefile{lot}{\addvspace {10pt}}
\@writefile{lof}{\contentsline {xchapter}{Inleiding}{9}\protected@file@percent }
\@writefile{lot}{\contentsline {xchapter}{Inleiding}{9}\protected@file@percent }
\newlabel{hs:in}{{1}{9}}
\newlabel{hs:in@cref}{{[chapter][1][]1}{[1][9][]9}}
\@writefile{toc}{\contentsline {section}{\numberline {1.1}Bedrijfsachtergrond}{9}\protected@file@percent }
\@writefile{lof}{\contentsline {figure}{\numberline {1.1}{\ignorespaces Luiken voor in- en uitvoer van luchtstromen\relax }}{10}\protected@file@percent }
\newlabel{luik}{{1.1}{10}}
\newlabel{luik@cref}{{[figure][1][1]1.1}{[1][9][]10}}
\newlabel{im60}{{1.2a}{11}}
\newlabel{im60@cref}{{[subfigure][1][1,2]1.2a}{[1][11][]11}}
\newlabel{sub@im60}{{a}{11}}
\newlabel{sub@im60@cref}{{[subfigure][1][1,2]1.2a}{[1][11][]11}}
\newlabel{im125}{{1.2b}{11}}
\newlabel{im125@cref}{{[subfigure][2][1,2]1.2b}{[1][11][]11}}
\newlabel{sub@im125}{{b}{11}}
\newlabel{sub@im125@cref}{{[subfigure][2][1,2]1.2b}{[1][11][]11}}
\@writefile{lof}{\contentsline {figure}{\numberline {1.2}{\ignorespaces Motoren\relax }}{11}\protected@file@percent }
\newlabel{im60p}{{1.3a}{12}}
\newlabel{im60p@cref}{{[subfigure][1][1,3]1.3a}{[1][11][]12}}
\newlabel{sub@im60p}{{a}{12}}
\newlabel{sub@im60p@cref}{{[subfigure][1][1,3]1.3a}{[1][11][]12}}
\newlabel{im125p}{{1.3b}{12}}
\newlabel{im125p@cref}{{[subfigure][2][1,3]1.3b}{[1][11][]12}}
\newlabel{sub@im125p}{{b}{12}}
\newlabel{sub@im125p@cref}{{[subfigure][2][1,3]1.3b}{[1][11][]12}}
\@writefile{lof}{\contentsline {figure}{\numberline {1.3}{\ignorespaces Printplaten die de motoren aansturen\relax }}{12}\protected@file@percent }
\@writefile{toc}{\contentsline {section}{\numberline {1.2}Probleemstelling}{12}\protected@file@percent }
\@writefile{toc}{\contentsline {section}{\numberline {1.3}Doelstelling}{13}\protected@file@percent }
\@writefile{lof}{\contentsline {figure}{\numberline {1.4}{\ignorespaces V-model\relax }}{13}\protected@file@percent }
\newlabel{vmodel}{{1.4}{13}}
\newlabel{vmodel@cref}{{[figure][4][1]1.4}{[1][13][]13}}
\citation{Yourdon1979}
\@writefile{toc}{\contentsline {chapter}{\numberline {2.}Requirements}{14}\protected@file@percent }
\@writefile{lof}{\addvspace {10pt}}
\@writefile{lot}{\addvspace {10pt}}
\@writefile{lof}{\contentsline {xchapter}{Requirements}{14}\protected@file@percent }
\@writefile{lot}{\contentsline {xchapter}{Requirements}{14}\protected@file@percent }
\newlabel{hs:h2}{{2}{14}}
\newlabel{hs:h2@cref}{{[chapter][2][]2}{[1][14][]14}}
\@writefile{toc}{\contentsline {section}{\numberline {2.1}Inleiding}{14}\protected@file@percent }
\newlabel{hs:h21}{{2.1}{14}}
\newlabel{hs:h21@cref}{{[section][1][2]2.1}{[1][14][]14}}
\@writefile{toc}{\contentsline {section}{\numberline {2.2}Algemene beschrijving}{14}\protected@file@percent }
\newlabel{hs:h22}{{2.2}{14}}
\newlabel{hs:h22@cref}{{[section][2][2]2.2}{[1][14][]14}}
\@writefile{toc}{\contentsline {section}{\numberline {2.3}Systeemcontext}{14}\protected@file@percent }
\newlabel{hs:h23}{{2.3}{14}}
\newlabel{hs:h23@cref}{{[section][3][2]2.3}{[1][14][]14}}
\@writefile{toc}{\contentsline {subsection}{\numberline {2.3.1}Systeemfuncties}{14}\protected@file@percent }
\newlabel{hs:h231}{{2.3.1}{14}}
\newlabel{hs:h231@cref}{{[subsection][1][2,3]2.3.1}{[1][14][]14}}
\@writefile{lof}{\contentsline {figure}{\numberline {2.1}{\ignorespaces Data Context Diagram\relax }}{15}\protected@file@percent }
\newlabel{DCD}{{2.1}{15}}
\newlabel{DCD@cref}{{[figure][1][2]2.1}{[1][15][]15}}
\@writefile{toc}{\contentsline {section}{\numberline {2.4}Systeemfuncties}{16}\protected@file@percent }
\newlabel{hs:h24}{{2.4}{16}}
\newlabel{hs:h24@cref}{{[section][4][2]2.4}{[1][16][]16}}
\@writefile{toc}{\contentsline {subsection}{\numberline {2.4.1}Draadloze data overdracht}{16}\protected@file@percent }
\newlabel{hs:h241}{{2.4.1}{16}}
\newlabel{hs:h241@cref}{{[subsection][1][2,4]2.4.1}{[1][16][]16}}
\@writefile{toc}{\contentsline {subsubsection}{Stimulus en response}{16}\protected@file@percent }
\newlabel{2411}{{2.4.1}{16}}
\newlabel{2411@cref}{{[subsection][1][2,4]2.4.1}{[1][16][]16}}
\@writefile{toc}{\contentsline {subsubsection}{Functionele klanteisen}{16}\protected@file@percent }
\newlabel{2411}{{2.4.1}{16}}
\newlabel{2411@cref}{{[subsection][1][2,4]2.4.1}{[1][16][]16}}
\@writefile{toc}{\contentsline {subsection}{\numberline {2.4.2}Uitlezen en opslag data}{17}\protected@file@percent }
\newlabel{hs:h242}{{2.4.2}{17}}
\newlabel{hs:h242@cref}{{[subsection][2][2,4]2.4.2}{[1][17][]17}}
\@writefile{toc}{\contentsline {subsubsection}{Stimulus en response}{17}\protected@file@percent }
\newlabel{2421}{{2.4.2}{17}}
\newlabel{2421@cref}{{[subsection][2][2,4]2.4.2}{[1][17][]17}}
\@writefile{toc}{\contentsline {subsubsection}{Functionele klanteisen}{17}\protected@file@percent }
\newlabel{2421}{{2.4.2}{17}}
\newlabel{2421@cref}{{[subsection][2][2,4]2.4.2}{[1][17][]17}}
\@writefile{toc}{\contentsline {subsection}{\numberline {2.4.3}Updaten systeem en bestaande module (Optioneel)}{18}\protected@file@percent }
\newlabel{hs:h243}{{2.4.3}{18}}
\newlabel{hs:h243@cref}{{[subsection][3][2,4]2.4.3}{[1][18][]18}}
\@writefile{toc}{\contentsline {subsubsection}{Stimulus en response}{18}\protected@file@percent }
\newlabel{2431}{{2.4.3}{18}}
\newlabel{2431@cref}{{[subsection][3][2,4]2.4.3}{[1][18][]18}}
\@writefile{toc}{\contentsline {subsubsection}{Functionele klanteisen}{18}\protected@file@percent }
\newlabel{2431}{{2.4.3}{18}}
\newlabel{2431@cref}{{[subsection][3][2,4]2.4.3}{[1][18][]18}}
\@writefile{toc}{\contentsline {section}{\numberline {2.5}Niet-functionele klanteisen}{18}\protected@file@percent }
\newlabel{hs:h25}{{2.5}{18}}
\newlabel{hs:h25@cref}{{[section][5][2]2.5}{[1][18][]18}}
\@writefile{toc}{\contentsline {chapter}{\numberline {3.}Architectuur}{19}\protected@file@percent }
\@writefile{lof}{\addvspace {10pt}}
\@writefile{lot}{\addvspace {10pt}}
\@writefile{lof}{\contentsline {xchapter}{Architectuur}{19}\protected@file@percent }
\@writefile{lot}{\contentsline {xchapter}{Architectuur}{19}\protected@file@percent }
\@writefile{toc}{\contentsline {section}{\numberline {3.1}Ontwerpbesluiten}{19}\protected@file@percent }
\@writefile{toc}{\contentsline {section}{\numberline {3.2}Deelsystemen}{20}\protected@file@percent }
\@writefile{lof}{\contentsline {figure}{\numberline {3.1}{\ignorespaces Data Context Diagram\relax }}{20}\protected@file@percent }
\newlabel{DFD0}{{3.1}{20}}
\newlabel{DFD0@cref}{{[figure][1][3]3.1}{[1][20][]20}}
\@writefile{toc}{\contentsline {chapter}{\numberline {4.}Detailontwerp}{21}\protected@file@percent }
\@writefile{lof}{\addvspace {10pt}}
\@writefile{lot}{\addvspace {10pt}}
\@writefile{lof}{\contentsline {xchapter}{Detailontwerp}{21}\protected@file@percent }
\@writefile{lot}{\contentsline {xchapter}{Detailontwerp}{21}\protected@file@percent }
\@writefile{toc}{\contentsline {subsection}{\numberline {4.0.1}Deelsystemen 1 \& 2}{21}\protected@file@percent }
\@writefile{toc}{\contentsline {subsubsection}{Hardware deelsystemen 1 \& 2}{21}\protected@file@percent }
\@writefile{toc}{\contentsline {paragraph}{Nordic}{21}\protected@file@percent }
\@writefile{toc}{\contentsline {paragraph}{ST}{21}\protected@file@percent }
\@writefile{toc}{\contentsline {paragraph}{NXP}{22}\protected@file@percent }
\@writefile{toc}{\contentsline {paragraph}{TI}{22}\protected@file@percent }
\@writefile{toc}{\contentsline {paragraph}{Silicon Labs}{22}\protected@file@percent }
\@writefile{toc}{\contentsline {paragraph}{Conclusie}{22}\protected@file@percent }
\@writefile{lot}{\contentsline {table}{\numberline {4.1}{\ignorespaces Keuze matrix Draadloze MCU (*Prijzen Mouser rond 03-03-2020)\relax }}{23}\protected@file@percent }
\newlabel{tabmcu}{{4.1}{23}}
\newlabel{tabmcu@cref}{{[table][1][4]4.1}{[1][23][]23}}
\@writefile{toc}{\contentsline {subsubsection}{Software deelsysteem 1}{24}\protected@file@percent }
\@writefile{toc}{\contentsline {subsubsection}{Software deelsysteem 2}{24}\protected@file@percent }
\@writefile{toc}{\contentsline {chapter}{Appendices}{25}\protected@file@percent }
\citation{cbs}
\@writefile{toc}{\contentsline {chapter}{\numberline {A.}Onderzoek draadloze technologieën}{26}\protected@file@percent }
\@writefile{lof}{\addvspace {10pt}}
\@writefile{lot}{\addvspace {10pt}}
\@writefile{lof}{\contentsline {xchapter}{Onderzoek draadloze technologieën}{26}\protected@file@percent }
\@writefile{lot}{\contentsline {xchapter}{Onderzoek draadloze technologieën}{26}\protected@file@percent }
\newlabel{onddr}{{A}{26}}
\newlabel{onddr@cref}{{[chapter][1][]A}{[1][26][]26}}
\@writefile{toc}{\contentsline {section}{\numberline {A.1}Inleiding}{26}\protected@file@percent }
\newlabel{stal1}{{A.1a}{27}}
\newlabel{stal1@cref}{{[subfigure][1][1,1]A.1a}{[1][27][]27}}
\newlabel{sub@stal1}{{a}{27}}
\newlabel{sub@stal1@cref}{{[subfigure][1][1,1]A.1a}{[1][27][]27}}
\newlabel{stal2}{{A.1b}{27}}
\newlabel{stal2@cref}{{[subfigure][2][1,1]A.1b}{[1][27][]27}}
\newlabel{sub@stal2}{{b}{27}}
\newlabel{sub@stal2@cref}{{[subfigure][2][1,1]A.1b}{[1][27][]27}}
\@writefile{lof}{\contentsline {figure}{\numberline {A.1}{\ignorespaces Mogelijke ophanging motor\relax }}{27}\protected@file@percent }
\citation{los}
\citation{topo}
\@writefile{toc}{\contentsline {section}{\numberline {A.2}Draadloze technologieën}{28}\protected@file@percent }
\@writefile{lof}{\contentsline {figure}{\numberline {A.2}{\ignorespaces Line Of Sight \relax }}{28}\protected@file@percent }
\newlabel{los}{{A.2}{28}}
\newlabel{los@cref}{{[figure][2][1]A.2}{[1][28][]28}}
\citation{Verma2013}
\citation{Zhao2014}
\citation{meshfaq}
\citation{meshfaq}
\citation{Yaakop2017}
\citation{zigbee}
\citation{Ali-rantala}
\citation{Chruszczyk2017}
\@writefile{toc}{\contentsline {subsection}{\numberline {A.2.1}Frequentie, bereik en maximale snelheid}{29}\protected@file@percent }
\citation{DelaCruz2016}
\citation{starmesh}
\citation{hu2013}
\@writefile{toc}{\contentsline {subsection}{\numberline {A.2.2}Topologie en gebruik smartphone}{30}\protected@file@percent }
\newlabel{star}{{A.3a}{30}}
\newlabel{star@cref}{{[subfigure][1][1,3]A.3a}{[1][30][]30}}
\newlabel{sub@star}{{a}{30}}
\newlabel{sub@star@cref}{{[subfigure][1][1,3]A.3a}{[1][30][]30}}
\newlabel{mesh}{{A.3b}{30}}
\newlabel{mesh@cref}{{[subfigure][2][1,3]A.3b}{[1][30][]30}}
\newlabel{sub@mesh}{{b}{30}}
\newlabel{sub@mesh@cref}{{[subfigure][2][1,3]A.3b}{[1][30][]30}}
\@writefile{lof}{\contentsline {figure}{\numberline {A.3}{\ignorespaces Twee verschillende netwerk configuraties\relax }}{30}\protected@file@percent }
\citation{blfees}
\citation{lora}
\citation{zigbee}
\@writefile{toc}{\contentsline {subsection}{\numberline {A.2.3}Kosten}{31}\protected@file@percent }
\@writefile{toc}{\contentsline {section}{\numberline {A.3}Conclusie}{32}\protected@file@percent }
\@writefile{lot}{\contentsline {table}{\numberline {A.1}{\ignorespaces Overzicht draadloze verbindingen\relax }}{32}\protected@file@percent }
\newlabel{tbWrlss}{{A.1}{32}}
\newlabel{tbWrlss@cref}{{[table][1][1]A.1}{[1][32][]32}}
\@writefile{toc}{\contentsline {chapter}{\numberline {B.}Plan Van Aanpak}{33}\protected@file@percent }
\@writefile{lof}{\addvspace {10pt}}
\@writefile{lot}{\addvspace {10pt}}
\@writefile{lof}{\contentsline {xchapter}{Plan Van Aanpak}{33}\protected@file@percent }
\@writefile{lot}{\contentsline {xchapter}{Plan Van Aanpak}{33}\protected@file@percent }
\newlabel{hs:vb}{{B}{33}}
\newlabel{hs:vb@cref}{{[chapter][2][]B}{[1][33][]33}}
\@writefile{lot}{\contentsline {table}{\numberline {B.1}{\ignorespaces Versiehistorie\relax }}{33}\protected@file@percent }
\newlabel{tab:vb}{{B.1}{33}}
\newlabel{tab:vb@cref}{{[table][1][2]B.1}{[1][33][]33}}
\@writefile{toc}{\contentsline {section}{\numberline {B.1}Achtergronden}{35}\protected@file@percent }
\newlabel{hs:h1}{{B.1}{35}}
\newlabel{hs:h1@cref}{{[section][1][2]B.1}{[1][35][]35}}
\@writefile{toc}{\contentsline {subsection}{\numberline {B.1.1}De opdrachtgever}{35}\protected@file@percent }
\newlabel{hs:h11}{{B.1.1}{35}}
\newlabel{hs:h11@cref}{{[subsection][1][2,1]B.1.1}{[1][35][]35}}
\@writefile{toc}{\contentsline {subsection}{\numberline {B.1.2}De opdrachtnemers}{35}\protected@file@percent }
\newlabel{hs:h12}{{B.1.2}{35}}
\newlabel{hs:h12@cref}{{[subsection][2][2,1]B.1.2}{[1][35][]35}}
\@writefile{toc}{\contentsline {subsection}{\numberline {B.1.3}Aanleiding}{35}\protected@file@percent }
\newlabel{hs:h13}{{B.1.3}{35}}
\newlabel{hs:h13@cref}{{[subsection][3][2,1]B.1.3}{[1][35][]35}}
\@writefile{toc}{\contentsline {section}{\numberline {B.2}Projectresultaat}{35}\protected@file@percent }
\newlabel{hs:h2}{{B.2}{35}}
\newlabel{hs:h2@cref}{{[section][2][2]B.2}{[1][35][]35}}
\@writefile{toc}{\contentsline {subsection}{\numberline {B.2.1}Doelstelling}{35}\protected@file@percent }
\newlabel{hs:h21}{{B.2.1}{35}}
\newlabel{hs:h21@cref}{{[subsection][1][2,2]B.2.1}{[1][35][]35}}
\@writefile{toc}{\contentsline {subsection}{\numberline {B.2.2}Resultaat}{35}\protected@file@percent }
\newlabel{hs:h22}{{B.2.2}{35}}
\newlabel{hs:h22@cref}{{[subsection][2][2,2]B.2.2}{[1][35][]35}}
\@writefile{toc}{\contentsline {section}{\numberline {B.3}Projectactiviteiten}{36}\protected@file@percent }
\newlabel{hs:h3}{{B.3}{36}}
\newlabel{hs:h3@cref}{{[section][3][2]B.3}{[1][36][]36}}
\@writefile{toc}{\contentsline {subsection}{\numberline {B.3.1}Projectmanagement}{36}\protected@file@percent }
\newlabel{hs:h31}{{B.3.1}{36}}
\newlabel{hs:h31@cref}{{[subsection][1][2,3]B.3.1}{[1][36][]36}}
\@writefile{toc}{\contentsline {subsection}{\numberline {B.3.2}Projectmanagement}{36}\protected@file@percent }
\newlabel{hs:h32}{{B.3.2}{36}}
\newlabel{hs:h32@cref}{{[subsection][2][2,3]B.3.2}{[1][36][]36}}
\@writefile{toc}{\contentsline {section}{\numberline {B.4}Projectgrenzen en randvoorwaarden}{38}\protected@file@percent }
\newlabel{hs:h4}{{B.4}{38}}
\newlabel{hs:h4@cref}{{[section][4][2]B.4}{[1][38][]38}}
\@writefile{toc}{\contentsline {subsection}{\numberline {B.4.1}Projectomvang}{38}\protected@file@percent }
\newlabel{hs:h41}{{B.4.1}{38}}
\newlabel{hs:h41@cref}{{[subsection][1][2,4]B.4.1}{[1][38][]38}}
\@writefile{toc}{\contentsline {subsection}{\numberline {B.4.2}Randvoorwaarden}{38}\protected@file@percent }
\newlabel{hs:h42}{{B.4.2}{38}}
\newlabel{hs:h42@cref}{{[subsection][2][2,4]B.4.2}{[1][38][]38}}
\@writefile{toc}{\contentsline {section}{\numberline {B.5}Tussenresultaten}{38}\protected@file@percent }
\newlabel{hs:h5}{{B.5}{38}}
\newlabel{hs:h5@cref}{{[section][5][2]B.5}{[1][38][]38}}
\@writefile{toc}{\contentsline {subsection}{\numberline {B.5.1}Tussenresultaten in documentvorm: }{38}\protected@file@percent }
\newlabel{hs:h51}{{B.5.1}{38}}
\newlabel{hs:h51@cref}{{[subsection][1][2,5]B.5.1}{[1][38][]38}}
\@writefile{toc}{\contentsline {subsection}{\numberline {B.5.2}Tussenresultaten in de vorm van een deelsysteem }{38}\protected@file@percent }
\newlabel{hs:h52}{{B.5.2}{38}}
\newlabel{hs:h52@cref}{{[subsection][2][2,5]B.5.2}{[1][38][]38}}
\@writefile{toc}{\contentsline {section}{\numberline {B.6}Kwaliteit}{39}\protected@file@percent }
\newlabel{hs:h6}{{B.6}{39}}
\newlabel{hs:h6@cref}{{[section][6][2]B.6}{[1][39][]39}}
\@writefile{toc}{\contentsline {subsection}{\numberline {B.6.1}Kwaliteitsbewaking eindproduct}{39}\protected@file@percent }
\newlabel{hs:h61}{{B.6.1}{39}}
\newlabel{hs:h61@cref}{{[subsection][1][2,6]B.6.1}{[1][39][]39}}
\@writefile{toc}{\contentsline {subsection}{\numberline {B.6.2}Tussenresultaten}{39}\protected@file@percent }
\newlabel{hs:h62}{{B.6.2}{39}}
\newlabel{hs:h62@cref}{{[subsection][2][2,6]B.6.2}{[1][39][]39}}
\@writefile{toc}{\contentsline {subsection}{\numberline {B.6.3}Documenten}{39}\protected@file@percent }
\newlabel{hs:h63}{{B.6.3}{39}}
\newlabel{hs:h63@cref}{{[subsection][3][2,6]B.6.3}{[1][39][]39}}
\@writefile{toc}{\contentsline {subsection}{\numberline {B.6.4}Afwijkingen}{39}\protected@file@percent }
\newlabel{hs:h64}{{B.6.4}{39}}
\newlabel{hs:h64@cref}{{[subsection][4][2,6]B.6.4}{[1][39][]39}}
\@writefile{toc}{\contentsline {section}{\numberline {B.7}Projectorganisatie}{40}\protected@file@percent }
\newlabel{hs:h7}{{B.7}{40}}
\newlabel{hs:h7@cref}{{[section][7][2]B.7}{[1][40][]40}}
\@writefile{toc}{\contentsline {subsection}{\numberline {B.7.1}Rolverdeling met persoonlijke gegevens}{40}\protected@file@percent }
\newlabel{hs:h71}{{B.7.1}{40}}
\newlabel{hs:h71@cref}{{[subsection][1][2,7]B.7.1}{[1][40][]40}}
\@writefile{lot}{\contentsline {table}{\numberline {B.2}{\ignorespaces Persoonlijke gegevens\relax }}{40}\protected@file@percent }
\newlabel{tab:pg}{{B.2}{40}}
\newlabel{tab:pg@cref}{{[table][2][2]B.2}{[1][40][]40}}
\@writefile{toc}{\contentsline {subsection}{\numberline {B.7.2}Functieomschrijving}{40}\protected@file@percent }
\newlabel{hs:h72}{{B.7.2}{40}}
\newlabel{hs:h72@cref}{{[subsection][2][2,7]B.7.2}{[1][40][]40}}
\@writefile{toc}{\contentsline {subsection}{\numberline {B.7.3}Informatie}{40}\protected@file@percent }
\newlabel{hs:h73}{{B.7.3}{40}}
\newlabel{hs:h73@cref}{{[subsection][3][2,7]B.7.3}{[1][40][]40}}
\@writefile{toc}{\contentsline {subsection}{\numberline {B.7.4}Coördinatie}{40}\protected@file@percent }
\newlabel{hs:h74}{{B.7.4}{40}}
\newlabel{hs:h74@cref}{{[subsection][4][2,7]B.7.4}{[1][40][]40}}
\@writefile{toc}{\contentsline {section}{\numberline {B.8}Planning}{41}\protected@file@percent }
\newlabel{hs:h8}{{B.8}{41}}
\newlabel{hs:h8@cref}{{[section][8][2]B.8}{[1][41][]41}}
\@writefile{lof}{\contentsline {figure}{\numberline {B.1}{\ignorespaces Planning deel 1\relax }}{42}\protected@file@percent }
\newlabel{planning}{{B.1}{42}}
\newlabel{planning@cref}{{[figure][1][2]B.1}{[1][41][]42}}
\@writefile{lof}{\contentsline {figure}{\numberline {B.2}{\ignorespaces Planning deel 2\relax }}{43}\protected@file@percent }
\@writefile{toc}{\contentsline {section}{\numberline {B.9}Kosten en baten}{44}\protected@file@percent }
\newlabel{hs:h9}{{B.9}{44}}
\newlabel{hs:h9@cref}{{[section][9][2]B.9}{[1][44][]44}}
\@writefile{toc}{\contentsline {subsection}{\numberline {B.9.1}Kosten voor hulpmiddelen}{44}\protected@file@percent }
\newlabel{hs:h91}{{B.9.1}{44}}
\newlabel{hs:h91@cref}{{[subsection][1][2,9]B.9.1}{[1][44][]44}}
\@writefile{toc}{\contentsline {subsection}{\numberline {B.9.2}Arbeidskosten uitgedrukt in werktijd}{44}\protected@file@percent }
\newlabel{hs:h92}{{B.9.2}{44}}
\newlabel{hs:h92@cref}{{[subsection][2][2,9]B.9.2}{[1][44][]44}}
\@writefile{toc}{\contentsline {subsection}{\numberline {B.9.3}Baten}{44}\protected@file@percent }
\newlabel{hs:h93}{{B.9.3}{44}}
\newlabel{hs:h93@cref}{{[subsection][3][2,9]B.9.3}{[1][44][]44}}
\@writefile{toc}{\contentsline {section}{\numberline {B.10}Risico's}{44}\protected@file@percent }
\newlabel{hs:h10}{{B.10}{44}}
\newlabel{hs:h10@cref}{{[section][10][2]B.10}{[1][44][]44}}
\@writefile{toc}{\contentsline {subsection}{\numberline {B.10.1}Interne risico’s}{44}\protected@file@percent }
\newlabel{hs:h101}{{B.10.1}{44}}
\newlabel{hs:h101@cref}{{[subsection][1][2,10]B.10.1}{[1][44][]44}}
\@writefile{toc}{\contentsline {subsection}{\numberline {B.10.2}Externe risico’s}{44}\protected@file@percent }
\newlabel{hs:h102}{{B.10.2}{44}}
\newlabel{hs:h102@cref}{{[subsection][2][2,10]B.10.2}{[1][44][]44}}
\@writefile{toc}{\contentsline {subsection}{\numberline {B.10.3}Externe risico’s}{45}\protected@file@percent }
\newlabel{hs:h103}{{B.10.3}{45}}
\newlabel{hs:h103@cref}{{[subsection][3][2,10]B.10.3}{[1][45][]45}}
\@writefile{lot}{\contentsline {table}{\numberline {B.3}{\ignorespaces Externe Risico's\relax }}{46}\protected@file@percent }
\newlabel{tab:ra}{{B.3}{46}}
\newlabel{tab:ra@cref}{{[table][3][2]B.3}{[1][45][]46}}
\@writefile{toc}{\contentsline {chapter}{\numberline {C.}Acceptatie test}{47}\protected@file@percent }
\@writefile{lof}{\addvspace {10pt}}
\@writefile{lot}{\addvspace {10pt}}
\@writefile{lof}{\contentsline {xchapter}{Acceptatie test}{47}\protected@file@percent }
\@writefile{lot}{\contentsline {xchapter}{Acceptatie test}{47}\protected@file@percent }
\newlabel{acctest}{{C}{47}}
\newlabel{acctest@cref}{{[chapter][3][]C}{[1][47][]47}}
\@writefile{toc}{\contentsline {section}{\numberline {C.1}Voorbereidingen acceptatietest}{47}\protected@file@percent }
\@writefile{toc}{\contentsline {subsection}{\numberline {C.1.1}Visuele testomgeving}{47}\protected@file@percent }
\@writefile{toc}{\contentsline {subsubsection}{Hardware}{47}\protected@file@percent }
\@writefile{toc}{\contentsline {subsubsection}{Software}{47}\protected@file@percent }
\@writefile{toc}{\contentsline {subsection}{\numberline {C.1.2}Testomgeving seriële verbinding}{48}\protected@file@percent }
\newlabel{to1}{{C.1.2}{48}}
\newlabel{to1@cref}{{[subsection][2][3,1]C.1.2}{[1][47][]48}}
\@writefile{toc}{\contentsline {subsubsection}{Hardware}{48}\protected@file@percent }
\@writefile{toc}{\contentsline {subsubsection}{Software}{48}\protected@file@percent }
\@writefile{toc}{\contentsline {subsubsection}{Overig}{48}\protected@file@percent }
\@writefile{toc}{\contentsline {subsection}{\numberline {C.1.3}Test mesh}{48}\protected@file@percent }
\newlabel{to2}{{C.1.3}{48}}
\newlabel{to2@cref}{{[subsection][3][3,1]C.1.3}{[1][48][]48}}
\@writefile{toc}{\contentsline {subsubsection}{Hardware}{48}\protected@file@percent }
\@writefile{toc}{\contentsline {subsubsection}{Software}{48}\protected@file@percent }
\@writefile{toc}{\contentsline {subsection}{\numberline {C.1.4}Test data opslag}{49}\protected@file@percent }
\newlabel{to3}{{C.1.4}{49}}
\newlabel{to3@cref}{{[subsection][4][3,1]C.1.4}{[1][49][]49}}
\@writefile{toc}{\contentsline {subsubsection}{Hardware}{49}\protected@file@percent }
\@writefile{toc}{\contentsline {subsubsection}{Software}{49}\protected@file@percent }
\@writefile{toc}{\contentsline {subsection}{\numberline {C.1.5}Test software update}{49}\protected@file@percent }
\newlabel{to4}{{C.1.5}{49}}
\newlabel{to4@cref}{{[subsection][5][3,1]C.1.5}{[1][49][]49}}
\@writefile{toc}{\contentsline {subsubsection}{Hardware}{49}\protected@file@percent }
\@writefile{toc}{\contentsline {section}{\numberline {C.2}Acceptatietestbeschrijvingen}{50}\protected@file@percent }
\@writefile{toc}{\contentsline {subsection}{\numberline {C.2.1}Test Bluetooth naar serieel}{50}\protected@file@percent }
\@writefile{toc}{\contentsline {subsubsection}{Testcase 1.1: Commando's io-net}{50}\protected@file@percent }
\@writefile{lot}{\contentsline {table}{\numberline {C.1}{\ignorespaces Testcase 1.1\relax }}{50}\protected@file@percent }
\newlabel{tc11}{{C.1}{50}}
\newlabel{tc11@cref}{{[table][1][3]C.1}{[1][50][]50}}
\@writefile{toc}{\contentsline {subsubsection}{Testcase 1.2: Draaien motor}{51}\protected@file@percent }
\@writefile{lot}{\contentsline {table}{\numberline {C.2}{\ignorespaces Testcase 1.2\relax }}{51}\protected@file@percent }
\newlabel{tcx}{{C.2}{51}}
\newlabel{tcx@cref}{{[table][2][3]C.2}{[1][51][]51}}
\@writefile{toc}{\contentsline {subsection}{\numberline {C.2.2}Test Visuele feedback}{52}\protected@file@percent }
\@writefile{toc}{\contentsline {subsubsection}{Testcase 2.1: Test LED}{52}\protected@file@percent }
\@writefile{lot}{\contentsline {table}{\numberline {C.3}{\ignorespaces Testcase 2.1\relax }}{52}\protected@file@percent }
\newlabel{tcx}{{C.3}{52}}
\newlabel{tcx@cref}{{[table][3][3]C.3}{[1][52][]52}}
\@writefile{toc}{\contentsline {subsubsection}{Testcase 2.2: Test maximale afstand}{52}\protected@file@percent }
\@writefile{lot}{\contentsline {table}{\numberline {C.4}{\ignorespaces Testcase 2.2\relax }}{53}\protected@file@percent }
\newlabel{tcx}{{C.4}{53}}
\newlabel{tcx@cref}{{[table][4][3]C.4}{[1][52][]53}}
\@writefile{toc}{\contentsline {subsection}{\numberline {C.2.3}Test opgeslagen data}{53}\protected@file@percent }
\@writefile{toc}{\contentsline {subsubsection}{Testcase 3.1: Test Opslag data}{53}\protected@file@percent }
\@writefile{lot}{\contentsline {table}{\numberline {C.5}{\ignorespaces Testcase 3.1\relax }}{53}\protected@file@percent }
\newlabel{tcx}{{C.5}{53}}
\newlabel{tcx@cref}{{[table][5][3]C.5}{[1][53][]53}}
\@writefile{toc}{\contentsline {subsection}{\numberline {C.2.4}Test software update}{54}\protected@file@percent }
\@writefile{lot}{\contentsline {table}{\numberline {C.6}{\ignorespaces Testcase 1.1\relax }}{54}\protected@file@percent }
\newlabel{tcx}{{C.6}{54}}
\newlabel{tcx@cref}{{[table][6][3]C.6}{[1][54][]54}}
\bibstyle{apacite}
\bibdata{Referenties/Referenties}
\bibcite{Ali-rantala}{\citeauthoryear {Ali-rantala, Sydanheimo, Keskilammi{}\ \BBA{} Kivikoski}{Ali-rantala\ \BOthers {.}}{{\APACyear {{\bibnodate {}}}}}}
\APACbibcite{Ali-rantala}{\citeauthoryear {Ali-rantala, Sydanheimo, Keskilammi{}\ \BBA{} Kivikoski}{Ali-rantala\ \BOthers {.}}{{\APACyear {{\bibnodate {}}}}}}
\bibcite{zigbee}{\citeauthoryear {Alliance}{Alliance}{{\APACyear {2020}}}}
\APACbibcite{zigbee}{\citeauthoryear {Alliance}{Alliance}{{\APACyear {2020}}}}
\bibcite{meshfaq}{\citeauthoryear {Bluetooth}{Bluetooth}{{\APACyear {2020}}{\APACexlab {{\BCnt {1}}}}}}
\APACbibcite{meshfaq}{\citeauthoryear {Bluetooth}{Bluetooth}{{\APACyear {2020}}{\APACexlab {{\BCnt {1}}}}}}
\bibcite{blfees}{\citeauthoryear {Bluetooth}{Bluetooth}{{\APACyear {2020}}{\APACexlab {{\BCnt {2}}}}}}
\APACbibcite{blfees}{\citeauthoryear {Bluetooth}{Bluetooth}{{\APACyear {2020}}{\APACexlab {{\BCnt {2}}}}}}
\bibcite{cbs}{\citeauthoryear {CBS}{CBS}{{\APACyear {2019}}}}
\APACbibcite{cbs}{\citeauthoryear {CBS}{CBS}{{\APACyear {2019}}}}
\bibcite{Chruszczyk2017}{\citeauthoryear {Chruszczyk}{Chruszczyk}{{\APACyear {2017}}}}
\APACbibcite{Chruszczyk2017}{\citeauthoryear {Chruszczyk}{Chruszczyk}{{\APACyear {2017}}}}
\bibcite{DelaCruz2016}{\citeauthoryear {{Dela Cruz}, Parabuac{}\ \BBA{} Tiglao}{{Dela Cruz}\ \BOthers {.}}{{\APACyear {2016}}}}
\APACbibcite{DelaCruz2016}{\citeauthoryear {{Dela Cruz}, Parabuac{}\ \BBA{} Tiglao}{{Dela Cruz}\ \BOthers {.}}{{\APACyear {2016}}}}
\bibcite{hu2013}{\citeauthoryear {Hu, Fu, She{}\ \BBA{} Yao}{Hu\ \BOthers {.}}{{\APACyear {2013}}}}
\APACbibcite{hu2013}{\citeauthoryear {Hu, Fu, She{}\ \BBA{} Yao}{Hu\ \BOthers {.}}{{\APACyear {2013}}}}
\bibcite{lora}{\citeauthoryear {KPN}{KPN}{{\APACyear {2020}}}}
\APACbibcite{lora}{\citeauthoryear {KPN}{KPN}{{\APACyear {2020}}}}
\bibcite{los}{\citeauthoryear {Tablo}{Tablo}{{\APACyear {2018}}}}
\APACbibcite{los}{\citeauthoryear {Tablo}{Tablo}{{\APACyear {2018}}}}
\bibcite{starmesh}{\citeauthoryear {Techdifferences}{Techdifferences}{{\APACyear {2018}}}}
\APACbibcite{starmesh}{\citeauthoryear {Techdifferences}{Techdifferences}{{\APACyear {2018}}}}
\bibcite{Verma2013}{\citeauthoryear {Verma, Fakharzadeh{}\ \BBA{} Technologies}{Verma\ \BOthers {.}}{{\APACyear {2013}}}}
\APACbibcite{Verma2013}{\citeauthoryear {Verma, Fakharzadeh{}\ \BBA{} Technologies}{Verma\ \BOthers {.}}{{\APACyear {2013}}}}
\bibcite{topo}{\citeauthoryear {Wikipedia}{Wikipedia}{{\APACyear {2018}}}}
\APACbibcite{topo}{\citeauthoryear {Wikipedia}{Wikipedia}{{\APACyear {2018}}}}
\bibcite{Yaakop2017}{\citeauthoryear {Yaakop, Malik, {Bin Suboh}, Ramli{}\ \BBA{} Abu}{Yaakop\ \BOthers {.}}{{\APACyear {2017}}}}
\APACbibcite{Yaakop2017}{\citeauthoryear {Yaakop, Malik, {Bin Suboh}, Ramli{}\ \BBA{} Abu}{Yaakop\ \BOthers {.}}{{\APACyear {2017}}}}
\bibcite{Yourdon1979}{\citeauthoryear {Yourdon}{Yourdon}{{\APACyear {1979}}}}
\APACbibcite{Yourdon1979}{\citeauthoryear {Yourdon}{Yourdon}{{\APACyear {1979}}}}
\@writefile{toc}{\contentsline {section}{Literatuur}{55}\protected@file@percent }
\bibcite{Zhao2014}{\citeauthoryear {Zhao, Xiao, Markham, Trigoni{}\ \BBA{} Ren}{Zhao\ \BOthers {.}}{{\APACyear {2014}}}}
\APACbibcite{Zhao2014}{\citeauthoryear {Zhao, Xiao, Markham, Trigoni{}\ \BBA{} Ren}{Zhao\ \BOthers {.}}{{\APACyear {2014}}}}
\global\mtcsecondpartfalse
