\babel@toc {dutch}{}
\contentsline {chapter}{\numberline {1.}Inleiding}{8}%
\contentsline {chapter}{Appendices}{11}%
\contentsline {chapter}{\numberline {A.}Onderzoek draadloze technologieën}{12}%
\contentsline {section}{\numberline {A.1}Inleiding}{12}%
\contentsline {section}{\numberline {A.2}Draadloze technologieën}{14}%
\contentsline {subsection}{\numberline {A.2.1}Frequentie}{14}%
\contentsline {section}{Literatuur}{18}%
