\relax 
\@nameuse{bbl@beforestart}
\catcode `"\active 
\babel@aux{dutch}{}
\@writefile{@@@}{\chapterbegin }
\@writefile{@@@}{\chapterbegin }
\@writefile{@@@}{\chapterbegin }
\@writefile{@@@}{\chapterbegin }
\@writefile{@@@}{\chapterbegin }
\newlabel{hs:vb}{{}{6}}
\newlabel{hs:vb@cref}{{}{[1][6][]6}}
\@writefile{lot}{\contentsline {table}{\numberline {0.1}{\ignorespaces Versiehistorie\relax }}{6}\protected@file@percent }
\providecommand*\caption@xref[2]{\@setref\relax\@undefined{#1}}
\newlabel{tab:vb}{{0.1}{6}}
\newlabel{tab:vb@cref}{{[table][1][0]0.1}{[1][6][]6}}
\@writefile{@@@}{\chapterbegin }
\@writefile{toc}{\contentsline {chapter}{\numberline {1.}Inleiding}{10}\protected@file@percent }
\@writefile{lof}{\addvspace {10pt}}
\@writefile{lot}{\addvspace {10pt}}
\@writefile{lof}{\contentsline {xchapter}{Inleiding}{10}\protected@file@percent }
\@writefile{lot}{\contentsline {xchapter}{Inleiding}{10}\protected@file@percent }
\newlabel{hs:in}{{1}{10}}
\newlabel{hs:in@cref}{{[chapter][1][]1}{[1][10][]10}}
\@writefile{toc}{\contentsline {section}{\numberline {1.1}Bedrijfsachtergrond}{10}\protected@file@percent }
\@writefile{lof}{\contentsline {figure}{\numberline {1.1}{\ignorespaces Luiken voor in- en uitvoer van luchtstromen\relax }}{11}\protected@file@percent }
\newlabel{luik}{{1.1}{11}}
\newlabel{luik@cref}{{[figure][1][1]1.1}{[1][10][]11}}
\newlabel{im60}{{1.2a}{12}}
\newlabel{im60@cref}{{[subfigure][1][1,2]1.2a}{[1][12][]12}}
\newlabel{sub@im60}{{a}{12}}
\newlabel{sub@im60@cref}{{[subfigure][1][1,2]1.2a}{[1][12][]12}}
\newlabel{im125}{{1.2b}{12}}
\newlabel{im125@cref}{{[subfigure][2][1,2]1.2b}{[1][12][]12}}
\newlabel{sub@im125}{{b}{12}}
\newlabel{sub@im125@cref}{{[subfigure][2][1,2]1.2b}{[1][12][]12}}
\@writefile{lof}{\contentsline {figure}{\numberline {1.2}{\ignorespaces Motoren\relax }}{12}\protected@file@percent }
\newlabel{im60p}{{1.3a}{13}}
\newlabel{im60p@cref}{{[subfigure][1][1,3]1.3a}{[1][12][]13}}
\newlabel{sub@im60p}{{a}{13}}
\newlabel{sub@im60p@cref}{{[subfigure][1][1,3]1.3a}{[1][12][]13}}
\newlabel{im125p}{{1.3b}{13}}
\newlabel{im125p@cref}{{[subfigure][2][1,3]1.3b}{[1][12][]13}}
\newlabel{sub@im125p}{{b}{13}}
\newlabel{sub@im125p@cref}{{[subfigure][2][1,3]1.3b}{[1][12][]13}}
\@writefile{lof}{\contentsline {figure}{\numberline {1.3}{\ignorespaces Printplaten die de motoren aansturen\relax }}{13}\protected@file@percent }
\@writefile{toc}{\contentsline {section}{\numberline {1.2}Probleemstelling}{13}\protected@file@percent }
\@writefile{toc}{\contentsline {section}{\numberline {1.3}Doelstelling}{14}\protected@file@percent }
\@writefile{lof}{\contentsline {figure}{\numberline {1.4}{\ignorespaces V-model\relax }}{14}\protected@file@percent }
\newlabel{vmodel}{{1.4}{14}}
\newlabel{vmodel@cref}{{[figure][4][1]1.4}{[1][14][]14}}
\citation{Yourdon1979}
\@writefile{toc}{\contentsline {chapter}{\numberline {2.}Requirements}{15}\protected@file@percent }
\@writefile{lof}{\addvspace {10pt}}
\@writefile{lot}{\addvspace {10pt}}
\@writefile{lof}{\contentsline {xchapter}{Requirements}{15}\protected@file@percent }
\@writefile{lot}{\contentsline {xchapter}{Requirements}{15}\protected@file@percent }
\newlabel{hs:h2}{{2}{15}}
\newlabel{hs:h2@cref}{{[chapter][2][]2}{[1][15][]15}}
\@writefile{toc}{\contentsline {section}{\numberline {2.1}Inleiding}{15}\protected@file@percent }
\newlabel{hs:h21}{{2.1}{15}}
\newlabel{hs:h21@cref}{{[section][1][2]2.1}{[1][15][]15}}
\@writefile{toc}{\contentsline {section}{\numberline {2.2}Algemene beschrijving}{15}\protected@file@percent }
\newlabel{hs:h22}{{2.2}{15}}
\newlabel{hs:h22@cref}{{[section][2][2]2.2}{[1][15][]15}}
\@writefile{toc}{\contentsline {section}{\numberline {2.3}Systeemcontext}{15}\protected@file@percent }
\newlabel{hs:h23}{{2.3}{15}}
\newlabel{hs:h23@cref}{{[section][3][2]2.3}{[1][15][]15}}
\@writefile{toc}{\contentsline {subsection}{\numberline {2.3.1}Systeemfuncties}{15}\protected@file@percent }
\newlabel{hs:h231}{{2.3.1}{15}}
\newlabel{hs:h231@cref}{{[subsection][1][2,3]2.3.1}{[1][15][]15}}
\@writefile{lof}{\contentsline {figure}{\numberline {2.1}{\ignorespaces Data Context Diagram\relax }}{16}\protected@file@percent }
\newlabel{DCD}{{2.1}{16}}
\newlabel{DCD@cref}{{[figure][1][2]2.1}{[1][16][]16}}
\@writefile{toc}{\contentsline {section}{\numberline {2.4}Systeemfuncties}{17}\protected@file@percent }
\newlabel{hs:h24}{{2.4}{17}}
\newlabel{hs:h24@cref}{{[section][4][2]2.4}{[1][17][]17}}
\@writefile{toc}{\contentsline {subsection}{\numberline {2.4.1}Draadloze data overdracht}{17}\protected@file@percent }
\newlabel{hs:h241}{{2.4.1}{17}}
\newlabel{hs:h241@cref}{{[subsection][1][2,4]2.4.1}{[1][17][]17}}
\@writefile{toc}{\contentsline {subsubsection}{Stimulus en response}{17}\protected@file@percent }
\newlabel{2411}{{2.4.1}{17}}
\newlabel{2411@cref}{{[subsection][1][2,4]2.4.1}{[1][17][]17}}
\@writefile{toc}{\contentsline {subsubsection}{Functionele klanteisen}{17}\protected@file@percent }
\newlabel{2411}{{2.4.1}{17}}
\newlabel{2411@cref}{{[subsection][1][2,4]2.4.1}{[1][17][]17}}
\@writefile{toc}{\contentsline {subsection}{\numberline {2.4.2}Uitlezen en opslag data}{18}\protected@file@percent }
\newlabel{hs:h242}{{2.4.2}{18}}
\newlabel{hs:h242@cref}{{[subsection][2][2,4]2.4.2}{[1][18][]18}}
\@writefile{toc}{\contentsline {subsubsection}{Stimulus en response}{18}\protected@file@percent }
\newlabel{2421}{{2.4.2}{18}}
\newlabel{2421@cref}{{[subsection][2][2,4]2.4.2}{[1][18][]18}}
\@writefile{toc}{\contentsline {subsubsection}{Functionele klanteisen}{18}\protected@file@percent }
\newlabel{2421}{{2.4.2}{18}}
\newlabel{2421@cref}{{[subsection][2][2,4]2.4.2}{[1][18][]18}}
\@writefile{toc}{\contentsline {subsection}{\numberline {2.4.3}Updaten systeem en bestaande module (Optioneel)}{19}\protected@file@percent }
\newlabel{hs:h243}{{2.4.3}{19}}
\newlabel{hs:h243@cref}{{[subsection][3][2,4]2.4.3}{[1][19][]19}}
\@writefile{toc}{\contentsline {subsubsection}{Stimulus en response}{19}\protected@file@percent }
\newlabel{2431}{{2.4.3}{19}}
\newlabel{2431@cref}{{[subsection][3][2,4]2.4.3}{[1][19][]19}}
\@writefile{toc}{\contentsline {subsubsection}{Functionele klanteisen}{19}\protected@file@percent }
\newlabel{2431}{{2.4.3}{19}}
\newlabel{2431@cref}{{[subsection][3][2,4]2.4.3}{[1][19][]19}}
\@writefile{toc}{\contentsline {section}{\numberline {2.5}Niet-functionele klanteisen}{19}\protected@file@percent }
\newlabel{hs:h25}{{2.5}{19}}
\newlabel{hs:h25@cref}{{[section][5][2]2.5}{[1][19][]19}}
\@writefile{toc}{\contentsline {chapter}{\numberline {3.}Architectuur}{20}\protected@file@percent }
\@writefile{lof}{\addvspace {10pt}}
\@writefile{lot}{\addvspace {10pt}}
\@writefile{lof}{\contentsline {xchapter}{Architectuur}{20}\protected@file@percent }
\@writefile{lot}{\contentsline {xchapter}{Architectuur}{20}\protected@file@percent }
\@writefile{toc}{\contentsline {section}{\numberline {3.1}Ontwerpbesluiten}{20}\protected@file@percent }
\@writefile{toc}{\contentsline {section}{\numberline {3.2}Deelsystemen en koppelingen}{21}\protected@file@percent }
\@writefile{lof}{\contentsline {figure}{\numberline {3.1}{\ignorespaces Data Flow Diagram 0\relax }}{21}\protected@file@percent }
\newlabel{DFD0}{{3.1}{21}}
\newlabel{DFD0@cref}{{[figure][1][3]3.1}{[1][21][]21}}
\@writefile{toc}{\contentsline {section}{\numberline {3.3}Beschrijving deelsystemen}{22}\protected@file@percent }
\@writefile{lof}{\contentsline {figure}{\numberline {3.2}{\ignorespaces Architectuur Interconnect Diagram\relax }}{22}\protected@file@percent }
\newlabel{AID}{{3.2}{22}}
\newlabel{AID@cref}{{[figure][2][3]3.2}{[1][22][]22}}
\@writefile{toc}{\contentsline {subsection}{\numberline {3.3.1}Deelsysteem 1: Control Data}{23}\protected@file@percent }
\@writefile{lof}{\contentsline {figure}{\numberline {3.3}{\ignorespaces Data Flow Diagram 1\relax }}{23}\protected@file@percent }
\newlabel{DFD1}{{3.3}{23}}
\newlabel{DFD1@cref}{{[figure][3][3]3.3}{[1][23][]23}}
\@writefile{toc}{\contentsline {subsubsection}{Deelsysteem 1.1: Execute functions}{24}\protected@file@percent }
\@writefile{toc}{\contentsline {subsubsection}{Deelsysteem 1.2. Control Saved Data}{24}\protected@file@percent }
\@writefile{toc}{\contentsline {subsubsection}{Deelsysteem 1.3. Communicate Motor Control Unit}{24}\protected@file@percent }
\@writefile{toc}{\contentsline {subsection}{\numberline {3.3.2}Deelsysteem 2: Transeive Data}{25}\protected@file@percent }
\@writefile{toc}{\contentsline {subsection}{\numberline {3.3.3}Deelsysteem 3: Flash Light}{25}\protected@file@percent }
\@writefile{toc}{\contentsline {section}{\numberline {3.4}Beschrijving interconnects}{25}\protected@file@percent }
\@writefile{toc}{\contentsline {section}{\numberline {3.5}Traceerbaarheid klanteisen}{26}\protected@file@percent }
\@writefile{lot}{\contentsline {table}{\numberline {3.1}{\ignorespaces Traceertabel Requirements \relax }}{26}\protected@file@percent }
\newlabel{tab:tr}{{3.1}{26}}
\newlabel{tab:tr@cref}{{[table][1][3]3.1}{[1][26][]26}}
\@writefile{toc}{\contentsline {chapter}{\numberline {4.}Detailontwerp}{27}\protected@file@percent }
\@writefile{lof}{\addvspace {10pt}}
\@writefile{lot}{\addvspace {10pt}}
\@writefile{lof}{\contentsline {xchapter}{Detailontwerp}{27}\protected@file@percent }
\@writefile{lot}{\contentsline {xchapter}{Detailontwerp}{27}\protected@file@percent }
\@writefile{toc}{\contentsline {section}{\numberline {4.1}Deelsystemen 1 \& 2}{27}\protected@file@percent }
\@writefile{toc}{\contentsline {subsection}{\numberline {4.1.1}Hardware deelsystemen 1 \& 2}{27}\protected@file@percent }
\@writefile{toc}{\contentsline {paragraph}{Nordic}{27}\protected@file@percent }
\@writefile{toc}{\contentsline {paragraph}{ST}{27}\protected@file@percent }
\@writefile{toc}{\contentsline {paragraph}{NXP}{28}\protected@file@percent }
\@writefile{toc}{\contentsline {paragraph}{TI}{28}\protected@file@percent }
\@writefile{toc}{\contentsline {paragraph}{Silicon Labs}{28}\protected@file@percent }
\@writefile{toc}{\contentsline {paragraph}{Conclusie}{28}\protected@file@percent }
\@writefile{lot}{\contentsline {table}{\numberline {4.1}{\ignorespaces Keuze matrix Draadloze MCU (*Prijzen Mouser rond 03-03-2020)\relax }}{30}\protected@file@percent }
\newlabel{tabmcu}{{4.1}{30}}
\newlabel{tabmcu@cref}{{[table][1][4]4.1}{[1][30][]30}}
\@writefile{lof}{\contentsline {figure}{\numberline {4.1}{\ignorespaces BT840 Bluetooth module van Fanstel\relax }}{31}\protected@file@percent }
\newlabel{BT840}{{4.1}{31}}
\newlabel{BT840@cref}{{[figure][1][4]4.1}{[1][31][]31}}
\@writefile{lof}{\contentsline {figure}{\numberline {4.2}{\ignorespaces Een schermopname van een deel uit de datasheet van de BT840\relax }}{32}\protected@file@percent }
\newlabel{dsbt840}{{4.2}{32}}
\newlabel{dsbt840@cref}{{[figure][2][4]4.2}{[1][32][]32}}
\@writefile{lof}{\contentsline {figure}{\numberline {4.3}{\ignorespaces Ontwerp BT840 in Altium\relax }}{33}\protected@file@percent }
\newlabel{schbt840}{{4.3}{33}}
\newlabel{schbt840@cref}{{[figure][3][4]4.3}{[1][32][]33}}
\@writefile{toc}{\contentsline {section}{\numberline {4.2}Deelsysteem 1.2: Control saved data}{34}\protected@file@percent }
\@writefile{lof}{\contentsline {figure}{\numberline {4.4}{\ignorespaces Ontwerp MX25R6435FM2IH0 in Altium\relax }}{34}\protected@file@percent }
\newlabel{flash}{{4.4}{34}}
\newlabel{flash@cref}{{[figure][4][4]4.4}{[1][34][]34}}
\@writefile{toc}{\contentsline {subsubsection}{Software deelsysteem 1}{35}\protected@file@percent }
\@writefile{toc}{\contentsline {subsubsection}{Software deelsysteem 2}{35}\protected@file@percent }
\@writefile{toc}{\contentsline {section}{\numberline {4.3}Unit 2: Transeive data}{36}\protected@file@percent }
\@writefile{lof}{\contentsline {figure}{\numberline {4.5}{\ignorespaces Mesh models\relax }}{36}\protected@file@percent }
\newlabel{meshmodels}{{4.5}{36}}
\newlabel{meshmodels@cref}{{[figure][5][4]4.5}{[1][36][]36}}
\@writefile{lof}{\contentsline {figure}{\numberline {4.6}{\ignorespaces Rotary Switch\relax }}{37}\protected@file@percent }
\newlabel{rotaryswitch}{{4.6}{37}}
\newlabel{rotaryswitch@cref}{{[figure][6][4]4.6}{[1][37][]37}}
\@writefile{lof}{\contentsline {figure}{\numberline {4.7}{\ignorespaces Publish/subscribe\relax }}{38}\protected@file@percent }
\newlabel{publish/subscribe}{{4.7}{38}}
\newlabel{publish/subscribe@cref}{{[figure][7][4]4.7}{[1][38][]38}}
\@writefile{toc}{\contentsline {section}{\numberline {4.4}Unit 3: LED schakeling}{39}\protected@file@percent }
\@writefile{toc}{\contentsline {chapter}{\numberline {5.}Realisatie}{40}\protected@file@percent }
\@writefile{lof}{\addvspace {10pt}}
\@writefile{lot}{\addvspace {10pt}}
\@writefile{lof}{\contentsline {xchapter}{Realisatie}{40}\protected@file@percent }
\@writefile{lot}{\contentsline {xchapter}{Realisatie}{40}\protected@file@percent }
\@writefile{toc}{\contentsline {section}{\numberline {5.1}Realisatie Hardware}{40}\protected@file@percent }
\newlabel{PCB2DTOP}{{5.1a}{41}}
\newlabel{PCB2DTOP@cref}{{[subfigure][1][5,1]5.1a}{[1][40][]41}}
\newlabel{sub@PCB2DTOP}{{a}{41}}
\newlabel{sub@PCB2DTOP@cref}{{[subfigure][1][5,1]5.1a}{[1][40][]41}}
\newlabel{PCB2DBOT}{{5.1b}{41}}
\newlabel{PCB2DBOT@cref}{{[subfigure][2][5,1]5.1b}{[1][40][]41}}
\newlabel{sub@PCB2DBOT}{{b}{41}}
\newlabel{sub@PCB2DBOT@cref}{{[subfigure][2][5,1]5.1b}{[1][40][]41}}
\@writefile{lof}{\contentsline {figure}{\numberline {5.1}{\ignorespaces 2D tekeningen van de printplaten\relax }}{41}\protected@file@percent }
\newlabel{PCB2DTOP}{{5.2a}{42}}
\newlabel{PCB2DTOP@cref}{{[subfigure][1][5,2]5.2a}{[1][40][]42}}
\newlabel{sub@PCB2DTOP}{{a}{42}}
\newlabel{sub@PCB2DTOP@cref}{{[subfigure][1][5,2]5.2a}{[1][40][]42}}
\newlabel{PCB2DBOT}{{5.2b}{42}}
\newlabel{PCB2DBOT@cref}{{[subfigure][2][5,2]5.2b}{[1][40][]42}}
\newlabel{sub@PCB2DBOT}{{b}{42}}
\newlabel{sub@PCB2DBOT@cref}{{[subfigure][2][5,2]5.2b}{[1][40][]42}}
\@writefile{lof}{\contentsline {figure}{\numberline {5.2}{\ignorespaces 3D tekeningen van de printplaten\relax }}{42}\protected@file@percent }
\@writefile{toc}{\contentsline {subsection}{\numberline {5.1.1}Componenten}{43}\protected@file@percent }
\@writefile{toc}{\contentsline {chapter}{Appendices}{44}\protected@file@percent }
\@writefile{toc}{\contentsline {chapter}{\numberline {A.}Onderzoek Bluetooth mesh}{45}\protected@file@percent }
\@writefile{lof}{\addvspace {10pt}}
\@writefile{lot}{\addvspace {10pt}}
\@writefile{lof}{\contentsline {xchapter}{Onderzoek Bluetooth mesh}{45}\protected@file@percent }
\@writefile{lot}{\contentsline {xchapter}{Onderzoek Bluetooth mesh}{45}\protected@file@percent }
\newlabel{ondmesh}{{A}{45}}
\newlabel{ondmesh@cref}{{[chapter][1][]A}{[1][45][]45}}
\@writefile{toc}{\contentsline {section}{\numberline {A.1}Inleiding}{46}\protected@file@percent }
\@writefile{toc}{\contentsline {section}{\numberline {A.2}Bleutooth Low Energie}{46}\protected@file@percent }
\@writefile{lof}{\contentsline {figure}{\numberline {A.1}{\ignorespaces BLE stack\relax }}{46}\protected@file@percent }
\newlabel{blestack}{{A.1}{46}}
\newlabel{blestack@cref}{{[figure][1][1]A.1}{[1][46][]46}}
\@writefile{toc}{\contentsline {paragraph}{Physical layer}{47}\protected@file@percent }
\@writefile{lof}{\contentsline {figure}{\numberline {A.2}{\ignorespaces Fequentiespectrum\relax }}{47}\protected@file@percent }
\newlabel{freqhop}{{A.2}{47}}
\newlabel{freqhop@cref}{{[figure][2][1]A.2}{[1][47][]47}}
\@writefile{toc}{\contentsline {paragraph}{Link layer}{47}\protected@file@percent }
\@writefile{toc}{\contentsline {paragraph}{L2CAP}{47}\protected@file@percent }
\@writefile{toc}{\contentsline {paragraph}{GAP}{47}\protected@file@percent }
\@writefile{toc}{\contentsline {paragraph}{Attribute Protocol}{48}\protected@file@percent }
\@writefile{lof}{\contentsline {figure}{\numberline {A.3}{\ignorespaces Attribute structure\relax }}{48}\protected@file@percent }
\newlabel{attstruct}{{A.3}{48}}
\newlabel{attstruct@cref}{{[figure][3][1]A.3}{[1][48][]48}}
\@writefile{toc}{\contentsline {paragraph}{GATT}{49}\protected@file@percent }
\@writefile{toc}{\contentsline {section}{\numberline {A.3}Bluetooth mesh}{49}\protected@file@percent }
\@writefile{lof}{\contentsline {figure}{\numberline {A.4}{\ignorespaces Mesh layers\relax }}{49}\protected@file@percent }
\newlabel{meshlayer}{{A.4}{49}}
\newlabel{meshlayer@cref}{{[figure][4][1]A.4}{[1][49][]49}}
\@writefile{toc}{\contentsline {paragraph}{Bearer Layer}{50}\protected@file@percent }
\@writefile{toc}{\contentsline {paragraph}{Network Layer}{50}\protected@file@percent }
\@writefile{toc}{\contentsline {paragraph}{Lower Transport Layer}{50}\protected@file@percent }
\@writefile{toc}{\contentsline {paragraph}{Upper Transport Layer}{50}\protected@file@percent }
\@writefile{toc}{\contentsline {paragraph}{Acces Layer}{50}\protected@file@percent }
\@writefile{toc}{\contentsline {paragraph}{Foundation Model Layer}{50}\protected@file@percent }
\@writefile{toc}{\contentsline {paragraph}{Model layer}{50}\protected@file@percent }
\@writefile{lof}{\contentsline {figure}{\numberline {A.5}{\ignorespaces Mesh Netwerk\relax }}{51}\protected@file@percent }
\newlabel{meshnetwerk}{{A.5}{51}}
\newlabel{meshnetwerk@cref}{{[figure][5][1]A.5}{[1][51][]51}}
\@writefile{toc}{\contentsline {section}{\numberline {A.4}Test mesh}{52}\protected@file@percent }
\@writefile{lof}{\contentsline {figure}{\numberline {A.6}{\ignorespaces Mesh layers\relax }}{52}\protected@file@percent }
\newlabel{testmesh}{{A.6}{52}}
\newlabel{testmesh@cref}{{[figure][6][1]A.6}{[1][52][]52}}
\@writefile{toc}{\contentsline {section}{\numberline {A.5}Conclusie}{53}\protected@file@percent }
\citation{Specification2018}
\citation{Campbell1966}
\@writefile{toc}{\contentsline {chapter}{\numberline {B.}Onderzoek LED}{54}\protected@file@percent }
\@writefile{lof}{\addvspace {10pt}}
\@writefile{lot}{\addvspace {10pt}}
\@writefile{lof}{\contentsline {xchapter}{Onderzoek LED}{54}\protected@file@percent }
\@writefile{lot}{\contentsline {xchapter}{Onderzoek LED}{54}\protected@file@percent }
\newlabel{ondled}{{B}{54}}
\newlabel{ondled@cref}{{[chapter][2][]B}{[1][54][]54}}
\@writefile{toc}{\contentsline {section}{\numberline {B.1}DC-DC conversie}{54}\protected@file@percent }
\@writefile{lof}{\contentsline {figure}{\numberline {B.1}{\ignorespaces LED Forward Current en Load https://www.allaboutcircuits.com/technical-articles/the-basics-behind-constant-current-led-drive-circuitry/\relax }}{55}\protected@file@percent }
\newlabel{ILED}{{B.1}{55}}
\newlabel{ILED@cref}{{[figure][1][2]B.1}{[1][54][]55}}
\@writefile{toc}{\contentsline {subsection}{\numberline {B.1.1}Charge pump}{55}\protected@file@percent }
\@writefile{lof}{\contentsline {figure}{\numberline {B.2}{\ignorespaces Charge pump\relax }}{55}\protected@file@percent }
\newlabel{VD}{{B.2}{55}}
\newlabel{VD@cref}{{[figure][2][2]B.2}{[1][54][]55}}
\newlabel{eqvc2}{{B.2}{56}}
\newlabel{eqvc2@cref}{{[equation][2][2]B.2}{[1][56][]56}}
\newlabel{eqvc2}{{B.3}{56}}
\newlabel{eqvc2@cref}{{[equation][3][2]B.3}{[1][56][]56}}
\@writefile{toc}{\contentsline {subsubsection}{Simulatie en opbouw Charge pump}{57}\protected@file@percent }
\@writefile{lof}{\contentsline {figure}{\numberline {B.3}{\ignorespaces Chargepump in LT spice opgebouwd\relax }}{57}\protected@file@percent }
\newlabel{CPLT}{{B.3}{57}}
\newlabel{CPLT@cref}{{[figure][3][2]B.3}{[1][57][]57}}
\@writefile{lof}{\contentsline {figure}{\numberline {B.4}{\ignorespaces Vout in simulatie\relax }}{58}\protected@file@percent }
\newlabel{VOCPLT}{{B.4}{58}}
\newlabel{VOCPLT@cref}{{[figure][4][2]B.4}{[1][58][]58}}
\@writefile{lof}{\contentsline {figure}{\numberline {B.5}{\ignorespaces Vout in scope\relax }}{59}\protected@file@percent }
\newlabel{VOSLT}{{B.5}{59}}
\newlabel{VOSLT@cref}{{[figure][5][2]B.5}{[1][59][]59}}
\@writefile{lof}{\contentsline {figure}{\numberline {B.6}{\ignorespaces Rimpel in stroom aan voeding\relax }}{60}\protected@file@percent }
\newlabel{3v3rimpel}{{B.6}{60}}
\newlabel{3v3rimpel@cref}{{[figure][6][2]B.6}{[1][60][]60}}
\@writefile{toc}{\contentsline {subsubsection}{BOM charge pump}{61}\protected@file@percent }
\newlabel{BOM chargePUMP}{{\caption@xref {BOM chargePUMP}{ on input line 906}}{61}}
\newlabel{BOM chargePUMP@cref}{{[subsection][1][2,1]B.1.1}{[1][61][]61}}
\@writefile{toc}{\contentsline {subsection}{\numberline {B.1.2}Boost Converter}{62}\protected@file@percent }
\@writefile{lof}{\contentsline {figure}{\numberline {B.7}{\ignorespaces Schema boost converter\relax }}{62}\protected@file@percent }
\newlabel{LEDNPN}{{B.7}{62}}
\newlabel{LEDNPN@cref}{{[figure][7][2]B.7}{[1][62][]62}}
\newlabel{ipk}{{B.14}{63}}
\newlabel{ipk@cref}{{[equation][14][2]B.14}{[1][63][]63}}
\@writefile{lof}{\contentsline {figure}{\numberline {B.8}{\ignorespaces LTspice boost converter simulatie\relax }}{64}\protected@file@percent }
\newlabel{boostsim}{{B.8}{64}}
\newlabel{boostsim@cref}{{[figure][8][2]B.8}{[1][64][]64}}
\@writefile{lof}{\contentsline {figure}{\numberline {B.9}{\ignorespaces LTspice output stroom V1\relax }}{64}\protected@file@percent }
\newlabel{v1sim}{{B.9}{64}}
\newlabel{v1sim@cref}{{[figure][9][2]B.9}{[1][64][]64}}
\@writefile{lof}{\contentsline {figure}{\numberline {B.10}{\ignorespaces LTspice output stroom en spanning R1\relax }}{65}\protected@file@percent }
\newlabel{R1sim}{{B.10}{65}}
\newlabel{R1sim@cref}{{[figure][10][2]B.10}{[1][65][]65}}
\@writefile{toc}{\contentsline {subsection}{\numberline {B.1.3}Schakelen LED}{66}\protected@file@percent }
\@writefile{toc}{\contentsline {subsubsection}{Schakelen met transistor}{66}\protected@file@percent }
\@writefile{lof}{\contentsline {figure}{\numberline {B.11}{\ignorespaces LED aangestuurd d.m.v. NPN\relax }}{66}\protected@file@percent }
\newlabel{LEDNPN}{{B.11}{66}}
\newlabel{LEDNPN@cref}{{[figure][11][2]B.11}{[1][66][]66}}
\newlabel{eqr3}{{B.17}{67}}
\newlabel{eqr3@cref}{{[equation][17][2]B.17}{[1][67][]67}}
\@writefile{toc}{\contentsline {subsection}{\numberline {B.1.4}Schakelen met FET}{68}\protected@file@percent }
\@writefile{lof}{\contentsline {figure}{\numberline {B.12}{\ignorespaces LED aangestuurd d.m.v. NMOS\relax }}{68}\protected@file@percent }
\newlabel{NMOSLED}{{B.12}{68}}
\newlabel{NMOSLED@cref}{{[figure][12][2]B.12}{[1][68][]68}}
\@writefile{toc}{\contentsline {section}{\numberline {B.2}Conclusie}{69}\protected@file@percent }
\citation{cbs}
\@writefile{toc}{\contentsline {chapter}{\numberline {C.}Onderzoek draadloze technologieën}{70}\protected@file@percent }
\@writefile{lof}{\addvspace {10pt}}
\@writefile{lot}{\addvspace {10pt}}
\@writefile{lof}{\contentsline {xchapter}{Onderzoek draadloze technologieën}{70}\protected@file@percent }
\@writefile{lot}{\contentsline {xchapter}{Onderzoek draadloze technologieën}{70}\protected@file@percent }
\newlabel{onddr}{{C}{70}}
\newlabel{onddr@cref}{{[chapter][3][]C}{[1][70][]70}}
\@writefile{toc}{\contentsline {section}{\numberline {C.1}Inleiding}{70}\protected@file@percent }
\newlabel{stal1}{{C.1a}{71}}
\newlabel{stal1@cref}{{[subfigure][1][3,1]C.1a}{[1][71][]71}}
\newlabel{sub@stal1}{{a}{71}}
\newlabel{sub@stal1@cref}{{[subfigure][1][3,1]C.1a}{[1][71][]71}}
\newlabel{stal2}{{C.1b}{71}}
\newlabel{stal2@cref}{{[subfigure][2][3,1]C.1b}{[1][71][]71}}
\newlabel{sub@stal2}{{b}{71}}
\newlabel{sub@stal2@cref}{{[subfigure][2][3,1]C.1b}{[1][71][]71}}
\@writefile{lof}{\contentsline {figure}{\numberline {C.1}{\ignorespaces Mogelijke ophanging motor\relax }}{71}\protected@file@percent }
\citation{los}
\citation{topo}
\@writefile{toc}{\contentsline {section}{\numberline {C.2}Draadloze technologieën}{72}\protected@file@percent }
\@writefile{lof}{\contentsline {figure}{\numberline {C.2}{\ignorespaces Line Of Sight \relax }}{72}\protected@file@percent }
\newlabel{los}{{C.2}{72}}
\newlabel{los@cref}{{[figure][2][3]C.2}{[1][72][]72}}
\citation{Verma2013}
\citation{Zhao2014}
\citation{meshfaq}
\citation{meshfaq}
\citation{Yaakop2017}
\citation{zigbee}
\citation{Ali-rantala}
\citation{Chruszczyk2017}
\@writefile{toc}{\contentsline {subsection}{\numberline {C.2.1}Frequentie, bereik en maximale snelheid}{73}\protected@file@percent }
\citation{DelaCruz2016}
\citation{starmesh}
\citation{hu2013}
\@writefile{toc}{\contentsline {subsection}{\numberline {C.2.2}Topologie en gebruik smartphone}{74}\protected@file@percent }
\newlabel{star}{{C.3a}{74}}
\newlabel{star@cref}{{[subfigure][1][3,3]C.3a}{[1][74][]74}}
\newlabel{sub@star}{{a}{74}}
\newlabel{sub@star@cref}{{[subfigure][1][3,3]C.3a}{[1][74][]74}}
\newlabel{mesh}{{C.3b}{74}}
\newlabel{mesh@cref}{{[subfigure][2][3,3]C.3b}{[1][74][]74}}
\newlabel{sub@mesh}{{b}{74}}
\newlabel{sub@mesh@cref}{{[subfigure][2][3,3]C.3b}{[1][74][]74}}
\@writefile{lof}{\contentsline {figure}{\numberline {C.3}{\ignorespaces Twee verschillende netwerk configuraties\relax }}{74}\protected@file@percent }
\citation{blfees}
\citation{lora}
\citation{zigbee}
\@writefile{toc}{\contentsline {subsection}{\numberline {C.2.3}Kosten}{75}\protected@file@percent }
\@writefile{toc}{\contentsline {section}{\numberline {C.3}Conclusie}{76}\protected@file@percent }
\@writefile{lot}{\contentsline {table}{\numberline {C.1}{\ignorespaces Overzicht draadloze verbindingen\relax }}{76}\protected@file@percent }
\newlabel{tbWrlss}{{C.1}{76}}
\newlabel{tbWrlss@cref}{{[table][1][3]C.1}{[1][76][]76}}
\@writefile{toc}{\contentsline {chapter}{\numberline {D.}Plan Van Aanpak}{77}\protected@file@percent }
\@writefile{lof}{\addvspace {10pt}}
\@writefile{lot}{\addvspace {10pt}}
\@writefile{lof}{\contentsline {xchapter}{Plan Van Aanpak}{77}\protected@file@percent }
\@writefile{lot}{\contentsline {xchapter}{Plan Van Aanpak}{77}\protected@file@percent }
\newlabel{hs:vb}{{D}{77}}
\newlabel{hs:vb@cref}{{[chapter][4][]D}{[1][77][]77}}
\@writefile{lot}{\contentsline {table}{\numberline {D.1}{\ignorespaces Versiehistorie\relax }}{77}\protected@file@percent }
\newlabel{tab:vb}{{D.1}{77}}
\newlabel{tab:vb@cref}{{[table][1][4]D.1}{[1][77][]77}}
\@writefile{toc}{\contentsline {section}{\numberline {D.1}Achtergronden}{78}\protected@file@percent }
\newlabel{hs:h1}{{D.1}{78}}
\newlabel{hs:h1@cref}{{[section][1][4]D.1}{[1][78][]78}}
\newlabel{hs:h11}{{D.1}{78}}
\newlabel{hs:h11@cref}{{[section][1][4]D.1}{[1][78][]78}}
\newlabel{hs:h12}{{D.1}{78}}
\newlabel{hs:h12@cref}{{[section][1][4]D.1}{[1][78][]78}}
\newlabel{hs:h13}{{D.1}{78}}
\newlabel{hs:h13@cref}{{[section][1][4]D.1}{[1][78][]78}}
\@writefile{toc}{\contentsline {section}{\numberline {D.2}Projectresultaat}{78}\protected@file@percent }
\newlabel{hs:h2}{{D.2}{78}}
\newlabel{hs:h2@cref}{{[section][2][4]D.2}{[1][78][]78}}
\newlabel{hs:h21}{{D.2}{78}}
\newlabel{hs:h21@cref}{{[section][2][4]D.2}{[1][78][]78}}
\newlabel{hs:h22}{{D.2}{79}}
\newlabel{hs:h22@cref}{{[section][2][4]D.2}{[1][78][]79}}
\newlabel{hs:h3}{{D.2}{80}}
\newlabel{hs:h3@cref}{{[section][2][4]D.2}{[1][80][]80}}
\newlabel{hs:h31}{{D.2}{80}}
\newlabel{hs:h31@cref}{{[section][2][4]D.2}{[1][80][]80}}
\newlabel{hs:h32}{{D.2}{80}}
\newlabel{hs:h32@cref}{{[section][2][4]D.2}{[1][80][]80}}
\@writefile{toc}{\contentsline {section}{\numberline {D.4}Projectgrenzen en randvoorwaarden}{82}\protected@file@percent }
\newlabel{hs:h4}{{D.4}{82}}
\newlabel{hs:h4@cref}{{[section][4][4]D.4}{[1][82][]82}}
\newlabel{hs:h41}{{D.4}{82}}
\newlabel{hs:h41@cref}{{[section][4][4]D.4}{[1][82][]82}}
\newlabel{hs:h42}{{D.4}{82}}
\newlabel{hs:h42@cref}{{[section][4][4]D.4}{[1][82][]82}}
\@writefile{toc}{\contentsline {section}{\numberline {D.5}Tussenresultaten}{82}\protected@file@percent }
\newlabel{hs:h5}{{D.5}{82}}
\newlabel{hs:h5@cref}{{[section][5][4]D.5}{[1][82][]82}}
\newlabel{hs:h51}{{D.5}{82}}
\newlabel{hs:h51@cref}{{[section][5][4]D.5}{[1][82][]82}}
\newlabel{hs:h52}{{D.5}{82}}
\newlabel{hs:h52@cref}{{[section][5][4]D.5}{[1][82][]82}}
\@writefile{toc}{\contentsline {section}{\numberline {D.6}Kwaliteit}{83}\protected@file@percent }
\newlabel{hs:h6}{{D.6}{83}}
\newlabel{hs:h6@cref}{{[section][6][4]D.6}{[1][83][]83}}
\newlabel{hs:h61}{{D.6}{83}}
\newlabel{hs:h61@cref}{{[section][6][4]D.6}{[1][83][]83}}
\newlabel{hs:h62}{{D.6}{83}}
\newlabel{hs:h62@cref}{{[section][6][4]D.6}{[1][83][]83}}
\newlabel{hs:h63}{{D.6}{83}}
\newlabel{hs:h63@cref}{{[section][6][4]D.6}{[1][83][]83}}
\newlabel{hs:h64}{{D.6}{83}}
\newlabel{hs:h64@cref}{{[section][6][4]D.6}{[1][83][]83}}
\@writefile{toc}{\contentsline {section}{\numberline {D.7}Projectorganisatie}{84}\protected@file@percent }
\newlabel{hs:h7}{{D.7}{84}}
\newlabel{hs:h7@cref}{{[section][7][4]D.7}{[1][84][]84}}
\newlabel{hs:h71}{{D.7}{84}}
\newlabel{hs:h71@cref}{{[section][7][4]D.7}{[1][84][]84}}
\@writefile{lot}{\contentsline {table}{\numberline {D.2}{\ignorespaces Persoonlijke gegevens\relax }}{84}\protected@file@percent }
\newlabel{tab:pg}{{D.2}{84}}
\newlabel{tab:pg@cref}{{[table][2][4]D.2}{[1][84][]84}}
\newlabel{hs:h72}{{D.7}{84}}
\newlabel{hs:h72@cref}{{[section][7][4]D.7}{[1][84][]84}}
\newlabel{hs:h73}{{D.7}{84}}
\newlabel{hs:h73@cref}{{[section][7][4]D.7}{[1][84][]84}}
\newlabel{hs:h74}{{D.7}{84}}
\newlabel{hs:h74@cref}{{[section][7][4]D.7}{[1][84][]84}}
\@writefile{toc}{\contentsline {section}{\numberline {D.8}Planning}{86}\protected@file@percent }
\newlabel{hs:h8}{{D.8}{86}}
\newlabel{hs:h8@cref}{{[section][8][4]D.8}{[1][86][]86}}
\@writefile{toc}{\contentsline {section}{\numberline {D.9}Kosten en baten}{87}\protected@file@percent }
\newlabel{hs:h9}{{D.9}{87}}
\newlabel{hs:h9@cref}{{[section][9][4]D.9}{[1][87][]87}}
\newlabel{hs:h91}{{D.9}{87}}
\newlabel{hs:h91@cref}{{[section][9][4]D.9}{[1][87][]87}}
\newlabel{hs:h92}{{D.9}{87}}
\newlabel{hs:h92@cref}{{[section][9][4]D.9}{[1][87][]87}}
\newlabel{hs:h93}{{D.9}{87}}
\newlabel{hs:h93@cref}{{[section][9][4]D.9}{[1][87][]87}}
\@writefile{toc}{\contentsline {section}{\numberline {D.10}Risico's}{87}\protected@file@percent }
\newlabel{hs:h10}{{D.10}{87}}
\newlabel{hs:h10@cref}{{[section][10][4]D.10}{[1][87][]87}}
\newlabel{hs:h101}{{D.10}{87}}
\newlabel{hs:h101@cref}{{[section][10][4]D.10}{[1][87][]87}}
\newlabel{hs:h102}{{D.10}{88}}
\newlabel{hs:h102@cref}{{[section][10][4]D.10}{[1][87][]88}}
\newlabel{hs:h103}{{D.10}{88}}
\newlabel{hs:h103@cref}{{[section][10][4]D.10}{[1][88][]88}}
\@writefile{lot}{\contentsline {table}{\numberline {D.3}{\ignorespaces Externe Risico's\relax }}{89}\protected@file@percent }
\newlabel{tab:ra}{{D.3}{89}}
\newlabel{tab:ra@cref}{{[table][3][4]D.3}{[1][88][]89}}
\@writefile{lof}{\contentsline {figure}{\numberline {D.1}{\ignorespaces Planning deel 1\relax }}{91}\protected@file@percent }
\newlabel{planning}{{D.1}{91}}
\newlabel{planning@cref}{{[figure][1][4]D.1}{[1][86][]91}}
\@writefile{lof}{\contentsline {figure}{\numberline {D.2}{\ignorespaces Planning deel 2\relax }}{92}\protected@file@percent }
\@writefile{toc}{\contentsline {chapter}{\numberline {E.}Acceptatie test}{93}\protected@file@percent }
\@writefile{lof}{\addvspace {10pt}}
\@writefile{lot}{\addvspace {10pt}}
\@writefile{lof}{\contentsline {xchapter}{Acceptatie test}{93}\protected@file@percent }
\@writefile{lot}{\contentsline {xchapter}{Acceptatie test}{93}\protected@file@percent }
\newlabel{acctest}{{E}{93}}
\newlabel{acctest@cref}{{[chapter][5][]E}{[1][93][]93}}
\@writefile{toc}{\contentsline {section}{\numberline {E.1}Voorbereidingen acceptatietest}{93}\protected@file@percent }
\@writefile{toc}{\contentsline {subsection}{\numberline {E.1.1}Visuele testomgeving}{93}\protected@file@percent }
\@writefile{toc}{\contentsline {subsubsection}{Hardware}{93}\protected@file@percent }
\@writefile{toc}{\contentsline {subsubsection}{Software}{94}\protected@file@percent }
\@writefile{toc}{\contentsline {subsection}{\numberline {E.1.2}Testomgeving seriële verbinding}{94}\protected@file@percent }
\newlabel{to1}{{E.1.2}{94}}
\newlabel{to1@cref}{{[subsection][2][5,1]E.1.2}{[1][94][]94}}
\@writefile{toc}{\contentsline {subsubsection}{Hardware}{94}\protected@file@percent }
\@writefile{toc}{\contentsline {subsubsection}{Software}{94}\protected@file@percent }
\@writefile{toc}{\contentsline {subsubsection}{Overig}{94}\protected@file@percent }
\@writefile{toc}{\contentsline {subsection}{\numberline {E.1.3}Test mesh}{94}\protected@file@percent }
\newlabel{to2}{{E.1.3}{94}}
\newlabel{to2@cref}{{[subsection][3][5,1]E.1.3}{[1][94][]94}}
\@writefile{toc}{\contentsline {subsubsection}{Hardware}{94}\protected@file@percent }
\@writefile{toc}{\contentsline {subsubsection}{Software}{94}\protected@file@percent }
\@writefile{toc}{\contentsline {subsection}{\numberline {E.1.4}Test data opslag}{95}\protected@file@percent }
\newlabel{to3}{{E.1.4}{95}}
\newlabel{to3@cref}{{[subsection][4][5,1]E.1.4}{[1][95][]95}}
\@writefile{toc}{\contentsline {subsubsection}{Hardware}{95}\protected@file@percent }
\@writefile{toc}{\contentsline {subsubsection}{Software}{95}\protected@file@percent }
\@writefile{toc}{\contentsline {subsection}{\numberline {E.1.5}Test software update}{95}\protected@file@percent }
\newlabel{to4}{{E.1.5}{95}}
\newlabel{to4@cref}{{[subsection][5][5,1]E.1.5}{[1][95][]95}}
\@writefile{toc}{\contentsline {subsubsection}{Hardware}{95}\protected@file@percent }
\@writefile{toc}{\contentsline {section}{\numberline {E.2}Acceptatietestbeschrijvingen}{96}\protected@file@percent }
\@writefile{toc}{\contentsline {subsection}{\numberline {E.2.1}Test Bluetooth naar serieel}{96}\protected@file@percent }
\@writefile{toc}{\contentsline {subsubsection}{Testcase 1.1: Commando's io-net}{96}\protected@file@percent }
\@writefile{lot}{\contentsline {table}{\numberline {E.1}{\ignorespaces Testcase 1.1\relax }}{96}\protected@file@percent }
\newlabel{tc11}{{E.1}{96}}
\newlabel{tc11@cref}{{[table][1][5]E.1}{[1][96][]96}}
\@writefile{toc}{\contentsline {subsubsection}{Testcase 1.2: Draaien motor}{97}\protected@file@percent }
\@writefile{lot}{\contentsline {table}{\numberline {E.2}{\ignorespaces Testcase 1.2\relax }}{97}\protected@file@percent }
\newlabel{tcx}{{E.2}{97}}
\newlabel{tcx@cref}{{[table][2][5]E.2}{[1][97][]97}}
\@writefile{toc}{\contentsline {subsection}{\numberline {E.2.2}Test Visuele feedback}{98}\protected@file@percent }
\@writefile{toc}{\contentsline {subsubsection}{Testcase 2.1: Test LED}{98}\protected@file@percent }
\@writefile{lot}{\contentsline {table}{\numberline {E.3}{\ignorespaces Testcase 2.1\relax }}{98}\protected@file@percent }
\newlabel{tcx}{{E.3}{98}}
\newlabel{tcx@cref}{{[table][3][5]E.3}{[1][98][]98}}
\@writefile{toc}{\contentsline {subsubsection}{Testcase 2.2: Test maximale afstand}{98}\protected@file@percent }
\@writefile{lot}{\contentsline {table}{\numberline {E.4}{\ignorespaces Testcase 2.2\relax }}{99}\protected@file@percent }
\newlabel{tcx}{{E.4}{99}}
\newlabel{tcx@cref}{{[table][4][5]E.4}{[1][98][]99}}
\@writefile{toc}{\contentsline {subsection}{\numberline {E.2.3}Test opgeslagen data}{99}\protected@file@percent }
\@writefile{toc}{\contentsline {subsubsection}{Testcase 3.1: Test Opslag data}{99}\protected@file@percent }
\@writefile{lot}{\contentsline {table}{\numberline {E.5}{\ignorespaces Testcase 3.1\relax }}{99}\protected@file@percent }
\newlabel{tcx}{{E.5}{99}}
\newlabel{tcx@cref}{{[table][5][5]E.5}{[1][99][]99}}
\@writefile{toc}{\contentsline {subsection}{\numberline {E.2.4}Test software update}{100}\protected@file@percent }
\@writefile{lot}{\contentsline {table}{\numberline {E.6}{\ignorespaces Testcase 4.1\relax }}{100}\protected@file@percent }
\newlabel{tcx}{{E.6}{100}}
\newlabel{tcx@cref}{{[table][6][5]E.6}{[1][100][]100}}
\@writefile{toc}{\contentsline {section}{\numberline {E.3}Traceerbaarheid klanteisen}{100}\protected@file@percent }
\@writefile{lot}{\contentsline {table}{\numberline {E.7}{\ignorespaces Traceertabel Requirements \relax }}{100}\protected@file@percent }
\newlabel{tab:ta}{{E.7}{100}}
\newlabel{tab:ta@cref}{{[table][7][5]E.7}{[1][100][]100}}
\@writefile{toc}{\contentsline {chapter}{\numberline {F.}Integratietest}{101}\protected@file@percent }
\@writefile{lof}{\addvspace {10pt}}
\@writefile{lot}{\addvspace {10pt}}
\@writefile{lof}{\contentsline {xchapter}{Integratietest}{101}\protected@file@percent }
\@writefile{lot}{\contentsline {xchapter}{Integratietest}{101}\protected@file@percent }
\newlabel{inttest}{{F}{101}}
\newlabel{inttest@cref}{{[chapter][6][]F}{[1][101][]101}}
\@writefile{toc}{\contentsline {section}{\numberline {F.1}Testen}{101}\protected@file@percent }
\@writefile{toc}{\contentsline {subsection}{\numberline {F.1.1}Test rimpel voeding}{101}\protected@file@percent }
\@writefile{lot}{\contentsline {table}{\numberline {F.1}{\ignorespaces Test rimpel voeding\relax }}{102}\protected@file@percent }
\newlabel{itc1}{{F.1}{102}}
\newlabel{itc1@cref}{{[table][1][6]F.1}{[1][101][]102}}
\@writefile{toc}{\contentsline {subsection}{\numberline {F.1.2}Test output spanning Charge-pump}{102}\protected@file@percent }
\@writefile{lot}{\contentsline {table}{\numberline {F.2}{\ignorespaces Test output spanning Charge-pump\relax }}{102}\protected@file@percent }
\newlabel{itc2}{{F.2}{102}}
\newlabel{itc2@cref}{{[table][2][6]F.2}{[1][102][]102}}
\@writefile{toc}{\contentsline {subsection}{\numberline {F.1.3}Test stroom LED}{103}\protected@file@percent }
\@writefile{lot}{\contentsline {table}{\numberline {F.3}{\ignorespaces Test stroom LED\relax }}{103}\protected@file@percent }
\newlabel{itc1}{{F.3}{103}}
\newlabel{itc1@cref}{{[table][3][6]F.3}{[1][102][]103}}
\@writefile{toc}{\contentsline {subsection}{\numberline {F.1.4}Test zenden UART}{104}\protected@file@percent }
\@writefile{lot}{\contentsline {table}{\numberline {F.4}{\ignorespaces Test zenden UART\relax }}{104}\protected@file@percent }
\newlabel{itc1}{{F.4}{104}}
\newlabel{itc1@cref}{{[table][4][6]F.4}{[1][104][]104}}
\@writefile{toc}{\contentsline {subsection}{\numberline {F.1.5}Test ontvangen UART}{104}\protected@file@percent }
\@writefile{toc}{\contentsline {subsection}{\numberline {F.1.6}Test mesh LED}{104}\protected@file@percent }
\bibstyle{apacite}
\bibdata{Referenties/Referenties,Referenties/Afstuderen}
\bibcite{Ali-rantala}{\citeauthoryear {Ali-rantala, Sydanheimo, Keskilammi{}\ \BBA{} Kivikoski}{Ali-rantala\ \BOthers {.}}{{\APACyear {{\bibnodate {}}}}}}
\APACbibcite{Ali-rantala}{\citeauthoryear {Ali-rantala, Sydanheimo, Keskilammi{}\ \BBA{} Kivikoski}{Ali-rantala\ \BOthers {.}}{{\APACyear {{\bibnodate {}}}}}}
\bibcite{zigbee}{\citeauthoryear {Alliance}{Alliance}{{\APACyear {2020}}}}
\APACbibcite{zigbee}{\citeauthoryear {Alliance}{Alliance}{{\APACyear {2020}}}}
\bibcite{meshfaq}{\citeauthoryear {Bluetooth}{Bluetooth}{{\APACyear {2020}}{\APACexlab {{\BCnt {1}}}}}}
\APACbibcite{meshfaq}{\citeauthoryear {Bluetooth}{Bluetooth}{{\APACyear {2020}}{\APACexlab {{\BCnt {1}}}}}}
\bibcite{blfees}{\citeauthoryear {Bluetooth}{Bluetooth}{{\APACyear {2020}}{\APACexlab {{\BCnt {2}}}}}}
\APACbibcite{blfees}{\citeauthoryear {Bluetooth}{Bluetooth}{{\APACyear {2020}}{\APACexlab {{\BCnt {2}}}}}}
\@writefile{lot}{\contentsline {table}{\numberline {F.5}{\ignorespaces Test zenden UART\relax }}{105}\protected@file@percent }
\newlabel{itc1}{{F.5}{105}}
\newlabel{itc1@cref}{{[table][5][6]F.5}{[1][104][]105}}
\@writefile{lot}{\contentsline {table}{\numberline {F.6}{\ignorespaces Test zenden UART\relax }}{105}\protected@file@percent }
\newlabel{itc1}{{F.6}{105}}
\newlabel{itc1@cref}{{[table][6][6]F.6}{[1][104][]105}}
\@writefile{toc}{\contentsline {section}{Literatuur}{105}\protected@file@percent }
\bibcite{Campbell1966}{\citeauthoryear {Campbell\ \BBA{} Gubisch}{Campbell\ \BBA{} Gubisch}{{\APACyear {1966}}}}
\APACbibcite{Campbell1966}{\citeauthoryear {Campbell\ \BBA{} Gubisch}{Campbell\ \BBA{} Gubisch}{{\APACyear {1966}}}}
\bibcite{cbs}{\citeauthoryear {CBS}{CBS}{{\APACyear {2019}}}}
\APACbibcite{cbs}{\citeauthoryear {CBS}{CBS}{{\APACyear {2019}}}}
\bibcite{Chruszczyk2017}{\citeauthoryear {Chruszczyk}{Chruszczyk}{{\APACyear {2017}}}}
\APACbibcite{Chruszczyk2017}{\citeauthoryear {Chruszczyk}{Chruszczyk}{{\APACyear {2017}}}}
\bibcite{DelaCruz2016}{\citeauthoryear {{Dela Cruz}, Parabuac{}\ \BBA{} Tiglao}{{Dela Cruz}\ \BOthers {.}}{{\APACyear {2016}}}}
\APACbibcite{DelaCruz2016}{\citeauthoryear {{Dela Cruz}, Parabuac{}\ \BBA{} Tiglao}{{Dela Cruz}\ \BOthers {.}}{{\APACyear {2016}}}}
\bibcite{hu2013}{\citeauthoryear {Hu, Fu, She{}\ \BBA{} Yao}{Hu\ \BOthers {.}}{{\APACyear {2013}}}}
\APACbibcite{hu2013}{\citeauthoryear {Hu, Fu, She{}\ \BBA{} Yao}{Hu\ \BOthers {.}}{{\APACyear {2013}}}}
\bibcite{lora}{\citeauthoryear {KPN}{KPN}{{\APACyear {2020}}}}
\APACbibcite{lora}{\citeauthoryear {KPN}{KPN}{{\APACyear {2020}}}}
\bibcite{Specification2018}{\citeauthoryear {Nordic}{Nordic}{{\APACyear {2018}}}}
\APACbibcite{Specification2018}{\citeauthoryear {Nordic}{Nordic}{{\APACyear {2018}}}}
\bibcite{los}{\citeauthoryear {Tablo}{Tablo}{{\APACyear {2018}}}}
\APACbibcite{los}{\citeauthoryear {Tablo}{Tablo}{{\APACyear {2018}}}}
\bibcite{starmesh}{\citeauthoryear {Techdifferences}{Techdifferences}{{\APACyear {2018}}}}
\APACbibcite{starmesh}{\citeauthoryear {Techdifferences}{Techdifferences}{{\APACyear {2018}}}}
\bibcite{Verma2013}{\citeauthoryear {Verma, Fakharzadeh{}\ \BBA{} Technologies}{Verma\ \BOthers {.}}{{\APACyear {2013}}}}
\APACbibcite{Verma2013}{\citeauthoryear {Verma, Fakharzadeh{}\ \BBA{} Technologies}{Verma\ \BOthers {.}}{{\APACyear {2013}}}}
\bibcite{topo}{\citeauthoryear {Wikipedia}{Wikipedia}{{\APACyear {2018}}}}
\APACbibcite{topo}{\citeauthoryear {Wikipedia}{Wikipedia}{{\APACyear {2018}}}}
\@writefile{lot}{\contentsline {table}{\numberline {F.7}{\ignorespaces Testcase 4.1\relax }}{106}\protected@file@percent }
\newlabel{itcx}{{F.7}{106}}
\newlabel{itcx@cref}{{[table][7][6]F.7}{[1][104][]106}}
\bibcite{Yaakop2017}{\citeauthoryear {Yaakop, Malik, {Bin Suboh}, Ramli{}\ \BBA{} Abu}{Yaakop\ \BOthers {.}}{{\APACyear {2017}}}}
\APACbibcite{Yaakop2017}{\citeauthoryear {Yaakop, Malik, {Bin Suboh}, Ramli{}\ \BBA{} Abu}{Yaakop\ \BOthers {.}}{{\APACyear {2017}}}}
\bibcite{Yourdon1979}{\citeauthoryear {Yourdon}{Yourdon}{{\APACyear {1979}}}}
\APACbibcite{Yourdon1979}{\citeauthoryear {Yourdon}{Yourdon}{{\APACyear {1979}}}}
\bibcite{Zhao2014}{\citeauthoryear {Zhao, Xiao, Markham, Trigoni{}\ \BBA{} Ren}{Zhao\ \BOthers {.}}{{\APACyear {2014}}}}
\APACbibcite{Zhao2014}{\citeauthoryear {Zhao, Xiao, Markham, Trigoni{}\ \BBA{} Ren}{Zhao\ \BOthers {.}}{{\APACyear {2014}}}}
\global\mtcsecondpartfalse
