\relax 
\@nameuse{bbl@beforestart}
\catcode `"\active 
\babel@aux{dutch}{}
\@writefile{@@@}{\chapterbegin }
\@writefile{@@@}{\chapterbegin }
\@writefile{@@@}{\chapterbegin }
\@writefile{@@@}{\chapterbegin }
\@writefile{@@@}{\chapterbegin }
\newlabel{hs:vb}{{}{7}}
\newlabel{hs:vb@cref}{{}{[1][7][]7}}
\@writefile{lot}{\contentsline {table}{\numberline {0.1}{\ignorespaces Versiehistorie\relax }}{7}\protected@file@percent }
\providecommand*\caption@xref[2]{\@setref\relax\@undefined{#1}}
\newlabel{tab:vb}{{0.1}{7}}
\newlabel{tab:vb@cref}{{[table][1][0]0.1}{[1][7][]7}}
\@writefile{@@@}{\chapterbegin }
\@writefile{toc}{\contentsline {chapter}{\numberline {1.}Inleiding}{12}\protected@file@percent }
\@writefile{lof}{\addvspace {10pt}}
\@writefile{lot}{\addvspace {10pt}}
\@writefile{lof}{\contentsline {xchapter}{Inleiding}{12}\protected@file@percent }
\@writefile{lot}{\contentsline {xchapter}{Inleiding}{12}\protected@file@percent }
\newlabel{hs:in}{{1}{12}}
\newlabel{hs:in@cref}{{[chapter][1][]1}{[1][12][]12}}
\@writefile{toc}{\contentsline {section}{\numberline {1.1}Bedrijfsachtergrond}{12}\protected@file@percent }
\@writefile{lof}{\contentsline {figure}{\numberline {1.1}{\ignorespaces Luiken voor in- en uitvoer van luchtstromen\relax }}{13}\protected@file@percent }
\newlabel{luik}{{1.1}{13}}
\newlabel{luik@cref}{{[figure][1][1]1.1}{[1][12][]13}}
\newlabel{im60}{{1.2a}{14}}
\newlabel{im60@cref}{{[subfigure][1][1,2]1.2a}{[1][14][]14}}
\newlabel{sub@im60}{{a}{14}}
\newlabel{sub@im60@cref}{{[subfigure][1][1,2]1.2a}{[1][14][]14}}
\newlabel{im125}{{1.2b}{14}}
\newlabel{im125@cref}{{[subfigure][2][1,2]1.2b}{[1][14][]14}}
\newlabel{sub@im125}{{b}{14}}
\newlabel{sub@im125@cref}{{[subfigure][2][1,2]1.2b}{[1][14][]14}}
\@writefile{lof}{\contentsline {figure}{\numberline {1.2}{\ignorespaces Motoren\relax }}{14}\protected@file@percent }
\newlabel{im60p}{{1.3a}{15}}
\newlabel{im60p@cref}{{[subfigure][1][1,3]1.3a}{[1][14][]15}}
\newlabel{sub@im60p}{{a}{15}}
\newlabel{sub@im60p@cref}{{[subfigure][1][1,3]1.3a}{[1][14][]15}}
\newlabel{im125p}{{1.3b}{15}}
\newlabel{im125p@cref}{{[subfigure][2][1,3]1.3b}{[1][14][]15}}
\newlabel{sub@im125p}{{b}{15}}
\newlabel{sub@im125p@cref}{{[subfigure][2][1,3]1.3b}{[1][14][]15}}
\@writefile{lof}{\contentsline {figure}{\numberline {1.3}{\ignorespaces Printplaten die de motoren aansturen\relax }}{15}\protected@file@percent }
\@writefile{toc}{\contentsline {section}{\numberline {1.2}Probleemstelling}{15}\protected@file@percent }
\@writefile{toc}{\contentsline {section}{\numberline {1.3}Doelstelling}{16}\protected@file@percent }
\@writefile{lof}{\contentsline {figure}{\numberline {1.4}{\ignorespaces V-model\relax }}{16}\protected@file@percent }
\newlabel{vmodel}{{1.4}{16}}
\newlabel{vmodel@cref}{{[figure][4][1]1.4}{[1][16][]16}}
\citation{Yourdon1979}
\@writefile{toc}{\contentsline {chapter}{\numberline {2.}Requirements}{17}\protected@file@percent }
\@writefile{lof}{\addvspace {10pt}}
\@writefile{lot}{\addvspace {10pt}}
\@writefile{lof}{\contentsline {xchapter}{Requirements}{17}\protected@file@percent }
\@writefile{lot}{\contentsline {xchapter}{Requirements}{17}\protected@file@percent }
\newlabel{hs:h2}{{2}{17}}
\newlabel{hs:h2@cref}{{[chapter][2][]2}{[1][17][]17}}
\@writefile{toc}{\contentsline {section}{\numberline {2.1}Inleiding}{17}\protected@file@percent }
\newlabel{hs:h21}{{2.1}{17}}
\newlabel{hs:h21@cref}{{[section][1][2]2.1}{[1][17][]17}}
\@writefile{toc}{\contentsline {section}{\numberline {2.2}Algemene beschrijving}{17}\protected@file@percent }
\newlabel{hs:h22}{{2.2}{17}}
\newlabel{hs:h22@cref}{{[section][2][2]2.2}{[1][17][]17}}
\@writefile{toc}{\contentsline {section}{\numberline {2.3}Systeemcontext}{17}\protected@file@percent }
\newlabel{hs:h23}{{2.3}{17}}
\newlabel{hs:h23@cref}{{[section][3][2]2.3}{[1][17][]17}}
\@writefile{toc}{\contentsline {subsection}{\numberline {2.3.1}Systeemfuncties}{17}\protected@file@percent }
\newlabel{hs:h231}{{2.3.1}{17}}
\newlabel{hs:h231@cref}{{[subsection][1][2,3]2.3.1}{[1][17][]17}}
\@writefile{lof}{\contentsline {figure}{\numberline {2.1}{\ignorespaces Data Context Diagram\relax }}{18}\protected@file@percent }
\newlabel{DCD}{{2.1}{18}}
\newlabel{DCD@cref}{{[figure][1][2]2.1}{[1][18][]18}}
\@writefile{toc}{\contentsline {section}{\numberline {2.4}Systeemfuncties}{19}\protected@file@percent }
\newlabel{hs:h24}{{2.4}{19}}
\newlabel{hs:h24@cref}{{[section][4][2]2.4}{[1][19][]19}}
\@writefile{toc}{\contentsline {subsection}{\numberline {2.4.1}Draadloze data overdracht}{19}\protected@file@percent }
\newlabel{hs:h241}{{2.4.1}{19}}
\newlabel{hs:h241@cref}{{[subsection][1][2,4]2.4.1}{[1][19][]19}}
\@writefile{toc}{\contentsline {subsubsection}{Stimulus en response}{19}\protected@file@percent }
\newlabel{2411}{{2.4.1}{19}}
\newlabel{2411@cref}{{[subsection][1][2,4]2.4.1}{[1][19][]19}}
\@writefile{toc}{\contentsline {subsubsection}{Functionele klanteisen}{19}\protected@file@percent }
\newlabel{2411}{{2.4.1}{19}}
\newlabel{2411@cref}{{[subsection][1][2,4]2.4.1}{[1][19][]19}}
\@writefile{toc}{\contentsline {subsection}{\numberline {2.4.2}Uitlezen en opslag data}{20}\protected@file@percent }
\newlabel{hs:h242}{{2.4.2}{20}}
\newlabel{hs:h242@cref}{{[subsection][2][2,4]2.4.2}{[1][20][]20}}
\@writefile{toc}{\contentsline {subsubsection}{Stimulus en response}{20}\protected@file@percent }
\newlabel{2421}{{2.4.2}{20}}
\newlabel{2421@cref}{{[subsection][2][2,4]2.4.2}{[1][20][]20}}
\@writefile{toc}{\contentsline {subsubsection}{Functionele klanteisen}{20}\protected@file@percent }
\newlabel{2421}{{2.4.2}{20}}
\newlabel{2421@cref}{{[subsection][2][2,4]2.4.2}{[1][20][]20}}
\@writefile{toc}{\contentsline {subsection}{\numberline {2.4.3}Updaten systeem en bestaande module (Optioneel)}{21}\protected@file@percent }
\newlabel{hs:h243}{{2.4.3}{21}}
\newlabel{hs:h243@cref}{{[subsection][3][2,4]2.4.3}{[1][21][]21}}
\@writefile{toc}{\contentsline {subsubsection}{Stimulus en response}{21}\protected@file@percent }
\newlabel{2431}{{2.4.3}{21}}
\newlabel{2431@cref}{{[subsection][3][2,4]2.4.3}{[1][21][]21}}
\@writefile{toc}{\contentsline {subsubsection}{Functionele klanteisen}{21}\protected@file@percent }
\newlabel{2431}{{2.4.3}{21}}
\newlabel{2431@cref}{{[subsection][3][2,4]2.4.3}{[1][21][]21}}
\@writefile{toc}{\contentsline {section}{\numberline {2.5}Niet-functionele klanteisen}{21}\protected@file@percent }
\newlabel{hs:h25}{{2.5}{21}}
\newlabel{hs:h25@cref}{{[section][5][2]2.5}{[1][21][]21}}
\@writefile{toc}{\contentsline {chapter}{\numberline {3.}Architectuur}{22}\protected@file@percent }
\@writefile{lof}{\addvspace {10pt}}
\@writefile{lot}{\addvspace {10pt}}
\@writefile{lof}{\contentsline {xchapter}{Architectuur}{22}\protected@file@percent }
\@writefile{lot}{\contentsline {xchapter}{Architectuur}{22}\protected@file@percent }
\@writefile{toc}{\contentsline {section}{\numberline {3.1}Ontwerpbesluiten en randvoorwaarden}{22}\protected@file@percent }
\@writefile{toc}{\contentsline {section}{\numberline {3.2}Deelsystemen en koppelingen}{23}\protected@file@percent }
\@writefile{lof}{\contentsline {figure}{\numberline {3.1}{\ignorespaces Data Flow Diagram 0\relax }}{23}\protected@file@percent }
\newlabel{DFD0}{{3.1}{23}}
\newlabel{DFD0@cref}{{[figure][1][3]3.1}{[1][23][]23}}
\@writefile{toc}{\contentsline {section}{\numberline {3.3}Beschrijving deelsystemen}{24}\protected@file@percent }
\@writefile{lof}{\contentsline {figure}{\numberline {3.2}{\ignorespaces Architectuur Interconnect Diagram\relax }}{24}\protected@file@percent }
\newlabel{AID}{{3.2}{24}}
\newlabel{AID@cref}{{[figure][2][3]3.2}{[1][24][]24}}
\@writefile{toc}{\contentsline {section}{\numberline {3.4}Beschrijving interconnects}{25}\protected@file@percent }
\@writefile{toc}{\contentsline {subsection}{\numberline {3.4.1}Deelsysteem 1: Control Data}{26}\protected@file@percent }
\@writefile{lof}{\contentsline {figure}{\numberline {3.3}{\ignorespaces Data Flow Diagram 1\relax }}{26}\protected@file@percent }
\newlabel{DFD1}{{3.3}{26}}
\newlabel{DFD1@cref}{{[figure][3][3]3.3}{[1][26][]26}}
\@writefile{toc}{\contentsline {subsubsection}{Deelsysteem 1.1: Execute functions}{27}\protected@file@percent }
\@writefile{toc}{\contentsline {subsubsection}{Deelsysteem 1.2. Control Saved Data}{27}\protected@file@percent }
\@writefile{toc}{\contentsline {subsubsection}{Deelsysteem 1.3. Communicate Motor Control Unit}{27}\protected@file@percent }
\@writefile{toc}{\contentsline {subsection}{\numberline {3.4.2}Deelsysteem 2: Transceive Data}{28}\protected@file@percent }
\@writefile{toc}{\contentsline {subsection}{\numberline {3.4.3}Deelsysteem 3: Flash Light}{28}\protected@file@percent }
\@writefile{toc}{\contentsline {section}{\numberline {3.5}Traceerbaarheid klanteisen}{28}\protected@file@percent }
\@writefile{lot}{\contentsline {table}{\numberline {3.1}{\ignorespaces Traceertabel Requirements \relax }}{28}\protected@file@percent }
\newlabel{tab:tr}{{3.1}{28}}
\newlabel{tab:tr@cref}{{[table][1][3]3.1}{[1][28][]28}}
\@writefile{toc}{\contentsline {chapter}{\numberline {4.}Detailontwerp}{29}\protected@file@percent }
\@writefile{lof}{\addvspace {10pt}}
\@writefile{lot}{\addvspace {10pt}}
\@writefile{lof}{\contentsline {xchapter}{Detailontwerp}{29}\protected@file@percent }
\@writefile{lot}{\contentsline {xchapter}{Detailontwerp}{29}\protected@file@percent }
\@writefile{toc}{\contentsline {section}{\numberline {4.1}Deelsystemen 1 \& 2}{29}\protected@file@percent }
\@writefile{toc}{\contentsline {paragraph}{Nordic}{29}\protected@file@percent }
\@writefile{toc}{\contentsline {paragraph}{ST}{29}\protected@file@percent }
\@writefile{toc}{\contentsline {paragraph}{NXP}{30}\protected@file@percent }
\@writefile{toc}{\contentsline {paragraph}{TI}{30}\protected@file@percent }
\@writefile{toc}{\contentsline {paragraph}{Silicon Labs}{30}\protected@file@percent }
\@writefile{toc}{\contentsline {paragraph}{Conclusie}{30}\protected@file@percent }
\@writefile{lot}{\contentsline {table}{\numberline {4.1}{\ignorespaces Keuze matrix Draadloze MCU (*Prijzen Mouser rond 03-03-2020)\relax }}{31}\protected@file@percent }
\newlabel{tabmcu}{{4.1}{31}}
\newlabel{tabmcu@cref}{{[table][1][4]4.1}{[1][31][]31}}
\@writefile{lof}{\contentsline {figure}{\numberline {4.1}{\ignorespaces BT840 Bluetooth module van Fanstel\relax }}{32}\protected@file@percent }
\newlabel{BT840}{{4.1}{32}}
\newlabel{BT840@cref}{{[figure][1][4]4.1}{[1][32][]32}}
\@writefile{lof}{\contentsline {figure}{\numberline {4.2}{\ignorespaces Een schermopname van een deel uit de datasheet van de BT840\relax }}{33}\protected@file@percent }
\newlabel{dsbt840}{{4.2}{33}}
\newlabel{dsbt840@cref}{{[figure][2][4]4.2}{[1][33][]33}}
\@writefile{lof}{\contentsline {figure}{\numberline {4.3}{\ignorespaces Ontwerp BT840 in Altium\relax }}{34}\protected@file@percent }
\newlabel{schbt840}{{4.3}{34}}
\newlabel{schbt840@cref}{{[figure][3][4]4.3}{[1][33][]34}}
\@writefile{toc}{\contentsline {section}{\numberline {4.2}Deelsysteem 1.2: Control saved data}{35}\protected@file@percent }
\@writefile{lof}{\contentsline {figure}{\numberline {4.4}{\ignorespaces Ontwerp MX25R6435FM2IH0 in Altium\relax }}{35}\protected@file@percent }
\newlabel{flash}{{4.4}{35}}
\newlabel{flash@cref}{{[figure][4][4]4.4}{[1][35][]35}}
\@writefile{lof}{\contentsline {figure}{\numberline {4.5}{\ignorespaces SPI transactie nRF52840\relax }}{36}\protected@file@percent }
\newlabel{spi}{{4.5}{36}}
\newlabel{spi@cref}{{[figure][5][4]4.5}{[1][35][]36}}
\@writefile{toc}{\contentsline {subsection}{\numberline {4.2.1}Software}{36}\protected@file@percent }
\@writefile{lof}{\contentsline {figure}{\numberline {4.6}{\ignorespaces Flowdiagram transmit\relax }}{37}\protected@file@percent }
\newlabel{spitx}{{4.6}{37}}
\newlabel{spitx@cref}{{[figure][6][4]4.6}{[1][37][]37}}
\@writefile{lof}{\contentsline {figure}{\numberline {4.7}{\ignorespaces Flowdiagram receive\relax }}{38}\protected@file@percent }
\newlabel{spirx}{{4.7}{38}}
\newlabel{spirx@cref}{{[figure][7][4]4.7}{[1][38][]38}}
\@writefile{lof}{\contentsline {figure}{\numberline {4.8}{\ignorespaces Indeling adressen flash geheugen\relax }}{38}\protected@file@percent }
\newlabel{spimem}{{4.8}{38}}
\newlabel{spimem@cref}{{[figure][8][4]4.8}{[1][38][]38}}
\@writefile{toc}{\contentsline {section}{\numberline {4.3}Deelsysteem 1.3: Communicate Motor Control Unit}{39}\protected@file@percent }
\newlabel{hs:43}{{4.3}{39}}
\newlabel{hs:43@cref}{{[section][3][4]4.3}{[1][39][]39}}
\@writefile{lof}{\contentsline {figure}{\numberline {4.9}{\ignorespaces Easydma nRF52840\relax }}{39}\protected@file@percent }
\newlabel{dma}{{4.9}{39}}
\newlabel{dma@cref}{{[figure][9][4]4.9}{[1][39][]39}}
\@writefile{toc}{\contentsline {subsection}{\numberline {4.3.1}TX}{40}\protected@file@percent }
\@writefile{lof}{\contentsline {figure}{\numberline {4.10}{\ignorespaces Zenden UART\relax }}{40}\protected@file@percent }
\newlabel{uarttx}{{4.10}{40}}
\newlabel{uarttx@cref}{{[figure][10][4]4.10}{[1][40][]40}}
\newlabel{frameformat}{{4.11a}{41}}
\newlabel{frameformat@cref}{{[subfigure][1][4,11]4.11a}{[1][41][]41}}
\newlabel{sub@frameformat}{{a}{41}}
\newlabel{sub@frameformat@cref}{{[subfigure][1][4,11]4.11a}{[1][41][]41}}
\newlabel{framecontent}{{4.11b}{41}}
\newlabel{framecontent@cref}{{[subfigure][2][4,11]4.11b}{[1][41][]41}}
\newlabel{sub@framecontent}{{b}{41}}
\newlabel{sub@framecontent@cref}{{[subfigure][2][4,11]4.11b}{[1][41][]41}}
\@writefile{lof}{\contentsline {figure}{\numberline {4.11}{\ignorespaces Inhoud commando\relax }}{41}\protected@file@percent }
\@writefile{lof}{\contentsline {figure}{\numberline {4.12}{\ignorespaces Communicatie UART\relax }}{41}\protected@file@percent }
\newlabel{uarttx}{{4.12}{41}}
\newlabel{uarttx@cref}{{[figure][12][4]4.12}{[1][41][]41}}
\@writefile{toc}{\contentsline {subsection}{\numberline {4.3.2}RX}{42}\protected@file@percent }
\@writefile{lof}{\contentsline {figure}{\numberline {4.13}{\ignorespaces Ontvangen UART\relax }}{42}\protected@file@percent }
\newlabel{uartrx}{{4.13}{42}}
\newlabel{uartrx@cref}{{[figure][13][4]4.13}{[1][42][]42}}
\@writefile{lof}{\contentsline {figure}{\numberline {4.14}{\ignorespaces Ontvangen UART Flowdiagram\relax }}{43}\protected@file@percent }
\newlabel{rxflow}{{4.14}{43}}
\newlabel{rxflow@cref}{{[figure][14][4]4.14}{[1][43][]43}}
\@writefile{toc}{\contentsline {section}{\numberline {4.4}Unit 2: Transceive data}{44}\protected@file@percent }
\@writefile{lof}{\contentsline {figure}{\numberline {4.15}{\ignorespaces Mesh models\relax }}{44}\protected@file@percent }
\newlabel{meshmodels}{{4.15}{44}}
\newlabel{meshmodels@cref}{{[figure][15][4]4.15}{[1][44][]44}}
\@writefile{lof}{\contentsline {figure}{\numberline {4.16}{\ignorespaces Rotary Switch\relax }}{45}\protected@file@percent }
\newlabel{rotaryswitch}{{4.16}{45}}
\newlabel{rotaryswitch@cref}{{[figure][16][4]4.16}{[1][45][]45}}
\@writefile{lof}{\contentsline {figure}{\numberline {4.17}{\ignorespaces Publish/subscribe\relax }}{46}\protected@file@percent }
\newlabel{publish/subscribe}{{4.17}{46}}
\newlabel{publish/subscribe@cref}{{[figure][17][4]4.17}{[1][46][]46}}
\@writefile{lof}{\contentsline {figure}{\numberline {4.18}{\ignorespaces Proxy server\relax }}{47}\protected@file@percent }
\newlabel{proxy}{{4.18}{47}}
\newlabel{proxy@cref}{{[figure][18][4]4.18}{[1][47][]47}}
\@writefile{lof}{\contentsline {figure}{\numberline {4.19}{\ignorespaces De \texttt  {generic\textunderscore level\textunderscore state\textunderscore set\textunderscore cb} functie\relax }}{48}\protected@file@percent }
\newlabel{switchcase}{{4.19}{48}}
\newlabel{switchcase@cref}{{[figure][19][4]4.19}{[1][48][]48}}
\@writefile{lof}{\contentsline {figure}{\numberline {4.20}{\ignorespaces Mesh app waarmee de nodes aangestuurd kunnen worden.\relax }}{49}\protected@file@percent }
\newlabel{levelcontrol}{{4.20}{49}}
\newlabel{levelcontrol@cref}{{[figure][20][4]4.20}{[1][49][]49}}
\@writefile{toc}{\contentsline {section}{\numberline {4.5}Unit 3: LED schakeling}{51}\protected@file@percent }
\@writefile{lof}{\contentsline {figure}{\numberline {4.21}{\ignorespaces Ontwerp LED Altium\relax }}{52}\protected@file@percent }
\newlabel{ontwerpLED}{{4.21}{52}}
\newlabel{ontwerpLED@cref}{{[figure][21][4]4.21}{[1][52][]52}}
\newlabel{eqfet}{{4.1}{52}}
\newlabel{eqfet@cref}{{[equation][1][4]4.1}{[1][52][]52}}
\@writefile{lof}{\contentsline {figure}{\numberline {4.22}{\ignorespaces Warmte weerstand\relax }}{53}\protected@file@percent }
\newlabel{pulse}{{4.22}{53}}
\newlabel{pulse@cref}{{[figure][22][4]4.22}{[1][53][]53}}
\@writefile{toc}{\contentsline {chapter}{\numberline {5.}Realisatie}{54}\protected@file@percent }
\@writefile{lof}{\addvspace {10pt}}
\@writefile{lot}{\addvspace {10pt}}
\@writefile{lof}{\contentsline {xchapter}{Realisatie}{54}\protected@file@percent }
\@writefile{lot}{\contentsline {xchapter}{Realisatie}{54}\protected@file@percent }
\@writefile{toc}{\contentsline {section}{\numberline {5.1}Realisatie Hardware}{54}\protected@file@percent }
\newlabel{PCB2DTOP}{{5.1a}{55}}
\newlabel{PCB2DTOP@cref}{{[subfigure][1][5,1]5.1a}{[1][55][]55}}
\newlabel{sub@PCB2DTOP}{{a}{55}}
\newlabel{sub@PCB2DTOP@cref}{{[subfigure][1][5,1]5.1a}{[1][55][]55}}
\newlabel{PCB2DBOT}{{5.1b}{55}}
\newlabel{PCB2DBOT@cref}{{[subfigure][2][5,1]5.1b}{[1][55][]55}}
\newlabel{sub@PCB2DBOT}{{b}{55}}
\newlabel{sub@PCB2DBOT@cref}{{[subfigure][2][5,1]5.1b}{[1][55][]55}}
\@writefile{lof}{\contentsline {figure}{\numberline {5.1}{\ignorespaces 2D tekeningen van de printplaten\relax }}{55}\protected@file@percent }
\newlabel{PCB3DTOP}{{5.2a}{56}}
\newlabel{PCB3DTOP@cref}{{[subfigure][1][5,2]5.2a}{[1][55][]56}}
\newlabel{sub@PCB3DTOP}{{a}{56}}
\newlabel{sub@PCB3DTOP@cref}{{[subfigure][1][5,2]5.2a}{[1][55][]56}}
\newlabel{PCB3DBOT}{{5.2b}{56}}
\newlabel{PCB3DBOT@cref}{{[subfigure][2][5,2]5.2b}{[1][55][]56}}
\newlabel{sub@PCB3DBOT}{{b}{56}}
\newlabel{sub@PCB3DBOT@cref}{{[subfigure][2][5,2]5.2b}{[1][55][]56}}
\@writefile{lof}{\contentsline {figure}{\numberline {5.2}{\ignorespaces 3D tekeningen van de printplaten\relax }}{56}\protected@file@percent }
\@writefile{toc}{\contentsline {section}{\numberline {5.2}Software}{57}\protected@file@percent }
\@writefile{toc}{\contentsline {section}{\numberline {5.3}Crystal}{57}\protected@file@percent }
\@writefile{toc}{\contentsline {section}{\numberline {5.4}Solderen}{58}\protected@file@percent }
\newlabel{PCBTOP}{{5.3a}{58}}
\newlabel{PCBTOP@cref}{{[subfigure][1][5,3]5.3a}{[1][58][]58}}
\newlabel{sub@PCBTOP}{{a}{58}}
\newlabel{sub@PCBTOP@cref}{{[subfigure][1][5,3]5.3a}{[1][58][]58}}
\newlabel{PCBBOT}{{5.3b}{58}}
\newlabel{PCBBOT@cref}{{[subfigure][2][5,3]5.3b}{[1][58][]58}}
\newlabel{sub@PCBBOT}{{b}{58}}
\newlabel{sub@PCBBOT@cref}{{[subfigure][2][5,3]5.3b}{[1][58][]58}}
\@writefile{lof}{\contentsline {figure}{\numberline {5.3}{\ignorespaces 2D tekeningen van de printplaten\relax }}{58}\protected@file@percent }
\@writefile{toc}{\contentsline {section}{\numberline {5.5}Componenten}{58}\protected@file@percent }
\@writefile{toc}{\contentsline {section}{\numberline {5.6}Program connector}{59}\protected@file@percent }
\newlabel{progont}{{5.4a}{59}}
\newlabel{progont@cref}{{[subfigure][1][5,4]5.4a}{[1][59][]59}}
\newlabel{sub@progont}{{a}{59}}
\newlabel{sub@progont@cref}{{[subfigure][1][5,4]5.4a}{[1][59][]59}}
\newlabel{progrea}{{5.4b}{59}}
\newlabel{progrea@cref}{{[subfigure][2][5,4]5.4b}{[1][59][]59}}
\newlabel{sub@progrea}{{b}{59}}
\newlabel{sub@progrea@cref}{{[subfigure][2][5,4]5.4b}{[1][59][]59}}
\@writefile{lof}{\contentsline {figure}{\numberline {5.4}{\ignorespaces Program connector\relax }}{59}\protected@file@percent }
\@writefile{toc}{\contentsline {chapter}{\numberline {6.}Conclusie}{60}\protected@file@percent }
\@writefile{lof}{\addvspace {10pt}}
\@writefile{lot}{\addvspace {10pt}}
\@writefile{lof}{\contentsline {xchapter}{Conclusie}{60}\protected@file@percent }
\@writefile{lot}{\contentsline {xchapter}{Conclusie}{60}\protected@file@percent }
\@writefile{toc}{\contentsline {chapter}{\numberline {7.}Aanbevelingen}{61}\protected@file@percent }
\@writefile{lof}{\addvspace {10pt}}
\@writefile{lot}{\addvspace {10pt}}
\@writefile{lof}{\contentsline {xchapter}{Aanbevelingen}{61}\protected@file@percent }
\@writefile{lot}{\contentsline {xchapter}{Aanbevelingen}{61}\protected@file@percent }
\@writefile{toc}{\contentsline {chapter}{Appendices}{62}\protected@file@percent }
\@writefile{toc}{\contentsline {chapter}{\numberline {A.}Onderzoek Bluetooth mesh}{63}\protected@file@percent }
\@writefile{lof}{\addvspace {10pt}}
\@writefile{lot}{\addvspace {10pt}}
\@writefile{lof}{\contentsline {xchapter}{Onderzoek Bluetooth mesh}{63}\protected@file@percent }
\@writefile{lot}{\contentsline {xchapter}{Onderzoek Bluetooth mesh}{63}\protected@file@percent }
\newlabel{ondmesh}{{A}{63}}
\newlabel{ondmesh@cref}{{[chapter][1][]A}{[1][63][]63}}
\citation{btversions}
\@writefile{toc}{\contentsline {section}{\numberline {A.1}Inleiding}{64}\protected@file@percent }
\@writefile{toc}{\contentsline {section}{\numberline {A.2}Bleutooth Low Energie}{64}\protected@file@percent }
\@writefile{lof}{\contentsline {figure}{\numberline {A.1}{\ignorespaces BLE stack\relax }}{64}\protected@file@percent }
\newlabel{blestack}{{A.1}{64}}
\newlabel{blestack@cref}{{[figure][1][1]A.1}{[1][64][]64}}
\citation{Gomez2012}
\@writefile{toc}{\contentsline {paragraph}{Physical layer}{65}\protected@file@percent }
\@writefile{lof}{\contentsline {figure}{\numberline {A.2}{\ignorespaces Fequentiespectrum\relax }}{65}\protected@file@percent }
\newlabel{freqhop}{{A.2}{65}}
\newlabel{freqhop@cref}{{[figure][2][1]A.2}{[1][65][]65}}
\@writefile{toc}{\contentsline {paragraph}{Link layer}{65}\protected@file@percent }
\@writefile{toc}{\contentsline {paragraph}{L2CAP}{65}\protected@file@percent }
\@writefile{toc}{\contentsline {paragraph}{GAP}{65}\protected@file@percent }
\citation{btgatt}
\@writefile{toc}{\contentsline {paragraph}{Attribute Protocol}{66}\protected@file@percent }
\@writefile{lof}{\contentsline {figure}{\numberline {A.3}{\ignorespaces Attribute structure\relax }}{66}\protected@file@percent }
\newlabel{attstruct}{{A.3}{66}}
\newlabel{attstruct@cref}{{[figure][3][1]A.3}{[1][66][]66}}
\@writefile{toc}{\contentsline {paragraph}{GATT}{67}\protected@file@percent }
\@writefile{toc}{\contentsline {section}{\numberline {A.3}Bluetooth mesh}{67}\protected@file@percent }
\@writefile{lof}{\contentsline {figure}{\numberline {A.4}{\ignorespaces Mesh layers\relax }}{67}\protected@file@percent }
\newlabel{meshlayer}{{A.4}{67}}
\newlabel{meshlayer@cref}{{[figure][4][1]A.4}{[1][67][]67}}
\@writefile{toc}{\contentsline {paragraph}{Bearer Layer}{68}\protected@file@percent }
\@writefile{toc}{\contentsline {paragraph}{Network Layer}{68}\protected@file@percent }
\@writefile{toc}{\contentsline {paragraph}{Lower Transport Layer}{68}\protected@file@percent }
\@writefile{toc}{\contentsline {paragraph}{Upper Transport Layer}{68}\protected@file@percent }
\@writefile{toc}{\contentsline {paragraph}{Acces Layer}{68}\protected@file@percent }
\@writefile{toc}{\contentsline {paragraph}{Foundation Model Layer}{68}\protected@file@percent }
\@writefile{toc}{\contentsline {paragraph}{Model layer}{68}\protected@file@percent }
\@writefile{lof}{\contentsline {figure}{\numberline {A.5}{\ignorespaces Mesh Netwerk\relax }}{69}\protected@file@percent }
\newlabel{meshnetwerk}{{A.5}{69}}
\newlabel{meshnetwerk@cref}{{[figure][5][1]A.5}{[1][69][]69}}
\@writefile{toc}{\contentsline {section}{\numberline {A.4}Test mesh}{70}\protected@file@percent }
\@writefile{lof}{\contentsline {figure}{\numberline {A.6}{\ignorespaces Mesh layers\relax }}{70}\protected@file@percent }
\newlabel{testmesh}{{A.6}{70}}
\newlabel{testmesh@cref}{{[figure][6][1]A.6}{[1][70][]70}}
\@writefile{toc}{\contentsline {section}{\numberline {A.5}Conclusie}{71}\protected@file@percent }
\citation{Specification2018}
\citation{Campbell1966}
\citation{ccled}
\@writefile{toc}{\contentsline {chapter}{\numberline {B.}Onderzoek LED}{72}\protected@file@percent }
\@writefile{lof}{\addvspace {10pt}}
\@writefile{lot}{\addvspace {10pt}}
\@writefile{lof}{\contentsline {xchapter}{Onderzoek LED}{72}\protected@file@percent }
\@writefile{lot}{\contentsline {xchapter}{Onderzoek LED}{72}\protected@file@percent }
\newlabel{ondled}{{B}{72}}
\newlabel{ondled@cref}{{[chapter][2][]B}{[1][72][]72}}
\@writefile{toc}{\contentsline {section}{\numberline {B.1}DC-DC conversie}{72}\protected@file@percent }
\@writefile{lof}{\contentsline {figure}{\numberline {B.1}{\ignorespaces LED Forward Current en Load\relax }}{73}\protected@file@percent }
\newlabel{ILED}{{B.1}{73}}
\newlabel{ILED@cref}{{[figure][1][2]B.1}{[1][72][]73}}
\@writefile{toc}{\contentsline {subsection}{\numberline {B.1.1}Charge pump}{73}\protected@file@percent }
\@writefile{lof}{\contentsline {figure}{\numberline {B.2}{\ignorespaces Charge pump\relax }}{73}\protected@file@percent }
\newlabel{VD}{{B.2}{73}}
\newlabel{VD@cref}{{[figure][2][2]B.2}{[1][72][]73}}
\newlabel{eqvc2}{{B.2}{74}}
\newlabel{eqvc2@cref}{{[equation][2][2]B.2}{[1][74][]74}}
\newlabel{eqvc2}{{B.3}{74}}
\newlabel{eqvc2@cref}{{[equation][3][2]B.3}{[1][74][]74}}
\@writefile{toc}{\contentsline {subsubsection}{Simulatie en opbouw Charge pump}{75}\protected@file@percent }
\@writefile{lof}{\contentsline {figure}{\numberline {B.3}{\ignorespaces Chargepump in LT spice opgebouwd\relax }}{75}\protected@file@percent }
\newlabel{CPLT}{{B.3}{75}}
\newlabel{CPLT@cref}{{[figure][3][2]B.3}{[1][75][]75}}
\@writefile{lof}{\contentsline {figure}{\numberline {B.4}{\ignorespaces Vout in simulatie\relax }}{76}\protected@file@percent }
\newlabel{VOCPLT}{{B.4}{76}}
\newlabel{VOCPLT@cref}{{[figure][4][2]B.4}{[1][76][]76}}
\@writefile{lof}{\contentsline {figure}{\numberline {B.5}{\ignorespaces Vout in scope\relax }}{77}\protected@file@percent }
\newlabel{VOSLT}{{B.5}{77}}
\newlabel{VOSLT@cref}{{[figure][5][2]B.5}{[1][77][]77}}
\@writefile{lof}{\contentsline {figure}{\numberline {B.6}{\ignorespaces Rimpel in stroom aan voeding\relax }}{78}\protected@file@percent }
\newlabel{3v3rimpel}{{B.6}{78}}
\newlabel{3v3rimpel@cref}{{[figure][6][2]B.6}{[1][78][]78}}
\@writefile{toc}{\contentsline {subsubsection}{BOM charge pump}{79}\protected@file@percent }
\newlabel{BOM chargePUMP}{{\caption@xref {BOM chargePUMP}{ on input line 1216}}{79}}
\newlabel{BOM chargePUMP@cref}{{[subsection][1][2,1]B.1.1}{[1][79][]79}}
\@writefile{toc}{\contentsline {subsection}{\numberline {B.1.2}Boost Converter}{80}\protected@file@percent }
\@writefile{lof}{\contentsline {figure}{\numberline {B.7}{\ignorespaces Schema boost converter\relax }}{80}\protected@file@percent }
\newlabel{LEDNPN}{{B.7}{80}}
\newlabel{LEDNPN@cref}{{[figure][7][2]B.7}{[1][80][]80}}
\newlabel{ipk}{{B.14}{81}}
\newlabel{ipk@cref}{{[equation][14][2]B.14}{[1][81][]81}}
\@writefile{lof}{\contentsline {figure}{\numberline {B.8}{\ignorespaces LTspice boost converter simulatie\relax }}{82}\protected@file@percent }
\newlabel{boostsim}{{B.8}{82}}
\newlabel{boostsim@cref}{{[figure][8][2]B.8}{[1][82][]82}}
\@writefile{lof}{\contentsline {figure}{\numberline {B.9}{\ignorespaces LTspice output stroom V1\relax }}{82}\protected@file@percent }
\newlabel{v1sim}{{B.9}{82}}
\newlabel{v1sim@cref}{{[figure][9][2]B.9}{[1][82][]82}}
\@writefile{lof}{\contentsline {figure}{\numberline {B.10}{\ignorespaces LTspice output stroom en spanning R1\relax }}{83}\protected@file@percent }
\newlabel{R1sim}{{B.10}{83}}
\newlabel{R1sim@cref}{{[figure][10][2]B.10}{[1][83][]83}}
\@writefile{toc}{\contentsline {subsection}{\numberline {B.1.3}Schakelen LED}{84}\protected@file@percent }
\@writefile{toc}{\contentsline {subsubsection}{Schakelen met transistor}{84}\protected@file@percent }
\@writefile{lof}{\contentsline {figure}{\numberline {B.11}{\ignorespaces LED aangestuurd d.m.v. NPN\relax }}{84}\protected@file@percent }
\newlabel{LEDNPN}{{B.11}{84}}
\newlabel{LEDNPN@cref}{{[figure][11][2]B.11}{[1][84][]84}}
\newlabel{eqr3}{{B.17}{85}}
\newlabel{eqr3@cref}{{[equation][17][2]B.17}{[1][85][]85}}
\@writefile{toc}{\contentsline {subsection}{\numberline {B.1.4}Schakelen met FET}{86}\protected@file@percent }
\@writefile{lof}{\contentsline {figure}{\numberline {B.12}{\ignorespaces LED aangestuurd d.m.v. NMOS\relax }}{86}\protected@file@percent }
\newlabel{NMOSLED}{{B.12}{86}}
\newlabel{NMOSLED@cref}{{[figure][12][2]B.12}{[1][86][]86}}
\@writefile{toc}{\contentsline {section}{\numberline {B.2}Conclusie}{87}\protected@file@percent }
\citation{cbs}
\@writefile{toc}{\contentsline {chapter}{\numberline {C.}Onderzoek draadloze technologieën}{88}\protected@file@percent }
\@writefile{lof}{\addvspace {10pt}}
\@writefile{lot}{\addvspace {10pt}}
\@writefile{lof}{\contentsline {xchapter}{Onderzoek draadloze technologieën}{88}\protected@file@percent }
\@writefile{lot}{\contentsline {xchapter}{Onderzoek draadloze technologieën}{88}\protected@file@percent }
\newlabel{onddr}{{C}{88}}
\newlabel{onddr@cref}{{[chapter][3][]C}{[1][88][]88}}
\@writefile{toc}{\contentsline {section}{\numberline {C.1}Inleiding}{88}\protected@file@percent }
\newlabel{stal1}{{C.1a}{89}}
\newlabel{stal1@cref}{{[subfigure][1][3,1]C.1a}{[1][89][]89}}
\newlabel{sub@stal1}{{a}{89}}
\newlabel{sub@stal1@cref}{{[subfigure][1][3,1]C.1a}{[1][89][]89}}
\newlabel{stal2}{{C.1b}{89}}
\newlabel{stal2@cref}{{[subfigure][2][3,1]C.1b}{[1][89][]89}}
\newlabel{sub@stal2}{{b}{89}}
\newlabel{sub@stal2@cref}{{[subfigure][2][3,1]C.1b}{[1][89][]89}}
\@writefile{lof}{\contentsline {figure}{\numberline {C.1}{\ignorespaces Mogelijke ophanging motor\relax }}{89}\protected@file@percent }
\citation{los}
\citation{topo}
\@writefile{toc}{\contentsline {section}{\numberline {C.2}Draadloze technologieën}{90}\protected@file@percent }
\@writefile{lof}{\contentsline {figure}{\numberline {C.2}{\ignorespaces Line Of Sight \relax }}{90}\protected@file@percent }
\newlabel{los}{{C.2}{90}}
\newlabel{los@cref}{{[figure][2][3]C.2}{[1][90][]90}}
\citation{Verma2013}
\citation{Zhao2014}
\citation{meshfaq}
\citation{meshfaq}
\citation{Yaakop2017}
\citation{zigbee}
\citation{Ali-rantala}
\citation{Chruszczyk2017}
\@writefile{toc}{\contentsline {subsection}{\numberline {C.2.1}Frequentie, bereik en maximale snelheid}{91}\protected@file@percent }
\citation{DelaCruz2016}
\citation{starmesh}
\citation{hu2013}
\@writefile{toc}{\contentsline {subsection}{\numberline {C.2.2}Topologie en gebruik smartphone}{92}\protected@file@percent }
\newlabel{star}{{C.3a}{92}}
\newlabel{star@cref}{{[subfigure][1][3,3]C.3a}{[1][92][]92}}
\newlabel{sub@star}{{a}{92}}
\newlabel{sub@star@cref}{{[subfigure][1][3,3]C.3a}{[1][92][]92}}
\newlabel{mesh}{{C.3b}{92}}
\newlabel{mesh@cref}{{[subfigure][2][3,3]C.3b}{[1][92][]92}}
\newlabel{sub@mesh}{{b}{92}}
\newlabel{sub@mesh@cref}{{[subfigure][2][3,3]C.3b}{[1][92][]92}}
\@writefile{lof}{\contentsline {figure}{\numberline {C.3}{\ignorespaces Twee verschillende netwerk configuraties\relax }}{92}\protected@file@percent }
\citation{blfees}
\citation{lora}
\citation{zigbee}
\@writefile{toc}{\contentsline {subsection}{\numberline {C.2.3}Kosten}{93}\protected@file@percent }
\@writefile{toc}{\contentsline {section}{\numberline {C.3}Conclusie}{94}\protected@file@percent }
\@writefile{lot}{\contentsline {table}{\numberline {C.1}{\ignorespaces Overzicht draadloze verbindingen\relax }}{94}\protected@file@percent }
\newlabel{tbWrlss}{{C.1}{94}}
\newlabel{tbWrlss@cref}{{[table][1][3]C.1}{[1][94][]94}}
\@writefile{toc}{\contentsline {chapter}{\numberline {D.}Plan Van Aanpak}{95}\protected@file@percent }
\@writefile{lof}{\addvspace {10pt}}
\@writefile{lot}{\addvspace {10pt}}
\@writefile{lof}{\contentsline {xchapter}{Plan Van Aanpak}{95}\protected@file@percent }
\@writefile{lot}{\contentsline {xchapter}{Plan Van Aanpak}{95}\protected@file@percent }
\newlabel{hs:vb}{{D}{95}}
\newlabel{hs:vb@cref}{{[chapter][4][]D}{[1][95][]95}}
\@writefile{lot}{\contentsline {table}{\numberline {D.1}{\ignorespaces Versiehistorie\relax }}{95}\protected@file@percent }
\newlabel{tab:vb}{{D.1}{95}}
\newlabel{tab:vb@cref}{{[table][1][4]D.1}{[1][95][]95}}
\@writefile{toc}{\contentsline {section}{\numberline {D.1}Achtergronden}{96}\protected@file@percent }
\newlabel{hs:h1}{{D.1}{96}}
\newlabel{hs:h1@cref}{{[section][1][4]D.1}{[1][96][]96}}
\newlabel{hs:h11}{{D.1}{96}}
\newlabel{hs:h11@cref}{{[section][1][4]D.1}{[1][96][]96}}
\newlabel{hs:h12}{{D.1}{96}}
\newlabel{hs:h12@cref}{{[section][1][4]D.1}{[1][96][]96}}
\newlabel{hs:h13}{{D.1}{96}}
\newlabel{hs:h13@cref}{{[section][1][4]D.1}{[1][96][]96}}
\@writefile{toc}{\contentsline {section}{\numberline {D.2}Projectresultaat}{96}\protected@file@percent }
\newlabel{hs:h2}{{D.2}{96}}
\newlabel{hs:h2@cref}{{[section][2][4]D.2}{[1][96][]96}}
\newlabel{hs:h21}{{D.2}{96}}
\newlabel{hs:h21@cref}{{[section][2][4]D.2}{[1][96][]96}}
\newlabel{hs:h22}{{D.2}{97}}
\newlabel{hs:h22@cref}{{[section][2][4]D.2}{[1][96][]97}}
\newlabel{hs:h3}{{D.2}{98}}
\newlabel{hs:h3@cref}{{[section][2][4]D.2}{[1][98][]98}}
\newlabel{hs:h31}{{D.2}{98}}
\newlabel{hs:h31@cref}{{[section][2][4]D.2}{[1][98][]98}}
\newlabel{hs:h32}{{D.2}{98}}
\newlabel{hs:h32@cref}{{[section][2][4]D.2}{[1][98][]98}}
\@writefile{toc}{\contentsline {section}{\numberline {D.4}Projectgrenzen en randvoorwaarden}{100}\protected@file@percent }
\newlabel{hs:h4}{{D.4}{100}}
\newlabel{hs:h4@cref}{{[section][4][4]D.4}{[1][100][]100}}
\newlabel{hs:h41}{{D.4}{100}}
\newlabel{hs:h41@cref}{{[section][4][4]D.4}{[1][100][]100}}
\newlabel{hs:h42}{{D.4}{100}}
\newlabel{hs:h42@cref}{{[section][4][4]D.4}{[1][100][]100}}
\@writefile{toc}{\contentsline {section}{\numberline {D.5}Tussenresultaten}{100}\protected@file@percent }
\newlabel{hs:h5}{{D.5}{100}}
\newlabel{hs:h5@cref}{{[section][5][4]D.5}{[1][100][]100}}
\newlabel{hs:h51}{{D.5}{100}}
\newlabel{hs:h51@cref}{{[section][5][4]D.5}{[1][100][]100}}
\newlabel{hs:h52}{{D.5}{100}}
\newlabel{hs:h52@cref}{{[section][5][4]D.5}{[1][100][]100}}
\@writefile{toc}{\contentsline {section}{\numberline {D.6}Kwaliteit}{101}\protected@file@percent }
\newlabel{hs:h6}{{D.6}{101}}
\newlabel{hs:h6@cref}{{[section][6][4]D.6}{[1][101][]101}}
\newlabel{hs:h61}{{D.6}{101}}
\newlabel{hs:h61@cref}{{[section][6][4]D.6}{[1][101][]101}}
\newlabel{hs:h62}{{D.6}{101}}
\newlabel{hs:h62@cref}{{[section][6][4]D.6}{[1][101][]101}}
\newlabel{hs:h63}{{D.6}{101}}
\newlabel{hs:h63@cref}{{[section][6][4]D.6}{[1][101][]101}}
\newlabel{hs:h64}{{D.6}{101}}
\newlabel{hs:h64@cref}{{[section][6][4]D.6}{[1][101][]101}}
\@writefile{toc}{\contentsline {section}{\numberline {D.7}Projectorganisatie}{102}\protected@file@percent }
\newlabel{hs:h7}{{D.7}{102}}
\newlabel{hs:h7@cref}{{[section][7][4]D.7}{[1][102][]102}}
\newlabel{hs:h71}{{D.7}{102}}
\newlabel{hs:h71@cref}{{[section][7][4]D.7}{[1][102][]102}}
\@writefile{lot}{\contentsline {table}{\numberline {D.2}{\ignorespaces Persoonlijke gegevens\relax }}{102}\protected@file@percent }
\newlabel{tab:pg}{{D.2}{102}}
\newlabel{tab:pg@cref}{{[table][2][4]D.2}{[1][102][]102}}
\newlabel{hs:h72}{{D.7}{102}}
\newlabel{hs:h72@cref}{{[section][7][4]D.7}{[1][102][]102}}
\newlabel{hs:h73}{{D.7}{102}}
\newlabel{hs:h73@cref}{{[section][7][4]D.7}{[1][102][]102}}
\newlabel{hs:h74}{{D.7}{102}}
\newlabel{hs:h74@cref}{{[section][7][4]D.7}{[1][102][]102}}
\@writefile{toc}{\contentsline {section}{\numberline {D.8}Planning}{103}\protected@file@percent }
\newlabel{hs:h8}{{D.8}{103}}
\newlabel{hs:h8@cref}{{[section][8][4]D.8}{[1][103][]103}}
\@writefile{lof}{\contentsline {figure}{\numberline {D.1}{\ignorespaces Planning deel 1\relax }}{104}\protected@file@percent }
\newlabel{planning}{{D.1}{104}}
\newlabel{planning@cref}{{[figure][1][4]D.1}{[1][103][]104}}
\@writefile{lof}{\contentsline {figure}{\numberline {D.2}{\ignorespaces Planning deel 2\relax }}{105}\protected@file@percent }
\@writefile{toc}{\contentsline {section}{\numberline {D.9}Kosten en baten}{106}\protected@file@percent }
\newlabel{hs:h9}{{D.9}{106}}
\newlabel{hs:h9@cref}{{[section][9][4]D.9}{[1][106][]106}}
\newlabel{hs:h91}{{D.9}{106}}
\newlabel{hs:h91@cref}{{[section][9][4]D.9}{[1][106][]106}}
\newlabel{hs:h92}{{D.9}{106}}
\newlabel{hs:h92@cref}{{[section][9][4]D.9}{[1][106][]106}}
\newlabel{hs:h93}{{D.9}{106}}
\newlabel{hs:h93@cref}{{[section][9][4]D.9}{[1][106][]106}}
\@writefile{toc}{\contentsline {section}{\numberline {D.10}Risico's}{106}\protected@file@percent }
\newlabel{hs:h10}{{D.10}{106}}
\newlabel{hs:h10@cref}{{[section][10][4]D.10}{[1][106][]106}}
\newlabel{hs:h101}{{D.10}{106}}
\newlabel{hs:h101@cref}{{[section][10][4]D.10}{[1][106][]106}}
\newlabel{hs:h102}{{D.10}{107}}
\newlabel{hs:h102@cref}{{[section][10][4]D.10}{[1][106][]107}}
\newlabel{hs:h103}{{D.10}{107}}
\newlabel{hs:h103@cref}{{[section][10][4]D.10}{[1][107][]107}}
\@writefile{lot}{\contentsline {table}{\numberline {D.3}{\ignorespaces Externe Risico's\relax }}{108}\protected@file@percent }
\newlabel{tab:ra}{{D.3}{108}}
\newlabel{tab:ra@cref}{{[table][3][4]D.3}{[1][107][]108}}
\@writefile{toc}{\contentsline {chapter}{\numberline {E.}Acceptatie test}{109}\protected@file@percent }
\@writefile{lof}{\addvspace {10pt}}
\@writefile{lot}{\addvspace {10pt}}
\@writefile{lof}{\contentsline {xchapter}{Acceptatie test}{109}\protected@file@percent }
\@writefile{lot}{\contentsline {xchapter}{Acceptatie test}{109}\protected@file@percent }
\newlabel{acctest}{{E}{109}}
\newlabel{acctest@cref}{{[chapter][5][]E}{[1][109][]109}}
\@writefile{toc}{\contentsline {section}{\numberline {E.1}Voorbereidingen acceptatietest}{109}\protected@file@percent }
\@writefile{toc}{\contentsline {subsection}{\numberline {E.1.1}Visuele testomgeving}{109}\protected@file@percent }
\@writefile{toc}{\contentsline {subsubsection}{Hardware}{109}\protected@file@percent }
\@writefile{toc}{\contentsline {subsubsection}{Software}{110}\protected@file@percent }
\@writefile{toc}{\contentsline {subsection}{\numberline {E.1.2}Testomgeving seriële verbinding}{110}\protected@file@percent }
\newlabel{to1}{{E.1.2}{110}}
\newlabel{to1@cref}{{[subsection][2][5,1]E.1.2}{[1][110][]110}}
\@writefile{toc}{\contentsline {subsubsection}{Hardware}{110}\protected@file@percent }
\@writefile{toc}{\contentsline {subsubsection}{Software}{110}\protected@file@percent }
\@writefile{toc}{\contentsline {subsubsection}{Overig}{110}\protected@file@percent }
\@writefile{toc}{\contentsline {subsection}{\numberline {E.1.3}Test mesh}{110}\protected@file@percent }
\newlabel{to2}{{E.1.3}{110}}
\newlabel{to2@cref}{{[subsection][3][5,1]E.1.3}{[1][110][]110}}
\@writefile{toc}{\contentsline {subsubsection}{Hardware}{110}\protected@file@percent }
\@writefile{toc}{\contentsline {subsubsection}{Software}{110}\protected@file@percent }
\@writefile{toc}{\contentsline {subsection}{\numberline {E.1.4}Test data opslag}{111}\protected@file@percent }
\newlabel{to3}{{E.1.4}{111}}
\newlabel{to3@cref}{{[subsection][4][5,1]E.1.4}{[1][111][]111}}
\@writefile{toc}{\contentsline {subsubsection}{Hardware}{111}\protected@file@percent }
\@writefile{toc}{\contentsline {subsubsection}{Software}{111}\protected@file@percent }
\@writefile{toc}{\contentsline {subsection}{\numberline {E.1.5}Test software update}{111}\protected@file@percent }
\newlabel{to4}{{E.1.5}{111}}
\newlabel{to4@cref}{{[subsection][5][5,1]E.1.5}{[1][111][]111}}
\@writefile{toc}{\contentsline {subsubsection}{Hardware}{111}\protected@file@percent }
\@writefile{toc}{\contentsline {section}{\numberline {E.2}Acceptatietestbeschrijvingen}{112}\protected@file@percent }
\@writefile{toc}{\contentsline {subsection}{\numberline {E.2.1}Test Bluetooth naar serieel}{112}\protected@file@percent }
\@writefile{toc}{\contentsline {subsubsection}{Testcase 1.1: Commando's io-net}{112}\protected@file@percent }
\@writefile{lot}{\contentsline {table}{\numberline {E.1}{\ignorespaces Testcase 1.1\relax }}{112}\protected@file@percent }
\newlabel{tc11}{{E.1}{112}}
\newlabel{tc11@cref}{{[table][1][5]E.1}{[1][112][]112}}
\@writefile{toc}{\contentsline {subsubsection}{Testcase 1.2: Draaien motor}{113}\protected@file@percent }
\@writefile{lot}{\contentsline {table}{\numberline {E.2}{\ignorespaces Testcase 1.2\relax }}{113}\protected@file@percent }
\newlabel{tcx}{{E.2}{113}}
\newlabel{tcx@cref}{{[table][2][5]E.2}{[1][113][]113}}
\@writefile{toc}{\contentsline {subsection}{\numberline {E.2.2}Test Visuele feedback}{114}\protected@file@percent }
\@writefile{toc}{\contentsline {subsubsection}{Testcase 2.1: Test LED}{114}\protected@file@percent }
\@writefile{lot}{\contentsline {table}{\numberline {E.3}{\ignorespaces Testcase 2.1\relax }}{114}\protected@file@percent }
\newlabel{tcx}{{E.3}{114}}
\newlabel{tcx@cref}{{[table][3][5]E.3}{[1][114][]114}}
\@writefile{toc}{\contentsline {subsubsection}{Testcase 2.2: Test maximale afstand}{114}\protected@file@percent }
\@writefile{lot}{\contentsline {table}{\numberline {E.4}{\ignorespaces Testcase 2.2\relax }}{115}\protected@file@percent }
\newlabel{tcx}{{E.4}{115}}
\newlabel{tcx@cref}{{[table][4][5]E.4}{[1][114][]115}}
\@writefile{toc}{\contentsline {subsection}{\numberline {E.2.3}Test opgeslagen data}{115}\protected@file@percent }
\@writefile{toc}{\contentsline {subsubsection}{Testcase 3.1: Test Opslag data}{115}\protected@file@percent }
\@writefile{lot}{\contentsline {table}{\numberline {E.5}{\ignorespaces Testcase 3.1\relax }}{115}\protected@file@percent }
\newlabel{tcx}{{E.5}{115}}
\newlabel{tcx@cref}{{[table][5][5]E.5}{[1][115][]115}}
\@writefile{toc}{\contentsline {subsection}{\numberline {E.2.4}Test software update}{116}\protected@file@percent }
\@writefile{lot}{\contentsline {table}{\numberline {E.6}{\ignorespaces Testcase 4.1\relax }}{116}\protected@file@percent }
\newlabel{tcx}{{E.6}{116}}
\newlabel{tcx@cref}{{[table][6][5]E.6}{[1][116][]116}}
\@writefile{toc}{\contentsline {subsection}{\numberline {E.2.5}Test RoHS}{116}\protected@file@percent }
\@writefile{lot}{\contentsline {table}{\numberline {E.7}{\ignorespaces Testcase 5.1\relax }}{116}\protected@file@percent }
\newlabel{tcx}{{E.7}{116}}
\newlabel{tcx@cref}{{[table][7][5]E.7}{[1][116][]116}}
\@writefile{toc}{\contentsline {section}{\numberline {E.3}Traceerbaarheid klanteisen}{117}\protected@file@percent }
\@writefile{lot}{\contentsline {table}{\numberline {E.8}{\ignorespaces Traceertabel Requirements \relax }}{117}\protected@file@percent }
\newlabel{tab:ta}{{E.8}{117}}
\newlabel{tab:ta@cref}{{[table][8][5]E.8}{[1][117][]117}}
\@writefile{toc}{\contentsline {chapter}{\numberline {F.}Integratietest}{118}\protected@file@percent }
\@writefile{lof}{\addvspace {10pt}}
\@writefile{lot}{\addvspace {10pt}}
\@writefile{lof}{\contentsline {xchapter}{Integratietest}{118}\protected@file@percent }
\@writefile{lot}{\contentsline {xchapter}{Integratietest}{118}\protected@file@percent }
\newlabel{inttest}{{F}{118}}
\newlabel{inttest@cref}{{[chapter][6][]F}{[1][118][]118}}
\@writefile{toc}{\contentsline {section}{\numberline {F.1}Testen}{118}\protected@file@percent }
\@writefile{toc}{\contentsline {subsection}{\numberline {F.1.1}Test IC1: zenden UART}{119}\protected@file@percent }
\@writefile{lot}{\contentsline {table}{\numberline {F.1}{\ignorespaces Test zenden UART\relax }}{119}\protected@file@percent }
\newlabel{itc1}{{F.1}{119}}
\newlabel{itc1@cref}{{[table][1][6]F.1}{[1][119][]119}}
\@writefile{toc}{\contentsline {subsection}{\numberline {F.1.2}Test IC1: ontvangen UART}{120}\protected@file@percent }
\@writefile{lot}{\contentsline {table}{\numberline {F.2}{\ignorespaces Test ontvangen UART\relax }}{120}\protected@file@percent }
\newlabel{itc1}{{F.2}{120}}
\newlabel{itc1@cref}{{[table][2][6]F.2}{[1][120][]120}}
\@writefile{toc}{\contentsline {subsection}{\numberline {F.1.3}Test IC2: Hardware software update}{121}\protected@file@percent }
\@writefile{lot}{\contentsline {table}{\numberline {F.3}{\ignorespaces Test verbinding program connector\relax }}{121}\protected@file@percent }
\newlabel{itc1}{{F.3}{121}}
\newlabel{itc1@cref}{{[table][3][6]F.3}{[1][121][]121}}
\@writefile{toc}{\contentsline {subsection}{\numberline {F.1.4}Test IC3: rimpel voeding}{122}\protected@file@percent }
\@writefile{lot}{\contentsline {table}{\numberline {F.4}{\ignorespaces Test rimpel voeding\relax }}{122}\protected@file@percent }
\newlabel{itc1}{{F.4}{122}}
\newlabel{itc1@cref}{{[table][4][6]F.4}{[1][122][]122}}
\@writefile{toc}{\contentsline {subsection}{\numberline {F.1.5}Test IC4: Extern Flash}{123}\protected@file@percent }
\@writefile{lot}{\contentsline {table}{\numberline {F.5}{\ignorespaces Test Extern Flash\relax }}{123}\protected@file@percent }
\newlabel{itc1}{{F.5}{123}}
\newlabel{itc1@cref}{{[table][5][6]F.5}{[1][123][]123}}
\@writefile{toc}{\contentsline {subsection}{\numberline {F.1.6}Test IC5: mesh LED}{124}\protected@file@percent }
\@writefile{lot}{\contentsline {table}{\numberline {F.6}{\ignorespaces Test mesh LED\relax }}{124}\protected@file@percent }
\newlabel{itc1}{{F.6}{124}}
\newlabel{itc1@cref}{{[table][6][6]F.6}{[1][124][]124}}
\@writefile{toc}{\contentsline {subsection}{\numberline {F.1.7}Test IC5: mesh UART}{125}\protected@file@percent }
\@writefile{lot}{\contentsline {table}{\numberline {F.7}{\ignorespaces Test mesh UART\relax }}{125}\protected@file@percent }
\newlabel{itc1}{{F.7}{125}}
\newlabel{itc1@cref}{{[table][7][6]F.7}{[1][125][]125}}
\@writefile{toc}{\contentsline {subsection}{\numberline {F.1.8}Test IC6: LED}{126}\protected@file@percent }
\@writefile{lot}{\contentsline {table}{\numberline {F.8}{\ignorespaces Test mesh LED\relax }}{126}\protected@file@percent }
\newlabel{itc1}{{F.8}{126}}
\newlabel{itc1@cref}{{[table][8][6]F.8}{[1][126][]126}}
\@writefile{toc}{\contentsline {chapter}{\numberline {G.}Unit test}{127}\protected@file@percent }
\@writefile{lof}{\addvspace {10pt}}
\@writefile{lot}{\addvspace {10pt}}
\@writefile{lof}{\contentsline {xchapter}{Unit test}{127}\protected@file@percent }
\@writefile{lot}{\contentsline {xchapter}{Unit test}{127}\protected@file@percent }
\newlabel{unittest}{{G}{127}}
\newlabel{unittest@cref}{{[chapter][7][]G}{[1][127][]127}}
\@writefile{toc}{\contentsline {section}{\numberline {G.1}Test LED}{127}\protected@file@percent }
\@writefile{lot}{\contentsline {table}{\numberline {G.1}{\ignorespaces Test output spanning Charge-pump\relax }}{127}\protected@file@percent }
\newlabel{utci}{{G.1}{127}}
\newlabel{utci@cref}{{[table][1][7]G.1}{[1][127][]127}}
\@writefile{toc}{\contentsline {section}{\numberline {G.2}Test stroom LED}{128}\protected@file@percent }
\@writefile{lot}{\contentsline {table}{\numberline {G.2}{\ignorespaces Test stroom LED\relax }}{128}\protected@file@percent }
\newlabel{utc2}{{G.2}{128}}
\newlabel{utc2@cref}{{[table][2][7]G.2}{[1][128][]128}}
\@writefile{toc}{\contentsline {section}{\numberline {G.3}Test UART zenden}{128}\protected@file@percent }
\@writefile{lot}{\contentsline {table}{\numberline {G.3}{\ignorespaces Test mesh LED\relax }}{128}\protected@file@percent }
\newlabel{itc1}{{G.3}{128}}
\newlabel{itc1@cref}{{[table][3][7]G.3}{[1][128][]128}}
\@writefile{toc}{\contentsline {chapter}{\numberline {H.}Testresultaten}{129}\protected@file@percent }
\@writefile{lof}{\addvspace {10pt}}
\@writefile{lot}{\addvspace {10pt}}
\@writefile{lof}{\contentsline {xchapter}{Testresultaten}{129}\protected@file@percent }
\@writefile{lot}{\contentsline {xchapter}{Testresultaten}{129}\protected@file@percent }
\@writefile{toc}{\contentsline {section}{\numberline {H.1}Unittest}{129}\protected@file@percent }
\newlabel{teststrled}{{H.1a}{129}}
\newlabel{teststrled@cref}{{[subfigure][1][8,1]H.1a}{[1][129][]129}}
\newlabel{sub@teststrled}{{a}{129}}
\newlabel{sub@teststrled@cref}{{[subfigure][1][8,1]H.1a}{[1][129][]129}}
\newlabel{bwstrled}{{H.1b}{129}}
\newlabel{bwstrled@cref}{{[subfigure][2][8,1]H.1b}{[1][129][]129}}
\newlabel{sub@bwstrled}{{b}{129}}
\newlabel{sub@bwstrled@cref}{{[subfigure][2][8,1]H.1b}{[1][129][]129}}
\@writefile{lof}{\contentsline {figure}{\numberline {H.1}{\ignorespaces Test stroom LED\relax }}{129}\protected@file@percent }
\newlabel{teststrled}{{H.2a}{130}}
\newlabel{teststrled@cref}{{[subfigure][1][8,2]H.2a}{[1][130][]130}}
\newlabel{sub@teststrled}{{a}{130}}
\newlabel{sub@teststrled@cref}{{[subfigure][1][8,2]H.2a}{[1][130][]130}}
\newlabel{bwstrled}{{H.2b}{130}}
\newlabel{bwstrled@cref}{{[subfigure][2][8,2]H.2b}{[1][130][]130}}
\newlabel{sub@bwstrled}{{b}{130}}
\newlabel{sub@bwstrled@cref}{{[subfigure][2][8,2]H.2b}{[1][130][]130}}
\@writefile{lof}{\contentsline {figure}{\numberline {H.2}{\ignorespaces Test spanning charge pump\relax }}{130}\protected@file@percent }
\newlabel{terauartunit}{{H.3a}{131}}
\newlabel{terauartunit@cref}{{[subfigure][1][8,3]H.3a}{[1][131][]131}}
\newlabel{sub@terauartunit}{{a}{131}}
\newlabel{sub@terauartunit@cref}{{[subfigure][1][8,3]H.3a}{[1][131][]131}}
\newlabel{unituart}{{H.3b}{131}}
\newlabel{unituart@cref}{{[subfigure][2][8,3]H.3b}{[1][131][]131}}
\newlabel{sub@unituart}{{b}{131}}
\newlabel{sub@unituart@cref}{{[subfigure][2][8,3]H.3b}{[1][131][]131}}
\newlabel{instuart}{{H.3c}{131}}
\newlabel{instuart@cref}{{[subfigure][3][8,3]H.3c}{[1][131][]131}}
\newlabel{sub@instuart}{{c}{131}}
\newlabel{sub@instuart@cref}{{[subfigure][3][8,3]H.3c}{[1][131][]131}}
\@writefile{lof}{\contentsline {figure}{\numberline {H.3}{\ignorespaces Test UART\relax }}{131}\protected@file@percent }
\newlabel{teststrled}{{H.4a}{132}}
\newlabel{teststrled@cref}{{[subfigure][1][8,4]H.4a}{[1][132][]132}}
\newlabel{sub@teststrled}{{a}{132}}
\newlabel{sub@teststrled@cref}{{[subfigure][1][8,4]H.4a}{[1][132][]132}}
\newlabel{bwstrled}{{H.4b}{132}}
\newlabel{bwstrled@cref}{{[subfigure][2][8,4]H.4b}{[1][132][]132}}
\newlabel{sub@bwstrled}{{b}{132}}
\newlabel{sub@bwstrled@cref}{{[subfigure][2][8,4]H.4b}{[1][132][]132}}
\@writefile{lof}{\contentsline {figure}{\numberline {H.4}{\ignorespaces Test ontvangen UART\relax }}{132}\protected@file@percent }
\@writefile{toc}{\contentsline {section}{\numberline {H.2}Integratietest}{133}\protected@file@percent }
\@writefile{toc}{\contentsline {subsection}{\numberline {H.2.1}Test rimpel}{133}\protected@file@percent }
\newlabel{testrimpelscope}{{H.5a}{133}}
\newlabel{testrimpelscope@cref}{{[subfigure][1][8,5]H.5a}{[1][133][]133}}
\newlabel{sub@testrimpelscope}{{a}{133}}
\newlabel{sub@testrimpelscope@cref}{{[subfigure][1][8,5]H.5a}{[1][133][]133}}
\newlabel{testrimpelfoto}{{H.5b}{133}}
\newlabel{testrimpelfoto@cref}{{[subfigure][2][8,5]H.5b}{[1][133][]133}}
\newlabel{sub@testrimpelfoto}{{b}{133}}
\newlabel{sub@testrimpelfoto@cref}{{[subfigure][2][8,5]H.5b}{[1][133][]133}}
\@writefile{lof}{\contentsline {figure}{\numberline {H.5}{\ignorespaces Test rimpelspanning voeding\relax }}{133}\protected@file@percent }
\newlabel{testrimpel}{{H.5}{133}}
\newlabel{testrimpel@cref}{{[figure][5][8]H.5}{[1][133][]133}}
\@writefile{toc}{\contentsline {subsection}{\numberline {H.2.2}Test mesh LED}{134}\protected@file@percent }
\newlabel{testrimpelfoto}{{H.6b}{134}}
\newlabel{testrimpelfoto@cref}{{[subfigure][2][8,6]H.6b}{[1][134][]134}}
\newlabel{sub@testrimpelfoto}{{b}{134}}
\newlabel{sub@testrimpelfoto@cref}{{[subfigure][2][8,6]H.6b}{[1][134][]134}}
\@writefile{lof}{\contentsline {figure}{\numberline {H.6}{\ignorespaces Test LED\relax }}{134}\protected@file@percent }
\newlabel{testrimpel}{{H.6}{134}}
\newlabel{testrimpel@cref}{{[figure][6][8]H.6}{[1][134][]134}}
\@writefile{toc}{\contentsline {subsection}{\numberline {H.2.3}Test mesh UART}{135}\protected@file@percent }
\newlabel{testrimpelfoto}{{H.7b}{135}}
\newlabel{testrimpelfoto@cref}{{[subfigure][2][8,7]H.7b}{[1][135][]135}}
\newlabel{sub@testrimpelfoto}{{b}{135}}
\newlabel{sub@testrimpelfoto@cref}{{[subfigure][2][8,7]H.7b}{[1][135][]135}}
\newlabel{testrimpelfoto}{{H.7c}{135}}
\newlabel{testrimpelfoto@cref}{{[subfigure][3][8,7]H.7c}{[1][135][]135}}
\newlabel{sub@testrimpelfoto}{{c}{135}}
\newlabel{sub@testrimpelfoto@cref}{{[subfigure][3][8,7]H.7c}{[1][135][]135}}
\@writefile{lof}{\contentsline {figure}{\numberline {H.7}{\ignorespaces Test UART\relax }}{135}\protected@file@percent }
\newlabel{testrimpel}{{H.7}{135}}
\newlabel{testrimpel@cref}{{[figure][7][8]H.7}{[1][135][]135}}
\@writefile{toc}{\contentsline {section}{\numberline {H.3}Acceptatietest}{136}\protected@file@percent }
\@writefile{toc}{\contentsline {subsection}{\numberline {H.3.1}Testcase 1.1 en testcase 1.2}{136}\protected@file@percent }
\@writefile{lof}{\contentsline {figure}{\numberline {H.8}{\ignorespaces Test LED\relax }}{136}\protected@file@percent }
\newlabel{testrimpel}{{H.8}{136}}
\newlabel{testrimpel@cref}{{[figure][8][8]H.8}{[1][136][]136}}
\@writefile{toc}{\contentsline {subsection}{\numberline {H.3.2}Testcase 2.1}{137}\protected@file@percent }
\newlabel{testrimpelfoto}{{H.9b}{137}}
\newlabel{testrimpelfoto@cref}{{[subfigure][2][8,9]H.9b}{[1][137][]137}}
\newlabel{sub@testrimpelfoto}{{b}{137}}
\newlabel{sub@testrimpelfoto@cref}{{[subfigure][2][8,9]H.9b}{[1][137][]137}}
\@writefile{lof}{\contentsline {figure}{\numberline {H.9}{\ignorespaces Test LED\relax }}{137}\protected@file@percent }
\newlabel{testrimpel}{{H.9}{137}}
\newlabel{testrimpel@cref}{{[figure][9][8]H.9}{[1][137][]137}}
\@writefile{toc}{\contentsline {section}{\numberline {H.4}Testcase 2.2}{138}\protected@file@percent }
\newlabel{testlongrange2}{{H.10a}{138}}
\newlabel{testlongrange2@cref}{{[subfigure][1][8,10]H.10a}{[1][138][]138}}
\newlabel{sub@testlongrange2}{{a}{138}}
\newlabel{sub@testlongrange2@cref}{{[subfigure][1][8,10]H.10a}{[1][138][]138}}
\@writefile{lof}{\contentsline {figure}{\numberline {H.10}{\ignorespaces Test afstand\relax }}{138}\protected@file@percent }
\newlabel{testlongrange1}{{H.10}{138}}
\newlabel{testlongrange1@cref}{{[figure][10][8]H.10}{[1][138][]138}}
\@writefile{toc}{\contentsline {section}{\numberline {H.5}Testcase 3.1}{139}\protected@file@percent }
\@writefile{toc}{\contentsline {section}{\numberline {H.6}Testcase 5.1}{139}\protected@file@percent }
\@writefile{toc}{\contentsline {chapter}{\numberline {I.}Bill Of Materials}{140}\protected@file@percent }
\@writefile{lof}{\addvspace {10pt}}
\@writefile{lot}{\addvspace {10pt}}
\@writefile{lof}{\contentsline {xchapter}{Bill Of Materials}{140}\protected@file@percent }
\@writefile{lot}{\contentsline {xchapter}{Bill Of Materials}{140}\protected@file@percent }
\@writefile{lof}{\contentsline {figure}{\numberline {I.1}{\ignorespaces BOM\relax }}{141}\protected@file@percent }
\newlabel{BOM}{{I.1}{141}}
\newlabel{BOM@cref}{{[figure][1][9]I.1}{[1][141][]141}}
\@writefile{toc}{\contentsline {chapter}{\numberline {J.}Handleiding BlueFarm}{142}\protected@file@percent }
\@writefile{lof}{\addvspace {10pt}}
\@writefile{lot}{\addvspace {10pt}}
\@writefile{lof}{\contentsline {xchapter}{Handleiding BlueFarm}{142}\protected@file@percent }
\@writefile{lot}{\contentsline {xchapter}{Handleiding BlueFarm}{142}\protected@file@percent }
\@writefile{toc}{\contentsline {section}{\numberline {J.1}Programmeren}{142}\protected@file@percent }
\@writefile{toc}{\contentsline {section}{\numberline {J.2}Provisioneren}{143}\protected@file@percent }
\@writefile{lof}{\contentsline {figure}{\numberline {J.1}{\ignorespaces Stappenplan provisioneren\relax }}{144}\protected@file@percent }
\newlabel{Stappenplan}{{J.1}{144}}
\newlabel{Stappenplan@cref}{{[figure][1][10]J.1}{[1][143][]144}}
\@writefile{lof}{\contentsline {figure}{\numberline {J.1}{\ignorespaces Stap 10\relax }}{144}\protected@file@percent }
\@writefile{toc}{\contentsline {section}{\numberline {J.3}Probleem oplossen}{145}\protected@file@percent }
\@writefile{toc}{\contentsline {chapter}{\numberline {K.}Competentieverantwoording}{146}\protected@file@percent }
\@writefile{lof}{\addvspace {10pt}}
\@writefile{lot}{\addvspace {10pt}}
\@writefile{lof}{\contentsline {xchapter}{Competentieverantwoording}{146}\protected@file@percent }
\@writefile{lot}{\contentsline {xchapter}{Competentieverantwoording}{146}\protected@file@percent }
\@writefile{toc}{\contentsline {section}{\numberline {K.1}Analyseren}{146}\protected@file@percent }
\@writefile{toc}{\contentsline {section}{\numberline {K.2}Ontwerpen}{147}\protected@file@percent }
\@writefile{toc}{\contentsline {section}{\numberline {K.3}Realiseren}{147}\protected@file@percent }
\@writefile{toc}{\contentsline {section}{\numberline {K.4}Beheren}{147}\protected@file@percent }
\@writefile{toc}{\contentsline {section}{\numberline {K.5}Managen}{147}\protected@file@percent }
\@writefile{toc}{\contentsline {section}{\numberline {K.6}Adviseren}{148}\protected@file@percent }
\@writefile{toc}{\contentsline {section}{\numberline {K.7}Onderzoeken}{148}\protected@file@percent }
\@writefile{toc}{\contentsline {section}{\numberline {K.8}Professionaliseren}{148}\protected@file@percent }
\@writefile{toc}{\contentsline {chapter}{\numberline {L.}Reflectie}{149}\protected@file@percent }
\@writefile{lof}{\addvspace {10pt}}
\@writefile{lot}{\addvspace {10pt}}
\@writefile{lof}{\contentsline {xchapter}{Reflectie}{149}\protected@file@percent }
\@writefile{lot}{\contentsline {xchapter}{Reflectie}{149}\protected@file@percent }
\@writefile{toc}{\contentsline {section}{\numberline {L.1}Analyseren}{149}\protected@file@percent }
\@writefile{toc}{\contentsline {section}{\numberline {L.2}Ontwerpen}{149}\protected@file@percent }
\@writefile{toc}{\contentsline {section}{\numberline {L.3}Realiseren}{149}\protected@file@percent }
\@writefile{toc}{\contentsline {section}{\numberline {L.4}Beheren}{149}\protected@file@percent }
\@writefile{toc}{\contentsline {section}{\numberline {L.5}Managen}{150}\protected@file@percent }
\@writefile{toc}{\contentsline {section}{\numberline {L.6}Adviseren}{150}\protected@file@percent }
\@writefile{toc}{\contentsline {section}{\numberline {L.7}Onderzoeken}{150}\protected@file@percent }
\@writefile{toc}{\contentsline {section}{\numberline {L.8}Professionaliseren}{150}\protected@file@percent }
\bibstyle{apacite}
\bibdata{Referenties/Referenties,Referenties/Afstuderen}
\global\mtcsecondpartfalse
