\relax 
\@nameuse{bbl@beforestart}
\catcode `"\active 
\babel@aux{dutch}{}
\@writefile{@@@}{\chapterbegin }
\@writefile{@@@}{\chapterbegin }
\@writefile{@@@}{\chapterbegin }
\@writefile{@@@}{\chapterbegin }
\@writefile{@@@}{\chapterbegin }
\newlabel{hs:vb}{{}{6}}
\newlabel{hs:vb@cref}{{}{[1][6][]6}}
\@writefile{lot}{\contentsline {table}{\numberline {0.1}{\ignorespaces Versiehistorie\relax }}{6}\protected@file@percent }
\providecommand*\caption@xref[2]{\@setref\relax\@undefined{#1}}
\newlabel{tab:vb}{{0.1}{6}}
\newlabel{tab:vb@cref}{{[table][1][0]0.1}{[1][6][]6}}
\@writefile{@@@}{\chapterbegin }
\@writefile{toc}{\contentsline {chapter}{\numberline {1.}Inleiding}{10}\protected@file@percent }
\@writefile{lof}{\addvspace {10pt}}
\@writefile{lot}{\addvspace {10pt}}
\@writefile{lof}{\contentsline {xchapter}{Inleiding}{10}\protected@file@percent }
\@writefile{lot}{\contentsline {xchapter}{Inleiding}{10}\protected@file@percent }
\newlabel{hs:in}{{1}{10}}
\newlabel{hs:in@cref}{{[chapter][1][]1}{[1][10][]10}}
\@writefile{toc}{\contentsline {section}{\numberline {1.1}Bedrijfsachtergrond}{10}\protected@file@percent }
\newlabel{smdcds}{{1.1a}{10}}
\newlabel{smdcds@cref}{{[subfigure][1][1,1]1.1a}{[1][10][]10}}
\newlabel{sub@smdcds}{{a}{10}}
\newlabel{sub@smdcds@cref}{{[subfigure][1][1,1]1.1a}{[1][10][]10}}
\newlabel{tkim60}{{1.1b}{10}}
\newlabel{tkim60@cref}{{[subfigure][2][1,1]1.1b}{[1][10][]10}}
\newlabel{sub@tkim60}{{b}{10}}
\newlabel{sub@tkim60@cref}{{[subfigure][2][1,1]1.1b}{[1][10][]10}}
\@writefile{lof}{\contentsline {figure}{\numberline {1.1}{\ignorespaces CDS electronics\relax }}{10}\protected@file@percent }
\@writefile{toc}{\contentsline {section}{\numberline {1.2}De klant}{10}\protected@file@percent }
\@writefile{lof}{\contentsline {figure}{\numberline {1.2}{\ignorespaces Luiken voor in- en uitvoer van luchtstromen\relax }}{11}\protected@file@percent }
\newlabel{luik}{{1.2}{11}}
\newlabel{luik@cref}{{[figure][2][1]1.2}{[1][10][]11}}
\newlabel{im60}{{1.3a}{11}}
\newlabel{im60@cref}{{[subfigure][1][1,3]1.3a}{[1][11][]11}}
\newlabel{sub@im60}{{a}{11}}
\newlabel{sub@im60@cref}{{[subfigure][1][1,3]1.3a}{[1][11][]11}}
\newlabel{im125}{{1.3b}{11}}
\newlabel{im125@cref}{{[subfigure][2][1,3]1.3b}{[1][11][]11}}
\newlabel{sub@im125}{{b}{11}}
\newlabel{sub@im125@cref}{{[subfigure][2][1,3]1.3b}{[1][11][]11}}
\@writefile{lof}{\contentsline {figure}{\numberline {1.3}{\ignorespaces Motoren\relax }}{11}\protected@file@percent }
\newlabel{im60p}{{1.4a}{12}}
\newlabel{im60p@cref}{{[subfigure][1][1,4]1.4a}{[1][12][]12}}
\newlabel{sub@im60p}{{a}{12}}
\newlabel{sub@im60p@cref}{{[subfigure][1][1,4]1.4a}{[1][12][]12}}
\newlabel{im125p}{{1.4b}{12}}
\newlabel{im125p@cref}{{[subfigure][2][1,4]1.4b}{[1][12][]12}}
\newlabel{sub@im125p}{{b}{12}}
\newlabel{sub@im125p@cref}{{[subfigure][2][1,4]1.4b}{[1][12][]12}}
\@writefile{lof}{\contentsline {figure}{\numberline {1.4}{\ignorespaces Printplaten die de motoren aansturen\relax }}{12}\protected@file@percent }
\citation{class}
\@writefile{toc}{\contentsline {section}{\numberline {1.3}Probleemstelling}{13}\protected@file@percent }
\newlabel{stal1}{{1.5a}{13}}
\newlabel{stal1@cref}{{[subfigure][1][1,5]1.5a}{[1][13][]13}}
\newlabel{sub@stal1}{{a}{13}}
\newlabel{sub@stal1@cref}{{[subfigure][1][1,5]1.5a}{[1][13][]13}}
\newlabel{stal2}{{1.5b}{13}}
\newlabel{stal2@cref}{{[subfigure][2][1,5]1.5b}{[1][13][]13}}
\newlabel{sub@stal2}{{b}{13}}
\newlabel{sub@stal2@cref}{{[subfigure][2][1,5]1.5b}{[1][13][]13}}
\newlabel{stal2}{{1.5c}{13}}
\newlabel{stal2@cref}{{[subfigure][3][1,5]1.5c}{[1][13][]13}}
\newlabel{sub@stal2}{{c}{13}}
\newlabel{sub@stal2@cref}{{[subfigure][3][1,5]1.5c}{[1][13][]13}}
\@writefile{lof}{\contentsline {figure}{\numberline {1.5}{\ignorespaces Mogelijke ophanging motor\relax }}{13}\protected@file@percent }
\newlabel{stallensoorten}{{1.5}{13}}
\newlabel{stallensoorten@cref}{{[figure][5][1]1.5}{[1][13][]13}}
\@writefile{toc}{\contentsline {section}{\numberline {1.4}Doelstelling}{14}\protected@file@percent }
\@writefile{lof}{\contentsline {figure}{\numberline {1.6}{\ignorespaces Indirect bereik van het netwerk\relax }}{14}\protected@file@percent }
\newlabel{multihop}{{1.6}{14}}
\newlabel{multihop@cref}{{[figure][6][1]1.6}{[1][14][]14}}
\citation{Yourdon1979}
\@writefile{toc}{\contentsline {chapter}{\numberline {2.}Requirements}{15}\protected@file@percent }
\@writefile{lof}{\addvspace {10pt}}
\@writefile{lot}{\addvspace {10pt}}
\@writefile{lof}{\contentsline {xchapter}{Requirements}{15}\protected@file@percent }
\@writefile{lot}{\contentsline {xchapter}{Requirements}{15}\protected@file@percent }
\newlabel{hs:h2}{{2}{15}}
\newlabel{hs:h2@cref}{{[chapter][2][]2}{[1][15][]15}}
\@writefile{toc}{\contentsline {section}{\numberline {2.1}Systeemcontext}{15}\protected@file@percent }
\@writefile{lof}{\contentsline {figure}{\numberline {2.1}{\ignorespaces Data Context Diagram\relax }}{15}\protected@file@percent }
\newlabel{DCD}{{2.1}{15}}
\newlabel{DCD@cref}{{[figure][1][2]2.1}{[1][15][]15}}
\@writefile{toc}{\contentsline {section}{\numberline {2.2}Functionele Systeemeisen}{16}\protected@file@percent }
\newlabel{hs:h24}{{2.2}{16}}
\newlabel{hs:h24@cref}{{[section][2][2]2.2}{[1][16][]16}}
\@writefile{lof}{\contentsline {figure}{\numberline {2.2}{\ignorespaces Data Flow Diagram 0 (DFD0)\relax }}{16}\protected@file@percent }
\newlabel{DFD02.0}{{2.2}{16}}
\newlabel{DFD02.0@cref}{{[figure][2][2]2.2}{[1][16][]16}}
\@writefile{toc}{\contentsline {section}{\numberline {2.3}Niet-functionele klanteisen}{18}\protected@file@percent }
\newlabel{hs:h25}{{2.3}{18}}
\newlabel{hs:h25@cref}{{[section][3][2]2.3}{[1][18][]18}}
\citation{topo}
\@writefile{toc}{\contentsline {chapter}{\numberline {3.}Onderzoek}{19}\protected@file@percent }
\@writefile{lof}{\addvspace {10pt}}
\@writefile{lot}{\addvspace {10pt}}
\@writefile{lof}{\contentsline {xchapter}{Onderzoek}{19}\protected@file@percent }
\@writefile{lot}{\contentsline {xchapter}{Onderzoek}{19}\protected@file@percent }
\@writefile{toc}{\contentsline {section}{\numberline {3.1}Vooronderzoek}{19}\protected@file@percent }
\newlabel{star}{{3.1a}{19}}
\newlabel{star@cref}{{[subfigure][1][3,1]3.1a}{[1][19][]19}}
\newlabel{sub@star}{{a}{19}}
\newlabel{sub@star@cref}{{[subfigure][1][3,1]3.1a}{[1][19][]19}}
\newlabel{mesh2}{{3.1b}{19}}
\newlabel{mesh2@cref}{{[subfigure][2][3,1]3.1b}{[1][19][]19}}
\newlabel{sub@mesh2}{{b}{19}}
\newlabel{sub@mesh2@cref}{{[subfigure][2][3,1]3.1b}{[1][19][]19}}
\@writefile{lof}{\contentsline {figure}{\numberline {3.1}{\ignorespaces Twee verschillende netwerktopologiën\relax }}{19}\protected@file@percent }
\newlabel{topology}{{3.1}{19}}
\newlabel{topology@cref}{{[figure][1][3]3.1}{[1][19][]19}}
\@writefile{lot}{\contentsline {table}{\numberline {3.1}{\ignorespaces Overzicht draadloze verbindingen\relax }}{20}\protected@file@percent }
\newlabel{keusdraadloos}{{3.1}{20}}
\newlabel{keusdraadloos@cref}{{[table][1][3]3.1}{[1][20][]20}}
\@writefile{toc}{\contentsline {section}{\numberline {3.2}Identificeren Systeem}{20}\protected@file@percent }
\@writefile{lot}{\contentsline {table}{\numberline {3.2}{\ignorespaces Keuzetabel flits LED\relax }}{20}\protected@file@percent }
\newlabel{pulsemaken}{{3.2}{20}}
\newlabel{pulsemaken@cref}{{[table][2][3]3.2}{[1][20][]20}}
\@writefile{toc}{\contentsline {section}{\numberline {3.3}Onderzoek Bluetooth mesh}{21}\protected@file@percent }
\newlabel{testmesh2}{{3.2a}{21}}
\newlabel{testmesh2@cref}{{[subfigure][1][3,2]3.2a}{[1][21][]21}}
\newlabel{sub@testmesh2}{{a}{21}}
\newlabel{sub@testmesh2@cref}{{[subfigure][1][3,2]3.2a}{[1][21][]21}}
\newlabel{appgroup}{{3.2b}{21}}
\newlabel{appgroup@cref}{{[subfigure][2][3,2]3.2b}{[1][21][]21}}
\newlabel{sub@appgroup}{{b}{21}}
\newlabel{sub@appgroup@cref}{{[subfigure][2][3,2]3.2b}{[1][21][]21}}
\@writefile{lof}{\contentsline {figure}{\numberline {3.2}{\ignorespaces Test Bluetooth low energie (BLE)\relax }}{21}\protected@file@percent }
\newlabel{topology}{{3.2}{21}}
\newlabel{topology@cref}{{[figure][2][3]3.2}{[1][21][]21}}
\@writefile{toc}{\contentsline {chapter}{\numberline {4.}Architectuur}{22}\protected@file@percent }
\@writefile{lof}{\addvspace {10pt}}
\@writefile{lot}{\addvspace {10pt}}
\@writefile{lof}{\contentsline {xchapter}{Architectuur}{22}\protected@file@percent }
\@writefile{lot}{\contentsline {xchapter}{Architectuur}{22}\protected@file@percent }
\@writefile{lof}{\contentsline {figure}{\numberline {4.1}{\ignorespaces Architectuur Context Diagram (ACD)\relax }}{22}\protected@file@percent }
\newlabel{ACD}{{4.1}{22}}
\newlabel{ACD@cref}{{[figure][1][4]4.1}{[1][22][]22}}
\@writefile{lof}{\contentsline {figure}{\numberline {4.2}{\ignorespaces Architectuur Interconnect Diagram (AID)\relax }}{22}\protected@file@percent }
\newlabel{AID}{{4.2}{22}}
\newlabel{AID@cref}{{[figure][2][4]4.2}{[1][22][]22}}
\@writefile{toc}{\contentsline {chapter}{\numberline {5.}Detailontwerp}{23}\protected@file@percent }
\@writefile{lof}{\addvspace {10pt}}
\@writefile{lot}{\addvspace {10pt}}
\@writefile{lof}{\contentsline {xchapter}{Detailontwerp}{23}\protected@file@percent }
\@writefile{lot}{\contentsline {xchapter}{Detailontwerp}{23}\protected@file@percent }
\@writefile{toc}{\contentsline {section}{\numberline {5.1}Traceertabel klanteisen}{23}\protected@file@percent }
\@writefile{lot}{\contentsline {table}{\numberline {5.1}{\ignorespaces Traceertabel Requirements \relax }}{23}\protected@file@percent }
\newlabel{tab:tr}{{5.1}{23}}
\newlabel{tab:tr@cref}{{[table][1][5]5.1}{[1][23][]23}}
\@writefile{toc}{\contentsline {section}{\numberline {5.2}Module}{24}\protected@file@percent }
\@writefile{lof}{\contentsline {figure}{\numberline {5.1}{\ignorespaces Module met microcontroller en software functies\relax }}{24}\protected@file@percent }
\newlabel{moduleopbouw}{{5.1}{24}}
\newlabel{moduleopbouw@cref}{{[figure][1][5]5.1}{[1][24][]24}}
\newlabel{stal1}{{5.2a}{24}}
\newlabel{stal1@cref}{{[subfigure][1][5,2]5.2a}{[1][24][]24}}
\newlabel{sub@stal1}{{a}{24}}
\newlabel{sub@stal1@cref}{{[subfigure][1][5,2]5.2a}{[1][24][]24}}
\newlabel{stal2}{{5.2b}{24}}
\newlabel{stal2@cref}{{[subfigure][2][5,2]5.2b}{[1][24][]24}}
\newlabel{sub@stal2}{{b}{24}}
\newlabel{sub@stal2@cref}{{[subfigure][2][5,2]5.2b}{[1][24][]24}}
\newlabel{stal2}{{5.2c}{24}}
\newlabel{stal2@cref}{{[subfigure][3][5,2]5.2c}{[1][24][]24}}
\newlabel{sub@stal2}{{c}{24}}
\newlabel{sub@stal2@cref}{{[subfigure][3][5,2]5.2c}{[1][24][]24}}
\@writefile{lof}{\contentsline {figure}{\numberline {5.2}{\ignorespaces VNA test\relax }}{24}\protected@file@percent }
\newlabel{VNAteston}{{5.2}{24}}
\newlabel{VNAteston@cref}{{[figure][2][5]5.2}{[1][24][]24}}
\@writefile{toc}{\contentsline {subsubsection}{Return Loss}{25}\protected@file@percent }
\newlabel{BT840}{{5.3a}{25}}
\newlabel{BT840@cref}{{[subfigure][1][5,3]5.3a}{[1][25][]25}}
\newlabel{sub@BT840}{{a}{25}}
\newlabel{sub@BT840@cref}{{[subfigure][1][5,3]5.3a}{[1][25][]25}}
\newlabel{BT840F}{{5.3b}{25}}
\newlabel{BT840F@cref}{{[subfigure][2][5,3]5.3b}{[1][25][]25}}
\newlabel{sub@BT840F}{{b}{25}}
\newlabel{sub@BT840F@cref}{{[subfigure][2][5,3]5.3b}{[1][25][]25}}
\@writefile{lof}{\contentsline {figure}{\numberline {5.3}{\ignorespaces Modules\relax }}{25}\protected@file@percent }
\newlabel{modules}{{5.3}{25}}
\newlabel{modules@cref}{{[figure][3][5]5.3}{[1][25][]25}}
\@writefile{lof}{\contentsline {figure}{\numberline {5.4}{\ignorespaces Plot s-parameters matlab\relax }}{25}\protected@file@percent }
\newlabel{matplotall}{{5.4}{25}}
\newlabel{matplotall@cref}{{[figure][4][5]5.4}{[1][25][]25}}
\citation{Specification2018}
\@writefile{toc}{\contentsline {subsection}{\numberline {5.2.1}Microcontroller}{26}\protected@file@percent }
\newlabel{keuzenrf}{{5.2.1}{26}}
\newlabel{keuzenrf@cref}{{[subsection][1][5,2]5.2.1}{[1][25][]26}}
\@writefile{lot}{\contentsline {table}{\numberline {5.2}{\ignorespaces Keuze matrix Draadloze $\mu C$ (*Prijzen Mouser rond 03-03-2020)\relax }}{26}\protected@file@percent }
\newlabel{tabmcu}{{5.2}{26}}
\newlabel{tabmcu@cref}{{[table][2][5]5.2}{[1][26][]26}}
\citation{Introduction2017}
\@writefile{toc}{\contentsline {subsection}{\numberline {5.2.2}Bluetooth 5.0 mesh}{27}\protected@file@percent }
\@writefile{toc}{\contentsline {subsubsection}{Node}{27}\protected@file@percent }
\@writefile{lof}{\contentsline {figure}{\numberline {5.5}{\ignorespaces Opbouw node\relax }}{27}\protected@file@percent }
\newlabel{nodestruct}{{5.5}{27}}
\newlabel{nodestruct@cref}{{[figure][5][5]5.5}{[1][27][]27}}
\citation{BluetoothSIG2019}
\@writefile{toc}{\contentsline {subsubsection}{Model}{28}\protected@file@percent }
\newlabel{clientserver}{{5.6a}{28}}
\newlabel{clientserver@cref}{{[subfigure][1][5,6]5.6a}{[1][28][]28}}
\newlabel{sub@clientserver}{{a}{28}}
\newlabel{sub@clientserver@cref}{{[subfigure][1][5,6]5.6a}{[1][28][]28}}
\newlabel{stalgatt}{{5.6b}{28}}
\newlabel{stalgatt@cref}{{[subfigure][2][5,6]5.6b}{[1][28][]28}}
\newlabel{sub@stalgatt}{{b}{28}}
\newlabel{sub@stalgatt@cref}{{[subfigure][2][5,6]5.6b}{[1][28][]28}}
\@writefile{lof}{\contentsline {figure}{\numberline {5.6}{\ignorespaces Implementatie van server en client\relax }}{28}\protected@file@percent }
\citation{BluetoothSIG2019}
\@writefile{toc}{\contentsline {subsection}{\numberline {5.2.3}Proxy server}{29}\protected@file@percent }
\newlabel{proxy}{{5.2.3}{29}}
\newlabel{proxy@cref}{{[subsection][3][5,2]5.2.3}{[1][29][]29}}
\newlabel{nodeproxy}{{5.7a}{29}}
\newlabel{nodeproxy@cref}{{[subfigure][1][5,7]5.7a}{[1][29][]29}}
\newlabel{sub@nodeproxy}{{a}{29}}
\newlabel{sub@nodeproxy@cref}{{[subfigure][1][5,7]5.7a}{[1][29][]29}}
\newlabel{stalgatt}{{5.7b}{29}}
\newlabel{stalgatt@cref}{{[subfigure][2][5,7]5.7b}{[1][29][]29}}
\newlabel{sub@stalgatt}{{b}{29}}
\newlabel{sub@stalgatt@cref}{{[subfigure][2][5,7]5.7b}{[1][29][]29}}
\@writefile{lof}{\contentsline {figure}{\numberline {5.7}{\ignorespaces Implementatie van model en proxy\relax }}{29}\protected@file@percent }
\citation{codemeshlr}
\@writefile{toc}{\contentsline {subsection}{\numberline {5.2.4}Long Range}{30}\protected@file@percent }
\@writefile{lof}{\contentsline {figure}{\numberline {5.8}{\ignorespaces BLE pakket\relax }}{30}\protected@file@percent }
\newlabel{blepakket}{{5.8}{30}}
\newlabel{blepakket@cref}{{[figure][8][5]5.8}{[1][30][]30}}
\@writefile{lol}{\contentsline {lstlisting}{\numberline {5.1}Radio mode veranderen}{30}\protected@file@percent }
\@writefile{lol}{\contentsline {lstlisting}{\numberline {5.2}Preamble langer maken}{30}\protected@file@percent }
\citation{BluetoothSIG1999}
\citation{BluetoothSIG2019}
\@writefile{toc}{\contentsline {subsection}{\numberline {5.2.5}Terugsturen diagnostische data}{31}\protected@file@percent }
\@writefile{lof}{\contentsline {figure}{\numberline {5.9}{\ignorespaces Flow diagram van het terugsturen van diagnostische data\relax }}{31}\protected@file@percent }
\newlabel{flowdiagn}{{5.9}{31}}
\newlabel{flowdiagn@cref}{{[figure][9][5]5.9}{[1][31][]31}}
\newlabel{code1}{{5.3}{31}}
\newlabel{code1@cref}{{[listing][3][5]5.3}{[1][31][]31}}
\@writefile{lol}{\contentsline {lstlisting}{\numberline {5.3}Struct voor sturen diagnostische data in generic\_level\_common.h}{31}\protected@file@percent }
\citation{Specification2018}
\@writefile{toc}{\contentsline {subsection}{\numberline {5.2.6}UART IM60/IM125}{32}\protected@file@percent }
\newlabel{hs:43}{{5.2.6}{32}}
\newlabel{hs:43@cref}{{[subsection][6][5,2]5.2.6}{[1][32][]32}}
\@writefile{lof}{\contentsline {figure}{\numberline {5.10}{\ignorespaces Zenden UART\relax }}{32}\protected@file@percent }
\newlabel{uarttx}{{5.10}{32}}
\newlabel{uarttx@cref}{{[figure][10][5]5.10}{[1][32][]32}}
\@writefile{toc}{\contentsline {subsubsection}{TX}{32}\protected@file@percent }
\@writefile{toc}{\contentsline {subsubsection}{RX}{32}\protected@file@percent }
\@writefile{lof}{\contentsline {figure}{\numberline {5.11}{\ignorespaces Flowdiagram ophalen Bytes uit Easydma\relax }}{32}\protected@file@percent }
\newlabel{rxflow}{{5.11}{32}}
\newlabel{rxflow@cref}{{[figure][11][5]5.11}{[1][32][]32}}
\@writefile{lof}{\contentsline {figure}{\numberline {5.12}{\ignorespaces Easydma nRF52840 \relax }}{32}\protected@file@percent }
\newlabel{dma}{{5.12}{32}}
\newlabel{dma@cref}{{[figure][12][5]5.12}{[1][32][]32}}
\citation{Fancom2020}
\citation{Fancom2020}
\@writefile{toc}{\contentsline {subsubsection}{IO-NET}{33}\protected@file@percent }
\newlabel{frameformat}{{5.13a}{33}}
\newlabel{frameformat@cref}{{[subfigure][1][5,13]5.13a}{[1][33][]33}}
\newlabel{sub@frameformat}{{a}{33}}
\newlabel{sub@frameformat@cref}{{[subfigure][1][5,13]5.13a}{[1][33][]33}}
\newlabel{framecontent}{{5.13b}{33}}
\newlabel{framecontent@cref}{{[subfigure][2][5,13]5.13b}{[1][33][]33}}
\newlabel{sub@framecontent}{{b}{33}}
\newlabel{sub@framecontent@cref}{{[subfigure][2][5,13]5.13b}{[1][33][]33}}
\@writefile{lof}{\contentsline {figure}{\numberline {5.13}{\ignorespaces Inhoud commando \relax }}{33}\protected@file@percent }
\@writefile{lof}{\contentsline {figure}{\numberline {5.14}{\ignorespaces Communicatie UART \relax }}{33}\protected@file@percent }
\newlabel{uarttt}{{5.14}{33}}
\newlabel{uarttt@cref}{{[figure][14][5]5.14}{[1][33][]33}}
\@writefile{toc}{\contentsline {section}{\numberline {5.3}Geheugen}{34}\protected@file@percent }
\@writefile{lot}{\contentsline {table}{\numberline {5.3}{\ignorespaces Keuzetabel opslaan gegevens\relax }}{34}\protected@file@percent }
\newlabel{opslaandata}{{5.3}{34}}
\newlabel{opslaandata@cref}{{[table][3][5]5.3}{[1][34][]34}}
\@writefile{lot}{\contentsline {table}{\numberline {5.4}{\ignorespaces Keuzetabel opslag\relax }}{34}\protected@file@percent }
\newlabel{Memory}{{5.4}{34}}
\newlabel{Memory@cref}{{[table][4][5]5.4}{[1][34][]34}}
\@writefile{lof}{\contentsline {figure}{\numberline {5.15}{\ignorespaces MX25R6435FM2IH0 in Altium\relax }}{34}\protected@file@percent }
\newlabel{flash}{{5.15}{34}}
\newlabel{flash@cref}{{[figure][15][5]5.15}{[1][34][]34}}
\@writefile{lof}{\contentsline {figure}{\numberline {5.16}{\ignorespaces SPI transactie nRF52840\relax }}{35}\protected@file@percent }
\newlabel{spi}{{5.16}{35}}
\newlabel{spi@cref}{{[figure][16][5]5.16}{[1][34][]35}}
\newlabel{spitx}{{5.17a}{35}}
\newlabel{spitx@cref}{{[subfigure][1][5,17]5.17a}{[1][35][]35}}
\newlabel{sub@spitx}{{a}{35}}
\newlabel{sub@spitx@cref}{{[subfigure][1][5,17]5.17a}{[1][35][]35}}
\newlabel{spirx}{{5.17b}{35}}
\newlabel{spirx@cref}{{[subfigure][2][5,17]5.17b}{[1][35][]35}}
\newlabel{sub@spirx}{{b}{35}}
\newlabel{sub@spirx@cref}{{[subfigure][2][5,17]5.17b}{[1][35][]35}}
\@writefile{lof}{\contentsline {figure}{\numberline {5.17}{\ignorespaces SPI communicatie\relax }}{35}\protected@file@percent }
\newlabel{flashindeling}{{5.18a}{36}}
\newlabel{flashindeling@cref}{{[subfigure][1][5,18]5.18a}{[1][36][]36}}
\newlabel{sub@flashindeling}{{a}{36}}
\newlabel{sub@flashindeling@cref}{{[subfigure][1][5,18]5.18a}{[1][36][]36}}
\newlabel{flowchartschrijven}{{5.18b}{36}}
\newlabel{flowchartschrijven@cref}{{[subfigure][2][5,18]5.18b}{[1][36][]36}}
\newlabel{sub@flowchartschrijven}{{b}{36}}
\newlabel{sub@flowchartschrijven@cref}{{[subfigure][2][5,18]5.18b}{[1][36][]36}}
\@writefile{lof}{\contentsline {figure}{\numberline {5.18}{\ignorespaces Screenshots uit datasheet van MX25R6435FM2IH0\relax }}{36}\protected@file@percent }
\citation{Pylarinos2003}
\@writefile{toc}{\contentsline {section}{\numberline {5.4}Flits LED}{37}\protected@file@percent }
\@writefile{lof}{\contentsline {figure}{\numberline {5.19}{\ignorespaces Principe Charge Pump\relax }}{37}\protected@file@percent }
\newlabel{prcp}{{5.19}{37}}
\newlabel{prcp@cref}{{[figure][19][5]5.19}{[1][37][]37}}
\@writefile{toc}{\contentsline {subsection}{\numberline {5.4.1}Schakeling}{37}\protected@file@percent }
\@writefile{lof}{\contentsline {figure}{\numberline {5.20}{\ignorespaces Charge pump met schakel gedeelte\relax }}{37}\protected@file@percent }
\newlabel{schemacpschakel2}{{5.20}{37}}
\newlabel{schemacpschakel2@cref}{{[figure][20][5]5.20}{[1][37][]37}}
\@writefile{toc}{\contentsline {subsubsection}{Simulatie}{38}\protected@file@percent }
\@writefile{lof}{\contentsline {figure}{\numberline {5.21}{\ignorespaces Charge pump in LT-Spice \relax }}{38}\protected@file@percent }
\newlabel{schemacpschakellt2}{{5.21}{38}}
\newlabel{schemacpschakellt2@cref}{{[figure][21][5]5.21}{[1][38][]38}}
\@writefile{lof}{\contentsline {figure}{\numberline {5.22}{\ignorespaces Simulatie spanning op LED\relax }}{39}\protected@file@percent }
\newlabel{simIled3}{{5.22}{39}}
\newlabel{simIled3@cref}{{[figure][22][5]5.22}{[1][38][]39}}
\@writefile{lof}{\contentsline {figure}{\numberline {5.23}{\ignorespaces Simulatie stroom door LED bij pulse\relax }}{39}\protected@file@percent }
\newlabel{similed2}{{5.23}{39}}
\newlabel{similed2@cref}{{[figure][23][5]5.23}{[1][39][]39}}
\@writefile{toc}{\contentsline {chapter}{\numberline {6.}Testresultaten}{40}\protected@file@percent }
\@writefile{lof}{\addvspace {10pt}}
\@writefile{lot}{\addvspace {10pt}}
\@writefile{lof}{\contentsline {xchapter}{Testresultaten}{40}\protected@file@percent }
\@writefile{lot}{\contentsline {xchapter}{Testresultaten}{40}\protected@file@percent }
\@writefile{lot}{\contentsline {table}{\numberline {6.1}{\ignorespaces Traceertabel Requirements \relax }}{40}\protected@file@percent }
\newlabel{tab:rg}{{6.1}{40}}
\newlabel{tab:rg@cref}{{[table][1][6]6.1}{[1][40][]40}}
\newlabel{n}{{6.1a}{40}}
\newlabel{n@cref}{{[subfigure][1][6,1]6.1a}{[1][40][]40}}
\newlabel{sub@n}{{a}{40}}
\newlabel{sub@n@cref}{{[subfigure][1][6,1]6.1a}{[1][40][]40}}
\newlabel{l}{{6.1b}{40}}
\newlabel{l@cref}{{[subfigure][2][6,1]6.1b}{[1][40][]40}}
\newlabel{sub@l}{{b}{40}}
\newlabel{sub@l@cref}{{[subfigure][2][6,1]6.1b}{[1][40][]40}}
\@writefile{lof}{\contentsline {figure}{\numberline {6.1}{\ignorespaces Gesoldeerde printen met BT840F\relax }}{40}\protected@file@percent }
\newlabel{pcbfinal}{{6.1}{40}}
\newlabel{pcbfinal@cref}{{[figure][1][6]6.1}{[1][40][]40}}
\@writefile{toc}{\contentsline {section}{\numberline {6.1}Voorbereidingen acceptatietest}{40}\protected@file@percent }
\@writefile{toc}{\contentsline {section}{\numberline {6.2}Acceptatietestbeschrijvingen}{41}\protected@file@percent }
\@writefile{toc}{\contentsline {subsection}{\numberline {6.2.1}Test UART commando IO-net}{41}\protected@file@percent }
\@writefile{lot}{\contentsline {table}{\numberline {6.2}{\ignorespaces Testcase IO-net UART\relax }}{41}\protected@file@percent }
\newlabel{tc11}{{6.2}{41}}
\newlabel{tc11@cref}{{[table][2][6]6.2}{[1][41][]41}}
\@writefile{lof}{\contentsline {figure}{\numberline {6.2}{\ignorespaces Test communicatie UART\relax }}{41}\protected@file@percent }
\newlabel{testcomuart}{{6.2}{41}}
\newlabel{testcomuart@cref}{{[figure][2][6]6.2}{[1][41][]41}}
\@writefile{toc}{\contentsline {section}{\numberline {6.3}Test doorsturen berichten}{42}\protected@file@percent }
\@writefile{lof}{\contentsline {figure}{\numberline {6.3}{\ignorespaces Schematische weergave nodes in stal \relax }}{42}\protected@file@percent }
\newlabel{nodesstal}{{6.3}{42}}
\newlabel{nodesstal@cref}{{[figure][3][6]6.3}{[1][42][]42}}
\@writefile{lot}{\contentsline {table}{\numberline {6.3}{\ignorespaces Testcase doorsturen berichten\relax }}{42}\protected@file@percent }
\newlabel{tcx}{{6.3}{42}}
\newlabel{tcx@cref}{{[table][3][6]6.3}{[1][42][]42}}
\@writefile{toc}{\contentsline {section}{\numberline {6.4}Test sturen diagnostische data}{43}\protected@file@percent }
\@writefile{lot}{\contentsline {table}{\numberline {6.4}{\ignorespaces Testcase sturen diagnostische data\relax }}{43}\protected@file@percent }
\newlabel{tcx}{{6.4}{43}}
\newlabel{tcx@cref}{{[table][4][6]6.4}{[1][43][]43}}
\newlabel{snif}{{6.4a}{43}}
\newlabel{snif@cref}{{[subfigure][1][6,4]6.4a}{[1][43][]43}}
\newlabel{sub@snif}{{a}{43}}
\newlabel{sub@snif@cref}{{[subfigure][1][6,4]6.4a}{[1][43][]43}}
\newlabel{READSTATE}{{6.4b}{43}}
\newlabel{READSTATE@cref}{{[subfigure][2][6,4]6.4b}{[1][43][]43}}
\newlabel{sub@READSTATE}{{b}{43}}
\newlabel{sub@READSTATE@cref}{{[subfigure][2][6,4]6.4b}{[1][43][]43}}
\@writefile{lof}{\contentsline {figure}{\numberline {6.4}{\ignorespaces Test LED\relax }}{43}\protected@file@percent }
\newlabel{testrimpel}{{6.4}{43}}
\newlabel{testrimpel@cref}{{[figure][4][6]6.4}{[1][43][]43}}
\@writefile{toc}{\contentsline {subsection}{\numberline {6.4.1}Test openen sluiten directe verbinding}{44}\protected@file@percent }
\@writefile{lot}{\contentsline {table}{\numberline {6.5}{\ignorespaces Testcase bereik tussen smartphone en node\relax }}{44}\protected@file@percent }
\newlabel{tcx}{{6.5}{44}}
\newlabel{tcx@cref}{{[table][5][6]6.5}{[1][44][]44}}
\@writefile{lot}{\contentsline {table}{\numberline {6.6}{\ignorespaces Tabel maximaal bereik smartphone\relax }}{44}\protected@file@percent }
\newlabel{rssisp}{{6.6}{44}}
\newlabel{rssisp@cref}{{[table][6][6]6.6}{[1][44][]44}}
\@writefile{toc}{\contentsline {subsection}{\numberline {6.4.2}Test bereik tussen nodes}{45}\protected@file@percent }
\@writefile{lot}{\contentsline {table}{\numberline {6.7}{\ignorespaces Testcase bereik tussen nodes\relax }}{45}\protected@file@percent }
\newlabel{tcx}{{6.7}{45}}
\newlabel{tcx@cref}{{[table][7][6]6.7}{[1][45][]45}}
\newlabel{im60ontvangen}{{6.5a}{45}}
\newlabel{im60ontvangen@cref}{{[subfigure][1][6,5]6.5a}{[1][45][]45}}
\newlabel{sub@im60ontvangen}{{a}{45}}
\newlabel{sub@im60ontvangen@cref}{{[subfigure][1][6,5]6.5a}{[1][45][]45}}
\newlabel{im60zenden}{{6.5b}{45}}
\newlabel{im60zenden@cref}{{[subfigure][2][6,5]6.5b}{[1][45][]45}}
\newlabel{sub@im60zenden}{{b}{45}}
\newlabel{sub@im60zenden@cref}{{[subfigure][2][6,5]6.5b}{[1][45][]45}}
\newlabel{testrimpelfoto}{{6.5c}{45}}
\newlabel{testrimpelfoto@cref}{{[subfigure][3][6,5]6.5c}{[1][45][]45}}
\newlabel{sub@testrimpelfoto}{{c}{45}}
\newlabel{sub@testrimpelfoto@cref}{{[subfigure][3][6,5]6.5c}{[1][45][]45}}
\@writefile{lof}{\contentsline {figure}{\numberline {6.5}{\ignorespaces Test bereik 100 meter.\relax }}{45}\protected@file@percent }
\@writefile{toc}{\contentsline {subsubsection}{Test LED}{46}\protected@file@percent }
\@writefile{lot}{\contentsline {table}{\numberline {6.8}{\ignorespaces Testcase LED\relax }}{46}\protected@file@percent }
\newlabel{tcx}{{6.8}{46}}
\newlabel{tcx@cref}{{[table][8][6]6.8}{[1][46][]46}}
\newlabel{testrimpelfoto}{{6.6b}{46}}
\newlabel{testrimpelfoto@cref}{{[subfigure][2][6,6]6.6b}{[1][46][]46}}
\newlabel{sub@testrimpelfoto}{{b}{46}}
\newlabel{sub@testrimpelfoto@cref}{{[subfigure][2][6,6]6.6b}{[1][46][]46}}
\@writefile{lof}{\contentsline {figure}{\numberline {6.6}{\ignorespaces Test LED\relax }}{46}\protected@file@percent }
\newlabel{testrimpel}{{6.6}{46}}
\newlabel{testrimpel@cref}{{[figure][6][6]6.6}{[1][46][]46}}
\@writefile{toc}{\contentsline {subsection}{\numberline {6.4.3}Extern geheugen}{47}\protected@file@percent }
\@writefile{lot}{\contentsline {table}{\numberline {6.9}{\ignorespaces Testcase extern geheugen\relax }}{47}\protected@file@percent }
\newlabel{tcx}{{6.9}{47}}
\newlabel{tcx@cref}{{[table][9][6]6.9}{[1][47][]47}}
\@writefile{lol}{\contentsline {lstlisting}{\numberline {6.1}SPI code testen}{47}\protected@file@percent }
\@writefile{lof}{\contentsline {figure}{\numberline {6.7}{\ignorespaces Test communicatie SPI\relax }}{47}\protected@file@percent }
\newlabel{spischrijven}{{6.7}{47}}
\newlabel{spischrijven@cref}{{[figure][7][6]6.7}{[1][47][]47}}
\newlabel{spitest}{{6.8a}{47}}
\newlabel{spitest@cref}{{[subfigure][1][6,8]6.8a}{[1][47][]47}}
\newlabel{sub@spitest}{{a}{47}}
\newlabel{sub@spitest@cref}{{[subfigure][1][6,8]6.8a}{[1][47][]47}}
\newlabel{spilezen}{{6.8b}{47}}
\newlabel{spilezen@cref}{{[subfigure][2][6,8]6.8b}{[1][47][]47}}
\newlabel{sub@spilezen}{{b}{47}}
\newlabel{sub@spilezen@cref}{{[subfigure][2][6,8]6.8b}{[1][47][]47}}
\@writefile{lof}{\contentsline {figure}{\numberline {6.8}{\ignorespaces Output debugger SEGGER\relax }}{47}\protected@file@percent }
\@writefile{toc}{\contentsline {chapter}{\numberline {7.}Conclusie en aanbevelingen}{48}\protected@file@percent }
\@writefile{lof}{\addvspace {10pt}}
\@writefile{lot}{\addvspace {10pt}}
\@writefile{lof}{\contentsline {xchapter}{Conclusie en aanbevelingen}{48}\protected@file@percent }
\@writefile{lot}{\contentsline {xchapter}{Conclusie en aanbevelingen}{48}\protected@file@percent }
\@writefile{toc}{\contentsline {chapter}{Appendices}{49}\protected@file@percent }
\citation{cbs}
\@writefile{toc}{\contentsline {chapter}{\numberline {A.}Onderzoek draadloze technologieën}{50}\protected@file@percent }
\@writefile{lof}{\addvspace {10pt}}
\@writefile{lot}{\addvspace {10pt}}
\@writefile{lof}{\contentsline {xchapter}{Onderzoek draadloze technologieën}{50}\protected@file@percent }
\@writefile{lot}{\contentsline {xchapter}{Onderzoek draadloze technologieën}{50}\protected@file@percent }
\newlabel{onddr}{{A}{50}}
\newlabel{onddr@cref}{{[chapter][1][]A}{[1][50][]50}}
\@writefile{toc}{\contentsline {section}{\numberline {A.1}Inleiding}{50}\protected@file@percent }
\newlabel{stal1}{{A.1a}{51}}
\newlabel{stal1@cref}{{[subfigure][1][1,1]A.1a}{[1][51][]51}}
\newlabel{sub@stal1}{{a}{51}}
\newlabel{sub@stal1@cref}{{[subfigure][1][1,1]A.1a}{[1][51][]51}}
\newlabel{stal2}{{A.1b}{51}}
\newlabel{stal2@cref}{{[subfigure][2][1,1]A.1b}{[1][51][]51}}
\newlabel{sub@stal2}{{b}{51}}
\newlabel{sub@stal2@cref}{{[subfigure][2][1,1]A.1b}{[1][51][]51}}
\@writefile{lof}{\contentsline {figure}{\numberline {A.1}{\ignorespaces Mogelijke ophanging motor\relax }}{51}\protected@file@percent }
\citation{los}
\citation{topo}
\@writefile{toc}{\contentsline {section}{\numberline {A.2}Draadloze technologieën}{52}\protected@file@percent }
\@writefile{lof}{\contentsline {figure}{\numberline {A.2}{\ignorespaces Line Of Sight \relax }}{52}\protected@file@percent }
\newlabel{los}{{A.2}{52}}
\newlabel{los@cref}{{[figure][2][1]A.2}{[1][52][]52}}
\citation{Verma2013}
\citation{Zhao2014}
\citation{meshfaq}
\citation{meshfaq}
\citation{Yaakop2017}
\citation{zigbee}
\citation{Ali-rantala}
\citation{Chruszczyk2017}
\@writefile{toc}{\contentsline {subsection}{\numberline {A.2.1}Frequentie, bereik en maximale snelheid}{53}\protected@file@percent }
\citation{DelaCruz2016}
\citation{starmesh}
\citation{hu2013}
\citation{blfees}
\citation{lora}
\@writefile{toc}{\contentsline {subsection}{\numberline {A.2.2}Topologie en gebruik smartphone}{54}\protected@file@percent }
\newlabel{star}{{A.3a}{54}}
\newlabel{star@cref}{{[subfigure][1][1,3]A.3a}{[1][54][]54}}
\newlabel{sub@star}{{a}{54}}
\newlabel{sub@star@cref}{{[subfigure][1][1,3]A.3a}{[1][54][]54}}
\newlabel{mesh}{{A.3b}{54}}
\newlabel{mesh@cref}{{[subfigure][2][1,3]A.3b}{[1][54][]54}}
\newlabel{sub@mesh}{{b}{54}}
\newlabel{sub@mesh@cref}{{[subfigure][2][1,3]A.3b}{[1][54][]54}}
\@writefile{lof}{\contentsline {figure}{\numberline {A.3}{\ignorespaces Twee verschillende netwerk configuraties\relax }}{54}\protected@file@percent }
\@writefile{toc}{\contentsline {subsection}{\numberline {A.2.3}Kosten}{54}\protected@file@percent }
\citation{zigbee}
\@writefile{toc}{\contentsline {section}{\numberline {A.3}Conclusie}{55}\protected@file@percent }
\@writefile{lot}{\contentsline {table}{\numberline {A.1}{\ignorespaces Overzicht draadloze verbindingen\relax }}{55}\protected@file@percent }
\newlabel{tbWrlss}{{A.1}{55}}
\newlabel{tbWrlss@cref}{{[table][1][1]A.1}{[1][55][]55}}
\@writefile{toc}{\contentsline {chapter}{\numberline {B.}Onderzoek Bluetooth mesh}{56}\protected@file@percent }
\@writefile{lof}{\addvspace {10pt}}
\@writefile{lot}{\addvspace {10pt}}
\@writefile{lof}{\contentsline {xchapter}{Onderzoek Bluetooth mesh}{56}\protected@file@percent }
\@writefile{lot}{\contentsline {xchapter}{Onderzoek Bluetooth mesh}{56}\protected@file@percent }
\newlabel{ondmesh}{{B}{56}}
\newlabel{ondmesh@cref}{{[chapter][2][]B}{[1][56][]56}}
\citation{btversions}
\@writefile{toc}{\contentsline {section}{\numberline {B.1}Inleiding}{57}\protected@file@percent }
\@writefile{toc}{\contentsline {section}{\numberline {B.2}Bluetooth Low Energie}{57}\protected@file@percent }
\@writefile{lof}{\contentsline {figure}{\numberline {B.1}{\ignorespaces BLE stack\relax }}{57}\protected@file@percent }
\newlabel{blestack}{{B.1}{57}}
\newlabel{blestack@cref}{{[figure][1][2]B.1}{[1][57][]57}}
\citation{Gomez2012}
\citation{btgatt}
\@writefile{toc}{\contentsline {paragraph}{Physical layer}{58}\protected@file@percent }
\@writefile{lof}{\contentsline {figure}{\numberline {B.2}{\ignorespaces Fequentiespectrum\relax }}{58}\protected@file@percent }
\newlabel{freqhop}{{B.2}{58}}
\newlabel{freqhop@cref}{{[figure][2][2]B.2}{[1][58][]58}}
\@writefile{toc}{\contentsline {paragraph}{Link layer}{58}\protected@file@percent }
\@writefile{toc}{\contentsline {paragraph}{L2CAP}{58}\protected@file@percent }
\@writefile{toc}{\contentsline {paragraph}{GAP}{58}\protected@file@percent }
\@writefile{toc}{\contentsline {paragraph}{Attribute Protocol}{58}\protected@file@percent }
\@writefile{lof}{\contentsline {figure}{\numberline {B.3}{\ignorespaces Attribute structure\relax }}{59}\protected@file@percent }
\newlabel{attstruct}{{B.3}{59}}
\newlabel{attstruct@cref}{{[figure][3][2]B.3}{[1][59][]59}}
\@writefile{toc}{\contentsline {paragraph}{GATT}{59}\protected@file@percent }
\@writefile{toc}{\contentsline {section}{\numberline {B.3}Bluetooth mesh}{59}\protected@file@percent }
\@writefile{toc}{\contentsline {paragraph}{Bearer Layer}{59}\protected@file@percent }
\@writefile{toc}{\contentsline {paragraph}{Network Layer}{59}\protected@file@percent }
\@writefile{lof}{\contentsline {figure}{\numberline {B.4}{\ignorespaces Mesh layers\relax }}{60}\protected@file@percent }
\newlabel{meshlayer}{{B.4}{60}}
\newlabel{meshlayer@cref}{{[figure][4][2]B.4}{[1][59][]60}}
\@writefile{toc}{\contentsline {paragraph}{Lower Transport Layer}{60}\protected@file@percent }
\@writefile{toc}{\contentsline {paragraph}{Upper Transport Layer}{60}\protected@file@percent }
\@writefile{toc}{\contentsline {paragraph}{Acces Layer}{60}\protected@file@percent }
\@writefile{toc}{\contentsline {paragraph}{Foundation Model Layer}{60}\protected@file@percent }
\@writefile{toc}{\contentsline {paragraph}{Model layer}{60}\protected@file@percent }
\@writefile{lof}{\contentsline {figure}{\numberline {B.5}{\ignorespaces Mesh Netwerk\relax }}{61}\protected@file@percent }
\newlabel{meshnetwerk}{{B.5}{61}}
\newlabel{meshnetwerk@cref}{{[figure][5][2]B.5}{[1][60][]61}}
\@writefile{toc}{\contentsline {section}{\numberline {B.4}Adressering}{61}\protected@file@percent }
\@writefile{toc}{\contentsline {subsection}{\numberline {B.4.1}Unicast adres}{61}\protected@file@percent }
\@writefile{toc}{\contentsline {subsection}{\numberline {B.4.2}Group adres}{61}\protected@file@percent }
\@writefile{toc}{\contentsline {subsection}{\numberline {B.4.3}Virtual adres}{62}\protected@file@percent }
\@writefile{toc}{\contentsline {section}{\numberline {B.5}Software}{62}\protected@file@percent }
\@writefile{toc}{\contentsline {subsection}{\numberline {B.5.1}Software mesh}{62}\protected@file@percent }
\@writefile{lot}{\contentsline {table}{\numberline {B.1}{\ignorespaces Keuzetabel mesh model\relax }}{62}\protected@file@percent }
\newlabel{Meshmodel}{{B.1}{62}}
\newlabel{Meshmodel@cref}{{[table][1][2]B.1}{[1][62][]62}}
\@writefile{toc}{\contentsline {section}{\numberline {B.6}Test mesh}{62}\protected@file@percent }
\@writefile{lof}{\contentsline {figure}{\numberline {B.6}{\ignorespaces Mesh layers\relax }}{63}\protected@file@percent }
\newlabel{testmesh}{{B.6}{63}}
\newlabel{testmesh@cref}{{[figure][6][2]B.6}{[1][62][]63}}
\@writefile{toc}{\contentsline {section}{\numberline {B.7}Conclusie}{63}\protected@file@percent }
\citation{Specification2018}
\citation{Campbell1966}
\citation{ccled}
\@writefile{toc}{\contentsline {chapter}{\numberline {C.}Onderzoek LED}{64}\protected@file@percent }
\@writefile{lof}{\addvspace {10pt}}
\@writefile{lot}{\addvspace {10pt}}
\@writefile{lof}{\contentsline {xchapter}{Onderzoek LED}{64}\protected@file@percent }
\@writefile{lot}{\contentsline {xchapter}{Onderzoek LED}{64}\protected@file@percent }
\newlabel{ondled}{{C}{64}}
\newlabel{ondled@cref}{{[chapter][3][]C}{[1][64][]64}}
\@writefile{lof}{\contentsline {figure}{\numberline {C.1}{\ignorespaces LED Forward Current en Load\relax }}{64}\protected@file@percent }
\newlabel{ILED}{{C.1}{64}}
\newlabel{ILED@cref}{{[figure][1][3]C.1}{[1][64][]64}}
\@writefile{toc}{\contentsline {section}{\numberline {C.1}DC-DC conversie}{65}\protected@file@percent }
\@writefile{toc}{\contentsline {subsubsection}{Componentkeuze}{65}\protected@file@percent }
\@writefile{lot}{\contentsline {table}{\numberline {C.1}{\ignorespaces Keuzetabel schakel element\relax }}{65}\protected@file@percent }
\newlabel{schakel}{{C.1}{65}}
\newlabel{schakel@cref}{{[table][1][3]C.1}{[1][65][]65}}
\@writefile{lot}{\contentsline {table}{\numberline {C.2}{\ignorespaces Keuzetabel Schakelen LED\relax }}{65}\protected@file@percent }
\newlabel{schakelled}{{C.2}{65}}
\newlabel{schakelled@cref}{{[table][2][3]C.2}{[1][65][]65}}
\citation{Campbell1966}
\@writefile{lot}{\contentsline {table}{\numberline {C.3}{\ignorespaces Keuzetabel Condensator\relax }}{66}\protected@file@percent }
\newlabel{schakelled}{{C.3}{66}}
\newlabel{schakelled@cref}{{[table][3][3]C.3}{[1][65][]66}}
\@writefile{lot}{\contentsline {table}{\numberline {C.4}{\ignorespaces Keuzetabel LED\relax }}{66}\protected@file@percent }
\citation{Palumbo2010}
\citation{Dickson1976}
\@writefile{lot}{\contentsline {table}{\numberline {C.5}{\ignorespaces Keuzetabel PWM\relax }}{67}\protected@file@percent }
\newlabel{PWMgenereren}{{C.5}{67}}
\newlabel{PWMgenereren@cref}{{[table][5][3]C.5}{[1][67][]67}}
\@writefile{toc}{\contentsline {subsubsection}{Berekeningen charge pump}{67}\protected@file@percent }
\@writefile{lof}{\contentsline {figure}{\numberline {C.2}{\ignorespaces Charge pump\relax }}{67}\protected@file@percent }
\newlabel{schemacp}{{C.2}{67}}
\newlabel{schemacp@cref}{{[figure][2][3]C.2}{[1][67][]67}}
\newlabel{eqvout}{{C.1}{67}}
\newlabel{eqvout@cref}{{[equation][1][3]C.1}{[1][67][]67}}
\@writefile{lof}{\contentsline {figure}{\numberline {C.3}{\ignorespaces Charge pump met schakel gedeelte\relax }}{68}\protected@file@percent }
\newlabel{schemacpschakel}{{C.3}{68}}
\newlabel{schemacpschakel@cref}{{[figure][3][3]C.3}{[1][67][]68}}
\@writefile{lof}{\contentsline {figure}{\numberline {C.4}{\ignorespaces Het sluiten van de van de verbinding als er spanning op de gate van de Nmos aangeboden wordt\relax }}{68}\protected@file@percent }
\newlabel{maasschema}{{C.4}{68}}
\newlabel{maasschema@cref}{{[figure][4][3]C.4}{[1][68][]68}}
\newlabel{eqmaasc}{{C.3}{69}}
\newlabel{eqmaasc@cref}{{[equation][3][3]C.3}{[1][68][]69}}
\citation{Specification2018}
\@writefile{toc}{\contentsline {subsubsection}{Simulatie}{71}\protected@file@percent }
\@writefile{lof}{\contentsline {figure}{\numberline {C.5}{\ignorespaces Simulatie spanning op LED\relax }}{71}\protected@file@percent }
\newlabel{schemacpschakellt}{{C.5}{71}}
\newlabel{schemacpschakellt@cref}{{[figure][5][3]C.5}{[1][71][]71}}
\@writefile{lof}{\contentsline {figure}{\numberline {C.6}{\ignorespaces Simulatie stroom door LED bij pulse\relax }}{71}\protected@file@percent }
\newlabel{simIled}{{C.6}{71}}
\newlabel{simIled@cref}{{[figure][6][3]C.6}{[1][71][]71}}
\@writefile{lof}{\contentsline {figure}{\numberline {C.7}{\ignorespaces Charge pump in LT-Spice\relax }}{72}\protected@file@percent }
\newlabel{similed}{{C.7}{72}}
\newlabel{similed@cref}{{[figure][7][3]C.7}{[1][72][]72}}
\@writefile{toc}{\contentsline {subsubsection}{BOM charge pump}{72}\protected@file@percent }
\newlabel{BOM chargePUMP}{{\caption@xref {BOM chargePUMP}{ on input line 1906}}{72}}
\newlabel{BOM chargePUMP@cref}{{[section][1][3]C.1}{[1][72][]72}}
\citation{boost}
\citation{boost}
\citation{boost}
\citation{boost}
\citation{boost}
\@writefile{toc}{\contentsline {subsection}{\numberline {C.1.1}Boost Converter}{73}\protected@file@percent }
\newlabel{boost}{{C.1.1}{73}}
\newlabel{boost@cref}{{[subsection][1][3,1]C.1.1}{[1][73][]73}}
\@writefile{lof}{\contentsline {figure}{\numberline {C.8}{\ignorespaces Schema boost converter\relax }}{73}\protected@file@percent }
\newlabel{boost}{{C.8}{73}}
\newlabel{boost@cref}{{[figure][8][3]C.8}{[1][73][]73}}
\newlabel{ipk}{{C.13}{73}}
\newlabel{ipk@cref}{{[equation][13][3]C.13}{[1][73][]73}}
\citation{tiboost}
\@writefile{lof}{\contentsline {figure}{\numberline {C.9}{\ignorespaces LTspice boost converter simulatie\relax }}{74}\protected@file@percent }
\newlabel{boostsim}{{C.9}{74}}
\newlabel{boostsim@cref}{{[figure][9][3]C.9}{[1][74][]74}}
\@writefile{lof}{\contentsline {figure}{\numberline {C.10}{\ignorespaces LTspice output stroom V1\relax }}{74}\protected@file@percent }
\newlabel{v1sim}{{C.10}{74}}
\newlabel{v1sim@cref}{{[figure][10][3]C.10}{[1][74][]74}}
\@writefile{toc}{\contentsline {section}{\numberline {C.2}Conclusie}{74}\protected@file@percent }
\@writefile{toc}{\contentsline {chapter}{\numberline {D.}Berekeningen gekozen FET}{75}\protected@file@percent }
\@writefile{lof}{\addvspace {10pt}}
\@writefile{lot}{\addvspace {10pt}}
\@writefile{lof}{\contentsline {xchapter}{Berekeningen gekozen FET}{75}\protected@file@percent }
\@writefile{lot}{\contentsline {xchapter}{Berekeningen gekozen FET}{75}\protected@file@percent }
\newlabel{berfet}{{D}{75}}
\newlabel{berfet@cref}{{[chapter][4][]D}{[1][75][]75}}
\newlabel{eqfet}{{D.1}{75}}
\newlabel{eqfet@cref}{{[equation][1][4]D.1}{[1][75][]75}}
\@writefile{lof}{\contentsline {figure}{\numberline {D.1}{\ignorespaces Warmte weerstand\relax }}{75}\protected@file@percent }
\newlabel{pulse}{{D.1}{75}}
\newlabel{pulse@cref}{{[figure][1][4]D.1}{[1][75][]75}}
\@writefile{toc}{\contentsline {chapter}{\numberline {E.}Data Dictionary}{76}\protected@file@percent }
\@writefile{lof}{\addvspace {10pt}}
\@writefile{lot}{\addvspace {10pt}}
\@writefile{lof}{\contentsline {xchapter}{Data Dictionary}{76}\protected@file@percent }
\@writefile{lot}{\contentsline {xchapter}{Data Dictionary}{76}\protected@file@percent }
\newlabel{DD}{{E}{76}}
\newlabel{DD@cref}{{[chapter][5][]E}{[1][76][]76}}
\@writefile{toc}{\contentsline {chapter}{\numberline {F.}VNA antenne testen}{80}\protected@file@percent }
\@writefile{lof}{\addvspace {10pt}}
\@writefile{lot}{\addvspace {10pt}}
\@writefile{lof}{\contentsline {xchapter}{VNA antenne testen}{80}\protected@file@percent }
\@writefile{lot}{\contentsline {xchapter}{VNA antenne testen}{80}\protected@file@percent }
\newlabel{VNAvol}{{F}{80}}
\newlabel{VNAvol@cref}{{[chapter][6][]F}{[1][80][]80}}
\@writefile{lof}{\contentsline {figure}{\numberline {F.1}{\ignorespaces Meetresultaten BT840 in behuizing\relax }}{80}\protected@file@percent }
\newlabel{d}{{F.1}{80}}
\newlabel{d@cref}{{[figure][1][6]F.1}{[1][80][]80}}
\@writefile{lof}{\contentsline {figure}{\numberline {F.2}{\ignorespaces Meetresultaten BT840 in behuizing\relax }}{81}\protected@file@percent }
\newlabel{BT840VNABH}{{F.2}{81}}
\newlabel{BT840VNABH@cref}{{[figure][2][6]F.2}{[1][81][]81}}
\@writefile{lof}{\contentsline {figure}{\numberline {F.3}{\ignorespaces smith-chart BT840F in behuizing\relax }}{82}\protected@file@percent }
\newlabel{pulse}{{F.3}{82}}
\newlabel{pulse@cref}{{[figure][3][6]F.3}{[1][82][]82}}
\@writefile{toc}{\contentsline {chapter}{\numberline {G.}Tekeningen PCB en solderen}{83}\protected@file@percent }
\@writefile{lof}{\addvspace {10pt}}
\@writefile{lot}{\addvspace {10pt}}
\@writefile{lof}{\contentsline {xchapter}{Tekeningen PCB en solderen}{83}\protected@file@percent }
\@writefile{lot}{\contentsline {xchapter}{Tekeningen PCB en solderen}{83}\protected@file@percent }
\newlabel{tekpcb}{{G}{83}}
\newlabel{tekpcb@cref}{{[chapter][7][]G}{[1][83][]83}}
\@writefile{toc}{\contentsline {section}{\numberline {G.1}Realisatie Hardware}{83}\protected@file@percent }
\newlabel{PCB2DTOP}{{G.1a}{83}}
\newlabel{PCB2DTOP@cref}{{[subfigure][1][7,1]G.1a}{[1][83][]83}}
\newlabel{sub@PCB2DTOP}{{a}{83}}
\newlabel{sub@PCB2DTOP@cref}{{[subfigure][1][7,1]G.1a}{[1][83][]83}}
\newlabel{PCB2DBOT}{{G.1b}{83}}
\newlabel{PCB2DBOT@cref}{{[subfigure][2][7,1]G.1b}{[1][83][]83}}
\newlabel{sub@PCB2DBOT}{{b}{83}}
\newlabel{sub@PCB2DBOT@cref}{{[subfigure][2][7,1]G.1b}{[1][83][]83}}
\@writefile{lof}{\contentsline {figure}{\numberline {G.1}{\ignorespaces 2D tekeningen van de printplaten\relax }}{83}\protected@file@percent }
\newlabel{PCB3DTOP}{{G.2a}{84}}
\newlabel{PCB3DTOP@cref}{{[subfigure][1][7,2]G.2a}{[1][83][]84}}
\newlabel{sub@PCB3DTOP}{{a}{84}}
\newlabel{sub@PCB3DTOP@cref}{{[subfigure][1][7,2]G.2a}{[1][83][]84}}
\newlabel{PCB3DBOT}{{G.2b}{84}}
\newlabel{PCB3DBOT@cref}{{[subfigure][2][7,2]G.2b}{[1][83][]84}}
\newlabel{sub@PCB3DBOT}{{b}{84}}
\newlabel{sub@PCB3DBOT@cref}{{[subfigure][2][7,2]G.2b}{[1][83][]84}}
\@writefile{lof}{\contentsline {figure}{\numberline {G.2}{\ignorespaces 3D tekeningen van de printplaten\relax }}{84}\protected@file@percent }
\@writefile{toc}{\contentsline {section}{\numberline {G.2}Solderen}{85}\protected@file@percent }
\newlabel{PCBTOP}{{G.3a}{85}}
\newlabel{PCBTOP@cref}{{[subfigure][1][7,3]G.3a}{[1][85][]85}}
\newlabel{sub@PCBTOP}{{a}{85}}
\newlabel{sub@PCBTOP@cref}{{[subfigure][1][7,3]G.3a}{[1][85][]85}}
\newlabel{PCBBOT}{{G.3b}{85}}
\newlabel{PCBBOT@cref}{{[subfigure][2][7,3]G.3b}{[1][85][]85}}
\newlabel{sub@PCBBOT}{{b}{85}}
\newlabel{sub@PCBBOT@cref}{{[subfigure][2][7,3]G.3b}{[1][85][]85}}
\@writefile{lof}{\contentsline {figure}{\numberline {G.3}{\ignorespaces Gesoldeerde printen met BT840\relax }}{85}\protected@file@percent }
\newlabel{n}{{G.4a}{85}}
\newlabel{n@cref}{{[subfigure][1][7,4]G.4a}{[1][85][]85}}
\newlabel{sub@n}{{a}{85}}
\newlabel{sub@n@cref}{{[subfigure][1][7,4]G.4a}{[1][85][]85}}
\newlabel{l}{{G.4b}{85}}
\newlabel{l@cref}{{[subfigure][2][7,4]G.4b}{[1][85][]85}}
\newlabel{sub@l}{{b}{85}}
\newlabel{sub@l@cref}{{[subfigure][2][7,4]G.4b}{[1][85][]85}}
\@writefile{lof}{\contentsline {figure}{\numberline {G.4}{\ignorespaces Gesoldeerde printen met BT840F\relax }}{85}\protected@file@percent }
\@writefile{toc}{\contentsline {section}{\numberline {G.3}Componenten}{86}\protected@file@percent }
\@writefile{toc}{\contentsline {section}{\numberline {G.4}Program connector}{87}\protected@file@percent }
\newlabel{progont}{{G.5a}{87}}
\newlabel{progont@cref}{{[subfigure][1][7,5]G.5a}{[1][87][]87}}
\newlabel{sub@progont}{{a}{87}}
\newlabel{sub@progont@cref}{{[subfigure][1][7,5]G.5a}{[1][87][]87}}
\newlabel{progrea}{{G.5b}{87}}
\newlabel{progrea@cref}{{[subfigure][2][7,5]G.5b}{[1][87][]87}}
\newlabel{sub@progrea}{{b}{87}}
\newlabel{sub@progrea@cref}{{[subfigure][2][7,5]G.5b}{[1][87][]87}}
\@writefile{lof}{\contentsline {figure}{\numberline {G.5}{\ignorespaces Program connector\relax }}{87}\protected@file@percent }
\@writefile{toc}{\contentsline {section}{\numberline {G.5}Software}{87}\protected@file@percent }
\@writefile{toc}{\contentsline {chapter}{\numberline {H.}Integratietest}{88}\protected@file@percent }
\@writefile{lof}{\addvspace {10pt}}
\@writefile{lot}{\addvspace {10pt}}
\@writefile{lof}{\contentsline {xchapter}{Integratietest}{88}\protected@file@percent }
\@writefile{lot}{\contentsline {xchapter}{Integratietest}{88}\protected@file@percent }
\newlabel{inttest}{{H}{88}}
\newlabel{inttest@cref}{{[chapter][8][]H}{[1][88][]88}}
\@writefile{toc}{\contentsline {section}{\numberline {H.1}Testen}{88}\protected@file@percent }
\@writefile{toc}{\contentsline {subsection}{\numberline {H.1.1}Test PWM}{89}\protected@file@percent }
\@writefile{lot}{\contentsline {table}{\numberline {H.1}{\ignorespaces Test PWM\relax }}{89}\protected@file@percent }
\newlabel{itc1}{{H.1}{89}}
\newlabel{itc1@cref}{{[table][1][8]H.1}{[1][89][]89}}
\@writefile{lof}{\contentsline {figure}{\numberline {H.1}{\ignorespaces PWM aangeboden aan de charge pump.\relax }}{89}\protected@file@percent }
\@writefile{toc}{\contentsline {subsection}{\numberline {H.1.2}Test Pulse}{90}\protected@file@percent }
\@writefile{lot}{\contentsline {table}{\numberline {H.2}{\ignorespaces Test PWM\relax }}{90}\protected@file@percent }
\newlabel{itc1}{{H.2}{90}}
\newlabel{itc1@cref}{{[table][2][8]H.2}{[1][90][]90}}
\@writefile{lof}{\contentsline {figure}{\numberline {H.2}{\ignorespaces Pulse aangeboden aan gate van de nMOS.\relax }}{90}\protected@file@percent }
\@writefile{toc}{\contentsline {subsection}{\numberline {H.1.3}Test aangelegde verbindingen Software update}{91}\protected@file@percent }
\@writefile{lot}{\contentsline {table}{\numberline {H.3}{\ignorespaces Test verbinding program connector\relax }}{91}\protected@file@percent }
\newlabel{itc1}{{H.3}{91}}
\newlabel{itc1@cref}{{[table][3][8]H.3}{[1][91][]91}}
\@writefile{toc}{\contentsline {chapter}{\numberline {I.}Unit test}{92}\protected@file@percent }
\@writefile{lof}{\addvspace {10pt}}
\@writefile{lot}{\addvspace {10pt}}
\@writefile{lof}{\contentsline {xchapter}{Unit test}{92}\protected@file@percent }
\@writefile{lot}{\contentsline {xchapter}{Unit test}{92}\protected@file@percent }
\newlabel{unittest}{{I}{92}}
\newlabel{unittest@cref}{{[chapter][9][]I}{[1][92][]92}}
\@writefile{toc}{\contentsline {section}{\numberline {I.1}Test LED}{92}\protected@file@percent }
\@writefile{lot}{\contentsline {table}{\numberline {I.1}{\ignorespaces Test output spanning Charge-pump\relax }}{92}\protected@file@percent }
\newlabel{utci}{{I.1}{92}}
\newlabel{utci@cref}{{[table][1][9]I.1}{[1][92][]92}}
\@writefile{lof}{\contentsline {figure}{\numberline {I.1}{\ignorespaces Output spanning $C_2$. De LED knippert en de spanning zakt in en de condensator wordt opgeladen.\relax }}{92}\protected@file@percent }
\@writefile{toc}{\contentsline {section}{\numberline {I.2}Test stroom LED}{93}\protected@file@percent }
\@writefile{lot}{\contentsline {table}{\numberline {I.2}{\ignorespaces Test stroom LED\relax }}{93}\protected@file@percent }
\newlabel{utc2}{{I.2}{93}}
\newlabel{utc2@cref}{{[table][2][9]I.2}{[1][93][]93}}
\@writefile{lof}{\contentsline {figure}{\numberline {I.2}{\ignorespaces Stroom gemeten over LED $D_3$. De stroom neemt af door het ontladen van de condensator\relax }}{93}\protected@file@percent }
\@writefile{toc}{\contentsline {section}{\numberline {I.3}Test UART zenden}{94}\protected@file@percent }
\@writefile{lot}{\contentsline {table}{\numberline {I.3}{\ignorespaces Test UART\relax }}{94}\protected@file@percent }
\newlabel{itc1}{{I.3}{94}}
\newlabel{itc1@cref}{{[table][3][9]I.3}{[1][94][]94}}
\newlabel{terauartunit}{{I.3a}{94}}
\newlabel{terauartunit@cref}{{[subfigure][1][9,3]I.3a}{[1][94][]94}}
\newlabel{sub@terauartunit}{{a}{94}}
\newlabel{sub@terauartunit@cref}{{[subfigure][1][9,3]I.3a}{[1][94][]94}}
\newlabel{instuart}{{I.3b}{94}}
\newlabel{instuart@cref}{{[subfigure][2][9,3]I.3b}{[1][94][]94}}
\newlabel{sub@instuart}{{b}{94}}
\newlabel{sub@instuart@cref}{{[subfigure][2][9,3]I.3b}{[1][94][]94}}
\@writefile{lof}{\contentsline {figure}{\numberline {I.3}{\ignorespaces Test UART\relax }}{94}\protected@file@percent }
\@writefile{toc}{\contentsline {section}{\numberline {I.4}Testresultaten commando's IO-net}{95}\protected@file@percent }
\newlabel{IONETT}{{I.4}{95}}
\newlabel{IONETT@cref}{{[section][4][9]I.4}{[1][95][]95}}
\@writefile{lol}{\contentsline {lstlisting}{\numberline {I.1}Testcode Fancom}{95}\protected@file@percent }
\@writefile{lof}{\contentsline {figure}{\numberline {I.4}{\ignorespaces Test Commando's ophalen diagnostische data\relax }}{98}\protected@file@percent }
\newlabel{testrimpel}{{I.4}{98}}
\newlabel{testrimpel@cref}{{[figure][4][9]I.4}{[1][98][]98}}
\@writefile{toc}{\contentsline {chapter}{\numberline {J.}Bill Of Materials}{99}\protected@file@percent }
\@writefile{lof}{\addvspace {10pt}}
\@writefile{lot}{\addvspace {10pt}}
\@writefile{lof}{\contentsline {xchapter}{Bill Of Materials}{99}\protected@file@percent }
\@writefile{lot}{\contentsline {xchapter}{Bill Of Materials}{99}\protected@file@percent }
\@writefile{lof}{\contentsline {figure}{\numberline {J.1}{\ignorespaces BOM\relax }}{100}\protected@file@percent }
\newlabel{BOM}{{J.1}{100}}
\newlabel{BOM@cref}{{[figure][1][10]J.1}{[1][100][]100}}
\@writefile{toc}{\contentsline {chapter}{\numberline {K.}Handleiding BlueFarm}{101}\protected@file@percent }
\@writefile{lof}{\addvspace {10pt}}
\@writefile{lot}{\addvspace {10pt}}
\@writefile{lof}{\contentsline {xchapter}{Handleiding BlueFarm}{101}\protected@file@percent }
\@writefile{lot}{\contentsline {xchapter}{Handleiding BlueFarm}{101}\protected@file@percent }
\@writefile{toc}{\contentsline {section}{\numberline {K.1}Programmeren}{101}\protected@file@percent }
\@writefile{toc}{\contentsline {section}{\numberline {K.2}Provisioneren}{102}\protected@file@percent }
\@writefile{lof}{\contentsline {figure}{\numberline {K.1}{\ignorespaces Stappenplan provisioneren\relax }}{103}\protected@file@percent }
\newlabel{Stappenplan}{{K.1}{103}}
\newlabel{Stappenplan@cref}{{[figure][1][11]K.1}{[1][102][]103}}
\@writefile{lof}{\contentsline {figure}{\numberline {K.1}{\ignorespaces Stap 10\relax }}{103}\protected@file@percent }
\@writefile{toc}{\contentsline {section}{\numberline {K.3}Probleem oplossen}{104}\protected@file@percent }
\@writefile{toc}{\contentsline {chapter}{\numberline {L.}Plan Van Aanpak}{105}\protected@file@percent }
\@writefile{lof}{\addvspace {10pt}}
\@writefile{lot}{\addvspace {10pt}}
\@writefile{lof}{\contentsline {xchapter}{Plan Van Aanpak}{105}\protected@file@percent }
\@writefile{lot}{\contentsline {xchapter}{Plan Van Aanpak}{105}\protected@file@percent }
\newlabel{hs:vb}{{L}{105}}
\newlabel{hs:vb@cref}{{[chapter][12][]L}{[1][105][]105}}
\@writefile{lot}{\contentsline {table}{\numberline {L.1}{\ignorespaces Versiehistorie\relax }}{105}\protected@file@percent }
\newlabel{tab:vb}{{L.1}{105}}
\newlabel{tab:vb@cref}{{[table][1][12]L.1}{[1][105][]105}}
\@writefile{toc}{\contentsline {section}{\numberline {L.1}Achtergronden}{106}\protected@file@percent }
\newlabel{hs:h1}{{L.1}{106}}
\newlabel{hs:h1@cref}{{[section][1][12]L.1}{[1][106][]106}}
\newlabel{hs:h11}{{L.1}{106}}
\newlabel{hs:h11@cref}{{[section][1][12]L.1}{[1][106][]106}}
\newlabel{hs:h12}{{L.1}{106}}
\newlabel{hs:h12@cref}{{[section][1][12]L.1}{[1][106][]106}}
\newlabel{hs:h13}{{L.1}{106}}
\newlabel{hs:h13@cref}{{[section][1][12]L.1}{[1][106][]106}}
\@writefile{toc}{\contentsline {section}{\numberline {L.2}Projectresultaat}{106}\protected@file@percent }
\newlabel{hs:h2}{{L.2}{106}}
\newlabel{hs:h2@cref}{{[section][2][12]L.2}{[1][106][]106}}
\newlabel{hs:h21}{{L.2}{106}}
\newlabel{hs:h21@cref}{{[section][2][12]L.2}{[1][106][]106}}
\newlabel{hs:h22}{{L.2}{106}}
\newlabel{hs:h22@cref}{{[section][2][12]L.2}{[1][106][]106}}
\newlabel{hs:h3}{{L.2}{107}}
\newlabel{hs:h3@cref}{{[section][2][12]L.2}{[1][107][]107}}
\newlabel{hs:h31}{{L.2}{107}}
\newlabel{hs:h31@cref}{{[section][2][12]L.2}{[1][107][]107}}
\newlabel{hs:h32}{{L.2}{107}}
\newlabel{hs:h32@cref}{{[section][2][12]L.2}{[1][107][]107}}
\@writefile{lof}{\contentsline {figure}{\numberline {L.1}{\ignorespaces V-model\relax }}{108}\protected@file@percent }
\newlabel{wrap-fig:1}{{L.1}{108}}
\newlabel{wrap-fig:1@cref}{{[figure][1][12]L.1}{[1][108][]108}}
\@writefile{toc}{\contentsline {section}{\numberline {L.4}Projectgrenzen en randvoorwaarden}{109}\protected@file@percent }
\newlabel{hs:h4}{{L.4}{109}}
\newlabel{hs:h4@cref}{{[section][4][12]L.4}{[1][109][]109}}
\newlabel{hs:h41}{{L.4}{109}}
\newlabel{hs:h41@cref}{{[section][4][12]L.4}{[1][109][]109}}
\newlabel{hs:h42}{{L.4}{109}}
\newlabel{hs:h42@cref}{{[section][4][12]L.4}{[1][109][]109}}
\@writefile{toc}{\contentsline {section}{\numberline {L.5}Tussenresultaten}{109}\protected@file@percent }
\newlabel{hs:h5}{{L.5}{109}}
\newlabel{hs:h5@cref}{{[section][5][12]L.5}{[1][109][]109}}
\newlabel{hs:h51}{{L.5}{109}}
\newlabel{hs:h51@cref}{{[section][5][12]L.5}{[1][109][]109}}
\newlabel{hs:h52}{{L.5}{109}}
\newlabel{hs:h52@cref}{{[section][5][12]L.5}{[1][109][]109}}
\@writefile{toc}{\contentsline {section}{\numberline {L.6}Kwaliteit}{110}\protected@file@percent }
\newlabel{hs:h6}{{L.6}{110}}
\newlabel{hs:h6@cref}{{[section][6][12]L.6}{[1][110][]110}}
\newlabel{hs:h61}{{L.6}{110}}
\newlabel{hs:h61@cref}{{[section][6][12]L.6}{[1][110][]110}}
\newlabel{hs:h62}{{L.6}{110}}
\newlabel{hs:h62@cref}{{[section][6][12]L.6}{[1][110][]110}}
\newlabel{hs:h63}{{L.6}{110}}
\newlabel{hs:h63@cref}{{[section][6][12]L.6}{[1][110][]110}}
\newlabel{hs:h64}{{L.6}{110}}
\newlabel{hs:h64@cref}{{[section][6][12]L.6}{[1][110][]110}}
\@writefile{toc}{\contentsline {section}{\numberline {L.7}Projectorganisatie}{111}\protected@file@percent }
\newlabel{hs:h7}{{L.7}{111}}
\newlabel{hs:h7@cref}{{[section][7][12]L.7}{[1][111][]111}}
\newlabel{hs:h71}{{L.7}{111}}
\newlabel{hs:h71@cref}{{[section][7][12]L.7}{[1][111][]111}}
\@writefile{lot}{\contentsline {table}{\numberline {L.2}{\ignorespaces Persoonlijke gegevens\relax }}{111}\protected@file@percent }
\newlabel{tab:pg}{{L.2}{111}}
\newlabel{tab:pg@cref}{{[table][2][12]L.2}{[1][111][]111}}
\newlabel{hs:h72}{{L.7}{111}}
\newlabel{hs:h72@cref}{{[section][7][12]L.7}{[1][111][]111}}
\newlabel{hs:h73}{{L.7}{111}}
\newlabel{hs:h73@cref}{{[section][7][12]L.7}{[1][111][]111}}
\newlabel{hs:h74}{{L.7}{111}}
\newlabel{hs:h74@cref}{{[section][7][12]L.7}{[1][111][]111}}
\@writefile{toc}{\contentsline {section}{\numberline {L.8}Planning}{112}\protected@file@percent }
\newlabel{hs:h8}{{L.8}{112}}
\newlabel{hs:h8@cref}{{[section][8][12]L.8}{[1][111][]112}}
\@writefile{lof}{\contentsline {figure}{\numberline {L.2}{\ignorespaces Planning\relax }}{113}\protected@file@percent }
\newlabel{planning}{{L.2}{113}}
\newlabel{planning@cref}{{[figure][2][12]L.2}{[1][113][]113}}
\@writefile{toc}{\contentsline {section}{\numberline {L.9}Kosten en baten}{114}\protected@file@percent }
\newlabel{hs:h9}{{L.9}{114}}
\newlabel{hs:h9@cref}{{[section][9][12]L.9}{[1][114][]114}}
\newlabel{hs:h91}{{L.9}{114}}
\newlabel{hs:h91@cref}{{[section][9][12]L.9}{[1][114][]114}}
\newlabel{hs:h92}{{L.9}{114}}
\newlabel{hs:h92@cref}{{[section][9][12]L.9}{[1][114][]114}}
\newlabel{hs:h93}{{L.9}{114}}
\newlabel{hs:h93@cref}{{[section][9][12]L.9}{[1][114][]114}}
\@writefile{toc}{\contentsline {section}{\numberline {L.10}Risico's}{114}\protected@file@percent }
\newlabel{hs:h10}{{L.10}{114}}
\newlabel{hs:h10@cref}{{[section][10][12]L.10}{[1][114][]114}}
\newlabel{hs:h101}{{L.10}{114}}
\newlabel{hs:h101@cref}{{[section][10][12]L.10}{[1][114][]114}}
\newlabel{hs:h102}{{L.10}{115}}
\newlabel{hs:h102@cref}{{[section][10][12]L.10}{[1][114][]115}}
\newlabel{hs:h103}{{L.10}{115}}
\newlabel{hs:h103@cref}{{[section][10][12]L.10}{[1][115][]115}}
\@writefile{lot}{\contentsline {table}{\numberline {L.3}{\ignorespaces Externe Risico's\relax }}{116}\protected@file@percent }
\newlabel{tab:ra}{{L.3}{116}}
\newlabel{tab:ra@cref}{{[table][3][12]L.3}{[1][115][]116}}
\@writefile{toc}{\contentsline {chapter}{\numberline {M.}Competentieverantwoording}{117}\protected@file@percent }
\@writefile{lof}{\addvspace {10pt}}
\@writefile{lot}{\addvspace {10pt}}
\@writefile{lof}{\contentsline {xchapter}{Competentieverantwoording}{117}\protected@file@percent }
\@writefile{lot}{\contentsline {xchapter}{Competentieverantwoording}{117}\protected@file@percent }
\@writefile{toc}{\contentsline {section}{\numberline {M.1}Analyseren}{117}\protected@file@percent }
\@writefile{toc}{\contentsline {section}{\numberline {M.2}Ontwerpen}{118}\protected@file@percent }
\@writefile{toc}{\contentsline {section}{\numberline {M.3}Realiseren}{118}\protected@file@percent }
\@writefile{toc}{\contentsline {section}{\numberline {M.4}Beheren}{118}\protected@file@percent }
\@writefile{toc}{\contentsline {section}{\numberline {M.5}Managen}{118}\protected@file@percent }
\@writefile{toc}{\contentsline {section}{\numberline {M.6}Adviseren}{119}\protected@file@percent }
\@writefile{toc}{\contentsline {section}{\numberline {M.7}Onderzoeken}{119}\protected@file@percent }
\@writefile{toc}{\contentsline {section}{\numberline {M.8}Professionaliseren}{119}\protected@file@percent }
\@writefile{toc}{\contentsline {chapter}{\numberline {N.}Reflectie}{120}\protected@file@percent }
\@writefile{lof}{\addvspace {10pt}}
\@writefile{lot}{\addvspace {10pt}}
\@writefile{lof}{\contentsline {xchapter}{Reflectie}{120}\protected@file@percent }
\@writefile{lot}{\contentsline {xchapter}{Reflectie}{120}\protected@file@percent }
\@writefile{toc}{\contentsline {section}{\numberline {N.1}Analyseren}{120}\protected@file@percent }
\@writefile{toc}{\contentsline {section}{\numberline {N.2}Ontwerpen}{120}\protected@file@percent }
\@writefile{toc}{\contentsline {section}{\numberline {N.3}Realiseren}{120}\protected@file@percent }
\@writefile{toc}{\contentsline {section}{\numberline {N.4}Beheren}{120}\protected@file@percent }
\@writefile{toc}{\contentsline {section}{\numberline {N.5}Managen}{121}\protected@file@percent }
\@writefile{toc}{\contentsline {section}{\numberline {N.6}Adviseren}{121}\protected@file@percent }
\@writefile{toc}{\contentsline {section}{\numberline {N.7}Onderzoeken}{121}\protected@file@percent }
\@writefile{toc}{\contentsline {section}{\numberline {N.8}Professionaliseren}{121}\protected@file@percent }
\@writefile{toc}{\contentsline {chapter}{\numberline {O.}Beoordeling bedrijfsbegeleider}{122}\protected@file@percent }
\@writefile{lof}{\addvspace {10pt}}
\@writefile{lot}{\addvspace {10pt}}
\@writefile{lof}{\contentsline {xchapter}{Beoordeling bedrijfsbegeleider}{122}\protected@file@percent }
\@writefile{lot}{\contentsline {xchapter}{Beoordeling bedrijfsbegeleider}{122}\protected@file@percent }
\@writefile{toc}{\contentsline {chapter}{\numberline {P.}Code}{123}\protected@file@percent }
\@writefile{lof}{\addvspace {10pt}}
\@writefile{lot}{\addvspace {10pt}}
\@writefile{lof}{\contentsline {xchapter}{Code}{123}\protected@file@percent }
\@writefile{lot}{\contentsline {xchapter}{Code}{123}\protected@file@percent }
\@writefile{toc}{\contentsline {section}{\numberline {P.1}Main.c}{123}\protected@file@percent }
\@writefile{toc}{\contentsline {section}{\numberline {P.2}UART\_debug.c}{130}\protected@file@percent }
\newlabel{codeuart}{{P.2}{130}}
\newlabel{codeuart@cref}{{[section][2][16]P.2}{[1][130][]130}}
\@writefile{toc}{\contentsline {section}{\numberline {P.3}SPI\_Flash.c}{131}\protected@file@percent }
\newlabel{codeSPI}{{P.3}{131}}
\newlabel{codeSPI@cref}{{[section][3][16]P.3}{[1][131][]131}}
\@writefile{toc}{\contentsline {section}{\numberline {P.4}Code Diagnostische data}{132}\protected@file@percent }
\newlabel{codeddata}{{P.4}{132}}
\newlabel{codeddata@cref}{{[section][4][16]P.4}{[1][132][]132}}
\newlabel{statussend}{{P.1}{132}}
\newlabel{statussend@cref}{{[listing][1][16]P.1}{[1][132][]132}}
\@writefile{lol}{\contentsline {lstlisting}{\numberline {P.1}Functie voor het versturen van de diagnostische data}{132}\protected@file@percent }
\newlabel{codestruct2}{{P.2}{133}}
\newlabel{codestruct2@cref}{{[listing][2][16]P.2}{[1][133][]133}}
\@writefile{lol}{\contentsline {lstlisting}{\numberline {P.2}Functie voor het versturen van de diagnostische data in generic\_level\_messages.h}{133}\protected@file@percent }
\bibstyle{apacite}
\bibdata{Referenties/Referenties,Referenties/Afstuderen}
\bibcite{Ali-rantala}{\citeauthoryear {Ali-rantala, Sydanheimo, Keskilammi{}\ \BBA{} Kivikoski}{Ali-rantala\ \BOthers {.}}{{\APACyear {{\bibnodate {}}}}}}
\APACbibcite{Ali-rantala}{\citeauthoryear {Ali-rantala, Sydanheimo, Keskilammi{}\ \BBA{} Kivikoski}{Ali-rantala\ \BOthers {.}}{{\APACyear {{\bibnodate {}}}}}}
\bibcite{zigbee}{\citeauthoryear {Alliance}{Alliance}{{\APACyear {2020}}}}
\APACbibcite{zigbee}{\citeauthoryear {Alliance}{Alliance}{{\APACyear {2020}}}}
\bibcite{class}{\citeauthoryear {Bluetooth}{Bluetooth}{{\APACyear {2020}}{\APACexlab {{\BCnt {1}}}}}}
\APACbibcite{class}{\citeauthoryear {Bluetooth}{Bluetooth}{{\APACyear {2020}}{\APACexlab {{\BCnt {1}}}}}}
\bibcite{meshfaq}{\citeauthoryear {Bluetooth}{Bluetooth}{{\APACyear {2020}}{\APACexlab {{\BCnt {2}}}}}}
\APACbibcite{meshfaq}{\citeauthoryear {Bluetooth}{Bluetooth}{{\APACyear {2020}}{\APACexlab {{\BCnt {2}}}}}}
\bibcite{blfees}{\citeauthoryear {Bluetooth}{Bluetooth}{{\APACyear {2020}}{\APACexlab {{\BCnt {3}}}}}}
\APACbibcite{blfees}{\citeauthoryear {Bluetooth}{Bluetooth}{{\APACyear {2020}}{\APACexlab {{\BCnt {3}}}}}}
\bibcite{btversions}{\citeauthoryear {Bluetooth}{Bluetooth}{{\APACyear {2020}}{\APACexlab {{\BCnt {4}}}}}}
\APACbibcite{btversions}{\citeauthoryear {Bluetooth}{Bluetooth}{{\APACyear {2020}}{\APACexlab {{\BCnt {4}}}}}}
\bibcite{btgatt}{\citeauthoryear {Bluetooth}{Bluetooth}{{\APACyear {2020}}{\APACexlab {{\BCnt {5}}}}}}
\APACbibcite{btgatt}{\citeauthoryear {Bluetooth}{Bluetooth}{{\APACyear {2020}}{\APACexlab {{\BCnt {5}}}}}}
\bibcite{Introduction2017}{\citeauthoryear {{Bluetooth SIG}}{{Bluetooth SIG}}{{\APACyear {2017}}}}
\APACbibcite{Introduction2017}{\citeauthoryear {{Bluetooth SIG}}{{Bluetooth SIG}}{{\APACyear {2017}}}}
\bibcite{BluetoothSIG2019}{\citeauthoryear {{Bluetooth SIG}}{{Bluetooth SIG}}{{\APACyear {2019}}}}
\APACbibcite{BluetoothSIG2019}{\citeauthoryear {{Bluetooth SIG}}{{Bluetooth SIG}}{{\APACyear {2019}}}}
\bibcite{BluetoothSIG1999}{\citeauthoryear {{Bluetooth SIG Proprietary}}{{Bluetooth SIG Proprietary}}{{\APACyear {1999}}}}
\APACbibcite{BluetoothSIG1999}{\citeauthoryear {{Bluetooth SIG Proprietary}}{{Bluetooth SIG Proprietary}}{{\APACyear {1999}}}}
\bibcite{codemeshlr}{\citeauthoryear {Bui}{Bui}{{\APACyear {2017}}}}
\APACbibcite{codemeshlr}{\citeauthoryear {Bui}{Bui}{{\APACyear {2017}}}}
\bibcite{tiboost}{\citeauthoryear {Caldwell\ \BBA{} Amidon}{Caldwell\ \BBA{} Amidon}{{\APACyear {2012}}}}
\APACbibcite{tiboost}{\citeauthoryear {Caldwell\ \BBA{} Amidon}{Caldwell\ \BBA{} Amidon}{{\APACyear {2012}}}}
\bibcite{Campbell1966}{\citeauthoryear {Campbell\ \BBA{} Gubisch}{Campbell\ \BBA{} Gubisch}{{\APACyear {1966}}}}
\APACbibcite{Campbell1966}{\citeauthoryear {Campbell\ \BBA{} Gubisch}{Campbell\ \BBA{} Gubisch}{{\APACyear {1966}}}}
\bibcite{cbs}{\citeauthoryear {CBS}{CBS}{{\APACyear {2019}}}}
\APACbibcite{cbs}{\citeauthoryear {CBS}{CBS}{{\APACyear {2019}}}}
\bibcite{Chruszczyk2017}{\citeauthoryear {Chruszczyk}{Chruszczyk}{{\APACyear {2017}}}}
\APACbibcite{Chruszczyk2017}{\citeauthoryear {Chruszczyk}{Chruszczyk}{{\APACyear {2017}}}}
\bibcite{boost}{\citeauthoryear {Cooper}{Cooper}{{\APACyear {2013}}}}
\APACbibcite{boost}{\citeauthoryear {Cooper}{Cooper}{{\APACyear {2013}}}}
\bibcite{DelaCruz2016}{\citeauthoryear {{Dela Cruz}, Parabuac{}\ \BBA{} Tiglao}{{Dela Cruz}\ \BOthers {.}}{{\APACyear {2016}}}}
\APACbibcite{DelaCruz2016}{\citeauthoryear {{Dela Cruz}, Parabuac{}\ \BBA{} Tiglao}{{Dela Cruz}\ \BOthers {.}}{{\APACyear {2016}}}}
\bibcite{Dickson1976}{\citeauthoryear {Dickson}{Dickson}{{\APACyear {1976}}}}
\APACbibcite{Dickson1976}{\citeauthoryear {Dickson}{Dickson}{{\APACyear {1976}}}}
\bibcite{Fancom2020}{\citeauthoryear {Fancom}{Fancom}{{\APACyear {2020}}}}
\APACbibcite{Fancom2020}{\citeauthoryear {Fancom}{Fancom}{{\APACyear {2020}}}}
\bibcite{Gomez2012}{\citeauthoryear {Gomez, Oller{}\ \BBA{} Paradells}{Gomez\ \BOthers {.}}{{\APACyear {2012}}}}
\APACbibcite{Gomez2012}{\citeauthoryear {Gomez, Oller{}\ \BBA{} Paradells}{Gomez\ \BOthers {.}}{{\APACyear {2012}}}}
\bibcite{hu2013}{\citeauthoryear {Hu, Fu, She{}\ \BBA{} Yao}{Hu\ \BOthers {.}}{{\APACyear {2013}}}}
\APACbibcite{hu2013}{\citeauthoryear {Hu, Fu, She{}\ \BBA{} Yao}{Hu\ \BOthers {.}}{{\APACyear {2013}}}}
\bibcite{ccled}{\citeauthoryear {Keim}{Keim}{{\APACyear {2016}}}}
\APACbibcite{ccled}{\citeauthoryear {Keim}{Keim}{{\APACyear {2016}}}}
\bibcite{lora}{\citeauthoryear {KPN}{KPN}{{\APACyear {2020}}}}
\APACbibcite{lora}{\citeauthoryear {KPN}{KPN}{{\APACyear {2020}}}}
\bibcite{Specification2018}{\citeauthoryear {Nordic}{Nordic}{{\APACyear {2018}}}}
\APACbibcite{Specification2018}{\citeauthoryear {Nordic}{Nordic}{{\APACyear {2018}}}}
\bibcite{Palumbo2010}{\citeauthoryear {Palumbo\ \BBA{} Pappalardo}{Palumbo\ \BBA{} Pappalardo}{{\APACyear {2010}}}}
\APACbibcite{Palumbo2010}{\citeauthoryear {Palumbo\ \BBA{} Pappalardo}{Palumbo\ \BBA{} Pappalardo}{{\APACyear {2010}}}}
\@writefile{toc}{\contentsline {section}{Literatuur}{134}\protected@file@percent }
\bibcite{Pylarinos2003}{\citeauthoryear {Pylarinos}{Pylarinos}{{\APACyear {2003}}}}
\APACbibcite{Pylarinos2003}{\citeauthoryear {Pylarinos}{Pylarinos}{{\APACyear {2003}}}}
\bibcite{los}{\citeauthoryear {Tablo}{Tablo}{{\APACyear {2018}}}}
\APACbibcite{los}{\citeauthoryear {Tablo}{Tablo}{{\APACyear {2018}}}}
\bibcite{starmesh}{\citeauthoryear {Techdifferences}{Techdifferences}{{\APACyear {2018}}}}
\APACbibcite{starmesh}{\citeauthoryear {Techdifferences}{Techdifferences}{{\APACyear {2018}}}}
\bibcite{Verma2013}{\citeauthoryear {Verma, Fakharzadeh{}\ \BBA{} Technologies}{Verma\ \BOthers {.}}{{\APACyear {2013}}}}
\APACbibcite{Verma2013}{\citeauthoryear {Verma, Fakharzadeh{}\ \BBA{} Technologies}{Verma\ \BOthers {.}}{{\APACyear {2013}}}}
\bibcite{topo}{\citeauthoryear {Wikipedia}{Wikipedia}{{\APACyear {2018}}}}
\APACbibcite{topo}{\citeauthoryear {Wikipedia}{Wikipedia}{{\APACyear {2018}}}}
\bibcite{Yaakop2017}{\citeauthoryear {Yaakop, Malik, {Bin Suboh}, Ramli{}\ \BBA{} Abu}{Yaakop\ \BOthers {.}}{{\APACyear {2017}}}}
\APACbibcite{Yaakop2017}{\citeauthoryear {Yaakop, Malik, {Bin Suboh}, Ramli{}\ \BBA{} Abu}{Yaakop\ \BOthers {.}}{{\APACyear {2017}}}}
\bibcite{Yourdon1979}{\citeauthoryear {Yourdon}{Yourdon}{{\APACyear {1979}}}}
\APACbibcite{Yourdon1979}{\citeauthoryear {Yourdon}{Yourdon}{{\APACyear {1979}}}}
\bibcite{Zhao2014}{\citeauthoryear {Zhao, Xiao, Markham, Trigoni{}\ \BBA{} Ren}{Zhao\ \BOthers {.}}{{\APACyear {2014}}}}
\APACbibcite{Zhao2014}{\citeauthoryear {Zhao, Xiao, Markham, Trigoni{}\ \BBA{} Ren}{Zhao\ \BOthers {.}}{{\APACyear {2014}}}}
\global\mtcsecondpartfalse
