\relax 
\@nameuse{bbl@beforestart}
\catcode `"\active 
\babel@aux{dutch}{}
\@writefile{@@@}{\chapterbegin }
\@writefile{@@@}{\chapterbegin }
\@writefile{@@@}{\chapterbegin }
\@writefile{@@@}{\chapterbegin }
\@writefile{@@@}{\chapterbegin }
\newlabel{hs:vb}{{}{6}}
\newlabel{hs:vb@cref}{{}{[1][6][]6}}
\@writefile{lot}{\contentsline {table}{\numberline {0.1}{\ignorespaces Versiehistorie\relax }}{6}\protected@file@percent }
\providecommand*\caption@xref[2]{\@setref\relax\@undefined{#1}}
\newlabel{tab:vb}{{0.1}{6}}
\newlabel{tab:vb@cref}{{[table][1][0]0.1}{[1][6][]6}}
\@writefile{@@@}{\chapterbegin }
\@writefile{toc}{\contentsline {chapter}{\numberline {1.}Inleiding}{9}\protected@file@percent }
\@writefile{lof}{\addvspace {10pt}}
\@writefile{lot}{\addvspace {10pt}}
\@writefile{lof}{\contentsline {xchapter}{Inleiding}{9}\protected@file@percent }
\@writefile{lot}{\contentsline {xchapter}{Inleiding}{9}\protected@file@percent }
\newlabel{hs:in}{{1}{9}}
\newlabel{hs:in@cref}{{[chapter][1][]1}{[1][9][]9}}
\@writefile{toc}{\contentsline {section}{\numberline {1.1}Bedrijfsachtergrond}{9}\protected@file@percent }
\@writefile{lof}{\contentsline {figure}{\numberline {1.1}{\ignorespaces Luiken voor in- en uitvoer van luchtstromen\relax }}{10}\protected@file@percent }
\newlabel{luik}{{1.1}{10}}
\newlabel{luik@cref}{{[figure][1][1]1.1}{[1][9][]10}}
\newlabel{im60}{{1.2a}{11}}
\newlabel{im60@cref}{{[subfigure][1][1,2]1.2a}{[1][11][]11}}
\newlabel{sub@im60}{{a}{11}}
\newlabel{sub@im60@cref}{{[subfigure][1][1,2]1.2a}{[1][11][]11}}
\newlabel{im125}{{1.2b}{11}}
\newlabel{im125@cref}{{[subfigure][2][1,2]1.2b}{[1][11][]11}}
\newlabel{sub@im125}{{b}{11}}
\newlabel{sub@im125@cref}{{[subfigure][2][1,2]1.2b}{[1][11][]11}}
\@writefile{lof}{\contentsline {figure}{\numberline {1.2}{\ignorespaces Motoren\relax }}{11}\protected@file@percent }
\newlabel{im60p}{{1.3a}{12}}
\newlabel{im60p@cref}{{[subfigure][1][1,3]1.3a}{[1][11][]12}}
\newlabel{sub@im60p}{{a}{12}}
\newlabel{sub@im60p@cref}{{[subfigure][1][1,3]1.3a}{[1][11][]12}}
\newlabel{im125p}{{1.3b}{12}}
\newlabel{im125p@cref}{{[subfigure][2][1,3]1.3b}{[1][11][]12}}
\newlabel{sub@im125p}{{b}{12}}
\newlabel{sub@im125p@cref}{{[subfigure][2][1,3]1.3b}{[1][11][]12}}
\@writefile{lof}{\contentsline {figure}{\numberline {1.3}{\ignorespaces Printplaten die de motoren aansturen\relax }}{12}\protected@file@percent }
\@writefile{toc}{\contentsline {section}{\numberline {1.2}Probleemstelling}{12}\protected@file@percent }
\@writefile{toc}{\contentsline {section}{\numberline {1.3}Doelstelling}{13}\protected@file@percent }
\@writefile{lof}{\contentsline {figure}{\numberline {1.4}{\ignorespaces V-model\relax }}{13}\protected@file@percent }
\newlabel{vmodel}{{1.4}{13}}
\newlabel{vmodel@cref}{{[figure][4][1]1.4}{[1][13][]13}}
\citation{Yourdon1979}
\@writefile{toc}{\contentsline {chapter}{\numberline {2.}Requirements}{14}\protected@file@percent }
\@writefile{lof}{\addvspace {10pt}}
\@writefile{lot}{\addvspace {10pt}}
\@writefile{lof}{\contentsline {xchapter}{Requirements}{14}\protected@file@percent }
\@writefile{lot}{\contentsline {xchapter}{Requirements}{14}\protected@file@percent }
\newlabel{hs:h2}{{2}{14}}
\newlabel{hs:h2@cref}{{[chapter][2][]2}{[1][14][]14}}
\@writefile{toc}{\contentsline {section}{\numberline {2.1}Inleiding}{14}\protected@file@percent }
\newlabel{hs:h21}{{2.1}{14}}
\newlabel{hs:h21@cref}{{[section][1][2]2.1}{[1][14][]14}}
\@writefile{toc}{\contentsline {section}{\numberline {2.2}Algemene beschrijving}{14}\protected@file@percent }
\newlabel{hs:h22}{{2.2}{14}}
\newlabel{hs:h22@cref}{{[section][2][2]2.2}{[1][14][]14}}
\@writefile{toc}{\contentsline {section}{\numberline {2.3}Systeemcontext}{14}\protected@file@percent }
\newlabel{hs:h23}{{2.3}{14}}
\newlabel{hs:h23@cref}{{[section][3][2]2.3}{[1][14][]14}}
\@writefile{toc}{\contentsline {subsection}{\numberline {2.3.1}Systeemfuncties}{14}\protected@file@percent }
\newlabel{hs:h231}{{2.3.1}{14}}
\newlabel{hs:h231@cref}{{[subsection][1][2,3]2.3.1}{[1][14][]14}}
\@writefile{lof}{\contentsline {figure}{\numberline {2.1}{\ignorespaces Data Context Diagram\relax }}{15}\protected@file@percent }
\newlabel{DCD}{{2.1}{15}}
\newlabel{DCD@cref}{{[figure][1][2]2.1}{[1][15][]15}}
\@writefile{toc}{\contentsline {section}{\numberline {2.4}Systeemfuncties}{16}\protected@file@percent }
\newlabel{hs:h24}{{2.4}{16}}
\newlabel{hs:h24@cref}{{[section][4][2]2.4}{[1][16][]16}}
\@writefile{toc}{\contentsline {subsection}{\numberline {2.4.1}Draadloze data overdracht}{16}\protected@file@percent }
\newlabel{hs:h241}{{2.4.1}{16}}
\newlabel{hs:h241@cref}{{[subsection][1][2,4]2.4.1}{[1][16][]16}}
\@writefile{toc}{\contentsline {subsubsection}{Stimulus en response}{16}\protected@file@percent }
\newlabel{2411}{{2.4.1}{16}}
\newlabel{2411@cref}{{[subsection][1][2,4]2.4.1}{[1][16][]16}}
\@writefile{toc}{\contentsline {subsubsection}{Functionele klanteisen}{16}\protected@file@percent }
\newlabel{2411}{{2.4.1}{16}}
\newlabel{2411@cref}{{[subsection][1][2,4]2.4.1}{[1][16][]16}}
\@writefile{toc}{\contentsline {subsection}{\numberline {2.4.2}Uitlezen en opslag data}{17}\protected@file@percent }
\newlabel{hs:h242}{{2.4.2}{17}}
\newlabel{hs:h242@cref}{{[subsection][2][2,4]2.4.2}{[1][17][]17}}
\@writefile{toc}{\contentsline {subsubsection}{Stimulus en response}{17}\protected@file@percent }
\newlabel{2421}{{2.4.2}{17}}
\newlabel{2421@cref}{{[subsection][2][2,4]2.4.2}{[1][17][]17}}
\@writefile{toc}{\contentsline {subsubsection}{Functionele klanteisen}{17}\protected@file@percent }
\newlabel{2421}{{2.4.2}{17}}
\newlabel{2421@cref}{{[subsection][2][2,4]2.4.2}{[1][17][]17}}
\@writefile{toc}{\contentsline {subsection}{\numberline {2.4.3}Updaten systeem en bestaande module (Optioneel)}{18}\protected@file@percent }
\newlabel{hs:h243}{{2.4.3}{18}}
\newlabel{hs:h243@cref}{{[subsection][3][2,4]2.4.3}{[1][18][]18}}
\@writefile{toc}{\contentsline {subsubsection}{Stimulus en response}{18}\protected@file@percent }
\newlabel{2431}{{2.4.3}{18}}
\newlabel{2431@cref}{{[subsection][3][2,4]2.4.3}{[1][18][]18}}
\@writefile{toc}{\contentsline {subsubsection}{Functionele klanteisen}{18}\protected@file@percent }
\newlabel{2431}{{2.4.3}{18}}
\newlabel{2431@cref}{{[subsection][3][2,4]2.4.3}{[1][18][]18}}
\@writefile{toc}{\contentsline {section}{\numberline {2.5}Niet-functionele klanteisen}{18}\protected@file@percent }
\newlabel{hs:h25}{{2.5}{18}}
\newlabel{hs:h25@cref}{{[section][5][2]2.5}{[1][18][]18}}
\@writefile{toc}{\contentsline {chapter}{\numberline {3.}Architectuur}{19}\protected@file@percent }
\@writefile{lof}{\addvspace {10pt}}
\@writefile{lot}{\addvspace {10pt}}
\@writefile{lof}{\contentsline {xchapter}{Architectuur}{19}\protected@file@percent }
\@writefile{lot}{\contentsline {xchapter}{Architectuur}{19}\protected@file@percent }
\@writefile{toc}{\contentsline {section}{\numberline {3.1}Ontwerpbesluiten}{19}\protected@file@percent }
\@writefile{toc}{\contentsline {section}{\numberline {3.2}Deelsystemen en koppelingen}{20}\protected@file@percent }
\@writefile{lof}{\contentsline {figure}{\numberline {3.1}{\ignorespaces Data Flow Diagram 0\relax }}{20}\protected@file@percent }
\newlabel{DFD0}{{3.1}{20}}
\newlabel{DFD0@cref}{{[figure][1][3]3.1}{[1][20][]20}}
\@writefile{toc}{\contentsline {section}{\numberline {3.3}Beschrijving deelsystemen}{21}\protected@file@percent }
\@writefile{lof}{\contentsline {figure}{\numberline {3.2}{\ignorespaces Architectuur Interconnect Diagram\relax }}{21}\protected@file@percent }
\newlabel{AID}{{3.2}{21}}
\newlabel{AID@cref}{{[figure][2][3]3.2}{[1][21][]21}}
\@writefile{toc}{\contentsline {subsection}{\numberline {3.3.1}Deelsysteem 1: Control Data}{22}\protected@file@percent }
\@writefile{lof}{\contentsline {figure}{\numberline {3.3}{\ignorespaces Data Flow Diagram 1\relax }}{22}\protected@file@percent }
\newlabel{DFD1}{{3.3}{22}}
\newlabel{DFD1@cref}{{[figure][3][3]3.3}{[1][22][]22}}
\@writefile{toc}{\contentsline {subsubsection}{Deelsysteem 1.1: Execute functions}{23}\protected@file@percent }
\@writefile{toc}{\contentsline {subsubsection}{Deelsysteem 1.2. Control Saved Data}{23}\protected@file@percent }
\@writefile{toc}{\contentsline {subsubsection}{Deelsysteem 1.3. Communicate Motor Control Unit}{23}\protected@file@percent }
\@writefile{toc}{\contentsline {subsection}{\numberline {3.3.2}Deelsysteem 2: Transeive Data}{24}\protected@file@percent }
\@writefile{toc}{\contentsline {subsection}{\numberline {3.3.3}Deelsysteem 3: Flash Light}{24}\protected@file@percent }
\@writefile{toc}{\contentsline {section}{\numberline {3.4}Beschrijving interconnects}{24}\protected@file@percent }
\@writefile{toc}{\contentsline {section}{\numberline {3.5}Traceerbaarheid klanteisen}{25}\protected@file@percent }
\@writefile{lot}{\contentsline {table}{\numberline {3.1}{\ignorespaces Traceertabel Requirements \relax }}{25}\protected@file@percent }
\newlabel{tab:tr}{{3.1}{25}}
\newlabel{tab:tr@cref}{{[table][1][3]3.1}{[1][25][]25}}
\@writefile{toc}{\contentsline {chapter}{\numberline {4.}Detailontwerp}{26}\protected@file@percent }
\@writefile{lof}{\addvspace {10pt}}
\@writefile{lot}{\addvspace {10pt}}
\@writefile{lof}{\contentsline {xchapter}{Detailontwerp}{26}\protected@file@percent }
\@writefile{lot}{\contentsline {xchapter}{Detailontwerp}{26}\protected@file@percent }
\@writefile{toc}{\contentsline {subsection}{\numberline {4.0.1}Deelsystemen 1 \& 2}{26}\protected@file@percent }
\@writefile{toc}{\contentsline {subsubsection}{Hardware deelsystemen 1 \& 2}{26}\protected@file@percent }
\@writefile{toc}{\contentsline {paragraph}{Nordic}{26}\protected@file@percent }
\@writefile{toc}{\contentsline {paragraph}{ST}{26}\protected@file@percent }
\@writefile{toc}{\contentsline {paragraph}{NXP}{27}\protected@file@percent }
\@writefile{toc}{\contentsline {paragraph}{TI}{27}\protected@file@percent }
\@writefile{toc}{\contentsline {paragraph}{Silicon Labs}{27}\protected@file@percent }
\@writefile{toc}{\contentsline {paragraph}{Conclusie}{27}\protected@file@percent }
\@writefile{lot}{\contentsline {table}{\numberline {4.1}{\ignorespaces Keuze matrix Draadloze MCU (*Prijzen Mouser rond 03-03-2020)\relax }}{28}\protected@file@percent }
\newlabel{tabmcu}{{4.1}{28}}
\newlabel{tabmcu@cref}{{[table][1][4]4.1}{[1][28][]28}}
\@writefile{toc}{\contentsline {subsubsection}{Software deelsysteem 1}{29}\protected@file@percent }
\@writefile{toc}{\contentsline {subsubsection}{Software deelsysteem 2}{29}\protected@file@percent }
\@writefile{toc}{\contentsline {section}{\numberline {4.1}Unit 3: LED schakeling}{30}\protected@file@percent }
\@writefile{toc}{\contentsline {chapter}{\numberline {5.}Realisatie}{31}\protected@file@percent }
\@writefile{lof}{\addvspace {10pt}}
\@writefile{lot}{\addvspace {10pt}}
\@writefile{lof}{\contentsline {xchapter}{Realisatie}{31}\protected@file@percent }
\@writefile{lot}{\contentsline {xchapter}{Realisatie}{31}\protected@file@percent }
\@writefile{toc}{\contentsline {section}{\numberline {5.1}Realisatie Hardware}{31}\protected@file@percent }
\newlabel{im60p}{{5.1a}{31}}
\newlabel{im60p@cref}{{[subfigure][1][5,1]5.1a}{[1][31][]31}}
\newlabel{sub@im60p}{{a}{31}}
\newlabel{sub@im60p@cref}{{[subfigure][1][5,1]5.1a}{[1][31][]31}}
\newlabel{im125p}{{5.1b}{31}}
\newlabel{im125p@cref}{{[subfigure][2][5,1]5.1b}{[1][31][]31}}
\newlabel{sub@im125p}{{b}{31}}
\newlabel{sub@im125p@cref}{{[subfigure][2][5,1]5.1b}{[1][31][]31}}
\@writefile{lof}{\contentsline {figure}{\numberline {5.1}{\ignorespaces Printplaten die de motoren aansturen\relax }}{31}\protected@file@percent }
\@writefile{toc}{\contentsline {subsection}{\numberline {5.1.1}Componenten}{32}\protected@file@percent }
\@writefile{toc}{\contentsline {chapter}{Appendices}{33}\protected@file@percent }
\@writefile{toc}{\contentsline {chapter}{\numberline {A.}Onderzoek LED}{34}\protected@file@percent }
\@writefile{lof}{\addvspace {10pt}}
\@writefile{lot}{\addvspace {10pt}}
\@writefile{lof}{\contentsline {xchapter}{Onderzoek LED}{34}\protected@file@percent }
\@writefile{lot}{\contentsline {xchapter}{Onderzoek LED}{34}\protected@file@percent }
\citation{Specification2018}
\citation{Campbell1966}
\@writefile{lof}{\contentsline {figure}{\numberline {A.1}{\ignorespaces LED Forward Current en Load https://www.allaboutcircuits.com/technical-articles/the-basics-behind-constant-current-led-drive-circuitry/\relax }}{35}\protected@file@percent }
\newlabel{ILED}{{A.1}{35}}
\newlabel{ILED@cref}{{[figure][1][1]A.1}{[1][35][]35}}
\@writefile{toc}{\contentsline {section}{\numberline {A.1}DC-DC conversie}{36}\protected@file@percent }
\@writefile{toc}{\contentsline {subsection}{\numberline {A.1.1}Charge pump}{36}\protected@file@percent }
\@writefile{lof}{\contentsline {figure}{\numberline {A.2}{\ignorespaces Charge pump\relax }}{36}\protected@file@percent }
\newlabel{VD}{{A.2}{36}}
\newlabel{VD@cref}{{[figure][2][1]A.2}{[1][36][]36}}
\newlabel{eqvc2}{{A.2}{37}}
\newlabel{eqvc2@cref}{{[equation][2][1]A.2}{[1][37][]37}}
\newlabel{eqvc2}{{A.3}{37}}
\newlabel{eqvc2@cref}{{[equation][3][1]A.3}{[1][37][]37}}
\@writefile{toc}{\contentsline {subsubsection}{Simulatie en opbouw Charge pump}{38}\protected@file@percent }
\@writefile{lof}{\contentsline {figure}{\numberline {A.3}{\ignorespaces Chargepump in LT spice opgebouwd\relax }}{38}\protected@file@percent }
\newlabel{CPLT}{{A.3}{38}}
\newlabel{CPLT@cref}{{[figure][3][1]A.3}{[1][38][]38}}
\@writefile{lof}{\contentsline {figure}{\numberline {A.4}{\ignorespaces Vout in simulatie\relax }}{39}\protected@file@percent }
\newlabel{VOCPLT}{{A.4}{39}}
\newlabel{VOCPLT@cref}{{[figure][4][1]A.4}{[1][39][]39}}
\@writefile{lof}{\contentsline {figure}{\numberline {A.5}{\ignorespaces Vout in scope\relax }}{40}\protected@file@percent }
\newlabel{VOSLT}{{A.5}{40}}
\newlabel{VOSLT@cref}{{[figure][5][1]A.5}{[1][40][]40}}
\@writefile{lof}{\contentsline {figure}{\numberline {A.6}{\ignorespaces Rimpel in stroom aan voeding\relax }}{41}\protected@file@percent }
\newlabel{3v3rimpel}{{A.6}{41}}
\newlabel{3v3rimpel@cref}{{[figure][6][1]A.6}{[1][41][]41}}
\@writefile{toc}{\contentsline {subsubsection}{BOM charge pump}{42}\protected@file@percent }
\newlabel{BOM chargePUMP}{{\caption@xref {BOM chargePUMP}{ on input line 700}}{42}}
\newlabel{BOM chargePUMP@cref}{{[subsection][1][1,1]A.1.1}{[1][42][]42}}
\@writefile{toc}{\contentsline {subsection}{\numberline {A.1.2}Schakelen LED}{43}\protected@file@percent }
\@writefile{toc}{\contentsline {subsubsection}{Schakelen met transistor}{43}\protected@file@percent }
\@writefile{lof}{\contentsline {figure}{\numberline {A.7}{\ignorespaces LED aangestuurd d.m.v. NPN\relax }}{43}\protected@file@percent }
\newlabel{LEDNPN}{{A.7}{43}}
\newlabel{LEDNPN@cref}{{[figure][7][1]A.7}{[1][43][]43}}
\newlabel{eqr3}{{A.12}{44}}
\newlabel{eqr3@cref}{{[equation][12][1]A.12}{[1][44][]44}}
\@writefile{toc}{\contentsline {subsection}{\numberline {A.1.3}Schakelen met FET}{45}\protected@file@percent }
\@writefile{lof}{\contentsline {figure}{\numberline {A.8}{\ignorespaces LED aangestuurd d.m.v. NMOS\relax }}{45}\protected@file@percent }
\newlabel{NMOSLED}{{A.8}{45}}
\newlabel{NMOSLED@cref}{{[figure][8][1]A.8}{[1][45][]45}}
\citation{cbs}
\@writefile{toc}{\contentsline {chapter}{\numberline {B.}Onderzoek draadloze technologieën}{47}\protected@file@percent }
\@writefile{lof}{\addvspace {10pt}}
\@writefile{lot}{\addvspace {10pt}}
\@writefile{lof}{\contentsline {xchapter}{Onderzoek draadloze technologieën}{47}\protected@file@percent }
\@writefile{lot}{\contentsline {xchapter}{Onderzoek draadloze technologieën}{47}\protected@file@percent }
\newlabel{onddr}{{B}{47}}
\newlabel{onddr@cref}{{[chapter][2][]B}{[1][47][]47}}
\@writefile{toc}{\contentsline {section}{\numberline {B.1}Inleiding}{47}\protected@file@percent }
\newlabel{stal1}{{B.1a}{48}}
\newlabel{stal1@cref}{{[subfigure][1][2,1]B.1a}{[1][48][]48}}
\newlabel{sub@stal1}{{a}{48}}
\newlabel{sub@stal1@cref}{{[subfigure][1][2,1]B.1a}{[1][48][]48}}
\newlabel{stal2}{{B.1b}{48}}
\newlabel{stal2@cref}{{[subfigure][2][2,1]B.1b}{[1][48][]48}}
\newlabel{sub@stal2}{{b}{48}}
\newlabel{sub@stal2@cref}{{[subfigure][2][2,1]B.1b}{[1][48][]48}}
\@writefile{lof}{\contentsline {figure}{\numberline {B.1}{\ignorespaces Mogelijke ophanging motor\relax }}{48}\protected@file@percent }
\citation{los}
\citation{topo}
\@writefile{toc}{\contentsline {section}{\numberline {B.2}Draadloze technologieën}{49}\protected@file@percent }
\@writefile{lof}{\contentsline {figure}{\numberline {B.2}{\ignorespaces Line Of Sight \relax }}{49}\protected@file@percent }
\newlabel{los}{{B.2}{49}}
\newlabel{los@cref}{{[figure][2][2]B.2}{[1][49][]49}}
\citation{Verma2013}
\citation{Zhao2014}
\citation{meshfaq}
\citation{meshfaq}
\citation{Yaakop2017}
\citation{zigbee}
\citation{Ali-rantala}
\citation{Chruszczyk2017}
\@writefile{toc}{\contentsline {subsection}{\numberline {B.2.1}Frequentie, bereik en maximale snelheid}{50}\protected@file@percent }
\citation{DelaCruz2016}
\citation{starmesh}
\citation{hu2013}
\@writefile{toc}{\contentsline {subsection}{\numberline {B.2.2}Topologie en gebruik smartphone}{51}\protected@file@percent }
\newlabel{star}{{B.3a}{51}}
\newlabel{star@cref}{{[subfigure][1][2,3]B.3a}{[1][51][]51}}
\newlabel{sub@star}{{a}{51}}
\newlabel{sub@star@cref}{{[subfigure][1][2,3]B.3a}{[1][51][]51}}
\newlabel{mesh}{{B.3b}{51}}
\newlabel{mesh@cref}{{[subfigure][2][2,3]B.3b}{[1][51][]51}}
\newlabel{sub@mesh}{{b}{51}}
\newlabel{sub@mesh@cref}{{[subfigure][2][2,3]B.3b}{[1][51][]51}}
\@writefile{lof}{\contentsline {figure}{\numberline {B.3}{\ignorespaces Twee verschillende netwerk configuraties\relax }}{51}\protected@file@percent }
\citation{blfees}
\citation{lora}
\citation{zigbee}
\@writefile{toc}{\contentsline {subsection}{\numberline {B.2.3}Kosten}{52}\protected@file@percent }
\@writefile{toc}{\contentsline {section}{\numberline {B.3}Conclusie}{53}\protected@file@percent }
\@writefile{lot}{\contentsline {table}{\numberline {B.1}{\ignorespaces Overzicht draadloze verbindingen\relax }}{53}\protected@file@percent }
\newlabel{tbWrlss}{{B.1}{53}}
\newlabel{tbWrlss@cref}{{[table][1][2]B.1}{[1][53][]53}}
\@writefile{toc}{\contentsline {chapter}{\numberline {C.}Plan Van Aanpak}{54}\protected@file@percent }
\@writefile{lof}{\addvspace {10pt}}
\@writefile{lot}{\addvspace {10pt}}
\@writefile{lof}{\contentsline {xchapter}{Plan Van Aanpak}{54}\protected@file@percent }
\@writefile{lot}{\contentsline {xchapter}{Plan Van Aanpak}{54}\protected@file@percent }
\newlabel{hs:vb}{{C}{54}}
\newlabel{hs:vb@cref}{{[chapter][3][]C}{[1][54][]54}}
\@writefile{lot}{\contentsline {table}{\numberline {C.1}{\ignorespaces Versiehistorie\relax }}{54}\protected@file@percent }
\newlabel{tab:vb}{{C.1}{54}}
\newlabel{tab:vb@cref}{{[table][1][3]C.1}{[1][54][]54}}
\@writefile{toc}{\contentsline {section}{\numberline {C.1}Achtergronden}{55}\protected@file@percent }
\newlabel{hs:h1}{{C.1}{55}}
\newlabel{hs:h1@cref}{{[section][1][3]C.1}{[1][55][]55}}
\newlabel{hs:h11}{{C.1}{55}}
\newlabel{hs:h11@cref}{{[section][1][3]C.1}{[1][55][]55}}
\newlabel{hs:h12}{{C.1}{55}}
\newlabel{hs:h12@cref}{{[section][1][3]C.1}{[1][55][]55}}
\newlabel{hs:h13}{{C.1}{55}}
\newlabel{hs:h13@cref}{{[section][1][3]C.1}{[1][55][]55}}
\@writefile{toc}{\contentsline {section}{\numberline {C.2}Projectresultaat}{55}\protected@file@percent }
\newlabel{hs:h2}{{C.2}{55}}
\newlabel{hs:h2@cref}{{[section][2][3]C.2}{[1][55][]55}}
\newlabel{hs:h21}{{C.2}{55}}
\newlabel{hs:h21@cref}{{[section][2][3]C.2}{[1][55][]55}}
\newlabel{hs:h22}{{C.2}{56}}
\newlabel{hs:h22@cref}{{[section][2][3]C.2}{[1][55][]56}}
\newlabel{hs:h3}{{C.2}{57}}
\newlabel{hs:h3@cref}{{[section][2][3]C.2}{[1][57][]57}}
\newlabel{hs:h31}{{C.2}{57}}
\newlabel{hs:h31@cref}{{[section][2][3]C.2}{[1][57][]57}}
\newlabel{hs:h32}{{C.2}{57}}
\newlabel{hs:h32@cref}{{[section][2][3]C.2}{[1][57][]57}}
\@writefile{toc}{\contentsline {section}{\numberline {C.4}Projectgrenzen en randvoorwaarden}{59}\protected@file@percent }
\newlabel{hs:h4}{{C.4}{59}}
\newlabel{hs:h4@cref}{{[section][4][3]C.4}{[1][59][]59}}
\newlabel{hs:h41}{{C.4}{59}}
\newlabel{hs:h41@cref}{{[section][4][3]C.4}{[1][59][]59}}
\newlabel{hs:h42}{{C.4}{59}}
\newlabel{hs:h42@cref}{{[section][4][3]C.4}{[1][59][]59}}
\@writefile{toc}{\contentsline {section}{\numberline {C.5}Tussenresultaten}{59}\protected@file@percent }
\newlabel{hs:h5}{{C.5}{59}}
\newlabel{hs:h5@cref}{{[section][5][3]C.5}{[1][59][]59}}
\newlabel{hs:h51}{{C.5}{59}}
\newlabel{hs:h51@cref}{{[section][5][3]C.5}{[1][59][]59}}
\newlabel{hs:h52}{{C.5}{59}}
\newlabel{hs:h52@cref}{{[section][5][3]C.5}{[1][59][]59}}
\@writefile{toc}{\contentsline {section}{\numberline {C.6}Kwaliteit}{60}\protected@file@percent }
\newlabel{hs:h6}{{C.6}{60}}
\newlabel{hs:h6@cref}{{[section][6][3]C.6}{[1][60][]60}}
\newlabel{hs:h61}{{C.6}{60}}
\newlabel{hs:h61@cref}{{[section][6][3]C.6}{[1][60][]60}}
\newlabel{hs:h62}{{C.6}{60}}
\newlabel{hs:h62@cref}{{[section][6][3]C.6}{[1][60][]60}}
\newlabel{hs:h63}{{C.6}{60}}
\newlabel{hs:h63@cref}{{[section][6][3]C.6}{[1][60][]60}}
\newlabel{hs:h64}{{C.6}{60}}
\newlabel{hs:h64@cref}{{[section][6][3]C.6}{[1][60][]60}}
\@writefile{toc}{\contentsline {section}{\numberline {C.7}Projectorganisatie}{61}\protected@file@percent }
\newlabel{hs:h7}{{C.7}{61}}
\newlabel{hs:h7@cref}{{[section][7][3]C.7}{[1][61][]61}}
\newlabel{hs:h71}{{C.7}{61}}
\newlabel{hs:h71@cref}{{[section][7][3]C.7}{[1][61][]61}}
\@writefile{lot}{\contentsline {table}{\numberline {C.2}{\ignorespaces Persoonlijke gegevens\relax }}{61}\protected@file@percent }
\newlabel{tab:pg}{{C.2}{61}}
\newlabel{tab:pg@cref}{{[table][2][3]C.2}{[1][61][]61}}
\newlabel{hs:h72}{{C.7}{61}}
\newlabel{hs:h72@cref}{{[section][7][3]C.7}{[1][61][]61}}
\newlabel{hs:h73}{{C.7}{61}}
\newlabel{hs:h73@cref}{{[section][7][3]C.7}{[1][61][]61}}
\newlabel{hs:h74}{{C.7}{61}}
\newlabel{hs:h74@cref}{{[section][7][3]C.7}{[1][61][]61}}
\@writefile{toc}{\contentsline {section}{\numberline {C.8}Planning}{63}\protected@file@percent }
\newlabel{hs:h8}{{C.8}{63}}
\newlabel{hs:h8@cref}{{[section][8][3]C.8}{[1][63][]63}}
\@writefile{toc}{\contentsline {section}{\numberline {C.9}Kosten en baten}{64}\protected@file@percent }
\newlabel{hs:h9}{{C.9}{64}}
\newlabel{hs:h9@cref}{{[section][9][3]C.9}{[1][64][]64}}
\newlabel{hs:h91}{{C.9}{64}}
\newlabel{hs:h91@cref}{{[section][9][3]C.9}{[1][64][]64}}
\newlabel{hs:h92}{{C.9}{64}}
\newlabel{hs:h92@cref}{{[section][9][3]C.9}{[1][64][]64}}
\newlabel{hs:h93}{{C.9}{64}}
\newlabel{hs:h93@cref}{{[section][9][3]C.9}{[1][64][]64}}
\@writefile{toc}{\contentsline {section}{\numberline {C.10}Risico's}{64}\protected@file@percent }
\newlabel{hs:h10}{{C.10}{64}}
\newlabel{hs:h10@cref}{{[section][10][3]C.10}{[1][64][]64}}
\newlabel{hs:h101}{{C.10}{64}}
\newlabel{hs:h101@cref}{{[section][10][3]C.10}{[1][64][]64}}
\newlabel{hs:h102}{{C.10}{65}}
\newlabel{hs:h102@cref}{{[section][10][3]C.10}{[1][64][]65}}
\newlabel{hs:h103}{{C.10}{65}}
\newlabel{hs:h103@cref}{{[section][10][3]C.10}{[1][65][]65}}
\@writefile{lot}{\contentsline {table}{\numberline {C.3}{\ignorespaces Externe Risico's\relax }}{66}\protected@file@percent }
\newlabel{tab:ra}{{C.3}{66}}
\newlabel{tab:ra@cref}{{[table][3][3]C.3}{[1][65][]66}}
\@writefile{lof}{\contentsline {figure}{\numberline {C.1}{\ignorespaces Planning deel 1\relax }}{68}\protected@file@percent }
\newlabel{planning}{{C.1}{68}}
\newlabel{planning@cref}{{[figure][1][3]C.1}{[1][63][]68}}
\@writefile{lof}{\contentsline {figure}{\numberline {C.2}{\ignorespaces Planning deel 2\relax }}{69}\protected@file@percent }
\@writefile{toc}{\contentsline {chapter}{\numberline {D.}Acceptatie test}{70}\protected@file@percent }
\@writefile{lof}{\addvspace {10pt}}
\@writefile{lot}{\addvspace {10pt}}
\@writefile{lof}{\contentsline {xchapter}{Acceptatie test}{70}\protected@file@percent }
\@writefile{lot}{\contentsline {xchapter}{Acceptatie test}{70}\protected@file@percent }
\newlabel{acctest}{{D}{70}}
\newlabel{acctest@cref}{{[chapter][4][]D}{[1][70][]70}}
\@writefile{toc}{\contentsline {section}{\numberline {D.1}Voorbereidingen acceptatietest}{70}\protected@file@percent }
\@writefile{toc}{\contentsline {subsection}{\numberline {D.1.1}Visuele testomgeving}{70}\protected@file@percent }
\@writefile{toc}{\contentsline {subsubsection}{Hardware}{70}\protected@file@percent }
\@writefile{toc}{\contentsline {subsubsection}{Software}{71}\protected@file@percent }
\@writefile{toc}{\contentsline {subsection}{\numberline {D.1.2}Testomgeving seriële verbinding}{71}\protected@file@percent }
\newlabel{to1}{{D.1.2}{71}}
\newlabel{to1@cref}{{[subsection][2][4,1]D.1.2}{[1][71][]71}}
\@writefile{toc}{\contentsline {subsubsection}{Hardware}{71}\protected@file@percent }
\@writefile{toc}{\contentsline {subsubsection}{Software}{71}\protected@file@percent }
\@writefile{toc}{\contentsline {subsubsection}{Overig}{71}\protected@file@percent }
\@writefile{toc}{\contentsline {subsection}{\numberline {D.1.3}Test mesh}{71}\protected@file@percent }
\newlabel{to2}{{D.1.3}{71}}
\newlabel{to2@cref}{{[subsection][3][4,1]D.1.3}{[1][71][]71}}
\@writefile{toc}{\contentsline {subsubsection}{Hardware}{71}\protected@file@percent }
\@writefile{toc}{\contentsline {subsubsection}{Software}{71}\protected@file@percent }
\@writefile{toc}{\contentsline {subsection}{\numberline {D.1.4}Test data opslag}{72}\protected@file@percent }
\newlabel{to3}{{D.1.4}{72}}
\newlabel{to3@cref}{{[subsection][4][4,1]D.1.4}{[1][72][]72}}
\@writefile{toc}{\contentsline {subsubsection}{Hardware}{72}\protected@file@percent }
\@writefile{toc}{\contentsline {subsubsection}{Software}{72}\protected@file@percent }
\@writefile{toc}{\contentsline {subsection}{\numberline {D.1.5}Test software update}{72}\protected@file@percent }
\newlabel{to4}{{D.1.5}{72}}
\newlabel{to4@cref}{{[subsection][5][4,1]D.1.5}{[1][72][]72}}
\@writefile{toc}{\contentsline {subsubsection}{Hardware}{72}\protected@file@percent }
\@writefile{toc}{\contentsline {section}{\numberline {D.2}Acceptatietestbeschrijvingen}{73}\protected@file@percent }
\@writefile{toc}{\contentsline {subsection}{\numberline {D.2.1}Test Bluetooth naar serieel}{73}\protected@file@percent }
\@writefile{toc}{\contentsline {subsubsection}{Testcase 1.1: Commando's io-net}{73}\protected@file@percent }
\@writefile{lot}{\contentsline {table}{\numberline {D.1}{\ignorespaces Testcase 1.1\relax }}{73}\protected@file@percent }
\newlabel{tc11}{{D.1}{73}}
\newlabel{tc11@cref}{{[table][1][4]D.1}{[1][73][]73}}
\@writefile{toc}{\contentsline {subsubsection}{Testcase 1.2: Draaien motor}{74}\protected@file@percent }
\@writefile{lot}{\contentsline {table}{\numberline {D.2}{\ignorespaces Testcase 1.2\relax }}{74}\protected@file@percent }
\newlabel{tcx}{{D.2}{74}}
\newlabel{tcx@cref}{{[table][2][4]D.2}{[1][74][]74}}
\@writefile{toc}{\contentsline {subsection}{\numberline {D.2.2}Test Visuele feedback}{75}\protected@file@percent }
\@writefile{toc}{\contentsline {subsubsection}{Testcase 2.1: Test LED}{75}\protected@file@percent }
\@writefile{lot}{\contentsline {table}{\numberline {D.3}{\ignorespaces Testcase 2.1\relax }}{75}\protected@file@percent }
\newlabel{tcx}{{D.3}{75}}
\newlabel{tcx@cref}{{[table][3][4]D.3}{[1][75][]75}}
\@writefile{toc}{\contentsline {subsubsection}{Testcase 2.2: Test maximale afstand}{75}\protected@file@percent }
\@writefile{lot}{\contentsline {table}{\numberline {D.4}{\ignorespaces Testcase 2.2\relax }}{76}\protected@file@percent }
\newlabel{tcx}{{D.4}{76}}
\newlabel{tcx@cref}{{[table][4][4]D.4}{[1][75][]76}}
\@writefile{toc}{\contentsline {subsection}{\numberline {D.2.3}Test opgeslagen data}{76}\protected@file@percent }
\@writefile{toc}{\contentsline {subsubsection}{Testcase 3.1: Test Opslag data}{76}\protected@file@percent }
\@writefile{lot}{\contentsline {table}{\numberline {D.5}{\ignorespaces Testcase 3.1\relax }}{76}\protected@file@percent }
\newlabel{tcx}{{D.5}{76}}
\newlabel{tcx@cref}{{[table][5][4]D.5}{[1][76][]76}}
\@writefile{toc}{\contentsline {subsection}{\numberline {D.2.4}Test software update}{77}\protected@file@percent }
\@writefile{lot}{\contentsline {table}{\numberline {D.6}{\ignorespaces Testcase 4.1\relax }}{77}\protected@file@percent }
\newlabel{tcx}{{D.6}{77}}
\newlabel{tcx@cref}{{[table][6][4]D.6}{[1][77][]77}}
\@writefile{toc}{\contentsline {section}{\numberline {D.3}Traceerbaarheid klanteisen}{77}\protected@file@percent }
\@writefile{lot}{\contentsline {table}{\numberline {D.7}{\ignorespaces Traceertabel Requirements \relax }}{77}\protected@file@percent }
\newlabel{tab:ta}{{D.7}{77}}
\newlabel{tab:ta@cref}{{[table][7][4]D.7}{[1][77][]77}}
\@writefile{toc}{\contentsline {chapter}{\numberline {E.}Integratietest}{78}\protected@file@percent }
\@writefile{lof}{\addvspace {10pt}}
\@writefile{lot}{\addvspace {10pt}}
\@writefile{lof}{\contentsline {xchapter}{Integratietest}{78}\protected@file@percent }
\@writefile{lot}{\contentsline {xchapter}{Integratietest}{78}\protected@file@percent }
\newlabel{inttest}{{E}{78}}
\newlabel{inttest@cref}{{[chapter][5][]E}{[1][78][]78}}
\@writefile{toc}{\contentsline {section}{\numberline {E.1}Testen}{78}\protected@file@percent }
\@writefile{toc}{\contentsline {subsection}{\numberline {E.1.1}Test 1: }{78}\protected@file@percent }
\@writefile{lot}{\contentsline {table}{\numberline {E.1}{\ignorespaces Test 1\relax }}{78}\protected@file@percent }
\newlabel{itcx}{{E.1}{78}}
\newlabel{itcx@cref}{{[table][1][5]E.1}{[1][78][]78}}
\bibstyle{apacite}
\bibdata{Referenties/Referenties,Referenties/Afstuderen}
\global\mtcsecondpartfalse
\@writefile{lot}{\contentsline {table}{\numberline {E.2}{\ignorespaces Testcase 4.1\relax }}{79}\protected@file@percent }
\newlabel{itcx}{{E.2}{79}}
\newlabel{itcx@cref}{{[table][2][5]E.2}{[1][78][]79}}
