\relax 
\newlabel{hs:vb}{{}{1}}
\@writefile{lot}{\contentsline {table}{\numberline {1}{\ignorespaces Versiehistorie}}{1}\protected@file@percent }
\newlabel{tab:vb}{{1}{1}}
\@writefile{toc}{\contentsline {section}{\numberline {1}Inleiding}{3}\protected@file@percent }
\newlabel{hs:h1}{{1}{3}}
\@writefile{toc}{\contentsline {subsection}{\numberline {1.1}Doel}{3}\protected@file@percent }
\newlabel{hs:h11}{{1.1}{3}}
\@writefile{toc}{\contentsline {subsection}{\numberline {1.2}Documentconventies}{3}\protected@file@percent }
\newlabel{hs:h12}{{1.2}{3}}
\@writefile{toc}{\contentsline {subsection}{\numberline {1.3}Doelgroep en suggesties voor het lezen}{3}\protected@file@percent }
\newlabel{hs:h13}{{1.3}{3}}
\@writefile{toc}{\contentsline {subsection}{\numberline {1.4}Referenties}{3}\protected@file@percent }
\newlabel{hs:h14}{{1.4}{3}}
\@writefile{toc}{\contentsline {section}{\numberline {2}Requirements}{4}\protected@file@percent }
\newlabel{hs:h2}{{2}{4}}
\@writefile{toc}{\contentsline {subsection}{\numberline {2.1}Inleiding}{4}\protected@file@percent }
\newlabel{hs:h21}{{2.1}{4}}
\@writefile{toc}{\contentsline {subsection}{\numberline {2.2}Algemene beschrijving}{4}\protected@file@percent }
\newlabel{hs:h22}{{2.2}{4}}
\@writefile{toc}{\contentsline {subsection}{\numberline {2.3}Systeemcontext}{4}\protected@file@percent }
\newlabel{hs:h23}{{2.3}{4}}
\@writefile{toc}{\contentsline {subsubsection}{\numberline {2.3.1}Systeemfuncties}{4}\protected@file@percent }
\newlabel{hs:h231}{{2.3.1}{4}}
\@writefile{lof}{\contentsline {figure}{\numberline {1}{\ignorespaces Data Context Diagram}}{4}\protected@file@percent }
\newlabel{DCD}{{1}{4}}
\@writefile{toc}{\contentsline {subsection}{\numberline {2.4}Systeemfuncties}{5}\protected@file@percent }
\newlabel{hs:h24}{{2.4}{5}}
\@writefile{lof}{\contentsline {figure}{\numberline {2}{\ignorespaces Data Context Diagram}}{5}\protected@file@percent }
\newlabel{DFD0}{{2}{5}}
\@writefile{toc}{\contentsline {subsubsection}{\numberline {2.4.1}Draadloze data overdracht}{6}\protected@file@percent }
\newlabel{hs:h241}{{2.4.1}{6}}
\@writefile{toc}{\contentsline {paragraph}{\numberline {2.4.1.1}Stimulus en response}{6}\protected@file@percent }
\newlabel{2411}{{2.4.1.1}{6}}
\@writefile{toc}{\contentsline {paragraph}{\numberline {2.4.1.2}Functionele klanteisen}{6}\protected@file@percent }
\newlabel{2411}{{2.4.1.2}{6}}
\@writefile{toc}{\contentsline {subsubsection}{\numberline {2.4.2}Uitlezen en opslag data}{6}\protected@file@percent }
\newlabel{hs:h242}{{2.4.2}{6}}
\@writefile{toc}{\contentsline {paragraph}{\numberline {2.4.2.1}Stimulus en response}{6}\protected@file@percent }
\newlabel{2421}{{2.4.2.1}{6}}
\@writefile{toc}{\contentsline {paragraph}{\numberline {2.4.2.2}Functionele klanteisen}{6}\protected@file@percent }
\newlabel{2421}{{2.4.2.2}{6}}
\@writefile{toc}{\contentsline {subsubsection}{\numberline {2.4.3}Updaten systeem en bestaande module}{7}\protected@file@percent }
\newlabel{hs:h243}{{2.4.3}{7}}
\@writefile{toc}{\contentsline {paragraph}{\numberline {2.4.3.1}Stimulus en response}{7}\protected@file@percent }
\newlabel{2431}{{2.4.3.1}{7}}
\@writefile{toc}{\contentsline {paragraph}{\numberline {2.4.3.2}Functionele klanteisen}{7}\protected@file@percent }
\newlabel{2431}{{2.4.3.2}{7}}
\@writefile{toc}{\contentsline {subsection}{\numberline {2.5}Niet-functionele klanteisen}{7}\protected@file@percent }
\newlabel{hs:h25}{{2.5}{7}}
