\contentsline {section}{\numberline {1}Inleiding}{3}%
\contentsline {subsection}{\numberline {1.1}Doel}{3}%
\contentsline {subsection}{\numberline {1.2}Documentconventies}{3}%
\contentsline {subsection}{\numberline {1.3}Doelgroep en suggesties voor het lezen}{3}%
\contentsline {subsection}{\numberline {1.4}Referenties}{3}%
\contentsline {section}{\numberline {2}Requirements}{4}%
\contentsline {subsection}{\numberline {2.1}Inleiding}{4}%
\contentsline {subsection}{\numberline {2.2}Algemene beschrijving}{4}%
\contentsline {subsection}{\numberline {2.3}Systeemcontext}{4}%
\contentsline {subsubsection}{\numberline {2.3.1}Systeemfuncties}{4}%
\contentsline {subsection}{\numberline {2.4}Systeemfuncties}{5}%
\contentsline {subsubsection}{\numberline {2.4.1}Draadloze data overdracht}{6}%
\contentsline {paragraph}{\numberline {2.4.1.1}Stimulus en response}{6}%
\contentsline {paragraph}{\numberline {2.4.1.2}Functionele klanteisen}{6}%
\contentsline {subsubsection}{\numberline {2.4.2}Uitlezen en opslag data}{6}%
\contentsline {paragraph}{\numberline {2.4.2.1}Stimulus en response}{6}%
\contentsline {paragraph}{\numberline {2.4.2.2}Functionele klanteisen}{6}%
\contentsline {subsubsection}{\numberline {2.4.3}Updaten systeem en bestaande module}{7}%
\contentsline {paragraph}{\numberline {2.4.3.1}Stimulus en response}{7}%
\contentsline {paragraph}{\numberline {2.4.3.2}Functionele klanteisen}{7}%
\contentsline {subsection}{\numberline {2.5}Niet-functionele klanteisen}{7}%
