\relax 
\newlabel{hs:vb}{{}{1}}
\@writefile{lot}{\contentsline {table}{\numberline {1}{\ignorespaces Versiehistorie}}{1}\protected@file@percent }
\newlabel{tab:vb}{{1}{1}}
\@writefile{toc}{\contentsline {section}{\numberline {1}Achtergronden}{3}\protected@file@percent }
\newlabel{hs:h1}{{1}{3}}
\@writefile{toc}{\contentsline {subsection}{\numberline {1.1}De opdrachtgever}{3}\protected@file@percent }
\newlabel{hs:h11}{{1.1}{3}}
\@writefile{toc}{\contentsline {subsection}{\numberline {1.2}De opdrachtnemers}{3}\protected@file@percent }
\newlabel{hs:h12}{{1.2}{3}}
\@writefile{toc}{\contentsline {subsection}{\numberline {1.3}Aanleiding}{3}\protected@file@percent }
\newlabel{hs:h13}{{1.3}{3}}
\@writefile{toc}{\contentsline {section}{\numberline {2}Projectresultaat}{3}\protected@file@percent }
\newlabel{hs:h2}{{2}{3}}
\@writefile{toc}{\contentsline {subsection}{\numberline {2.1}Doelstelling}{3}\protected@file@percent }
\newlabel{hs:h21}{{2.1}{3}}
\@writefile{toc}{\contentsline {subsection}{\numberline {2.2}Resultaat}{3}\protected@file@percent }
\newlabel{hs:h22}{{2.2}{3}}
\@writefile{toc}{\contentsline {section}{\numberline {3}Projectactiviteiten}{4}\protected@file@percent }
\newlabel{hs:h3}{{3}{4}}
\@writefile{toc}{\contentsline {subsection}{\numberline {3.1}Projectmanagement}{4}\protected@file@percent }
\newlabel{hs:h31}{{3.1}{4}}
\@writefile{toc}{\contentsline {subsection}{\numberline {3.2}Projectmanagement}{4}\protected@file@percent }
\newlabel{hs:h32}{{3.2}{4}}
\@writefile{toc}{\contentsline {section}{\numberline {4}Projectgrenzen en randvoorwaarden}{5}\protected@file@percent }
\newlabel{hs:h4}{{4}{5}}
\@writefile{toc}{\contentsline {subsection}{\numberline {4.1}Projectomvang}{5}\protected@file@percent }
\newlabel{hs:h41}{{4.1}{5}}
\@writefile{toc}{\contentsline {subsection}{\numberline {4.2}Randvoorwaarden}{5}\protected@file@percent }
\newlabel{hs:h42}{{4.2}{5}}
\@writefile{toc}{\contentsline {section}{\numberline {5}Tussenresultaten}{5}\protected@file@percent }
\newlabel{hs:h5}{{5}{5}}
\@writefile{toc}{\contentsline {subsection}{\numberline {5.1}Tussenresultaten in documentvorm: }{5}\protected@file@percent }
\newlabel{hs:h51}{{5.1}{5}}
\@writefile{toc}{\contentsline {subsection}{\numberline {5.2}Tussenresultaten in de vorm van een deelsysteem }{5}\protected@file@percent }
\newlabel{hs:h52}{{5.2}{5}}
\@writefile{toc}{\contentsline {section}{\numberline {6}Kwaliteit}{6}\protected@file@percent }
\newlabel{hs:h6}{{6}{6}}
\@writefile{toc}{\contentsline {subsection}{\numberline {6.1}Kwaliteitsbewaking eindproduct}{6}\protected@file@percent }
\newlabel{hs:h61}{{6.1}{6}}
\@writefile{toc}{\contentsline {subsection}{\numberline {6.2}Tussenresultaten}{6}\protected@file@percent }
\newlabel{hs:h62}{{6.2}{6}}
\@writefile{toc}{\contentsline {subsection}{\numberline {6.3}Documenten}{6}\protected@file@percent }
\newlabel{hs:h63}{{6.3}{6}}
\@writefile{toc}{\contentsline {subsection}{\numberline {6.4}Afwijkingen}{6}\protected@file@percent }
\newlabel{hs:h64}{{6.4}{6}}
\@writefile{toc}{\contentsline {section}{\numberline {7}Projectorganisatie}{7}\protected@file@percent }
\newlabel{hs:h7}{{7}{7}}
\@writefile{toc}{\contentsline {subsection}{\numberline {7.1}Rolverdeling met persoonlijke gegevens}{7}\protected@file@percent }
\newlabel{hs:h71}{{7.1}{7}}
\@writefile{lot}{\contentsline {table}{\numberline {2}{\ignorespaces Persoonlijke gegevens}}{7}\protected@file@percent }
\newlabel{tab:pg}{{2}{7}}
\@writefile{toc}{\contentsline {subsection}{\numberline {7.2}Functieomschrijving}{7}\protected@file@percent }
\newlabel{hs:h72}{{7.2}{7}}
\@writefile{toc}{\contentsline {subsection}{\numberline {7.3}Informatie}{7}\protected@file@percent }
\newlabel{hs:h73}{{7.3}{7}}
\@writefile{toc}{\contentsline {subsection}{\numberline {7.4}Coördinatie}{7}\protected@file@percent }
\newlabel{hs:h74}{{7.4}{7}}
\@writefile{toc}{\contentsline {section}{\numberline {8}Planning}{8}\protected@file@percent }
\newlabel{hs:h8}{{8}{8}}
\@writefile{lof}{\contentsline {figure}{\numberline {1}{\ignorespaces Planning deel 1}}{8}\protected@file@percent }
\@writefile{lof}{\contentsline {figure}{\numberline {2}{\ignorespaces Planning deel 2}}{9}\protected@file@percent }
\@writefile{toc}{\contentsline {section}{\numberline {9}Kosten en baten}{10}\protected@file@percent }
\newlabel{hs:h9}{{9}{10}}
\@writefile{toc}{\contentsline {subsection}{\numberline {9.1}Kosten voor hulpmiddelen}{10}\protected@file@percent }
\newlabel{hs:h91}{{9.1}{10}}
\@writefile{toc}{\contentsline {subsection}{\numberline {9.2}Arbeidskosten uitgedrukt in werktijd}{10}\protected@file@percent }
\newlabel{hs:h92}{{9.2}{10}}
\@writefile{toc}{\contentsline {subsection}{\numberline {9.3}Baten}{10}\protected@file@percent }
\newlabel{hs:h93}{{9.3}{10}}
\@writefile{toc}{\contentsline {section}{\numberline {10}Risico's}{10}\protected@file@percent }
\newlabel{hs:h10}{{10}{10}}
\@writefile{toc}{\contentsline {subsection}{\numberline {10.1}Interne risico’s}{10}\protected@file@percent }
\newlabel{hs:h101}{{10.1}{10}}
\@writefile{toc}{\contentsline {subsection}{\numberline {10.2}Externe risico’s}{10}\protected@file@percent }
\newlabel{hs:h102}{{10.2}{10}}
\@writefile{toc}{\contentsline {subsection}{\numberline {10.3}Externe risico’s}{11}\protected@file@percent }
\newlabel{hs:h103}{{10.3}{11}}
\@writefile{lot}{\contentsline {table}{\numberline {3}{\ignorespaces Externe Risico's}}{11}\protected@file@percent }
\newlabel{tab:ra}{{3}{11}}
