\relax 
\@nameuse{bbl@beforestart}
\catcode `"\active 
\babel@aux{dutch}{}
\@writefile{@@@}{\chapterbegin }
\@writefile{@@@}{\chapterbegin }
\@writefile{@@@}{\chapterbegin }
\@writefile{@@@}{\chapterbegin }
\@writefile{@@@}{\chapterbegin }
\newlabel{hs:vb}{{}{8}}
\newlabel{hs:vb@cref}{{}{[1][8][]8}}
\@writefile{lot}{\contentsline {table}{\numberline {0.1}{\ignorespaces Versiehistorie\relax }}{8}\protected@file@percent }
\providecommand*\caption@xref[2]{\@setref\relax\@undefined{#1}}
\newlabel{tab:vb}{{0.1}{8}}
\newlabel{tab:vb@cref}{{[table][1][0]0.1}{[1][8][]8}}
\@writefile{@@@}{\chapterbegin }
\@writefile{toc}{\contentsline {chapter}{\numberline {1.}Inleiding}{10}\protected@file@percent }
\@writefile{lof}{\addvspace {10pt}}
\@writefile{lot}{\addvspace {10pt}}
\@writefile{lof}{\contentsline {xchapter}{Inleiding}{10}\protected@file@percent }
\@writefile{lot}{\contentsline {xchapter}{Inleiding}{10}\protected@file@percent }
\newlabel{hs:in}{{1}{10}}
\newlabel{hs:in@cref}{{[chapter][1][]1}{[1][10][]10}}
\@writefile{toc}{\contentsline {section}{\numberline {1.1}Bedrijfsachtergrond}{10}\protected@file@percent }
\@writefile{lof}{\contentsline {figure}{\numberline {1.1}{\ignorespaces Luiken voor in- en uitvoer van luchtstromen\relax }}{11}\protected@file@percent }
\newlabel{luik}{{1.1}{11}}
\newlabel{luik@cref}{{[figure][1][1]1.1}{[1][10][]11}}
\newlabel{im60}{{1.2a}{12}}
\newlabel{im60@cref}{{[subfigure][1][1,2]1.2a}{[1][12][]12}}
\newlabel{sub@im60}{{a}{12}}
\newlabel{sub@im60@cref}{{[subfigure][1][1,2]1.2a}{[1][12][]12}}
\newlabel{im125}{{1.2b}{12}}
\newlabel{im125@cref}{{[subfigure][2][1,2]1.2b}{[1][12][]12}}
\newlabel{sub@im125}{{b}{12}}
\newlabel{sub@im125@cref}{{[subfigure][2][1,2]1.2b}{[1][12][]12}}
\@writefile{lof}{\contentsline {figure}{\numberline {1.2}{\ignorespaces Motoren\relax }}{12}\protected@file@percent }
\newlabel{im60p}{{1.3a}{13}}
\newlabel{im60p@cref}{{[subfigure][1][1,3]1.3a}{[1][12][]13}}
\newlabel{sub@im60p}{{a}{13}}
\newlabel{sub@im60p@cref}{{[subfigure][1][1,3]1.3a}{[1][12][]13}}
\newlabel{im125p}{{1.3b}{13}}
\newlabel{im125p@cref}{{[subfigure][2][1,3]1.3b}{[1][12][]13}}
\newlabel{sub@im125p}{{b}{13}}
\newlabel{sub@im125p@cref}{{[subfigure][2][1,3]1.3b}{[1][12][]13}}
\@writefile{lof}{\contentsline {figure}{\numberline {1.3}{\ignorespaces Printplaten die de motoren aansturen\relax }}{13}\protected@file@percent }
\@writefile{toc}{\contentsline {section}{\numberline {1.2}Probleemstelling}{13}\protected@file@percent }
\@writefile{toc}{\contentsline {section}{\numberline {1.3}Doelstelling}{14}\protected@file@percent }
\@writefile{lof}{\contentsline {figure}{\numberline {1.4}{\ignorespaces V-model\relax }}{14}\protected@file@percent }
\newlabel{vmodel}{{1.4}{14}}
\newlabel{vmodel@cref}{{[figure][4][1]1.4}{[1][14][]14}}
\@writefile{toc}{\contentsline {chapter}{\numberline {2.}Onderzoek}{15}\protected@file@percent }
\@writefile{lof}{\addvspace {10pt}}
\@writefile{lot}{\addvspace {10pt}}
\@writefile{lof}{\contentsline {xchapter}{Onderzoek}{15}\protected@file@percent }
\@writefile{lot}{\contentsline {xchapter}{Onderzoek}{15}\protected@file@percent }
\@writefile{toc}{\contentsline {chapter}{\numberline {3.}Requirements}{16}\protected@file@percent }
\@writefile{lof}{\addvspace {10pt}}
\@writefile{lot}{\addvspace {10pt}}
\@writefile{lof}{\contentsline {xchapter}{Requirements}{16}\protected@file@percent }
\@writefile{lot}{\contentsline {xchapter}{Requirements}{16}\protected@file@percent }
\newlabel{hs:h2}{{3}{16}}
\newlabel{hs:h2@cref}{{[chapter][3][]3}{[1][16][]16}}
\@writefile{toc}{\contentsline {section}{\numberline {3.1}Systeemcontext}{16}\protected@file@percent }
\@writefile{toc}{\contentsline {subsection}{\numberline {3.1.1}Systeemfuncties}{16}\protected@file@percent }
\@writefile{lof}{\contentsline {figure}{\numberline {3.1}{\ignorespaces Data Context Diagram\relax }}{17}\protected@file@percent }
\newlabel{DCD}{{3.1}{17}}
\newlabel{DCD@cref}{{[figure][1][3]3.1}{[1][17][]17}}
\@writefile{toc}{\contentsline {section}{\numberline {3.2}Systeemfuncties}{18}\protected@file@percent }
\newlabel{hs:h24}{{3.2}{18}}
\newlabel{hs:h24@cref}{{[section][2][3]3.2}{[1][18][]18}}
\@writefile{toc}{\contentsline {subsection}{\numberline {3.2.1}Communicatie Bluetooth }{18}\protected@file@percent }
\newlabel{hs:h241}{{3.2.1}{18}}
\newlabel{hs:h241@cref}{{[subsection][1][3,2]3.2.1}{[1][18][]18}}
\@writefile{toc}{\contentsline {subsubsection}{Stimulus en response}{18}\protected@file@percent }
\newlabel{2411}{{3.2.1}{18}}
\newlabel{2411@cref}{{[subsection][1][3,2]3.2.1}{[1][18][]18}}
\@writefile{toc}{\contentsline {subsubsection}{Functionele klanteisen}{18}\protected@file@percent }
\newlabel{2411}{{3.2.1}{18}}
\newlabel{2411@cref}{{[subsection][1][3,2]3.2.1}{[1][18][]18}}
\@writefile{toc}{\contentsline {subsection}{\numberline {3.2.2}Communicatie met IM60/IM125}{19}\protected@file@percent }
\newlabel{hs:h242}{{3.2.2}{19}}
\newlabel{hs:h242@cref}{{[subsection][2][3,2]3.2.2}{[1][19][]19}}
\@writefile{toc}{\contentsline {subsubsection}{Stimulus en response}{19}\protected@file@percent }
\newlabel{2421}{{3.2.2}{19}}
\newlabel{2421@cref}{{[subsection][2][3,2]3.2.2}{[1][19][]19}}
\@writefile{toc}{\contentsline {subsubsection}{Functionele klanteisen}{19}\protected@file@percent }
\newlabel{2421}{{3.2.2}{19}}
\newlabel{2421@cref}{{[subsection][2][3,2]3.2.2}{[1][19][]19}}
\@writefile{toc}{\contentsline {subsection}{\numberline {3.2.3}Opslaan data}{20}\protected@file@percent }
\newlabel{hs:h243}{{3.2.3}{20}}
\newlabel{hs:h243@cref}{{[subsection][3][3,2]3.2.3}{[1][20][]20}}
\@writefile{toc}{\contentsline {subsubsection}{Stimulus en response}{20}\protected@file@percent }
\newlabel{2431}{{3.2.3}{20}}
\newlabel{2431@cref}{{[subsection][3][3,2]3.2.3}{[1][20][]20}}
\@writefile{toc}{\contentsline {subsubsection}{Functionele klanteisen}{20}\protected@file@percent }
\newlabel{2431}{{3.2.3}{20}}
\newlabel{2431@cref}{{[subsection][3][3,2]3.2.3}{[1][20][]20}}
\@writefile{toc}{\contentsline {subsection}{\numberline {3.2.4}Identificeren systeem}{20}\protected@file@percent }
\newlabel{hs:h243}{{3.2.4}{20}}
\newlabel{hs:h243@cref}{{[subsection][4][3,2]3.2.4}{[1][20][]20}}
\@writefile{toc}{\contentsline {subsubsection}{Stimulus en response}{20}\protected@file@percent }
\newlabel{2431}{{3.2.4}{20}}
\newlabel{2431@cref}{{[subsection][4][3,2]3.2.4}{[1][20][]20}}
\@writefile{toc}{\contentsline {subsubsection}{Functionele klanteisen}{20}\protected@file@percent }
\newlabel{2431}{{3.2.4}{20}}
\newlabel{2431@cref}{{[subsection][4][3,2]3.2.4}{[1][20][]20}}
\@writefile{toc}{\contentsline {section}{\numberline {3.3}Niet-functionele klanteisen}{21}\protected@file@percent }
\newlabel{hs:h25}{{3.3}{21}}
\newlabel{hs:h25@cref}{{[section][3][3]3.3}{[1][21][]21}}
\@writefile{toc}{\contentsline {chapter}{\numberline {4.}Architectuur}{22}\protected@file@percent }
\@writefile{lof}{\addvspace {10pt}}
\@writefile{lot}{\addvspace {10pt}}
\@writefile{lof}{\contentsline {xchapter}{Architectuur}{22}\protected@file@percent }
\@writefile{lot}{\contentsline {xchapter}{Architectuur}{22}\protected@file@percent }
\@writefile{lof}{\contentsline {figure}{\numberline {4.1}{\ignorespaces Data Flow Diagram 0\relax }}{22}\protected@file@percent }
\newlabel{DFD0}{{4.1}{22}}
\newlabel{DFD0@cref}{{[figure][1][4]4.1}{[1][22][]22}}
\@writefile{toc}{\contentsline {section}{\numberline {4.1}Ontwerpbesluiten}{23}\protected@file@percent }
\@writefile{toc}{\contentsline {section}{\numberline {4.2}Deelsysteem 1: Control mesh}{23}\protected@file@percent }
\@writefile{lot}{\contentsline {table}{\numberline {4.1}{\ignorespaces Overzicht draadloze verbindingen\relax }}{23}\protected@file@percent }
\newlabel{tbWrlss}{{4.1}{23}}
\newlabel{tbWrlss@cref}{{[table][1][4]4.1}{[1][23][]23}}
\@writefile{lof}{\contentsline {figure}{\numberline {4.2}{\ignorespaces Schematische weergave nodes in stal \relax }}{24}\protected@file@percent }
\newlabel{nodesstal}{{4.2}{24}}
\newlabel{nodesstal@cref}{{[figure][2][4]4.2}{[1][24][]24}}
\@writefile{lof}{\contentsline {figure}{\numberline {4.3}{\ignorespaces BT840 Bluetooth module van Fanstel\relax }}{25}\protected@file@percent }
\newlabel{BT840}{{4.3}{25}}
\newlabel{BT840@cref}{{[figure][3][4]4.3}{[1][25][]25}}
\@writefile{lot}{\contentsline {table}{\numberline {4.2}{\ignorespaces Keuze matrix Draadloze $\mu C$ (*Prijzen Mouser rond 03-03-2020)\relax }}{26}\protected@file@percent }
\newlabel{tabmcu}{{4.2}{26}}
\newlabel{tabmcu@cref}{{[table][2][4]4.2}{[1][26][]26}}
\@writefile{lot}{\contentsline {table}{\numberline {4.3}{\ignorespaces Keuzetabel mesh model\relax }}{27}\protected@file@percent }
\newlabel{Meshmodel}{{4.3}{27}}
\newlabel{Meshmodel@cref}{{[table][3][4]4.3}{[1][27][]27}}
\@writefile{toc}{\contentsline {section}{\numberline {4.3}Identificeren Systeem}{27}\protected@file@percent }
\@writefile{lot}{\contentsline {table}{\numberline {4.4}{\ignorespaces Keuzetabel flits LED\relax }}{27}\protected@file@percent }
\newlabel{pulsemaken}{{4.4}{27}}
\newlabel{pulsemaken@cref}{{[table][4][4]4.4}{[1][27][]27}}
\@writefile{lot}{\contentsline {table}{\numberline {4.5}{\ignorespaces Keuzetabel PWM\relax }}{28}\protected@file@percent }
\newlabel{PWMgenereren}{{4.5}{28}}
\newlabel{PWMgenereren@cref}{{[table][5][4]4.5}{[1][28][]28}}
\@writefile{toc}{\contentsline {section}{\numberline {4.4}Opslaan gegevens}{28}\protected@file@percent }
\@writefile{lot}{\contentsline {table}{\numberline {4.6}{\ignorespaces Keuzetabel opslaan gegevens\relax }}{28}\protected@file@percent }
\newlabel{opslaandata}{{4.6}{28}}
\newlabel{opslaandata@cref}{{[table][6][4]4.6}{[1][28][]28}}
\@writefile{toc}{\contentsline {chapter}{\numberline {5.}Detailontwerp}{29}\protected@file@percent }
\@writefile{lof}{\addvspace {10pt}}
\@writefile{lot}{\addvspace {10pt}}
\@writefile{lof}{\contentsline {xchapter}{Detailontwerp}{29}\protected@file@percent }
\@writefile{lot}{\contentsline {xchapter}{Detailontwerp}{29}\protected@file@percent }
\@writefile{lof}{\contentsline {figure}{\numberline {5.1}{\ignorespaces Architectuur Interconnect Diagram\relax }}{29}\protected@file@percent }
\newlabel{AID}{{5.1}{29}}
\newlabel{AID@cref}{{[figure][1][5]5.1}{[1][29][]29}}
\@writefile{toc}{\contentsline {section}{\numberline {5.1}Unit 1: Microcontroller}{30}\protected@file@percent }
\@writefile{toc}{\contentsline {section}{\numberline {5.2}Deelsysteem 1.2: Control saved data}{31}\protected@file@percent }
\@writefile{lot}{\contentsline {table}{\numberline {5.1}{\ignorespaces Keuzetabel opslag\relax }}{31}\protected@file@percent }
\newlabel{Memory}{{5.1}{31}}
\newlabel{Memory@cref}{{[table][1][5]5.1}{[1][31][]31}}
\@writefile{lof}{\contentsline {figure}{\numberline {5.2}{\ignorespaces MX25R6435FM2IH0 in Altium\relax }}{31}\protected@file@percent }
\newlabel{flash}{{5.2}{31}}
\newlabel{flash@cref}{{[figure][2][5]5.2}{[1][31][]31}}
\@writefile{lof}{\contentsline {figure}{\numberline {5.3}{\ignorespaces SPI transactie nRF52840\relax }}{32}\protected@file@percent }
\newlabel{spi}{{5.3}{32}}
\newlabel{spi@cref}{{[figure][3][5]5.3}{[1][31][]32}}
\@writefile{toc}{\contentsline {subsection}{\numberline {5.2.1}Software}{32}\protected@file@percent }
\@writefile{lof}{\contentsline {figure}{\numberline {5.4}{\ignorespaces Flowdiagram transmit\relax }}{33}\protected@file@percent }
\newlabel{spitx}{{5.4}{33}}
\newlabel{spitx@cref}{{[figure][4][5]5.4}{[1][33][]33}}
\@writefile{lof}{\contentsline {figure}{\numberline {5.5}{\ignorespaces Flowdiagram receive\relax }}{34}\protected@file@percent }
\newlabel{spirx}{{5.5}{34}}
\newlabel{spirx@cref}{{[figure][5][5]5.5}{[1][34][]34}}
\@writefile{lof}{\contentsline {figure}{\numberline {5.6}{\ignorespaces Indeling adressen flash geheugen\relax }}{34}\protected@file@percent }
\newlabel{spimem}{{5.6}{34}}
\newlabel{spimem@cref}{{[figure][6][5]5.6}{[1][34][]34}}
\@writefile{toc}{\contentsline {section}{\numberline {5.3}Deelsysteem 1.3: Communicate Motor Control Unit}{35}\protected@file@percent }
\newlabel{hs:43}{{5.3}{35}}
\newlabel{hs:43@cref}{{[section][3][5]5.3}{[1][35][]35}}
\@writefile{lof}{\contentsline {figure}{\numberline {5.7}{\ignorespaces Easydma nRF52840\relax }}{35}\protected@file@percent }
\newlabel{dma}{{5.7}{35}}
\newlabel{dma@cref}{{[figure][7][5]5.7}{[1][35][]35}}
\@writefile{toc}{\contentsline {subsection}{\numberline {5.3.1}TX}{36}\