\relax 
\@writefile{toc}{\contentsline {section}{\numberline {1}hoofdstuk 1}{1}\protected@file@percent }
\@writefile{toc}{\contentsline {subsection}{\numberline {1.1}para 1}{1}\protected@file@percent }
\@writefile{toc}{\contentsline {subsection}{\numberline {1.2}para 2}{1}\protected@file@percent }
\@writefile{toc}{\contentsline {section}{\numberline {2}hoofdstuk 2}{1}\protected@file@percent }
