EESchema Schematic File Version 2
LIBS:power
LIBS:device
LIBS:switches
LIBS:relays
LIBS:motors
LIBS:transistors
LIBS:conn
LIBS:linear
LIBS:regul
LIBS:74xx
LIBS:cmos4000
LIBS:adc-dac
LIBS:memory
LIBS:xilinx
LIBS:microcontrollers
LIBS:dsp
LIBS:microchip
LIBS:analog_switches
LIBS:motorola
LIBS:texas
LIBS:intel
LIBS:audio
LIBS:interface
LIBS:digital-audio
LIBS:philips
LIBS:display
LIBS:cypress
LIBS:siliconi
LIBS:opto
LIBS:atmel
LIBS:contrib
LIBS:valves
LIBS:Solar converter-cache
EELAYER 25 0
EELAYER END
$Descr A4 11693 8268
encoding utf-8
Sheet 1 1
Title ""
Date ""
Rev ""
Comp ""
Comment1 ""
Comment2 ""
Comment3 ""
Comment4 ""
$EndDescr
$Comp
L GND #PWR18
U 1 1 5CA209AE
P 9450 5350
F 0 "#PWR18" H 9450 5100 50  0001 C CNN
F 1 "GND" H 9450 5200 50  0000 C CNN
F 2 "" H 9450 5350 50  0001 C CNN
F 3 "" H 9450 5350 50  0001 C CNN
	1    9450 5350
	1    0    0    -1  
$EndComp
$Comp
L VCC #PWR17
U 1 1 5CA209AF
P 8850 4800
F 0 "#PWR17" H 8850 4650 50  0001 C CNN
F 1 "VCC" H 8850 4950 50  0000 C CNN
F 2 "" H 8850 4800 50  0001 C CNN
F 3 "" H 8850 4800 50  0001 C CNN
	1    8850 4800
	1    0    0    -1  
$EndComp
$Comp
L C C10
U 1 1 5CA209B1
P 8850 5100
F 0 "C10" H 8875 5200 50  0000 L CNN
F 1 "100n" H 8875 5000 50  0000 L CNN
F 2 "Capacitors_SMD:C_1206_HandSoldering" H 8888 4950 50  0001 C CNN
F 3 "" H 8850 5100 50  0001 C CNN
	1    8850 5100
	-1   0    0    1   
$EndComp
$Comp
L LM2936-5.0_TO92 U2
U 1 1 5CA20CD4
P 9450 4900
F 0 "U2" H 9300 5025 50  0000 C CNN
F 1 "LM2936-5.0_TO92" H 9450 5025 50  0000 L CNN
F 2 "TO_SOT_Packages_THT:TO-92_Inline_Narrow_Oval" H 9450 5125 50  0001 C CIN
F 3 "" H 9450 4850 50  0001 C CNN
	1    9450 4900
	1    0    0    -1  
$EndComp
$Comp
L CP1 C11
U 1 1 5CA21136
P 9900 5100
F 0 "C11" H 9925 5200 50  0000 L CNN
F 1 "10u" H 9925 5000 50  0000 L CNN
F 2 "" H 9900 5100 50  0001 C CNN
F 3 "" H 9900 5100 50  0001 C CNN
	1    9900 5100
	1    0    0    -1  
$EndComp
$Comp
L PWR_FLAG #FLG2
U 1 1 5CA20991
P 1250 850
F 0 "#FLG2" H 1250 925 50  0001 C CNN
F 1 "PWR_FLAG" H 1250 1000 50  0000 C CNN
F 2 "" H 1250 850 50  0001 C CNN
F 3 "" H 1250 850 50  0001 C CNN
	1    1250 850 
	1    0    0    -1  
$EndComp
$Comp
L PWR_FLAG #FLG1
U 1 1 5CA20990
P 850 850
F 0 "#FLG1" H 850 925 50  0001 C CNN
F 1 "PWR_FLAG" H 850 1000 50  0000 C CNN
F 2 "" H 850 850 50  0001 C CNN
F 3 "" H 850 850 50  0001 C CNN
	1    850  850 
	1    0    0    -1  
$EndComp
$Comp
L GND #PWR4
U 1 1 5CA2098F
P 1250 950
F 0 "#PWR4" H 1250 700 50  0001 C CNN
F 1 "GND" H 1250 800 50  0000 C CNN
F 2 "" H 1250 950 50  0001 C CNN
F 3 "" H 1250 950 50  0001 C CNN
	1    1250 950 
	1    0    0    -1  
$EndComp
$Comp
L VCC #PWR1
U 1 1 5CA2098E
P 850 950
F 0 "#PWR1" H 850 800 50  0001 C CNN
F 1 "VCC" H 850 1100 50  0000 C CNN
F 2 "" H 850 950 50  0001 C CNN
F 3 "" H 850 950 50  0001 C CNN
	1    850  950 
	-1   0    0    1   
$EndComp
$Comp
L R R4
U 1 1 5CA23050
P 1900 5800
F 0 "R4" V 1980 5800 50  0000 C CNN
F 1 "10k" V 1900 5800 50  0000 C CNN
F 2 "" V 1830 5800 50  0001 C CNN
F 3 "" H 1900 5800 50  0001 C CNN
	1    1900 5800
	0    1    1    0   
$EndComp
$Comp
L R R12
U 1 1 5CA233B6
P 4350 6300
F 0 "R12" V 4430 6300 50  0000 C CNN
F 1 "150k" V 4350 6300 50  0000 C CNN
F 2 "" V 4280 6300 50  0001 C CNN
F 3 "" H 4350 6300 50  0001 C CNN
	1    4350 6300
	0    1    1    0   
$EndComp
$Comp
L R R11
U 1 1 5CA234F7
P 4350 5800
F 0 "R11" V 4430 5800 50  0000 C CNN
F 1 "10k" V 4350 5800 50  0000 C CNN
F 2 "" V 4280 5800 50  0001 C CNN
F 3 "" H 4350 5800 50  0001 C CNN
	1    4350 5800
	0    1    1    0   
$EndComp
$Comp
L R R5
U 1 1 5CA20963
P 1900 6150
F 0 "R5" V 1980 6150 50  0000 C CNN
F 1 "10k" V 1900 6150 50  0000 C CNN
F 2 "" V 1830 6150 50  0001 C CNN
F 3 "" H 1900 6150 50  0001 C CNN
	1    1900 6150
	0    1    1    0   
$EndComp
$Comp
L R R6
U 1 1 5CA20A4D
P 1900 6300
F 0 "R6" V 1980 6300 50  0000 C CNN
F 1 "10k" V 1900 6300 50  0000 C CNN
F 2 "" V 1830 6300 50  0001 C CNN
F 3 "" H 1900 6300 50  0001 C CNN
	1    1900 6300
	0    1    1    0   
$EndComp
$Comp
L R R9
U 1 1 5CA20B5E
P 2100 6450
F 0 "R9" V 2180 6450 50  0000 C CNN
F 1 "10k" V 2100 6450 50  0000 C CNN
F 2 "" V 2030 6450 50  0001 C CNN
F 3 "" H 2100 6450 50  0001 C CNN
	1    2100 6450
	0    1    1    0   
$EndComp
$Comp
L R R13
U 1 1 5CA20BA4
P 4350 6450
F 0 "R13" V 4430 6450 50  0000 C CNN
F 1 "10k" V 4350 6450 50  0000 C CNN
F 2 "" V 4280 6450 50  0001 C CNN
F 3 "" H 4350 6450 50  0001 C CNN
	1    4350 6450
	0    1    1    0   
$EndComp
$Comp
L R R8
U 1 1 5CA20F83
P 1900 6750
F 0 "R8" V 1980 6750 50  0000 C CNN
F 1 "2k" V 1900 6750 50  0000 C CNN
F 2 "" V 1830 6750 50  0001 C CNN
F 3 "" H 1900 6750 50  0001 C CNN
	1    1900 6750
	0    1    1    0   
$EndComp
$Comp
L R R7
U 1 1 5CA2104E
P 1900 6600
F 0 "R7" V 1980 6600 50  0000 C CNN
F 1 "2k" V 1900 6600 50  0000 C CNN
F 2 "" V 1830 6600 50  0001 C CNN
F 3 "" H 1900 6600 50  0001 C CNN
	1    1900 6600
	0    1    1    0   
$EndComp
$Comp
L GND #PWR10
U 1 1 5CA212F6
P 2300 7050
F 0 "#PWR10" H 2300 6800 50  0001 C CNN
F 1 "GND" H 2300 6900 50  0000 C CNN
F 2 "" H 2300 7050 50  0001 C CNN
F 3 "" H 2300 7050 50  0001 C CNN
	1    2300 7050
	1    0    0    -1  
$EndComp
$Comp
L GND #PWR8
U 1 1 5CA21439
P 2400 6100
F 0 "#PWR8" H 2400 5850 50  0001 C CNN
F 1 "GND" H 2400 5950 50  0000 C CNN
F 2 "" H 2400 6100 50  0001 C CNN
F 3 "" H 2400 6100 50  0001 C CNN
	1    2400 6100
	0    1    1    0   
$EndComp
$Comp
L R R1
U 1 1 5CA21741
P 950 6300
F 0 "R1" V 1030 6300 50  0000 C CNN
F 1 "49.9k" V 950 6300 50  0000 C CNN
F 2 "" V 880 6300 50  0001 C CNN
F 3 "" H 950 6300 50  0001 C CNN
	1    950  6300
	1    0    0    -1  
$EndComp
$Comp
L GND #PWR9
U 1 1 5CA217EE
P 2400 6750
F 0 "#PWR9" H 2400 6500 50  0001 C CNN
F 1 "GND" H 2400 6600 50  0000 C CNN
F 2 "" H 2400 6750 50  0001 C CNN
F 3 "" H 2400 6750 50  0001 C CNN
	1    2400 6750
	0    1    1    0   
$EndComp
$Comp
L GND #PWR6
U 1 1 5CA21A42
P 1900 6450
F 0 "#PWR6" H 1900 6200 50  0001 C CNN
F 1 "GND" H 1900 6300 50  0000 C CNN
F 2 "" H 1900 6450 50  0001 C CNN
F 3 "" H 1900 6450 50  0001 C CNN
	1    1900 6450
	0    1    1    0   
$EndComp
$Comp
L GND #PWR12
U 1 1 5CA21CBE
P 4550 6450
F 0 "#PWR12" H 4550 6200 50  0001 C CNN
F 1 "GND" H 4550 6300 50  0000 C CNN
F 2 "" H 4550 6450 50  0001 C CNN
F 3 "" H 4550 6450 50  0001 C CNN
	1    4550 6450
	0    -1   -1   0   
$EndComp
$Comp
L GND #PWR7
U 1 1 5CA21E52
P 2400 5900
F 0 "#PWR7" H 2400 5650 50  0001 C CNN
F 1 "GND" H 2400 5750 50  0000 C CNN
F 2 "" H 2400 5900 50  0001 C CNN
F 3 "" H 2400 5900 50  0001 C CNN
	1    2400 5900
	0    1    1    0   
$EndComp
Text GLabel 10100 4900 2    60   Input ~ 0
5VDC
Text GLabel 800  6100 0    60   Input ~ 0
5VDC
Text GLabel 4600 5800 2    60   Input ~ 0
5VDC
Text GLabel 4600 6300 2    60   Input ~ 0
5VDC
$Comp
L C C4
U 1 1 5CA22E95
P 1200 6700
F 0 "C4" H 1225 6800 50  0000 L CNN
F 1 "0.01u" H 1225 6600 50  0000 L CNN
F 2 "" H 1238 6550 50  0001 C CNN
F 3 "" H 1200 6700 50  0001 C CNN
	1    1200 6700
	-1   0    0    1   
$EndComp
$Comp
L C C2
U 1 1 5CA22F62
P 950 6700
F 0 "C2" H 975 6800 50  0000 L CNN
F 1 "0.01u" H 975 6600 50  0000 L CNN
F 2 "" H 988 6550 50  0001 C CNN
F 3 "" H 950 6700 50  0001 C CNN
	1    950  6700
	-1   0    0    1   
$EndComp
$Comp
L GND #PWR3
U 1 1 5CA23379
P 950 7000
F 0 "#PWR3" H 950 6750 50  0001 C CNN
F 1 "GND" H 950 6850 50  0000 C CNN
F 2 "" H 950 7000 50  0001 C CNN
F 3 "" H 950 7000 50  0001 C CNN
	1    950  7000
	1    0    0    -1  
$EndComp
$Comp
L C C1
U 1 1 5CA23405
P 950 5800
F 0 "C1" H 975 5900 50  0000 L CNN
F 1 "0.01u" H 975 5700 50  0000 L CNN
F 2 "" H 988 5650 50  0001 C CNN
F 3 "" H 950 5800 50  0001 C CNN
	1    950  5800
	-1   0    0    1   
$EndComp
$Comp
L C C3
U 1 1 5CA23460
P 1200 5800
F 0 "C3" H 1225 5900 50  0000 L CNN
F 1 "0.01u" H 1225 5700 50  0000 L CNN
F 2 "" H 1238 5650 50  0001 C CNN
F 3 "" H 1200 5800 50  0001 C CNN
	1    1200 5800
	-1   0    0    1   
$EndComp
$Comp
L GND #PWR2
U 1 1 5CA235AB
P 950 5500
F 0 "#PWR2" H 950 5250 50  0001 C CNN
F 1 "GND" H 950 5350 50  0000 C CNN
F 2 "" H 950 5500 50  0001 C CNN
F 3 "" H 950 5500 50  0001 C CNN
	1    950  5500
	-1   0    0    1   
$EndComp
Text GLabel 1650 6150 0    60   Input ~ 0
5VDC
Text GLabel 1650 5800 0    60   Input ~ 0
5VDC
$Comp
L R R3
U 1 1 5CA24940
P 2600 2350
F 0 "R3" V 2680 2350 50  0000 C CNN
F 1 "1,5k" V 2600 2350 50  0000 C CNN
F 2 "" V 2530 2350 50  0001 C CNN
F 3 "" H 2600 2350 50  0001 C CNN
	1    2600 2350
	1    0    0    -1  
$EndComp
$Comp
L R R2
U 1 1 5CA24AD5
P 2600 1950
F 0 "R2" V 2680 1950 50  0000 C CNN
F 1 "13k" V 2600 1950 50  0000 C CNN
F 2 "" V 2530 1950 50  0001 C CNN
F 3 "" H 2600 1950 50  0001 C CNN
	1    2600 1950
	1    0    0    -1  
$EndComp
$Comp
L C C5
U 1 1 5CA2513E
P 2350 2350
F 0 "C5" H 2375 2450 50  0000 L CNN
F 1 "0.01u" H 2350 2200 50  0000 L CNN
F 2 "" H 2388 2200 50  0001 C CNN
F 3 "" H 2350 2350 50  0001 C CNN
	1    2350 2350
	1    0    0    -1  
$EndComp
$Comp
L R R10
U 1 1 5CA2622F
P 4250 7100
F 0 "R10" V 4330 7100 50  0000 C CNN
F 1 "2.2k" V 4250 7100 50  0000 C CNN
F 2 "" V 4180 7100 50  0001 C CNN
F 3 "" H 4250 7100 50  0001 C CNN
	1    4250 7100
	-1   0    0    1   
$EndComp
$Comp
L R R14
U 1 1 5CA26398
P 4450 6900
F 0 "R14" V 4530 6900 50  0000 C CNN
F 1 "40k" V 4450 6900 50  0000 C CNN
F 2 "" V 4380 6900 50  0001 C CNN
F 3 "" H 4450 6900 50  0001 C CNN
	1    4450 6900
	0    -1   -1   0   
$EndComp
$Comp
L GND #PWR11
U 1 1 5CA26410
P 4250 7300
F 0 "#PWR11" H 4250 7050 50  0001 C CNN
F 1 "GND" H 4250 7150 50  0000 C CNN
F 2 "" H 4250 7300 50  0001 C CNN
F 3 "" H 4250 7300 50  0001 C CNN
	1    4250 7300
	1    0    0    -1  
$EndComp
$Comp
L R R21
U 1 1 5CA269B2
P 6500 6450
F 0 "R21" V 6580 6450 50  0000 C CNN
F 1 "2k" V 6500 6450 50  0000 C CNN
F 2 "" V 6430 6450 50  0001 C CNN
F 3 "" H 6500 6450 50  0001 C CNN
	1    6500 6450
	-1   0    0    -1  
$EndComp
$Comp
L R R22
U 1 1 5CA26A1E
P 6500 7050
F 0 "R22" V 6580 7050 50  0000 C CNN
F 1 "2k" V 6500 7050 50  0000 C CNN
F 2 "" V 6430 7050 50  0001 C CNN
F 3 "" H 6500 7050 50  0001 C CNN
	1    6500 7050
	-1   0    0    -1  
$EndComp
$Comp
L C C9
U 1 1 5CA26B42
P 6750 7050
F 0 "C9" H 6775 7150 50  0000 L CNN
F 1 "0.1u" H 6775 6950 50  0000 L CNN
F 2 "" H 6788 6900 50  0001 C CNN
F 3 "" H 6750 7050 50  0001 C CNN
	1    6750 7050
	-1   0    0    -1  
$EndComp
$Comp
L GND #PWR16
U 1 1 5CA26E1E
P 6500 7300
F 0 "#PWR16" H 6500 7050 50  0001 C CNN
F 1 "GND" H 6500 7150 50  0000 C CNN
F 2 "" H 6500 7300 50  0001 C CNN
F 3 "" H 6500 7300 50  0001 C CNN
	1    6500 7300
	-1   0    0    -1  
$EndComp
Text GLabel 6550 6250 2    60   Input ~ 0
5VDC
$Comp
L R R19
U 1 1 5CA276DA
P 6050 6450
F 0 "R19" V 6130 6450 50  0000 C CNN
F 1 "27k" V 6050 6450 50  0000 C CNN
F 2 "" V 5980 6450 50  0001 C CNN
F 3 "" H 6050 6450 50  0001 C CNN
	1    6050 6450
	-1   0    0    -1  
$EndComp
$Comp
L R R20
U 1 1 5CA276E0
P 6050 7050
F 0 "R20" V 6130 7050 50  0000 C CNN
F 1 "24k" V 6050 7050 50  0000 C CNN
F 2 "" V 5980 7050 50  0001 C CNN
F 3 "" H 6050 7050 50  0001 C CNN
	1    6050 7050
	-1   0    0    -1  
$EndComp
$Comp
L C C8
U 1 1 5CA276E6
P 6300 7050
F 0 "C8" H 6325 7150 50  0000 L CNN
F 1 "0.1u" H 6325 6950 50  0000 L CNN
F 2 "" H 6338 6900 50  0001 C CNN
F 3 "" H 6300 7050 50  0001 C CNN
	1    6300 7050
	-1   0    0    -1  
$EndComp
$Comp
L GND #PWR15
U 1 1 5CA276F3
P 6050 7300
F 0 "#PWR15" H 6050 7050 50  0001 C CNN
F 1 "GND" H 6050 7150 50  0000 C CNN
F 2 "" H 6050 7300 50  0001 C CNN
F 3 "" H 6050 7300 50  0001 C CNN
	1    6050 7300
	-1   0    0    -1  
$EndComp
$Comp
L R R17
U 1 1 5CA277C2
P 5600 6450
F 0 "R17" V 5680 6450 50  0000 C CNN
F 1 "7.5k" V 5600 6450 50  0000 C CNN
F 2 "" V 5530 6450 50  0001 C CNN
F 3 "" H 5600 6450 50  0001 C CNN
	1    5600 6450
	-1   0    0    -1  
$EndComp
$Comp
L R R18
U 1 1 5CA277C8
P 5600 7050
F 0 "R18" V 5680 7050 50  0000 C CNN
F 1 "30k" V 5600 7050 50  0000 C CNN
F 2 "" V 5530 7050 50  0001 C CNN
F 3 "" H 5600 7050 50  0001 C CNN
	1    5600 7050
	-1   0    0    -1  
$EndComp
$Comp
L C C7
U 1 1 5CA277CE
P 5850 7050
F 0 "C7" H 5875 7150 50  0000 L CNN
F 1 "0.1u" H 5875 6950 50  0000 L CNN
F 2 "" H 5888 6900 50  0001 C CNN
F 3 "" H 5850 7050 50  0001 C CNN
	1    5850 7050
	-1   0    0    -1  
$EndComp
$Comp
L GND #PWR14
U 1 1 5CA277DB
P 5600 7300
F 0 "#PWR14" H 5600 7050 50  0001 C CNN
F 1 "GND" H 5600 7150 50  0000 C CNN
F 2 "" H 5600 7300 50  0001 C CNN
F 3 "" H 5600 7300 50  0001 C CNN
	1    5600 7300
	-1   0    0    -1  
$EndComp
$Comp
L R R15
U 1 1 5CA277E2
P 5150 6450
F 0 "R15" V 5230 6450 50  0000 C CNN
F 1 "180k" V 5150 6450 50  0000 C CNN
F 2 "" V 5080 6450 50  0001 C CNN
F 3 "" H 5150 6450 50  0001 C CNN
	1    5150 6450
	-1   0    0    -1  
$EndComp
$Comp
L R R16
U 1 1 5CA277E8
P 5150 7050
F 0 "R16" V 5230 7050 50  0000 C CNN
F 1 "20k" V 5150 7050 50  0000 C CNN
F 2 "" V 5080 7050 50  0001 C CNN
F 3 "" H 5150 7050 50  0001 C CNN
	1    5150 7050
	-1   0    0    -1  
$EndComp
$Comp
L C C6
U 1 1 5CA277EE
P 5400 7050
F 0 "C6" H 5425 7150 50  0000 L CNN
F 1 "0.1u" H 5425 6950 50  0000 L CNN
F 2 "" H 5438 6900 50  0001 C CNN
F 3 "" H 5400 7050 50  0001 C CNN
	1    5400 7050
	-1   0    0    -1  
$EndComp
$Comp
L GND #PWR13
U 1 1 5CA277FB
P 5150 7300
F 0 "#PWR13" H 5150 7050 50  0001 C CNN
F 1 "GND" H 5150 7150 50  0000 C CNN
F 2 "" H 5150 7300 50  0001 C CNN
F 3 "" H 5150 7300 50  0001 C CNN
	1    5150 7300
	-1   0    0    -1  
$EndComp
Text GLabel 2800 2150 2    60   Input ~ 0
AVIN
Text GLabel 3850 7100 2    60   Input ~ 0
AVIN
$Comp
L SM72441 U?
U 1 1 5CA742FE
P 3050 6450
F 0 "U?" H 3100 7250 60  0000 C CNN
F 1 "SM72441" H 3100 6500 60  0000 C CNN
F 2 "" H 3100 7250 60  0001 C CNN
F 3 "" H 3100 7250 60  0001 C CNN
	1    3050 6450
	1    0    0    -1  
$EndComp
$Comp
L R R?
U 1 1 5CA78B3E
P 1800 7000
F 0 "R?" V 1880 7000 50  0000 C CNN
F 1 "1k" V 1800 7000 50  0000 C CNN
F 2 "" V 1730 7000 50  0001 C CNN
F 3 "" H 1800 7000 50  0001 C CNN
	1    1800 7000
	0    -1   -1   0   
$EndComp
$Comp
L LED D?
U 1 1 5CA78C4A
P 2150 7000
F 0 "D?" H 2150 7100 50  0000 C CNN
F 1 "LED" H 2150 6900 50  0000 C CNN
F 2 "" H 2150 7000 50  0001 C CNN
F 3 "" H 2150 7000 50  0001 C CNN
	1    2150 7000
	1    0    0    -1  
$EndComp
$Comp
L GND #PWR?
U 1 1 5CA78FAD
P 1600 7000
F 0 "#PWR?" H 1600 6750 50  0001 C CNN
F 1 "GND" H 1600 6850 50  0000 C CNN
F 2 "" H 1600 7000 50  0001 C CNN
F 3 "" H 1600 7000 50  0001 C CNN
	1    1600 7000
	0    1    1    0   
$EndComp
$Comp
L SM72295 U?
U 1 1 5CA7C202
P 5800 4300
F 0 "U?" H 5850 5100 60  0000 C CNN
F 1 "SM72295" H 5850 4350 60  0000 C CNN
F 2 "" H 5850 5100 60  0001 C CNN
F 3 "" H 5850 5100 60  0001 C CNN
	1    5800 4300
	0    -1   -1   0   
$EndComp
Text GLabel 6250 3500 1    60   Input ~ 0
5VDC
$Comp
L GND #PWR?
U 1 1 5CA7E78C
P 5550 4950
F 0 "#PWR?" H 5550 4700 50  0001 C CNN
F 1 "GND" H 5550 4800 50  0000 C CNN
F 2 "" H 5550 4950 50  0001 C CNN
F 3 "" H 5550 4950 50  0001 C CNN
	1    5550 4950
	1    0    0    -1  
$EndComp
$Comp
L R R?
U 1 1 5CA7EBDE
P 3650 1350
F 0 "R?" V 3730 1350 50  0000 C CNN
F 1 "10m" V 3650 1350 50  0000 C CNN
F 2 "" V 3580 1350 50  0001 C CNN
F 3 "" H 3650 1350 50  0001 C CNN
	1    3650 1350
	0    1    1    0   
$EndComp
$Comp
L L L?
U 1 1 5CA7F3A4
P 5700 2050
F 0 "L?" V 5650 2050 50  0000 C CNN
F 1 "L" V 5775 2050 50  0000 C CNN
F 2 "" H 5700 2050 50  0001 C CNN
F 3 "" H 5700 2050 50  0001 C CNN
	1    5700 2050
	0    -1   -1   0   
$EndComp
$Comp
L IRF540N Q?
U 1 1 5CA7F858
P 5200 1750
F 0 "Q?" H 5450 1825 50  0000 L CNN
F 1 "IRF540N" H 4900 1600 50  0000 L CNN
F 2 "TO_SOT_Packages_THT:TO-220_Vertical" H 5450 1675 50  0001 L CIN
F 3 "" H 5200 1750 50  0001 L CNN
	1    5200 1750
	1    0    0    -1  
$EndComp
$Comp
L IRF540N Q?
U 1 1 5CA7FBD3
P 5200 2350
F 0 "Q?" H 5450 2425 50  0000 L CNN
F 1 "IRF540N" H 4950 2150 50  0000 L CNN
F 2 "TO_SOT_Packages_THT:TO-220_Vertical" H 5450 2275 50  0001 L CIN
F 3 "" H 5200 2350 50  0001 L CNN
	1    5200 2350
	1    0    0    -1  
$EndComp
$Comp
L IRF540N Q?
U 1 1 5CA7FEA8
P 6200 2350
F 0 "Q?" H 6450 2425 50  0000 L CNN
F 1 "IRF540N" H 5950 2600 50  0000 L CNN
F 2 "TO_SOT_Packages_THT:TO-220_Vertical" H 6450 2275 50  0001 L CIN
F 3 "" H 6200 2350 50  0001 L CNN
	1    6200 2350
	-1   0    0    1   
$EndComp
$Comp
L IRF540N Q?
U 1 1 5CA80272
P 6200 1750
F 0 "Q?" H 6450 1825 50  0000 L CNN
F 1 "IRF540N" H 5950 1950 50  0000 L CNN
F 2 "TO_SOT_Packages_THT:TO-220_Vertical" H 6450 1675 50  0001 L CIN
F 3 "" H 6200 1750 50  0001 L CNN
	1    6200 1750
	-1   0    0    1   
$EndComp
$Comp
L R R?
U 1 1 5CA827C6
P 4800 1750
F 0 "R?" V 4880 1750 50  0000 C CNN
F 1 "10k" V 4800 1750 50  0000 C CNN
F 2 "" V 4730 1750 50  0001 C CNN
F 3 "" H 4800 1750 50  0001 C CNN
	1    4800 1750
	0    -1   -1   0   
$EndComp
$Comp
L R R?
U 1 1 5CA82A06
P 4800 2350
F 0 "R?" V 4880 2350 50  0000 C CNN
F 1 "10k" V 4800 2350 50  0000 C CNN
F 2 "" V 4730 2350 50  0001 C CNN
F 3 "" H 4800 2350 50  0001 C CNN
	1    4800 2350
	0    -1   -1   0   
$EndComp
$Comp
L R R?
U 1 1 5CA82C98
P 6600 1750
F 0 "R?" V 6680 1750 50  0000 C CNN
F 1 "10k" V 6600 1750 50  0000 C CNN
F 2 "" V 6530 1750 50  0001 C CNN
F 3 "" H 6600 1750 50  0001 C CNN
	1    6600 1750
	0    1    1    0   
$EndComp
Wire Wire Line
	8850 4800 8850 4950
Wire Wire Line
	9150 4900 8850 4900
Connection ~ 8850 4900
Wire Wire Line
	8850 5250 8850 5300
Wire Wire Line
	8850 5300 9900 5300
Wire Wire Line
	9900 5300 9900 5250
Wire Wire Line
	9900 4950 9900 4900
Wire Wire Line
	9750 4900 10100 4900
Wire Wire Line
	9450 5200 9450 5350
Connection ~ 9450 5300
Wire Wire Line
	1250 950  1250 850 
Wire Wire Line
	850  850  850  950 
Wire Wire Line
	2450 6300 2050 6300
Wire Wire Line
	2050 6150 2100 6150
Wire Wire Line
	2100 6150 2100 6200
Wire Wire Line
	2100 6200 2450 6200
Wire Wire Line
	2450 5800 2050 5800
Wire Wire Line
	4200 6300 3800 6300
Wire Wire Line
	3800 6400 4150 6400
Wire Wire Line
	4150 6400 4150 6450
Wire Wire Line
	4150 6450 4200 6450
Wire Wire Line
	3800 5800 4200 5800
Wire Wire Line
	4550 6450 4500 6450
Wire Wire Line
	2400 6100 2450 6100
Wire Wire Line
	2450 6700 2400 6700
Wire Wire Line
	2400 5900 2450 5900
Connection ~ 9900 4900
Wire Wire Line
	1700 6150 1700 6750
Wire Wire Line
	1700 6300 1750 6300
Connection ~ 1700 6150
Wire Wire Line
	1700 6600 1750 6600
Connection ~ 1700 6300
Wire Wire Line
	1700 6750 1750 6750
Connection ~ 1700 6600
Wire Wire Line
	2450 6400 2300 6400
Wire Wire Line
	2300 6400 2300 6450
Wire Wire Line
	2300 6450 2250 6450
Wire Wire Line
	1950 6450 1900 6450
Wire Wire Line
	2050 6600 2250 6600
Wire Wire Line
	2250 6600 2250 6500
Wire Wire Line
	2250 6500 2450 6500
Wire Wire Line
	2450 6600 2300 6600
Wire Wire Line
	2300 6600 2300 6650
Wire Wire Line
	2300 6650 2100 6650
Wire Wire Line
	2100 6650 2100 6750
Wire Wire Line
	2100 6750 2050 6750
Wire Wire Line
	2400 6700 2400 6750
Wire Wire Line
	4500 6300 4600 6300
Wire Wire Line
	4600 5800 4500 5800
Wire Wire Line
	950  6000 2450 6000
Wire Wire Line
	950  6550 950  6450
Wire Wire Line
	950  6500 1550 6500
Wire Wire Line
	1200 6500 1200 6550
Connection ~ 950  6500
Wire Wire Line
	950  6850 950  7000
Wire Wire Line
	1200 6950 1200 6850
Wire Wire Line
	1200 5550 1200 5650
Wire Wire Line
	1200 6000 1200 5950
Wire Wire Line
	950  5950 950  6150
Connection ~ 950  6000
Wire Wire Line
	800  6100 950  6100
Connection ~ 950  6100
Wire Wire Line
	1200 5550 950  5550
Wire Wire Line
	950  6950 1200 6950
Connection ~ 950  6950
Connection ~ 1200 6000
Connection ~ 1200 6500
Wire Wire Line
	1650 5800 1750 5800
Wire Wire Line
	1750 6150 1650 6150
Wire Wire Line
	950  5500 950  5650
Connection ~ 950  5550
Wire Wire Line
	2600 2100 2600 2200
Wire Wire Line
	2350 2200 2350 2150
Wire Wire Line
	2350 2500 2350 2750
Wire Wire Line
	2350 2150 2800 2150
Connection ~ 2600 2150
Connection ~ 2600 1350
Wire Wire Line
	4250 7300 4250 7250
Wire Wire Line
	3800 6900 4300 6900
Wire Wire Line
	4250 6900 4250 6950
Wire Wire Line
	4600 6900 4650 6900
Connection ~ 4250 6900
Wire Wire Line
	6750 6900 6750 6850
Wire Wire Line
	6750 6850 6500 6850
Connection ~ 6500 6850
Wire Wire Line
	6750 7200 6750 7250
Wire Wire Line
	6750 7250 6500 7250
Wire Wire Line
	6500 7200 6500 7300
Connection ~ 6500 7250
Wire Wire Line
	6500 6300 6500 6250
Wire Wire Line
	6550 6250 5150 6250
Wire Wire Line
	6500 6600 6500 6900
Wire Wire Line
	6300 6900 6300 6850
Wire Wire Line
	6300 6850 6050 6850
Connection ~ 6050 6850
Wire Wire Line
	6300 7200 6300 7250
Wire Wire Line
	6300 7250 6050 7250
Wire Wire Line
	6050 7200 6050 7300
Connection ~ 6050 7250
Wire Wire Line
	6050 6600 6050 6900
Wire Wire Line
	5850 6900 5850 6850
Wire Wire Line
	5850 6850 5600 6850
Connection ~ 5600 6850
Wire Wire Line
	5850 7200 5850 7250
Wire Wire Line
	5850 7250 5600 7250
Wire Wire Line
	5600 7200 5600 7300
Connection ~ 5600 7250
Wire Wire Line
	5600 6600 5600 6900
Wire Wire Line
	5400 6900 5400 6850
Wire Wire Line
	5400 6850 5150 6850
Connection ~ 5150 6850
Wire Wire Line
	5400 7200 5400 7250
Wire Wire Line
	5400 7250 5150 7250
Wire Wire Line
	5150 7200 5150 7300
Connection ~ 5150 7250
Wire Wire Line
	5150 6600 5150 6900
Wire Wire Line
	6050 6250 6050 6300
Connection ~ 6500 6250
Wire Wire Line
	5150 6250 5150 6300
Connection ~ 6050 6250
Wire Wire Line
	5600 6300 5600 6250
Connection ~ 5600 6250
Connection ~ 6500 6800
Connection ~ 6050 6750
Connection ~ 5600 6700
Connection ~ 5150 6650
Wire Wire Line
	3800 7000 4150 7000
Wire Wire Line
	2400 7100 2400 7500
Wire Wire Line
	2400 7100 2450 7100
Wire Wire Line
	6500 6800 4850 6800
Wire Wire Line
	4850 6800 4850 7500
Wire Wire Line
	4850 7500 2400 7500
Wire Wire Line
	3800 7100 3850 7100
Wire Wire Line
	1950 7000 2000 7000
Wire Wire Line
	1600 7000 1650 7000
Wire Wire Line
	2300 6900 2450 6900
Wire Wire Line
	2300 6900 2300 7000
Wire Wire Line
	2450 7000 2350 7000
Wire Wire Line
	2350 7000 2350 7050
Wire Wire Line
	2350 7050 2300 7050
Wire Wire Line
	2450 6800 2400 6800
Wire Wire Line
	2400 6800 2400 6850
Wire Wire Line
	2400 6850 1550 6850
Wire Wire Line
	1550 6850 1550 6500
Wire Wire Line
	5650 5900 3800 5900
Wire Wire Line
	5750 6000 3800 6000
Wire Wire Line
	5850 6100 3800 6100
Wire Wire Line
	5950 6200 3800 6200
Wire Wire Line
	5650 4900 5650 5900
Wire Wire Line
	5750 4900 5750 6000
Wire Wire Line
	5850 4900 5850 6100
Wire Wire Line
	5950 4900 5950 6200
Wire Wire Line
	5550 4950 5550 4900
Wire Wire Line
	5300 1950 5300 2150
Wire Wire Line
	4400 2050 5550 2050
Connection ~ 5300 2050
Wire Wire Line
	6100 1950 6100 2150
Wire Wire Line
	5850 2050 7050 2050
Connection ~ 6100 2050
Wire Wire Line
	6100 1550 6100 1350
Wire Wire Line
	5300 1550 5300 1350
Wire Wire Line
	5300 2550 5300 2750
Connection ~ 5300 2750
Wire Wire Line
	6100 2550 6100 2750
Connection ~ 6100 2750
$Comp
L R R?
U 1 1 5CA82F1A
P 6600 2350
F 0 "R?" V 6680 2350 50  0000 C CNN
F 1 "10k" V 6600 2350 50  0000 C CNN
F 2 "" V 6530 2350 50  0001 C CNN
F 3 "" H 6600 2350 50  0001 C CNN
	1    6600 2350
	0    -1   -1   0   
$EndComp
Wire Wire Line
	6450 1750 6400 1750
Wire Wire Line
	5000 1750 4950 1750
Wire Wire Line
	5000 2350 4950 2350
Wire Wire Line
	6400 2350 6450 2350
Wire Wire Line
	4650 2350 4600 2350
Wire Wire Line
	4600 2350 4600 2950
Wire Wire Line
	4600 2950 5550 2950
Wire Wire Line
	5550 2950 5550 3550
Wire Wire Line
	6750 2350 6850 2350
Wire Wire Line
	5750 2850 5750 3550
Wire Wire Line
	4650 1750 4550 1750
Wire Wire Line
	4550 1750 4550 3000
Wire Wire Line
	4550 3000 5250 3000
Wire Wire Line
	5250 3000 5250 3550
Wire Wire Line
	6050 3000 6050 3550
Wire Wire Line
	6050 3000 6900 3000
Wire Wire Line
	6900 3000 6900 1750
Wire Wire Line
	6900 1750 6750 1750
Wire Wire Line
	4400 2050 4400 3100
Wire Wire Line
	5150 3100 5150 3550
Wire Wire Line
	6250 3550 6250 3500
Wire Wire Line
	7050 2050 7050 3100
Wire Wire Line
	6150 3100 6150 3550
$Comp
L C C?
U 1 1 5CA88092
P 4850 3200
F 0 "C?" H 4875 3300 50  0000 L CNN
F 1 "0.47u" V 4900 2950 50  0000 L CNN
F 2 "" H 4888 3050 50  0001 C CNN
F 3 "" H 4850 3200 50  0001 C CNN
	1    4850 3200
	0    1    1    0   
$EndComp
Wire Wire Line
	5350 3500 5350 3550
$Comp
L C C?
U 1 1 5CA88779
P 6700 3200
F 0 "C?" H 6725 3300 50  0000 L CNN
F 1 "0.47u" V 6750 2950 50  0000 L CNN
F 2 "" H 6738 3050 50  0001 C CNN
F 3 "" H 6700 3200 50  0001 C CNN
	1    6700 3200
	0    1    1    0   
$EndComp
Wire Wire Line
	6850 2850 5750 2850
Wire Wire Line
	6850 2350 6850 2850
Wire Wire Line
	7050 3100 6150 3100
Wire Wire Line
	6550 3200 5950 3200
Wire Wire Line
	6850 3200 6850 3100
Connection ~ 6850 3100
Wire Wire Line
	5950 3200 5950 3550
Wire Wire Line
	4400 3100 5150 3100
Wire Wire Line
	4700 3200 4650 3200
Wire Wire Line
	4650 3200 4650 3100
Connection ~ 4650 3100
Wire Wire Line
	5350 3500 5050 3500
Wire Wire Line
	5050 3500 5050 3200
Wire Wire Line
	5050 3200 5000 3200
Wire Wire Line
	5650 3550 5650 2750
Connection ~ 5650 2750
$Comp
L C C?
U 1 1 5CA8A7D8
P 5450 3300
F 0 "C?" H 5475 3400 50  0000 L CNN
F 1 "1u" V 5500 3150 50  0000 L CNN
F 2 "" H 5488 3150 50  0001 C CNN
F 3 "" H 5450 3300 50  0001 C CNN
	1    5450 3300
	-1   0    0    1   
$EndComp
$Comp
L C C?
U 1 1 5CA8A8A2
P 5850 3300
F 0 "C?" H 5875 3400 50  0000 L CNN
F 1 "1u" V 5900 3150 50  0000 L CNN
F 2 "" H 5888 3150 50  0001 C CNN
F 3 "" H 5850 3300 50  0001 C CNN
	1    5850 3300
	-1   0    0    1   
$EndComp
Wire Wire Line
	5850 3450 5850 3550
Wire Wire Line
	5450 3550 5450 3450
Wire Wire Line
	5450 3500 5900 3500
Connection ~ 5850 3500
Connection ~ 5450 3500
Wire Wire Line
	5850 3100 5850 3150
Wire Wire Line
	5450 3100 5850 3100
Connection ~ 5650 3100
Wire Wire Line
	5450 3150 5450 3100
$Comp
L CP1 C?
U 1 1 5CA8B9B8
P 4100 2050
F 0 "C?" H 4125 2150 50  0000 L CNN
F 1 "CP1" H 4125 1950 50  0000 L CNN
F 2 "" H 4100 2050 50  0001 C CNN
F 3 "" H 4100 2050 50  0001 C CNN
	1    4100 2050
	1    0    0    -1  
$EndComp
$Comp
L CP1 C?
U 1 1 5CA8BDCB
P 7300 2100
F 0 "C?" H 7325 2200 50  0000 L CNN
F 1 "CP1" H 7325 2000 50  0000 L CNN
F 2 "" H 7300 2100 50  0001 C CNN
F 3 "" H 7300 2100 50  0001 C CNN
	1    7300 2100
	1    0    0    -1  
$EndComp
Wire Wire Line
	7300 1950 7300 1350
Connection ~ 7300 1350
Wire Wire Line
	7300 2250 7300 2750
Connection ~ 7300 2750
Wire Wire Line
	4100 1350 4100 1900
Connection ~ 4100 1350
Wire Wire Line
	4100 2200 4100 2750
Connection ~ 4100 2750
Wire Wire Line
	2600 1800 2600 1350
$Comp
L R R?
U 1 1 5CA8D47F
P 7600 2350
F 0 "R?" V 7680 2350 50  0000 C CNN
F 1 "10k" V 7600 2350 50  0000 C CNN
F 2 "" V 7530 2350 50  0001 C CNN
F 3 "" H 7600 2350 50  0001 C CNN
	1    7600 2350
	1    0    0    -1  
$EndComp
$Comp
L R R?
U 1 1 5CA8D485
P 7600 1950
F 0 "R?" V 7680 1950 50  0000 C CNN
F 1 "13k" V 7600 1950 50  0000 C CNN
F 2 "" V 7530 1950 50  0001 C CNN
F 3 "" H 7600 1950 50  0001 C CNN
	1    7600 1950
	1    0    0    -1  
$EndComp
Wire Wire Line
	7600 2100 7600 2200
Wire Wire Line
	7850 2150 7850 2200
$Comp
L C C?
U 1 1 5CA8D48B
P 7850 2350
F 0 "C?" H 7875 2450 50  0000 L CNN
F 1 "0.01u" H 7600 2250 50  0000 L CNN
F 2 "" H 7888 2200 50  0001 C CNN
F 3 "" H 7850 2350 50  0001 C CNN
	1    7850 2350
	-1   0    0    -1  
$EndComp
Connection ~ 2350 2750
Wire Wire Line
	7500 2150 7850 2150
Connection ~ 7600 2150
Wire Wire Line
	7600 1800 7600 1350
Connection ~ 7600 1350
Wire Wire Line
	7600 2500 7600 2750
Connection ~ 7600 2750
Wire Wire Line
	7850 2500 7850 2750
Connection ~ 7850 2750
Wire Wire Line
	7500 2150 7500 3400
Wire Wire Line
	7500 3400 6350 3400
Wire Wire Line
	6350 3400 6350 3550
Wire Wire Line
	5300 1350 3800 1350
Wire Wire Line
	6100 1350 8150 1350
$Comp
L C C?
U 1 1 5CA7AEB9
P 4450 4200
F 0 "C?" H 4475 4300 50  0000 L CNN
F 1 "10n" H 4475 4100 50  0000 L CNN
F 2 "" H 4488 4050 50  0001 C CNN
F 3 "" H 4450 4200 50  0001 C CNN
	1    4450 4200
	0    1    1    0   
$EndComp
$Comp
L R R?
U 1 1 5CA7B054
P 4300 3850
F 0 "R?" V 4380 3850 50  0000 C CNN
F 1 "500" V 4300 3850 50  0000 C CNN
F 2 "" V 4230 3850 50  0001 C CNN
F 3 "" H 4300 3850 50  0001 C CNN
	1    4300 3850
	-1   0    0    1   
$EndComp
$Comp
L R R?
U 1 1 5CA7B12E
P 4600 4500
F 0 "R?" V 4680 4500 50  0000 C CNN
F 1 "500" V 4600 4500 50  0000 C CNN
F 2 "" V 4530 4500 50  0001 C CNN
F 3 "" H 4600 4500 50  0001 C CNN
	1    4600 4500
	-1   0    0    1   
$EndComp
Wire Wire Line
	5150 4900 4600 4900
Wire Wire Line
	4600 4900 4600 4650
Wire Wire Line
	4300 4000 4300 5000
Wire Wire Line
	4300 5000 5250 5000
Wire Wire Line
	5250 5000 5250 4900
Connection ~ 4300 4200
Wire Wire Line
	4300 3650 3450 3650
Wire Wire Line
	3450 3650 3450 1350
Connection ~ 3450 1350
Wire Wire Line
	4600 3400 3850 3400
Wire Wire Line
	3850 3400 3850 1350
Connection ~ 3850 1350
Connection ~ 4600 4200
Wire Wire Line
	4300 3700 4300 3650
Wire Wire Line
	4600 3400 4600 4350
$Comp
L C C?
U 1 1 5CA7D67E
P 7250 4200
F 0 "C?" H 7275 4300 50  0000 L CNN
F 1 "10n" H 7275 4100 50  0000 L CNN
F 2 "" H 7288 4050 50  0001 C CNN
F 3 "" H 7250 4200 50  0001 C CNN
	1    7250 4200
	0    -1   1    0   
$EndComp
$Comp
L R R?
U 1 1 5CA7D684
P 7400 3850
F 0 "R?" V 7480 3850 50  0000 C CNN
F 1 "500" V 7400 3850 50  0000 C CNN
F 2 "" V 7330 3850 50  0001 C CNN
F 3 "" H 7400 3850 50  0001 C CNN
	1    7400 3850
	1    0    0    1   
$EndComp
$Comp
L R R?
U 1 1 5CA7D68A
P 7100 4500
F 0 "R?" V 7180 4500 50  0000 C CNN
F 1 "500" V 7100 4500 50  0000 C CNN
F 2 "" V 7030 4500 50  0001 C CNN
F 3 "" H 7100 4500 50  0001 C CNN
	1    7100 4500
	1    0    0    1   
$EndComp
Wire Wire Line
	7400 4000 7400 5000
Connection ~ 7400 4200
Connection ~ 7100 4200
Wire Wire Line
	7400 5000 6350 5000
Wire Wire Line
	6350 5000 6350 4900
Wire Wire Line
	6450 4900 7100 4900
Wire Wire Line
	7100 4900 7100 4650
Wire Wire Line
	7400 3700 7400 3650
Wire Wire Line
	7400 3650 8500 3650
Wire Wire Line
	8500 3650 8500 1350
$Comp
L R R?
U 1 1 5CA7EC86
P 8300 1350
F 0 "R?" V 8380 1350 50  0000 C CNN
F 1 "10m" V 8300 1350 50  0000 C CNN
F 2 "" V 8230 1350 50  0001 C CNN
F 3 "" H 8300 1350 50  0001 C CNN
	1    8300 1350
	0    1    1    0   
$EndComp
Wire Wire Line
	8450 1350 9500 1350
Wire Wire Line
	8100 1350 8100 3500
Connection ~ 8100 1350
Wire Wire Line
	8100 3500 7100 3500
Connection ~ 8500 1350
$Comp
L CP1 C?
U 1 1 5CA7FC69
P 9200 2100
F 0 "C?" H 9225 2200 50  0000 L CNN
F 1 "CP1" H 9225 2000 50  0000 L CNN
F 2 "" H 9200 2100 50  0001 C CNN
F 3 "" H 9200 2100 50  0001 C CNN
	1    9200 2100
	1    0    0    -1  
$EndComp
Wire Wire Line
	9200 1950 9200 1350
Connection ~ 9200 1350
Wire Wire Line
	9200 2250 9200 2750
Connection ~ 9200 2750
Wire Wire Line
	1700 1350 3500 1350
Wire Wire Line
	1700 2750 9500 2750
$Comp
L Conn_01x02 J?
U 1 1 5CA82B70
P 9800 1950
F 0 "J?" H 9800 2050 50  0000 C CNN
F 1 "PV" H 9800 1750 50  0000 C CNN
F 2 "" H 9800 1950 50  0001 C CNN
F 3 "" H 9800 1950 50  0001 C CNN
	1    9800 1950
	1    0    0    -1  
$EndComp
Wire Wire Line
	9600 1950 9500 1950
Wire Wire Line
	9500 1950 9500 1350
Wire Wire Line
	9600 2050 9500 2050
Wire Wire Line
	9500 2050 9500 2750
$Comp
L C C?
U 1 1 5CA86F13
P 5100 5300
F 0 "C?" H 5125 5400 50  0000 L CNN
F 1 "10n" H 5125 5200 50  0000 L CNN
F 2 "" H 5138 5150 50  0001 C CNN
F 3 "" H 5100 5300 50  0001 C CNN
	1    5100 5300
	-1   0    0    1   
$EndComp
$Comp
L R R?
U 1 1 5CA8701B
P 5350 5300
F 0 "R?" V 5430 5300 50  0000 C CNN
F 1 "40k" V 5350 5300 50  0000 C CNN
F 2 "" V 5280 5300 50  0001 C CNN
F 3 "" H 5350 5300 50  0001 C CNN
	1    5350 5300
	-1   0    0    1   
$EndComp
Wire Wire Line
	5100 5150 5100 5100
Wire Wire Line
	5350 4900 5350 5150
Wire Wire Line
	5350 5450 5350 5500
Wire Wire Line
	5350 5500 5100 5500
Wire Wire Line
	5100 5500 5100 5450
Wire Wire Line
	5250 5500 5250 5550
Connection ~ 5250 5500
$Comp
L GND #PWR?
U 1 1 5CA875AC
P 5250 5550
F 0 "#PWR?" H 5250 5300 50  0001 C CNN
F 1 "GND" H 5250 5400 50  0000 C CNN
F 2 "" H 5250 5550 50  0001 C CNN
F 3 "" H 5250 5550 50  0001 C CNN
	1    5250 5550
	1    0    0    -1  
$EndComp
Connection ~ 5350 5100
$Comp
L C C?
U 1 1 5CA878E7
P 6500 5300
F 0 "C?" H 6525 5400 50  0000 L CNN
F 1 "10n" H 6525 5200 50  0000 L CNN
F 2 "" H 6538 5150 50  0001 C CNN
F 3 "" H 6500 5300 50  0001 C CNN
	1    6500 5300
	1    0    0    1   
$EndComp
$Comp
L R R?
U 1 1 5CA878ED
P 6250 5300
F 0 "R?" V 6330 5300 50  0000 C CNN
F 1 "40k" V 6250 5300 50  0000 C CNN
F 2 "" V 6180 5300 50  0001 C CNN
F 3 "" H 6250 5300 50  0001 C CNN
	1    6250 5300
	1    0    0    1   
$EndComp
Wire Wire Line
	6500 5150 6500 5100
Wire Wire Line
	6250 5100 6700 5100
Wire Wire Line
	6250 4900 6250 5150
Wire Wire Line
	6250 5450 6250 5500
Wire Wire Line
	6250 5500 6500 5500
Wire Wire Line
	6500 5500 6500 5450
Wire Wire Line
	6350 5500 6350 5550
Connection ~ 6350 5500
$Comp
L GND #PWR?
U 1 1 5CA878FB
P 6350 5550
F 0 "#PWR?" H 6350 5300 50  0001 C CNN
F 1 "GND" H 6350 5400 50  0000 C CNN
F 2 "" H 6350 5550 50  0001 C CNN
F 3 "" H 6350 5550 50  0001 C CNN
	1    6350 5550
	-1   0    0    -1  
$EndComp
Connection ~ 6250 5100
Connection ~ 5100 5100
Connection ~ 6500 5100
Wire Wire Line
	5350 5100 4900 5100
Text GLabel 4900 5100 0    60   Input ~ 0
Iin
Text GLabel 3850 6700 2    60   Input ~ 0
Iin
Wire Wire Line
	3850 6700 3800 6700
Text GLabel 3850 6500 2    60   Input ~ 0
Iout
Wire Wire Line
	3850 6500 3800 6500
Text GLabel 6700 5100 2    60   Input ~ 0
Iout
Wire Wire Line
	3800 6600 4950 6600
Wire Wire Line
	4950 6600 4950 6650
Wire Wire Line
	4950 6650 5150 6650
Wire Wire Line
	3800 6800 4100 6800
Wire Wire Line
	4100 6800 4100 6700
Wire Wire Line
	4100 6700 5600 6700
Wire Wire Line
	4150 7000 4150 6750
Wire Wire Line
	4150 6750 6050 6750
$Comp
L VCC #PWR?
U 1 1 5CA8B8AE
P 1700 1300
F 0 "#PWR?" H 1700 1150 50  0001 C CNN
F 1 "VCC" H 1700 1450 50  0000 C CNN
F 2 "" H 1700 1300 50  0001 C CNN
F 3 "" H 1700 1300 50  0001 C CNN
	1    1700 1300
	1    0    0    -1  
$EndComp
Wire Wire Line
	1700 1350 1700 1300
$Comp
L GND #PWR?
U 1 1 5CA8BDCA
P 1700 2800
F 0 "#PWR?" H 1700 2550 50  0001 C CNN
F 1 "GND" H 1700 2650 50  0000 C CNN
F 2 "" H 1700 2800 50  0001 C CNN
F 3 "" H 1700 2800 50  0001 C CNN
	1    1700 2800
	1    0    0    -1  
$EndComp
Wire Wire Line
	1700 2800 1700 2750
Wire Wire Line
	2600 2500 2600 2750
Connection ~ 2600 2750
Wire Wire Line
	7100 3500 7100 4350
Text GLabel 5900 3150 1    60   Input ~ 0
5VDC
Wire Wire Line
	5900 3500 5900 3150
$EndSCHEMATC
