Added Component: Designator=LED?(XPEBTT01000000Y80)
Add component (AddParameter): Name = "Datasheet Link"; Value = "https://www.cree.com/led-components/media/documents/XLampXPE2.pdf"; VariantName = "[No Variations]"
Add component (AddParameter): Name = "Height"; Value = "2.26mm"; VariantName = "[No Variations]"
Add component (AddParameter): Name = "Manufacturer_Name"; Value = "Cree"; VariantName = "[No Variations]"
Add component (AddParameter): Name = "Manufacturer_Part_Number"; Value = "XPEBGR-L1-0000-00G03"; VariantName = "[No Variations]"
Add component (AddParameter): Name = "Mouser Part Number"; Value = "941-XPEBGRL100G03"; VariantName = "[No Variations]"
Add component (AddParameter): Name = "Mouser Price/Stock"; Value = "https://www.mouser.com/Search/Refine.aspx?Keyword=941-XPEBGRL100G03"; VariantName = "[No Variations]"
Add component (AddParameter): Name = "RS Part Number"; Value = ""; VariantName = "[No Variations]"
Add component (AddParameter): Name = "RS Price/Stock"; Value = ""; VariantName = "[No Variations]"
Added Pin To Net: NetName=NetLED?_1 Pin=LED?-1
Added Pin To Net: NetName=NetLED?_1 Pin=Q1-3
Added Net: Name=NetLED?_1
Added Pin To Net: NetName=NetLED?_2 Pin=LED?-2
Added Pin To Net: NetName=NetLED?_2 Pin=R1-1
Added Net: Name=NetLED?_2
Added Member To Class: ClassName=Sheet1 Member=Component LED? XPEBGR-L1-0000-00G03
