Change Component Footprint: Designator=P4 Old Footprint=HDR2X9 New Footprint=HDR2X7
Change Component Comment: Designator=P4 Old Comment=Header 9X2 New Comment=Header 7X2
Change Component Designator: OldDesignator=LED1 NewDesignator=LED?
Change Component Designator: OldDesignator=R1 NewDesignator=R?
Change Pin Designator/Name:  Old Designator=P4-1 Old Name=1 New Designator =3 New Name=3
Change Pin Designator/Name:  Old Designator=P4-2 Old Name=2 New Designator =8 New Name=8
Change Pin Designator/Name:  Old Designator=P4-10 Old Name=10 New Designator =12 New Name=12
Change Pin Designator/Name:  Old Designator=P4-14 Old Name=14 New Designator =16 New Name=16
Change Pin Designator/Name:  Old Designator=P4-4 Old Name=4 New Designator =2 New Name=2
Change Pin Designator/Name:  Old Designator=P4-16 Old Name=16 New Designator =14 New Name=14
Change Pin Designator/Name:  Old Designator=P4-3 Old Name=3 New Designator =1 New Name=1
Change Pin Designator/Name:  Old Designator=P4-12 Old Name=12 New Designator =10 New Name=10
Change Pin Designator/Name:  Old Designator=P4-8 Old Name=8 New Designator =6 New Name=6
Change Pin Designator/Name:  Old Designator=P4-6 Old Name=6 New Designator =4 New Name=4
Change Pin Designator/Name:  Old Designator=U-Z6 Old Name=P1.06 New Designator =P1.00 New Name=12
Change Pin Designator/Name:  Old Designator=U-B6 Old Name=P1.03 New Designator =P1.04 New Name=C6
Change Pin Designator/Name:  Old Designator=U-C6 Old Name=P1.04 New Designator =P1.06 New Name=Z6
Change Pin Designator/Name:  Old Designator=U-12 Old Name=P1.00 New Designator =P1.01 New Name=D5
Change Pin Designator/Name:  Old Designator=U-D5 Old Name=P1.01 New Designator =P1.02 New Name=C5
Change Pin Designator/Name:  Old Designator=U-C5 Old Name=P1.02 New Designator =P1.03 New Name=B6
