# BRON: KONINKLIJK NEDERLANDS METEOROLOGISCH INSTITUUT (KNMI)
# Opmerking: door stationsverplaatsingen en veranderingen in waarneemmethodieken zijn deze tijdreeksen van dagwaarden mogelijk inhomogeen! Dat betekent dat deze reeks van gemeten waarden niet geschikt is voor trendanalyse. Voor studies naar klimaatverandering verwijzen we naar de gehomogeniseerde reeks maandtemperaturen van De Bilt <http://www.knmi.nl/kennis-en-datacentrum/achtergrond/gehomogeniseerde-reeks-maandtemperaturen-de-bilt> of de Centraal Nederland Temperatuur <http://www.knmi.nl/kennis-en-datacentrum/achtergrond/centraal-nederland-temperatuur-cnt>.
# 
# 
# STN      LON(east)   LAT(north)     ALT(m)  NAME
# 344:         4.447       51.962      -4.30  ROTTERDAM
# 
# YYYYMMDD = Datum (YYYY=jaar MM=maand DD=dag); 
# Q        = Globale straling (in J/cm2); 
# 
# STN,YYYYMMDD,    Q
# 
  344,20180323,  593
  344,20180324, 1004
  344,20180325, 1164
  344,20180326, 1337
  344,20180327,  481
  344,20180328,  282
  344,20180329, 1372
  344,20180330,  950
  344,20180331,  801
  344,20180401,  404
  344,20180402,  771
  344,20180403, 1152
  344,20180404,  914
  344,20180405, 1256
  344,20180406, 1899
  344,20180407, 1782
  344,20180408, 1519
  344,20180409,  882
  344,20180410, 1400
  344,20180411,  848
  344,20180412,  585
  344,20180413,  989
  344,20180414, 1374
  344,20180415, 1261
  344,20180416, 1833
  344,20180417, 2042
  344,20180418, 2166
  344,20180419, 2189
  344,20180420, 2190
  344,20180421, 2214
  344,20180422, 1884
  344,20180423, 1973
  344,20180424,  941
  344,20180425, 1537
  344,20180426, 1940
  344,20180427, 1146
  344,20180428,  694
  344,20180429,  481
  344,20180430,  333
  344,20180501, 2017
  344,20180502, 2229
  344,20180503, 2583
  344,20180504, 2586
  344,20180505, 2621
  344,20180506, 2668
  344,20180507, 2669
  344,20180508, 2584
  344,20180509, 2399
  344,20180510, 1890
  344,20180511, 2392
  344,20180512, 2018
  344,20180513, 1149
  344,20180514, 2322
  344,20180515, 2676
  344,20180516, 2068
  344,20180517, 2714
  344,20180518, 1625
  344,20180519,  653
  344,20180520, 2626
  344,20180521, 2557
  344,20180522, 1551
  344,20180523, 1337
  344,20180524,  908
  344,20180525, 2077
  344,20180526, 2613
  344,20180527, 1488
  344,20180528, 2555
  344,20180529, 1957
  344,20180530, 1966
  344,20180531, 1913
  344,20180601, 1020
  344,20180602,  775
  344,20180603, 2668
  344,20180604, 1765
  344,20180605, 2014
  344,20180606, 2908
  344,20180607, 2145
  344,20180608, 1291
  344,20180609, 2321
  344,20180610, 2581
  344,20180611, 2867
  344,20180612,  895
  344,20180613, 2408
  344,20180614, 1239
  344,20180615, 2165
  344,20180616, 1801
  344,20180617, 1540
  344,20180618, 1094
  344,20180619, 1064
  344,20180620, 1909
  344,20180621, 1897
  344,20180622, 1167
  344,20180623, 2554
  344,20180624, 2226
  344,20180625, 2482
  344,20180626, 3016
  344,20180627, 2814
  344,20180628, 2913
  344,20180629, 2969
  344,20180630, 2990
  344,20180701, 3055
  344,20180702, 3070
  344,20180703, 2990
  344,20180704, 2743
  344,20180705, 2929
  344,20180706, 2506
  344,20180707, 2484
  344,20180708, 2829
  344,20180709, 1831
  344,20180710,  694
  344,20180711, 2005
  344,20180712, 2586
  344,20180713, 2732
  344,20180714, 2830
  344,20180715, 2763
  344,20180716, 2391
  344,20180717, 2722
  344,20180718, 1989
  344,20180719, 2500
  344,20180720, 2394
  344,20180721, 2646
  344,20180722, 2394
  344,20180723, 2651
  344,20180724, 2445
  344,20180725, 1868
  344,20180726, 2250
  344,20180727, 2067
  344,20180728, 2110
  344,20180729, 1436
  344,20180730, 1884
  344,20180731, 2254
  344,20180801, 2254
  344,20180802, 2518
  344,20180803, 2484
  344,20180804, 2189
  344,20180805, 2541
  344,20180806, 2460
  344,20180807, 2131
  344,20180808, 1184
  344,20180809,  542
  344,20180810, 1672
  344,20180811, 2067
  344,20180812, 1545
  344,20180813, 1083
  344,20180814, 1413
  344,20180815,  729
  344,20180816, 1022
  344,20180817, 2277
  344,20180818, 1003
  344,20180819,  909
  344,20180820, 1491
  344,20180821, 1417
  344,20180822, 1837
  344,20180823,  789
  344,20180824, 1671
  344,20180825, 1455
  344,20180826, 1375
  344,20180827,  792
  344,20180828, 1021
  344,20180829,  482
  344,20180830, 1664
  344,20180831, 1719
  344,20180901, 1410
  344,20180902, 1888
  344,20180903,  796
  344,20180904,  801
  344,20180905,  992
  344,20180906,  641
  344,20180907, 1706
  344,20180908, 1092
  344,20180909, 1214
  344,20180910, 1091
  344,20180911, 1175
  344,20180912,  470
  344,20180913, 1597
  344,20180914, 1285
  344,20180915, 1462
  344,20180916, 1196
  344,20180917, 1587
  344,20180918, 1539
  344,20180919, 1025
  344,20180920, 1026
  344,20180921, 1123
  344,20180922,  504
  344,20180923,  276
