\babel@toc {dutch}{}
\contentsline {chapter}{\numberline {1.}kaas}{3}%
\contentsline {section}{\numberline {1.1}je moeder}{3}%
\contentsline {subsection}{\numberline {1.1.1}flamingo}{3}%
\contentsline {subsubsection}{blauwe teen}{3}%
