\relax 
\@nameuse{bbl@beforestart}
\catcode `"\active 
\babel@aux{dutch}{}
\@writefile{toc}{\contentsline {chapter}{\numberline {1.}kaas}{3}\protected@file@percent }
\@writefile{lof}{\addvspace {10pt}}
\@writefile{lot}{\addvspace {10pt}}
\@writefile{toc}{\contentsline {section}{\numberline {1.1}je moeder}{3}\protected@file@percent }
\@writefile{toc}{\contentsline {subsection}{\numberline {1.1.1}flamingo}{3}\protected@file@percent }
\@writefile{toc}{\contentsline {subsubsection}{blauwe teen}{3}\protected@file@percent }
