PCBNEW-LibModule-V1  2020-04-15 12:55:52
# encoding utf-8
Units mm
$INDEX
SOIC127P790X216-8N
$EndINDEX
$MODULE SOIC127P790X216-8N
Po 0 0 0 15 5e96f648 00000000 ~~
Li SOIC127P790X216-8N
Cd 8-SOP (200mil)
Kw Integrated Circuit
Sc 0
At SMD
AR 
Op 0 0 0
T0 0 0 1.27 1.27 0 0.254 N V 21 N "IC**"
T1 0 0 1.27 1.27 0 0.254 N I 21 N "SOIC127P790X216-8N"
DS -4.675 -2.915 4.675 -2.915 0.05 24
DS 4.675 -2.915 4.675 2.915 0.05 24
DS 4.675 2.915 -4.675 2.915 0.05 24
DS -4.675 2.915 -4.675 -2.915 0.05 24
DS -2.64 -2.615 2.64 -2.615 0.1 24
DS 2.64 -2.615 2.64 2.615 0.1 24
DS 2.64 2.615 -2.64 2.615 0.1 24
DS -2.64 2.615 -2.64 -2.615 0.1 24
DS -2.64 -1.345 -1.37 -2.615 0.1 24
DS -2.425 -2.615 2.425 -2.615 0.2 21
DS 2.425 -2.615 2.425 2.615 0.2 21
DS 2.425 2.615 -2.425 2.615 0.2 21
DS -2.425 2.615 -2.425 -2.615 0.2 21
DS -4.425 -2.605 -2.775 -2.605 0.2 21
$PAD
Po -3.6 -1.905
Sh "1" R 0.7 1.65 0 0 900
At SMD N 00888000
Ne 0 ""
$EndPAD
$PAD
Po -3.6 -0.635
Sh "2" R 0.7 1.65 0 0 900
At SMD N 00888000
Ne 0 ""
$EndPAD
$PAD
Po -3.6 0.635
Sh "3" R 0.7 1.65 0 0 900
At SMD N 00888000
Ne 0 ""
$EndPAD
$PAD
Po -3.6 1.905
Sh "4" R 0.7 1.65 0 0 900
At SMD N 00888000
Ne 0 ""
$EndPAD
$PAD
Po 3.6 1.905
Sh "5" R 0.7 1.65 0 0 900
At SMD N 00888000
Ne 0 ""
$EndPAD
$PAD
Po 3.6 0.635
Sh "6" R 0.7 1.65 0 0 900
At SMD N 00888000
Ne 0 ""
$EndPAD
$PAD
Po 3.6 -0.635
Sh "7" R 0.7 1.65 0 0 900
At SMD N 00888000
Ne 0 ""
$EndPAD
$PAD
Po 3.6 -1.905
Sh "8" R 0.7 1.65 0 0 900
At SMD N 00888000
Ne 0 ""
$EndPAD
$EndMODULE SOIC127P790X216-8N
$EndLIBRARY
